run1/run1_ch1_20210318180346880.csv

Model,MSO64
Waveform Type,ANALOG
Horizontal Units,s
Sample Interval,8.000000e-09
Record Length,1250
Zero Index,624.085156
Vertical Units,V

TIME,CH1
-4.992681e-06,5.000000e-02
-4.984681e-06,-1.875000e-02
-4.976681e-06,2.500000e-03
-4.968681e-06,1.250000e-02
-4.960681e-06,7.500000e-03
-4.952681e-06,-3.000000e-02
-4.944681e-06,1.750000e-02
-4.936681e-06,-3.000000e-02
-4.928681e-06,5.250000e-02
-4.920681e-06,-2.000000e-02
-4.912681e-06,1.250000e-02
-4.904681e-06,-1.500000e-02
-4.896681e-06,2.125000e-02
-4.888681e-06,-2.125000e-02
-4.880681e-06,1.625000e-02
-4.872681e-06,5.000000e-03
-4.864681e-06,1.000000e-02
-4.856681e-06,5.000000e-03
-4.848681e-06,8.750000e-03
-4.840681e-06,-7.500000e-03
-4.832681e-06,-5.000000e-03
-4.824681e-06,-3.500000e-02
-4.816681e-06,2.500000e-03
-4.808681e-06,-3.375000e-02
-4.800681e-06,1.875000e-02
-4.792681e-06,-1.875000e-02
-4.784681e-06,1.750000e-02
-4.776681e-06,-1.125000e-02
-4.768681e-06,-5.000000e-03
-4.760681e-06,0.000000e+00
-4.752681e-06,5.000000e-03
-4.744681e-06,-7.500000e-03
-4.736681e-06,6.250000e-03
-4.728681e-06,1.250000e-02
-4.720681e-06,2.000000e-02
-4.712681e-06,-2.000000e-02
-4.704681e-06,2.125000e-02
-4.696681e-06,-1.875000e-02
-4.688681e-06,1.500000e-02
-4.680681e-06,-1.500000e-02
-4.672681e-06,2.875000e-02
-4.664681e-06,-3.125000e-02
-4.656681e-06,2.500000e-02
-4.648681e-06,-2.000000e-02
-4.640681e-06,1.250000e-02
-4.632681e-06,-1.125000e-02
-4.624681e-06,-6.250000e-03
-4.616681e-06,6.250000e-03
-4.608681e-06,1.875000e-02
-4.600681e-06,-2.250000e-02
-4.592681e-06,2.625000e-02
-4.584681e-06,1.250000e-03
-4.576681e-06,1.000000e-02
-4.568681e-06,-3.000000e-02
-4.560681e-06,5.000000e-03
-4.552681e-06,-1.125000e-02
-4.544681e-06,1.750000e-02
-4.536681e-06,-2.875000e-02
-4.528681e-06,3.250000e-02
-4.520681e-06,-2.250000e-02
-4.512681e-06,1.250000e-02
-4.504681e-06,-7.500000e-03
-4.496681e-06,1.000000e-02
-4.488681e-06,1.125000e-02
-4.480681e-06,4.000000e-02
-4.472681e-06,-1.875000e-02
-4.464681e-06,3.250000e-02
-4.456681e-06,-1.000000e-02
-4.448681e-06,3.375000e-02
-4.440681e-06,-2.625000e-02
-4.432681e-06,2.750000e-02
-4.424681e-06,-2.625000e-02
-4.416681e-06,3.875000e-02
-4.408681e-06,-7.500000e-03
-4.400681e-06,2.750000e-02
-4.392681e-06,-7.500000e-03
-4.384681e-06,-7.500000e-03
-4.376681e-06,-2.125000e-02
-4.368681e-06,0.000000e+00
-4.360681e-06,-2.500000e-03
-4.352681e-06,2.250000e-02
-4.344681e-06,1.250000e-03
-4.336681e-06,2.500000e-03
-4.328681e-06,-1.375000e-02
-4.320681e-06,1.750000e-02
-4.312681e-06,-3.875000e-02
-4.304681e-06,1.875000e-02
-4.296681e-06,-1.000000e-02
-4.288681e-06,2.875000e-02
-4.280681e-06,-1.250000e-03
-4.272681e-06,2.625000e-02
-4.264681e-06,-1.250000e-03
-4.256681e-06,3.625000e-02
-4.248681e-06,-1.375000e-02
-4.240681e-06,2.375000e-02
-4.232681e-06,-5.000000e-03
-4.224681e-06,1.625000e-02
-4.216681e-06,-1.000000e-02
-4.208681e-06,1.000000e-02
-4.200681e-06,-1.750000e-02
-4.192681e-06,1.625000e-02
-4.184681e-06,3.750000e-03
-4.176681e-06,3.750000e-02
-4.168681e-06,-2.500000e-03
-4.160681e-06,1.875000e-02
-4.152681e-06,-1.625000e-02
-4.144681e-06,2.750000e-02
-4.136681e-06,-1.375000e-02
-4.128681e-06,3.625000e-02
-4.120681e-06,-1.875000e-02
-4.112681e-06,1.500000e-02
-4.104681e-06,6.250000e-03
-4.096681e-06,2.500000e-02
-4.088681e-06,-1.500000e-02
-4.080681e-06,2.375000e-02
-4.072681e-06,-4.375000e-02
-4.064681e-06,2.375000e-02
-4.056681e-06,-2.875000e-02
-4.048681e-06,6.250000e-03
-4.040681e-06,-1.000000e-02
-4.032681e-06,2.625000e-02
-4.024681e-06,-1.625000e-02
-4.016681e-06,2.500000e-02
-4.008681e-06,-5.000000e-03
-4.000681e-06,2.875000e-02
-3.992681e-06,-2.000000e-02
-3.984681e-06,2.500000e-02
-3.976681e-06,2.625000e-02
-3.968681e-06,1.500000e-02
-3.960681e-06,1.250000e-03
-3.952681e-06,2.500000e-03
-3.944681e-06,-2.125000e-02
-3.936681e-06,3.750000e-02
-3.928681e-06,-5.000000e-03
-3.920681e-06,1.125000e-02
-3.912681e-06,-1.000000e-02
-3.904681e-06,4.000000e-02
-3.896681e-06,5.000000e-03
-3.888681e-06,2.750000e-02
-3.880681e-06,-2.375000e-02
-3.872681e-06,2.750000e-02
-3.864681e-06,-3.375000e-02
-3.856681e-06,1.250000e-02
-3.848681e-06,-8.750000e-03
-3.840681e-06,2.000000e-02
-3.832681e-06,-3.750000e-03
-3.824681e-06,2.250000e-02
-3.816681e-06,-6.250000e-03
-3.808681e-06,7.500000e-03
-3.800681e-06,-1.250000e-02
-3.792681e-06,2.250000e-02
-3.784681e-06,-2.250000e-02
-3.776681e-06,1.875000e-02
-3.768681e-06,-2.000000e-02
-3.760681e-06,1.250000e-03
-3.752681e-06,-1.125000e-02
-3.744681e-06,1.125000e-02
-3.736681e-06,-2.000000e-02
-3.728681e-06,1.625000e-02
-3.720681e-06,-1.000000e-02
-3.712681e-06,8.750000e-03
-3.704681e-06,-7.500000e-03
-3.696681e-06,1.375000e-02
-3.688681e-06,-6.250000e-03
-3.680681e-06,1.000000e-02
-3.672681e-06,-3.375000e-02
-3.664681e-06,3.000000e-02
-3.656681e-06,-1.375000e-02
-3.648681e-06,5.125000e-02
-3.640681e-06,-1.625000e-02
-3.632681e-06,1.125000e-02
-3.624681e-06,-3.000000e-02
-3.616681e-06,1.625000e-02
-3.608681e-06,-7.500000e-03
-3.600681e-06,3.125000e-02
-3.592681e-06,-5.000000e-03
-3.584681e-06,2.000000e-02
-3.576681e-06,6.250000e-03
-3.568681e-06,2.375000e-02
-3.560681e-06,0.000000e+00
-3.552681e-06,2.750000e-02
-3.544681e-06,-2.000000e-02
-3.536681e-06,3.500000e-02
-3.528681e-06,-1.875000e-02
-3.520681e-06,2.500000e-02
-3.512681e-06,-1.250000e-03
-3.504681e-06,7.500000e-03
-3.496681e-06,-1.875000e-02
-3.488681e-06,1.000000e-02
-3.480681e-06,-2.250000e-02
-3.472681e-06,2.875000e-02
-3.464681e-06,-6.250000e-03
-3.456681e-06,3.875000e-02
-3.448681e-06,-1.375000e-02
-3.440681e-06,3.375000e-02
-3.432681e-06,-1.250000e-02
-3.424681e-06,3.750000e-03
-3.416681e-06,-3.625000e-02
-3.408681e-06,3.000000e-02
-3.400681e-06,-3.375000e-02
-3.392681e-06,1.875000e-02
-3.384681e-06,5.000000e-03
-3.376681e-06,1.875000e-02
-3.368681e-06,-3.375000e-02
-3.360681e-06,7.500000e-03
-3.352681e-06,-3.750000e-03
-3.344681e-06,2.000000e-02
-3.336681e-06,-2.000000e-02
-3.328681e-06,2.875000e-02
-3.320681e-06,7.500000e-03
-3.312681e-06,3.500000e-02
-3.304681e-06,-1.250000e-02
-3.296681e-06,2.000000e-02
-3.288681e-06,-3.125000e-02
-3.280681e-06,4.000000e-02
-3.272681e-06,-8.750000e-03
-3.264681e-06,2.125000e-02
-3.256681e-06,3.750000e-03
-3.248681e-06,2.375000e-02
-3.240681e-06,-2.625000e-02
-3.232681e-06,3.750000e-02
-3.224681e-06,2.500000e-03
-3.216681e-06,3.750000e-03
-3.208681e-06,-1.750000e-02
-3.200681e-06,2.625000e-02
-3.192681e-06,-1.250000e-03
-3.184681e-06,1.250000e-02
-3.176681e-06,-3.125000e-02
-3.168681e-06,2.625000e-02
-3.160681e-06,-3.125000e-02
-3.152681e-06,3.000000e-02
-3.144681e-06,-1.500000e-02
-3.136681e-06,1.375000e-02
-3.128681e-06,-3.250000e-02
-3.120681e-06,1.500000e-02
-3.112681e-06,-7.500000e-03
-3.104681e-06,1.000000e-02
-3.096681e-06,-2.375000e-02
-3.088681e-06,1.500000e-02
-3.080681e-06,-6.250000e-03
-3.072681e-06,1.750000e-02
-3.064681e-06,-3.375000e-02
-3.056681e-06,0.000000e+00
-3.048681e-06,-1.750000e-02
-3.040681e-06,2.625000e-02
-3.032681e-06,-3.500000e-02
-3.024681e-06,3.625000e-02
-3.016681e-06,-7.500000e-03
-3.008681e-06,3.250000e-02
-3.000681e-06,-1.375000e-02
-2.992681e-06,2.250000e-02
-2.984681e-06,7.500000e-03
-2.976681e-06,1.500000e-02
-2.968681e-06,-1.375000e-02
-2.960681e-06,7.500000e-03
-2.952681e-06,3.750000e-03
-2.944681e-06,8.750000e-03
-2.936681e-06,2.500000e-03
-2.928681e-06,2.500000e-02
-2.920681e-06,-2.125000e-02
-2.912681e-06,1.375000e-02
-2.904681e-06,-1.875000e-02
-2.896681e-06,5.375000e-02
-2.888681e-06,-1.000000e-02
-2.880681e-06,1.000000e-02
-2.872681e-06,-2.500000e-02
-2.864681e-06,3.250000e-02
-2.856681e-06,-2.875000e-02
-2.848681e-06,2.375000e-02
-2.840681e-06,1.000000e-02
-2.832681e-06,1.125000e-02
-2.824681e-06,-5.000000e-03
-2.816681e-06,1.500000e-02
-2.808681e-06,-8.750000e-03
-2.800681e-06,2.875000e-02
-2.792681e-06,-5.000000e-03
-2.784681e-06,6.250000e-03
-2.776681e-06,3.750000e-03
-2.768681e-06,2.125000e-02
-2.760681e-06,-3.000000e-02
-2.752681e-06,2.625000e-02
-2.744681e-06,-2.250000e-02
-2.736681e-06,1.250000e-02
-2.728681e-06,-1.250000e-03
-2.720681e-06,1.875000e-02
-2.712681e-06,-2.000000e-02
-2.704681e-06,8.750000e-03
-2.696681e-06,-1.250000e-03
-2.688681e-06,1.750000e-02
-2.680681e-06,-1.500000e-02
-2.672681e-06,-1.250000e-03
-2.664681e-06,-2.125000e-02
-2.656681e-06,1.000000e-02
-2.648681e-06,-1.875000e-02
-2.640681e-06,3.750000e-03
-2.632681e-06,-1.500000e-02
-2.624681e-06,2.625000e-02
-2.616681e-06,-1.375000e-02
-2.608681e-06,1.750000e-02
-2.600681e-06,-1.375000e-02
-2.592681e-06,2.500000e-02
-2.584681e-06,-2.250000e-02
-2.576681e-06,8.750000e-03
-2.568681e-06,-5.000000e-03
-2.560681e-06,8.750000e-03
-2.552681e-06,-5.000000e-03
-2.544681e-06,1.625000e-02
-2.536681e-06,-7.500000e-03
-2.528681e-06,2.250000e-02
-2.520681e-06,-1.000000e-02
-2.512681e-06,8.750000e-03
-2.504681e-06,-7.500000e-03
-2.496681e-06,3.375000e-02
-2.488681e-06,-2.750000e-02
-2.480681e-06,2.500000e-02
-2.472681e-06,-6.250000e-03
-2.464681e-06,1.750000e-02
-2.456681e-06,-2.125000e-02
-2.448681e-06,2.750000e-02
-2.440681e-06,-1.875000e-02
-2.432681e-06,1.875000e-02
-2.424681e-06,0.000000e+00
-2.416681e-06,1.875000e-02
-2.408681e-06,-3.250000e-02
-2.400681e-06,2.875000e-02
-2.392681e-06,-3.625000e-02
-2.384681e-06,2.500000e-02
-2.376681e-06,-5.000000e-03
-2.368681e-06,2.375000e-02
-2.360681e-06,-1.375000e-02
-2.352681e-06,2.000000e-02
-2.344681e-06,5.000000e-03
-2.336681e-06,3.375000e-02
-2.328681e-06,-2.500000e-02
-2.320681e-06,5.000000e-03
-2.312681e-06,-3.750000e-03
-2.304681e-06,4.625000e-02
-2.296681e-06,-1.625000e-02
-2.288681e-06,2.375000e-02
-2.280681e-06,-5.000000e-03
-2.272681e-06,2.000000e-02
-2.264681e-06,-1.125000e-02
-2.256681e-06,2.250000e-02
-2.248681e-06,-1.750000e-02
-2.240681e-06,3.000000e-02
-2.232681e-06,-1.125000e-02
-2.224681e-06,3.750000e-02
-2.216681e-06,-2.250000e-02
-2.208681e-06,-1.250000e-03
-2.200681e-06,-1.250000e-03
-2.192681e-06,2.250000e-02
-2.184681e-06,2.500000e-03
-2.176681e-06,1.875000e-02
-2.168681e-06,-2.250000e-02
-2.160681e-06,1.875000e-02
-2.152681e-06,-2.000000e-02
-2.144681e-06,4.000000e-02
-2.136681e-06,-2.625000e-02
-2.128681e-06,3.375000e-02
-2.120681e-06,-1.125000e-02
-2.112681e-06,3.125000e-02
-2.104681e-06,-1.375000e-02
-2.096681e-06,2.250000e-02
-2.088681e-06,-2.375000e-02
-2.080681e-06,7.500000e-03
-2.072681e-06,-3.625000e-02
-2.064681e-06,1.500000e-02
-2.056681e-06,1.000000e-02
-2.048681e-06,2.500000e-02
-2.040681e-06,-1.625000e-02
-2.032681e-06,1.625000e-02
-2.024681e-06,-8.750000e-03
-2.016681e-06,1.500000e-02
-2.008681e-06,-1.750000e-02
-2.000681e-06,2.000000e-02
-1.992681e-06,-2.875000e-02
-1.984681e-06,3.375000e-02
-1.976681e-06,-1.250000e-03
-1.968681e-06,2.000000e-02
-1.960681e-06,-3.375000e-02
-1.952681e-06,3.500000e-02
-1.944681e-06,-1.875000e-02
-1.936681e-06,2.500000e-02
-1.928681e-06,7.500000e-03
-1.920681e-06,3.500000e-02
-1.912681e-06,-1.125000e-02
-1.904681e-06,1.875000e-02
-1.896681e-06,-1.000000e-02
-1.888681e-06,2.750000e-02
-1.880681e-06,-3.000000e-02
-1.872681e-06,-6.250000e-03
-1.864681e-06,-2.500000e-03
-1.856681e-06,3.625000e-02
-1.848681e-06,-2.125000e-02
-1.840681e-06,3.000000e-02
-1.832681e-06,-1.125000e-02
-1.824681e-06,3.750000e-03
-1.816681e-06,1.125000e-02
-1.808681e-06,2.500000e-03
-1.800681e-06,1.250000e-03
-1.792681e-06,1.125000e-02
-1.784681e-06,-1.125000e-02
-1.776681e-06,2.625000e-02
-1.768681e-06,-1.625000e-02
-1.760681e-06,2.250000e-02
-1.752681e-06,-3.625000e-02
-1.744681e-06,1.125000e-02
-1.736681e-06,-3.375000e-02
-1.728681e-06,2.875000e-02
-1.720681e-06,-2.250000e-02
-1.712681e-06,2.125000e-02
-1.704681e-06,-2.125000e-02
-1.696681e-06,1.875000e-02
-1.688681e-06,-3.000000e-02
-1.680681e-06,1.375000e-02
-1.672681e-06,5.000000e-03
-1.664681e-06,2.875000e-02
-1.656681e-06,-8.750000e-03
-1.648681e-06,1.625000e-02
-1.640681e-06,-2.125000e-02
-1.632681e-06,-3.750000e-03
-1.624681e-06,-8.750000e-03
-1.616681e-06,2.000000e-02
-1.608681e-06,-2.625000e-02
-1.600681e-06,3.250000e-02
-1.592681e-06,-2.500000e-02
-1.584681e-06,3.375000e-02
-1.576681e-06,-8.750000e-03
-1.568681e-06,2.500000e-02
-1.560681e-06,-3.750000e-03
-1.552681e-06,1.250000e-02
-1.544681e-06,-2.375000e-02
-1.536681e-06,3.000000e-02
-1.528681e-06,-6.250000e-03
-1.520681e-06,3.250000e-02
-1.512681e-06,7.500000e-03
-1.504681e-06,1.000000e-02
-1.496681e-06,-2.500000e-02
-1.488681e-06,3.125000e-02
-1.480681e-06,-2.125000e-02
-1.472681e-06,3.500000e-02
-1.464681e-06,-1.750000e-02
-1.456681e-06,6.250000e-03
-1.448681e-06,-1.375000e-02
-1.440681e-06,1.250000e-02
-1.432681e-06,-1.125000e-02
-1.424681e-06,0.000000e+00
-1.416681e-06,-7.500000e-03
-1.408681e-06,1.000000e-02
-1.400681e-06,-6.250000e-03
-1.392681e-06,1.625000e-02
-1.384681e-06,-2.875000e-02
-1.376681e-06,7.500000e-03
-1.368681e-06,-2.500000e-02
-1.360681e-06,2.125000e-02
-1.352681e-06,1.250000e-03
-1.344681e-06,2.250000e-02
-1.336681e-06,-5.000000e-03
-1.328681e-06,1.250000e-02
-1.320681e-06,1.000000e-02
-1.312681e-06,5.000000e-02
-1.304681e-06,-2.125000e-02
-1.296681e-06,3.250000e-02
-1.288681e-06,2.000000e-02
-1.280681e-06,3.125000e-02
-1.272681e-06,1.125000e-02
-1.264681e-06,1.500000e-02
-1.256681e-06,-2.250000e-02
-1.248681e-06,8.750000e-03
-1.240681e-06,-1.375000e-02
-1.232681e-06,4.250000e-02
-1.224681e-06,-8.750000e-03
-1.216681e-06,3.875000e-02
-1.208681e-06,-3.000000e-02
-1.200681e-06,2.000000e-02
-1.192681e-06,-1.000000e-02
-1.184681e-06,1.250000e-03
-1.176681e-06,-1.125000e-02
-1.168681e-06,-2.500000e-03
-1.160681e-06,-1.500000e-02
-1.152681e-06,2.375000e-02
-1.144681e-06,-2.500000e-03
-1.136681e-06,1.250000e-02
-1.128681e-06,-1.625000e-02
-1.120681e-06,1.750000e-02
-1.112681e-06,-2.625000e-02
-1.104681e-06,2.000000e-02
-1.096681e-06,-1.125000e-02
-1.088681e-06,3.875000e-02
-1.080681e-06,-2.625000e-02
-1.072681e-06,2.000000e-02
-1.064681e-06,-1.375000e-02
-1.056681e-06,7.500000e-03
-1.048681e-06,-3.750000e-03
-1.040681e-06,0.000000e+00
-1.032681e-06,-1.125000e-02
-1.024681e-06,2.250000e-02
-1.016681e-06,-2.750000e-02
-1.008681e-06,1.625000e-02
-1.000681e-06,-6.250000e-03
-9.926812e-07,2.000000e-02
-9.846812e-07,-3.750000e-03
-9.766812e-07,1.625000e-02
-9.686812e-07,-2.375000e-02
-9.606812e-07,2.750000e-02
-9.526812e-07,-8.750000e-03
-9.446812e-07,3.125000e-02
-9.366812e-07,-1.250000e-03
-9.286812e-07,3.875000e-02
-9.206812e-07,-1.625000e-02
-9.126812e-07,2.000000e-02
-9.046812e-07,-3.000000e-02
-8.966812e-07,1.625000e-02
-8.886812e-07,1.250000e-03
-8.806812e-07,-6.250000e-03
-8.726812e-07,-2.500000e-03
-8.646812e-07,-1.250000e-03
-8.566812e-07,-4.750000e-02
-8.486812e-07,2.625000e-02
-8.406812e-07,-1.000000e-02
-8.326812e-07,2.375000e-02
-8.246812e-07,-3.125000e-02
-8.166812e-07,1.750000e-02
-8.086812e-07,-2.375000e-02
-8.006812e-07,1.000000e-02
-7.926812e-07,-3.000000e-02
-7.846812e-07,1.875000e-02
-7.766812e-07,-6.250000e-03
-7.686812e-07,3.125000e-02
-7.606812e-07,-5.000000e-03
-7.526812e-07,2.125000e-02
-7.446812e-07,-3.000000e-02
-7.366812e-07,7.500000e-03
-7.286812e-07,-1.375000e-02
-7.206812e-07,2.000000e-02
-7.126812e-07,-2.250000e-02
-7.046812e-07,2.000000e-02
-6.966812e-07,5.000000e-03
-6.886812e-07,8.750000e-03
-6.806812e-07,-3.750000e-03
-6.726812e-07,2.250000e-02
-6.646812e-07,-4.000000e-02
-6.566812e-07,2.250000e-02
-6.486812e-07,6.250000e-03
-6.406812e-07,2.625000e-02
-6.326812e-07,-3.750000e-03
-6.246812e-07,1.750000e-02
-6.166812e-07,-2.500000e-02
-6.086812e-07,2.250000e-02
-6.006812e-07,-2.500000e-02
-5.926812e-07,3.000000e-02
-5.846812e-07,-7.500000e-03
-5.766812e-07,1.625000e-02
-5.686812e-07,-8.750000e-03
-5.606812e-07,1.625000e-02
-5.526812e-07,-1.875000e-02
-5.446812e-07,1.875000e-02
-5.366812e-07,-3.125000e-02
-5.286812e-07,1.000000e-02
-5.206812e-07,-8.750000e-03
-5.126812e-07,2.250000e-02
-5.046812e-07,0.000000e+00
-4.966812e-07,1.250000e-03
-4.886812e-07,-2.500000e-03
-4.806812e-07,2.375000e-02
-4.726812e-07,-5.000000e-03
-4.646812e-07,2.750000e-02
-4.566812e-07,-1.375000e-02
-4.486812e-07,4.875000e-02
-4.406812e-07,-1.750000e-02
-4.326812e-07,1.625000e-02
-4.246812e-07,-1.375000e-02
-4.166812e-07,1.125000e-02
-4.086812e-07,-1.875000e-02
-4.006812e-07,8.750000e-03
-3.926812e-07,-1.750000e-02
-3.846812e-07,1.375000e-02
-3.766812e-07,-1.500000e-02
-3.686812e-07,2.250000e-02
-3.606812e-07,0.000000e+00
-3.526812e-07,1.250000e-02
-3.446812e-07,2.500000e-03
-3.366812e-07,2.125000e-02
-3.286812e-07,-1.625000e-02
-3.206812e-07,2.250000e-02
-3.126812e-07,-1.750000e-02
-3.046812e-07,3.000000e-02
-2.966812e-07,-7.500000e-03
-2.886812e-07,1.625000e-02
-2.806812e-07,-1.625000e-02
-2.726812e-07,2.125000e-02
-2.646812e-07,-1.250000e-02
-2.566812e-07,3.500000e-02
-2.486812e-07,-2.125000e-02
-2.406812e-07,4.125000e-02
-2.326812e-07,5.000000e-03
-2.246812e-07,6.250000e-03
-2.166812e-07,-2.375000e-02
-2.086812e-07,1.125000e-02
-2.006812e-07,-1.500000e-02
-1.926812e-07,3.125000e-02
-1.846812e-07,-1.875000e-02
-1.766812e-07,2.375000e-02
-1.686812e-07,-2.500000e-03
-1.606812e-07,2.125000e-02
-1.526812e-07,-1.500000e-02
-1.446812e-07,1.000000e-02
-1.366812e-07,-3.250000e-02
-1.286812e-07,3.500000e-02
-1.206812e-07,-3.750000e-03
-1.126812e-07,1.625000e-02
-1.046812e-07,-5.000000e-03
-9.668125e-08,1.875000e-02
-8.868125e-08,-2.250000e-02
-8.068125e-08,1.125000e-02
-7.268125e-08,-3.875000e-02
-6.468125e-08,2.500000e-02
-5.668125e-08,-8.750000e-03
-4.868125e-08,1.000000e-02
-4.068125e-08,-2.000000e-02
-3.268125e-08,2.375000e-02
-2.468125e-08,-2.750000e-02
-1.668125e-08,0.000000e+00
-8.681250e-09,-2.750000e-02
-6.812500e-10,-1.250000e-03
7.318750e-09,-1.400000e+00
1.531875e-08,-1.412500e+00
2.331875e-08,-1.400000e+00
3.131875e-08,-1.275000e-01
3.931875e-08,-4.625000e-02
4.731875e-08,4.500000e-02
5.531875e-08,-7.500000e-03
6.331875e-08,3.000000e-02
7.131875e-08,-6.250000e-03
7.931875e-08,0.000000e+00
8.731875e-08,-1.000000e-02
9.531875e-08,-1.000000e-02
1.033188e-07,-7.500000e-03
1.113188e-07,1.125000e-02
1.193188e-07,-7.500000e-03
1.273188e-07,2.500000e-02
1.353188e-07,-8.750000e-03
1.433188e-07,7.500000e-03
1.513188e-07,-1.750000e-02
1.593188e-07,1.500000e-02
1.673188e-07,-8.750000e-03
1.753188e-07,2.375000e-02
1.833188e-07,-2.875000e-02
1.913188e-07,4.625000e-02
1.993188e-07,-1.750000e-02
2.073188e-07,1.750000e-02
2.153188e-07,-1.000000e-02
2.233188e-07,2.375000e-02
2.313188e-07,-1.625000e-02
2.393188e-07,1.625000e-02
2.473188e-07,-1.375000e-02
2.553188e-07,2.000000e-02
2.633188e-07,-1.375000e-02
2.713188e-07,1.375000e-02
2.793188e-07,-1.875000e-02
2.873188e-07,1.500000e-02
2.953188e-07,-2.375000e-02
3.033188e-07,1.750000e-02
3.113188e-07,-3.500000e-02
3.193188e-07,2.500000e-02
3.273188e-07,-1.875000e-02
3.353188e-07,2.500000e-02
3.433188e-07,-2.125000e-02
3.513188e-07,6.250000e-03
3.593188e-07,-4.875000e-02
3.673188e-07,3.750000e-03
3.753188e-07,-6.250000e-03
3.833188e-07,1.875000e-02
3.913188e-07,-7.500000e-03
3.993188e-07,-1.625000e-02
4.073188e-07,-1.500000e-02
4.153188e-07,1.750000e-02
4.233188e-07,-3.250000e-02
4.313188e-07,3.500000e-02
4.393188e-07,-2.375000e-02
4.473188e-07,3.125000e-02
4.553188e-07,-7.500000e-03
4.633188e-07,1.250000e-02
4.713188e-07,-5.000000e-03
4.793188e-07,2.625000e-02
4.873188e-07,-3.000000e-02
4.953188e-07,2.500000e-02
5.033188e-07,-1.250000e-02
5.113188e-07,4.125000e-02
5.193188e-07,-2.000000e-02
5.273188e-07,2.500000e-02
5.353188e-07,-2.500000e-03
5.433188e-07,8.750000e-03
5.513188e-07,-2.625000e-02
5.593188e-07,-1.000000e-02
5.673188e-07,-2.500000e-02
5.753188e-07,3.875000e-02
5.833188e-07,-3.625000e-02
5.913188e-07,1.750000e-02
5.993188e-07,-2.000000e-02
6.073188e-07,3.000000e-02
6.153188e-07,-2.375000e-02
6.233188e-07,1.625000e-02
6.313188e-07,-1.375000e-02
6.393188e-07,3.000000e-02
6.473188e-07,-3.750000e-03
6.553188e-07,5.000000e-03
6.633188e-07,-5.000000e-03
6.713188e-07,3.000000e-02
6.793188e-07,-4.125000e-02
6.873188e-07,1.375000e-02
6.953188e-07,-2.500000e-03
7.033188e-07,8.750000e-03
7.113188e-07,-1.250000e-03
7.193188e-07,7.500000e-03
7.273188e-07,-1.125000e-02
7.353188e-07,-2.500000e-03
7.433188e-07,-2.375000e-02
7.513188e-07,4.000000e-02
7.593188e-07,1.250000e-03
7.673188e-07,5.250000e-02
7.753188e-07,3.750000e-03
7.833188e-07,1.625000e-02
7.913188e-07,-1.125000e-02
7.993188e-07,-2.500000e-03
8.073188e-07,-2.875000e-02
