run1/run1_ch1_20210318180205501.csv

Model,MSO64
Waveform Type,ANALOG
Horizontal Units,s
Sample Interval,8.000000e-09
Record Length,1250
Zero Index,624.520000
Vertical Units,V

TIME,CH1
-4.996160e-06,2.000000e-02
-4.988160e-06,2.125000e-02
-4.980160e-06,-6.250000e-03
-4.972160e-06,3.250000e-02
-4.964160e-06,-8.750000e-03
-4.956160e-06,2.750000e-02
-4.948160e-06,-8.750000e-03
-4.940160e-06,1.250000e-02
-4.932160e-06,-1.125000e-02
-4.924160e-06,1.125000e-02
-4.916160e-06,-3.750000e-03
-4.908160e-06,2.750000e-02
-4.900160e-06,5.000000e-03
-4.892160e-06,2.750000e-02
-4.884160e-06,5.000000e-03
-4.876160e-06,3.125000e-02
-4.868160e-06,-7.500000e-03
-4.860160e-06,7.500000e-03
-4.852160e-06,-1.125000e-02
-4.844160e-06,1.875000e-02
-4.836160e-06,-8.750000e-03
-4.828160e-06,2.125000e-02
-4.820160e-06,-2.375000e-02
-4.812160e-06,3.750000e-02
-4.804160e-06,3.750000e-03
-4.796160e-06,2.250000e-02
-4.788160e-06,-6.250000e-03
-4.780160e-06,7.500000e-03
-4.772160e-06,2.125000e-02
-4.764160e-06,2.875000e-02
-4.756160e-06,-1.375000e-02
-4.748160e-06,2.125000e-02
-4.740160e-06,-1.375000e-02
-4.732160e-06,-3.750000e-03
-4.724160e-06,6.250000e-03
-4.716160e-06,3.750000e-03
-4.708160e-06,-1.625000e-02
-4.700160e-06,2.625000e-02
-4.692160e-06,-7.500000e-03
-4.684160e-06,2.875000e-02
-4.676160e-06,-2.375000e-02
-4.668160e-06,-2.500000e-03
-4.660160e-06,-7.500000e-03
-4.652160e-06,1.750000e-02
-4.644160e-06,2.500000e-03
-4.636160e-06,2.750000e-02
-4.628160e-06,-2.500000e-03
-4.620160e-06,1.250000e-02
-4.612160e-06,-2.250000e-02
-4.604160e-06,3.875000e-02
-4.596160e-06,-3.750000e-02
-4.588160e-06,2.000000e-02
-4.580160e-06,-2.125000e-02
-4.572160e-06,2.125000e-02
-4.564160e-06,-1.000000e-02
-4.556160e-06,1.000000e-02
-4.548160e-06,-1.250000e-02
-4.540160e-06,3.125000e-02
-4.532160e-06,-1.875000e-02
-4.524160e-06,1.875000e-02
-4.516160e-06,-7.500000e-03
-4.508160e-06,3.250000e-02
-4.500160e-06,-3.750000e-03
-4.492160e-06,1.375000e-02
-4.484160e-06,-1.375000e-02
-4.476160e-06,2.125000e-02
-4.468160e-06,-1.500000e-02
-4.460160e-06,2.500000e-02
-4.452160e-06,0.000000e+00
-4.444160e-06,3.250000e-02
-4.436160e-06,2.500000e-03
-4.428160e-06,3.375000e-02
-4.420160e-06,-1.625000e-02
-4.412160e-06,1.250000e-02
-4.404160e-06,-5.125000e-02
-4.396160e-06,2.250000e-02
-4.388160e-06,-5.000000e-03
-4.380160e-06,1.000000e-02
-4.372160e-06,1.250000e-03
-4.364160e-06,1.750000e-02
-4.356160e-06,-5.000000e-03
-4.348160e-06,1.125000e-02
-4.340160e-06,-3.750000e-02
-4.332160e-06,1.875000e-02
-4.324160e-06,-1.000000e-02
-4.316160e-06,7.500000e-03
-4.308160e-06,-2.750000e-02
-4.300160e-06,5.000000e-03
-4.292160e-06,-1.250000e-03
-4.284160e-06,2.250000e-02
-4.276160e-06,-1.625000e-02
-4.268160e-06,2.125000e-02
-4.260160e-06,-1.750000e-02
-4.252160e-06,1.875000e-02
-4.244160e-06,-7.500000e-03
-4.236160e-06,3.125000e-02
-4.228160e-06,-1.000000e-02
-4.220160e-06,1.125000e-02
-4.212160e-06,-1.375000e-02
-4.204160e-06,1.375000e-02
-4.196160e-06,-1.125000e-02
-4.188160e-06,3.250000e-02
-4.180160e-06,-6.250000e-03
-4.172160e-06,7.500000e-03
-4.164160e-06,-1.000000e-02
-4.156160e-06,0.000000e+00
-4.148160e-06,-1.625000e-02
-4.140160e-06,-1.750000e-02
-4.132160e-06,-1.375000e-02
-4.124160e-06,4.625000e-02
-4.116160e-06,-8.750000e-03
-4.108160e-06,2.000000e-02
-4.100160e-06,-2.500000e-03
-4.092160e-06,2.750000e-02
-4.084160e-06,-4.875000e-02
-4.076160e-06,2.375000e-02
-4.068160e-06,-4.875000e-02
-4.060160e-06,4.625000e-02
-4.052160e-06,-1.500000e-02
-4.044160e-06,5.000000e-03
-4.036160e-06,-1.375000e-02
-4.028160e-06,5.000000e-03
-4.020160e-06,-6.250000e-03
-4.012160e-06,3.000000e-02
-4.004160e-06,3.750000e-03
-3.996160e-06,1.125000e-02
-3.988160e-06,-2.250000e-02
-3.980160e-06,2.875000e-02
-3.972160e-06,-3.125000e-02
-3.964160e-06,2.000000e-02
-3.956160e-06,-3.750000e-02
-3.948160e-06,2.250000e-02
-3.940160e-06,-3.125000e-02
-3.932160e-06,2.125000e-02
-3.924160e-06,-1.250000e-02
-3.916160e-06,1.875000e-02
-3.908160e-06,-2.500000e-02
-3.900160e-06,-1.125000e-02
-3.892160e-06,2.500000e-03
-3.884160e-06,-1.250000e-03
-3.876160e-06,-2.375000e-02
-3.868160e-06,8.750000e-03
-3.860160e-06,-1.500000e-02
-3.852160e-06,1.875000e-02
-3.844160e-06,-2.875000e-02
-3.836160e-06,1.125000e-02
-3.828160e-06,-1.875000e-02
-3.820160e-06,2.750000e-02
-3.812160e-06,-4.500000e-02
-3.804160e-06,1.875000e-02
-3.796160e-06,-7.500000e-03
-3.788160e-06,5.000000e-03
-3.780160e-06,-1.875000e-02
-3.772160e-06,3.750000e-03
-3.764160e-06,-3.375000e-02
-3.756160e-06,2.375000e-02
-3.748160e-06,-1.250000e-03
-3.740160e-06,3.875000e-02
-3.732160e-06,-7.500000e-03
-3.724160e-06,-7.500000e-03
-3.716160e-06,-2.125000e-02
-3.708160e-06,8.750000e-03
-3.700160e-06,-1.500000e-02
-3.692160e-06,5.000000e-03
-3.684160e-06,-2.625000e-02
-3.676160e-06,2.750000e-02
-3.668160e-06,-2.125000e-02
-3.660160e-06,1.250000e-02
-3.652160e-06,-1.125000e-02
-3.644160e-06,2.250000e-02
-3.636160e-06,-1.500000e-02
-3.628160e-06,1.250000e-03
-3.620160e-06,-2.000000e-02
-3.612160e-06,1.500000e-02
-3.604160e-06,-1.250000e-03
-3.596160e-06,2.750000e-02
-3.588160e-06,-2.000000e-02
-3.580160e-06,1.250000e-02
-3.572160e-06,-1.125000e-02
-3.564160e-06,1.250000e-03
-3.556160e-06,-1.000000e-02
-3.548160e-06,1.500000e-02
-3.540160e-06,-1.250000e-03
-3.532160e-06,1.125000e-02
-3.524160e-06,-1.250000e-03
-3.516160e-06,1.500000e-02
-3.508160e-06,-8.750000e-03
-3.500160e-06,2.875000e-02
-3.492160e-06,-1.250000e-03
-3.484160e-06,4.750000e-02
-3.476160e-06,2.500000e-03
-3.468160e-06,2.250000e-02
-3.460160e-06,-3.875000e-02
-3.452160e-06,1.250000e-02
-3.444160e-06,-3.125000e-02
-3.436160e-06,2.375000e-02
-3.428160e-06,-1.375000e-02
-3.420160e-06,6.250000e-03
-3.412160e-06,-1.125000e-02
-3.404160e-06,1.250000e-03
-3.396160e-06,1.250000e-03
-3.388160e-06,-2.500000e-03
-3.380160e-06,-8.750000e-03
-3.372160e-06,2.125000e-02
-3.364160e-06,1.000000e-02
-3.356160e-06,3.250000e-02
-3.348160e-06,1.375000e-02
-3.340160e-06,3.375000e-02
-3.332160e-06,-1.875000e-02
-3.324160e-06,-3.750000e-03
-3.316160e-06,-1.500000e-02
-3.308160e-06,2.375000e-02
-3.300160e-06,-2.375000e-02
-3.292160e-06,2.250000e-02
-3.284160e-06,-3.000000e-02
-3.276160e-06,5.000000e-03
-3.268160e-06,-1.875000e-02
-3.260160e-06,2.375000e-02
-3.252160e-06,-1.250000e-02
-3.244160e-06,1.375000e-02
-3.236160e-06,-1.125000e-02
-3.228160e-06,3.000000e-02
-3.220160e-06,-1.625000e-02
-3.212160e-06,1.000000e-02
-3.204160e-06,-5.000000e-03
-3.196160e-06,1.000000e-02
-3.188160e-06,-1.750000e-02
-3.180160e-06,-2.500000e-03
-3.172160e-06,-2.250000e-02
-3.164160e-06,1.000000e-02
-3.156160e-06,-8.750000e-03
-3.148160e-06,5.000000e-03
-3.140160e-06,-1.250000e-02
-3.132160e-06,3.125000e-02
-3.124160e-06,5.000000e-03
-3.116160e-06,3.625000e-02
-3.108160e-06,8.750000e-03
-3.100160e-06,4.625000e-02
-3.092160e-06,-1.125000e-02
-3.084160e-06,3.000000e-02
-3.076160e-06,-1.500000e-02
-3.068160e-06,1.500000e-02
-3.060160e-06,-2.500000e-03
-3.052160e-06,2.750000e-02
-3.044160e-06,-1.375000e-02
-3.036160e-06,3.750000e-02
-3.028160e-06,-3.750000e-03
-3.020160e-06,-7.500000e-03
-3.012160e-06,-1.125000e-02
-3.004160e-06,2.375000e-02
-2.996160e-06,-2.625000e-02
-2.988160e-06,5.125000e-02
-2.980160e-06,-1.375000e-02
-2.972160e-06,2.375000e-02
-2.964160e-06,-7.500000e-03
-2.956160e-06,2.000000e-02
-2.948160e-06,-5.000000e-03
-2.940160e-06,1.375000e-02
-2.932160e-06,2.500000e-03
-2.924160e-06,1.500000e-02
-2.916160e-06,-2.875000e-02
-2.908160e-06,4.250000e-02
-2.900160e-06,-2.500000e-03
-2.892160e-06,2.000000e-02
-2.884160e-06,-6.250000e-03
-2.876160e-06,1.250000e-02
-2.868160e-06,-2.000000e-02
-2.860160e-06,2.250000e-02
-2.852160e-06,6.250000e-03
-2.844160e-06,2.375000e-02
-2.836160e-06,-2.500000e-03
-2.828160e-06,2.750000e-02
-2.820160e-06,-3.750000e-03
-2.812160e-06,1.250000e-03
-2.804160e-06,-1.500000e-02
-2.796160e-06,5.000000e-03
-2.788160e-06,-3.000000e-02
-2.780160e-06,3.250000e-02
-2.772160e-06,-1.125000e-02
-2.764160e-06,1.875000e-02
-2.756160e-06,0.000000e+00
-2.748160e-06,2.000000e-02
-2.740160e-06,-1.250000e-02
-2.732160e-06,1.000000e-02
-2.724160e-06,1.250000e-03
-2.716160e-06,2.375000e-02
-2.708160e-06,-8.750000e-03
-2.700160e-06,1.625000e-02
-2.692160e-06,-1.125000e-02
-2.684160e-06,3.250000e-02
-2.676160e-06,-2.500000e-02
-2.668160e-06,3.875000e-02
-2.660160e-06,-1.500000e-02
-2.652160e-06,4.750000e-02
-2.644160e-06,-1.250000e-03
-2.636160e-06,1.250000e-03
-2.628160e-06,-1.875000e-02
-2.620160e-06,2.250000e-02
-2.612160e-06,-2.750000e-02
-2.604160e-06,1.875000e-02
-2.596160e-06,0.000000e+00
-2.588160e-06,3.125000e-02
-2.580160e-06,-1.250000e-02
-2.572160e-06,1.125000e-02
-2.564160e-06,-1.875000e-02
-2.556160e-06,5.000000e-03
-2.548160e-06,-2.750000e-02
-2.540160e-06,1.875000e-02
-2.532160e-06,-2.750000e-02
-2.524160e-06,3.000000e-02
-2.516160e-06,-2.500000e-02
-2.508160e-06,0.000000e+00
-2.500160e-06,-2.500000e-03
-2.492160e-06,7.500000e-03
-2.484160e-06,-5.000000e-03
-2.476160e-06,7.500000e-03
-2.468160e-06,2.500000e-03
-2.460160e-06,1.375000e-02
-2.452160e-06,-3.500000e-02
-2.444160e-06,1.000000e-02
-2.436160e-06,3.750000e-03
-2.428160e-06,2.750000e-02
-2.420160e-06,-1.250000e-03
-2.412160e-06,1.875000e-02
-2.404160e-06,-3.750000e-03
-2.396160e-06,5.000000e-03
-2.388160e-06,-3.750000e-03
-2.380160e-06,1.375000e-02
-2.372160e-06,-1.500000e-02
-2.364160e-06,2.500000e-03
-2.356160e-06,-3.375000e-02
-2.348160e-06,1.500000e-02
-2.340160e-06,2.500000e-03
-2.332160e-06,2.000000e-02
-2.324160e-06,-6.250000e-03
-2.316160e-06,1.625000e-02
-2.308160e-06,3.750000e-03
-2.300160e-06,1.250000e-02
-2.292160e-06,-2.375000e-02
-2.284160e-06,-8.750000e-03
-2.276160e-06,-1.875000e-02
-2.268160e-06,4.625000e-02
-2.260160e-06,-1.375000e-02
-2.252160e-06,3.750000e-03
-2.244160e-06,-1.000000e-02
-2.236160e-06,3.125000e-02
-2.228160e-06,-6.250000e-03
-2.220160e-06,1.500000e-02
-2.212160e-06,1.125000e-02
-2.204160e-06,4.250000e-02
-2.196160e-06,-6.250000e-03
-2.188160e-06,4.750000e-02
-2.180160e-06,1.000000e-02
-2.172160e-06,-5.000000e-03
-2.164160e-06,-1.875000e-02
-2.156160e-06,1.375000e-02
-2.148160e-06,-3.250000e-02
-2.140160e-06,2.625000e-02
-2.132160e-06,-2.250000e-02
-2.124160e-06,2.750000e-02
-2.116160e-06,-1.000000e-02
-2.108160e-06,2.250000e-02
-2.100160e-06,-7.500000e-03
-2.092160e-06,2.875000e-02
-2.084160e-06,1.250000e-03
-2.076160e-06,2.375000e-02
-2.068160e-06,-5.000000e-03
-2.060160e-06,1.750000e-02
-2.052160e-06,-1.375000e-02
-2.044160e-06,2.125000e-02
-2.036160e-06,-2.500000e-02
-2.028160e-06,1.125000e-02
-2.020160e-06,-6.250000e-03
-2.012160e-06,3.125000e-02
-2.004160e-06,-2.375000e-02
-1.996160e-06,6.250000e-03
-1.988160e-06,3.750000e-03
-1.980160e-06,3.625000e-02
-1.972160e-06,-1.125000e-02
-1.964160e-06,3.500000e-02
-1.956160e-06,-1.500000e-02
-1.948160e-06,1.375000e-02
-1.940160e-06,-7.500000e-03
-1.932160e-06,8.750000e-03
-1.924160e-06,2.500000e-03
-1.916160e-06,1.125000e-02
-1.908160e-06,-1.375000e-02
-1.900160e-06,2.125000e-02
-1.892160e-06,-1.875000e-02
-1.884160e-06,2.125000e-02
-1.876160e-06,-3.750000e-03
-1.868160e-06,6.250000e-03
-1.860160e-06,-1.000000e-02
-1.852160e-06,2.375000e-02
-1.844160e-06,-2.875000e-02
-1.836160e-06,1.500000e-02
-1.828160e-06,2.500000e-03
-1.820160e-06,1.625000e-02
-1.812160e-06,-1.500000e-02
-1.804160e-06,-6.250000e-03
-1.796160e-06,-2.250000e-02
-1.788160e-06,2.875000e-02
-1.780160e-06,-7.500000e-03
-1.772160e-06,8.750000e-03
-1.764160e-06,-2.500000e-02
-1.756160e-06,2.750000e-02
-1.748160e-06,0.000000e+00
-1.740160e-06,1.375000e-02
-1.732160e-06,-8.750000e-03
-1.724160e-06,1.875000e-02
-1.716160e-06,-3.125000e-02
-1.708160e-06,6.250000e-03
-1.700160e-06,-1.125000e-02
-1.692160e-06,1.750000e-02
-1.684160e-06,0.000000e+00
-1.676160e-06,1.000000e-02
-1.668160e-06,3.750000e-03
-1.660160e-06,2.000000e-02
-1.652160e-06,-3.875000e-02
-1.644160e-06,8.750000e-03
-1.636160e-06,-8.750000e-03
-1.628160e-06,2.125000e-02
-1.620160e-06,-3.125000e-02
-1.612160e-06,1.500000e-02
-1.604160e-06,-1.125000e-02
-1.596160e-06,3.000000e-02
-1.588160e-06,-2.500000e-02
-1.580160e-06,1.500000e-02
-1.572160e-06,5.000000e-03
-1.564160e-06,3.125000e-02
-1.556160e-06,-2.250000e-02
-1.548160e-06,1.000000e-02
-1.540160e-06,-1.500000e-02
-1.532160e-06,3.750000e-03
-1.524160e-06,-4.500000e-02
-1.516160e-06,2.000000e-02
-1.508160e-06,-1.625000e-02
-1.500160e-06,1.125000e-02
-1.492160e-06,-1.625000e-02
-1.484160e-06,3.125000e-02
-1.476160e-06,-1.875000e-02
-1.468160e-06,1.000000e-02
-1.460160e-06,-2.000000e-02
-1.452160e-06,1.375000e-02
-1.444160e-06,7.500000e-03
-1.436160e-06,3.375000e-02
-1.428160e-06,-1.000000e-02
-1.420160e-06,7.500000e-03
-1.412160e-06,-1.750000e-02
-1.404160e-06,1.875000e-02
-1.396160e-06,-1.500000e-02
-1.388160e-06,2.375000e-02
-1.380160e-06,-2.500000e-02
-1.372160e-06,2.625000e-02
-1.364160e-06,-1.250000e-03
-1.356160e-06,3.125000e-02
-1.348160e-06,-1.250000e-02
-1.340160e-06,2.500000e-03
-1.332160e-06,-2.500000e-02
-1.324160e-06,2.250000e-02
-1.316160e-06,-2.500000e-03
-1.308160e-06,2.500000e-02
-1.300160e-06,-1.125000e-02
-1.292160e-06,1.875000e-02
-1.284160e-06,-2.375000e-02
-1.276160e-06,2.000000e-02
-1.268160e-06,-1.875000e-02
-1.260160e-06,1.000000e-02
-1.252160e-06,-2.250000e-02
-1.244160e-06,2.375000e-02
-1.236160e-06,-1.000000e-02
-1.228160e-06,6.250000e-03
-1.220160e-06,-1.125000e-02
-1.212160e-06,6.250000e-03
-1.204160e-06,-8.750000e-03
-1.196160e-06,1.375000e-02
-1.188160e-06,2.000000e-02
-1.180160e-06,2.375000e-02
-1.172160e-06,-1.000000e-02
-1.164160e-06,3.750000e-03
-1.156160e-06,-1.125000e-02
-1.148160e-06,6.250000e-03
-1.140160e-06,-3.250000e-02
-1.132160e-06,1.625000e-02
-1.124160e-06,-1.625000e-02
-1.116160e-06,2.000000e-02
-1.108160e-06,-1.125000e-02
-1.100160e-06,1.375000e-02
-1.092160e-06,-2.500000e-02
-1.084160e-06,6.250000e-03
-1.076160e-06,-3.500000e-02
-1.068160e-06,2.500000e-03
-1.060160e-06,-1.250000e-02
-1.052160e-06,1.000000e-02
-1.044160e-06,-3.125000e-02
-1.036160e-06,1.875000e-02
-1.028160e-06,-5.000000e-03
-1.020160e-06,1.875000e-02
-1.012160e-06,-2.625000e-02
-1.004160e-06,1.875000e-02
-9.961600e-07,-2.125000e-02
-9.881600e-07,3.250000e-02
-9.801600e-07,-1.375000e-02
-9.721600e-07,3.750000e-03
-9.641600e-07,-1.750000e-02
-9.561600e-07,7.500000e-03
-9.481600e-07,-2.625000e-02
-9.401600e-07,2.750000e-02
-9.321600e-07,-1.625000e-02
-9.241600e-07,1.875000e-02
-9.161600e-07,1.000000e-02
-9.081600e-07,1.875000e-02
-9.001600e-07,-2.125000e-02
-8.921600e-07,1.625000e-02
-8.841600e-07,-2.500000e-02
-8.761600e-07,8.750000e-03
-8.681600e-07,-3.250000e-02
-8.601600e-07,2.000000e-02
-8.521600e-07,1.250000e-03
-8.441600e-07,1.250000e-02
-8.361600e-07,-2.250000e-02
-8.281600e-07,1.875000e-02
-8.201600e-07,-2.250000e-02
-8.121600e-07,6.250000e-03
-8.041600e-07,1.250000e-03
-7.961600e-07,2.375000e-02
-7.881600e-07,-2.500000e-02
-7.801600e-07,2.250000e-02
-7.721600e-07,-2.750000e-02
-7.641600e-07,1.500000e-02
-7.561600e-07,-3.125000e-02
-7.481600e-07,1.875000e-02
-7.401600e-07,-2.625000e-02
-7.321600e-07,2.750000e-02
-7.241600e-07,-7.500000e-03
-7.161600e-07,1.875000e-02
-7.081600e-07,-1.625000e-02
-7.001600e-07,2.250000e-02
-6.921600e-07,-1.625000e-02
-6.841600e-07,2.250000e-02
-6.761600e-07,-5.000000e-03
-6.681600e-07,2.250000e-02
-6.601600e-07,-8.750000e-03
-6.521600e-07,1.000000e-02
-6.441600e-07,-1.125000e-02
-6.361600e-07,2.375000e-02
-6.281600e-07,-1.750000e-02
-6.201600e-07,1.375000e-02
-6.121600e-07,-1.375000e-02
-6.041600e-07,8.750000e-03
-5.961600e-07,1.250000e-03
-5.881600e-07,1.750000e-02
-5.801600e-07,-2.875000e-02
-5.721600e-07,1.375000e-02
-5.641600e-07,-2.500000e-02
-5.561600e-07,4.500000e-02
-5.481600e-07,0.000000e+00
-5.401600e-07,2.500000e-02
-5.321600e-07,-2.500000e-03
-5.241600e-07,-1.000000e-02
-5.161600e-07,-6.250000e-03
-5.081600e-07,6.250000e-03
-5.001600e-07,-2.125000e-02
-4.921600e-07,2.750000e-02
-4.841600e-07,-2.250000e-02
-4.761600e-07,4.375000e-02
-4.681600e-07,-2.750000e-02
-4.601600e-07,3.750000e-03
-4.521600e-07,-1.750000e-02
-4.441600e-07,2.750000e-02
-4.361600e-07,-3.250000e-02
-4.281600e-07,8.750000e-03
-4.201600e-07,8.750000e-03
-4.121600e-07,3.250000e-02
-4.041600e-07,-2.500000e-03
-3.961600e-07,2.000000e-02
-3.881600e-07,-1.000000e-02
-3.801600e-07,1.750000e-02
-3.721600e-07,-2.625000e-02
-3.641600e-07,2.125000e-02
-3.561600e-07,-3.625000e-02
-3.481600e-07,1.500000e-02
-3.401600e-07,-1.625000e-02
-3.321600e-07,1.375000e-02
-3.241600e-07,1.250000e-02
-3.161600e-07,2.375000e-02
-3.081600e-07,-3.750000e-03
-3.001600e-07,1.375000e-02
-2.921600e-07,1.875000e-02
-2.841600e-07,2.750000e-02
-2.761600e-07,1.750000e-02
-2.681600e-07,1.125000e-02
-2.601600e-07,-1.750000e-02
-2.521600e-07,1.000000e-02
-2.441600e-07,-2.875000e-02
-2.361600e-07,8.750000e-03
-2.281600e-07,-1.500000e-02
-2.201600e-07,1.000000e-02
-2.121600e-07,-3.125000e-02
-2.041600e-07,-6.250000e-03
-1.961600e-07,-8.750000e-03
-1.881600e-07,1.500000e-02
-1.801600e-07,-2.500000e-02
-1.721600e-07,1.500000e-02
-1.641600e-07,-2.625000e-02
-1.561600e-07,3.250000e-02
-1.481600e-07,-1.500000e-02
-1.401600e-07,5.000000e-03
-1.321600e-07,-1.375000e-02
-1.241600e-07,3.125000e-02
-1.161600e-07,-1.750000e-02
-1.081600e-07,3.500000e-02
-1.001600e-07,-4.125000e-02
-9.216000e-08,1.875000e-02
-8.416000e-08,-1.625000e-02
-7.616000e-08,1.625000e-02
-6.816000e-08,-3.375000e-02
-6.016000e-08,4.750000e-02
-5.216000e-08,-5.000000e-03
-4.416000e-08,1.000000e-02
-3.616000e-08,-2.287500e-01
-2.816000e-08,-1.396250e+00
-2.016000e-08,-1.436250e+00
-1.216000e-08,-1.400000e+00
-4.160000e-09,-8.375000e-02
3.840000e-09,1.375000e-02
1.184000e-08,-2.500000e-03
1.984000e-08,3.500000e-02
2.784000e-08,6.250000e-03
3.584000e-08,4.625000e-02
4.384000e-08,-7.500000e-03
5.184000e-08,7.500000e-03
5.984000e-08,-3.625000e-02
6.784000e-08,1.250000e-03
7.584000e-08,-3.750000e-03
8.384000e-08,1.250000e-02
9.184000e-08,-1.000000e-02
9.984000e-08,-5.000000e-03
1.078400e-07,-2.750000e-02
1.158400e-07,2.625000e-02
1.238400e-07,-1.750000e-02
1.318400e-07,5.000000e-03
1.398400e-07,-2.375000e-02
1.478400e-07,2.625000e-02
1.558400e-07,-1.125000e-02
1.638400e-07,3.250000e-02
1.718400e-07,-1.250000e-02
1.798400e-07,7.500000e-03
1.878400e-07,-1.125000e-02
1.958400e-07,3.375000e-02
2.038400e-07,-2.250000e-02
2.118400e-07,1.625000e-02
2.198400e-07,-6.250000e-03
2.278400e-07,2.625000e-02
2.358400e-07,3.750000e-03
2.438400e-07,2.875000e-02
2.518400e-07,-1.375000e-02
2.598400e-07,2.125000e-02
2.678400e-07,0.000000e+00
2.758400e-07,2.500000e-02
2.838400e-07,-7.500000e-03
2.918400e-07,1.125000e-02
2.998400e-07,-3.750000e-03
3.078400e-07,2.750000e-02
3.158400e-07,5.000000e-03
3.238400e-07,2.625000e-02
3.318400e-07,-1.375000e-02
3.398400e-07,3.250000e-02
3.478400e-07,6.250000e-03
3.558400e-07,-1.375000e-02
3.638400e-07,-6.250000e-03
3.718400e-07,1.125000e-02
3.798400e-07,8.750000e-03
3.878400e-07,1.875000e-02
3.958400e-07,0.000000e+00
4.038400e-07,1.625000e-02
4.118400e-07,-3.625000e-02
4.198400e-07,1.375000e-02
4.278400e-07,-2.750000e-02
4.358400e-07,2.000000e-02
4.438400e-07,-1.875000e-02
4.518400e-07,2.750000e-02
4.598400e-07,-2.125000e-02
4.678400e-07,4.125000e-02
4.758400e-07,5.000000e-03
4.838400e-07,1.625000e-02
4.918400e-07,-3.750000e-03
4.998400e-07,2.250000e-02
5.078400e-07,-2.375000e-02
5.158400e-07,-2.500000e-03
5.238400e-07,-4.500000e-02
5.318400e-07,2.000000e-02
5.398400e-07,-6.250000e-03
5.478400e-07,1.875000e-02
5.558400e-07,5.000000e-03
5.638400e-07,2.750000e-02
5.718400e-07,-1.750000e-02
5.798400e-07,6.250000e-03
5.878400e-07,-1.000000e-02
5.958400e-07,-5.000000e-03
6.038400e-07,-1.125000e-02
6.118400e-07,1.625000e-02
6.198400e-07,-7.500000e-03
6.278400e-07,4.125000e-02
6.358400e-07,3.750000e-03
6.438400e-07,1.625000e-02
6.518400e-07,-3.000000e-02
6.598400e-07,3.125000e-02
6.678400e-07,-3.000000e-02
6.758400e-07,1.875000e-02
6.838400e-07,-1.375000e-02
6.918400e-07,7.500000e-03
6.998400e-07,-1.875000e-02
7.078400e-07,1.250000e-02
7.158400e-07,-7.500000e-03
7.238400e-07,2.500000e-02
7.318400e-07,1.500000e-02
7.398400e-07,3.750000e-02
7.478400e-07,-8.750000e-03
7.558400e-07,-1.250000e-02
7.638400e-07,0.000000e+00
7.718400e-07,2.250000e-02
7.798400e-07,-4.250000e-02
7.878400e-07,2.375000e-02
7.958400e-07,-1.500000e-02
8.038400e-07,2.125000e-02
