run1/run1_ch1_20210318180236869.csv

Model,MSO64
Waveform Type,ANALOG
Horizontal Units,s
Sample Interval,8.000000e-09
Record Length,1250
Zero Index,624.447656
Vertical Units,V

TIME,CH1
-4.995581e-06,-6.250000e-03
-4.987581e-06,1.250000e-02
-4.979581e-06,-2.500000e-03
-4.971581e-06,0.000000e+00
-4.963581e-06,-6.250000e-03
-4.955581e-06,2.625000e-02
-4.947581e-06,-1.875000e-02
-4.939581e-06,2.750000e-02
-4.931581e-06,-2.125000e-02
-4.923581e-06,1.750000e-02
-4.915581e-06,-1.125000e-02
-4.907581e-06,2.125000e-02
-4.899581e-06,-8.750000e-03
-4.891581e-06,2.000000e-02
-4.883581e-06,-2.625000e-02
-4.875581e-06,1.750000e-02
-4.867581e-06,-1.750000e-02
-4.859581e-06,2.500000e-02
-4.851581e-06,5.000000e-03
-4.843581e-06,1.875000e-02
-4.835581e-06,-6.250000e-03
-4.827581e-06,1.625000e-02
-4.819581e-06,-2.625000e-02
-4.811581e-06,1.625000e-02
-4.803581e-06,-3.000000e-02
-4.795581e-06,1.750000e-02
-4.787581e-06,-8.750000e-03
-4.779581e-06,1.375000e-02
-4.771581e-06,-1.875000e-02
-4.763581e-06,5.000000e-03
-4.755581e-06,-2.250000e-02
-4.747581e-06,2.125000e-02
-4.739581e-06,-7.500000e-03
-4.731581e-06,4.250000e-02
-4.723581e-06,-1.750000e-02
-4.715581e-06,2.125000e-02
-4.707581e-06,-2.250000e-02
-4.699581e-06,3.750000e-03
-4.691581e-06,-2.500000e-02
-4.683581e-06,2.125000e-02
-4.675581e-06,-2.750000e-02
-4.667581e-06,-3.750000e-03
-4.659581e-06,-2.500000e-03
-4.651581e-06,1.250000e-03
-4.643581e-06,-2.375000e-02
-4.635581e-06,3.500000e-02
-4.627581e-06,1.250000e-03
-4.619581e-06,1.125000e-02
-4.611581e-06,-1.625000e-02
-4.603581e-06,4.750000e-02
-4.595581e-06,-1.375000e-02
-4.587581e-06,3.750000e-03
-4.579581e-06,2.500000e-03
-4.571581e-06,3.750000e-03
-4.563581e-06,-1.875000e-02
-4.555581e-06,0.000000e+00
-4.547581e-06,-2.625000e-02
-4.539581e-06,1.875000e-02
-4.531581e-06,-1.625000e-02
-4.523581e-06,7.500000e-03
-4.515581e-06,-5.000000e-03
-4.507581e-06,1.125000e-02
-4.499581e-06,-2.875000e-02
-4.491581e-06,2.125000e-02
-4.483581e-06,-1.000000e-02
-4.475581e-06,3.500000e-02
-4.467581e-06,7.500000e-03
-4.459581e-06,1.750000e-02
-4.451581e-06,-1.625000e-02
-4.443581e-06,2.250000e-02
-4.435581e-06,-4.500000e-02
-4.427581e-06,2.375000e-02
-4.419581e-06,-3.375000e-02
-4.411581e-06,3.125000e-02
-4.403581e-06,1.250000e-03
-4.395581e-06,6.250000e-03
-4.387581e-06,-1.250000e-03
-4.379581e-06,2.375000e-02
-4.371581e-06,1.250000e-03
-4.363581e-06,1.500000e-02
-4.355581e-06,-1.375000e-02
-4.347581e-06,6.250000e-03
-4.339581e-06,5.000000e-03
-4.331581e-06,0.000000e+00
-4.323581e-06,-2.375000e-02
-4.315581e-06,3.375000e-02
-4.307581e-06,-4.750000e-02
-4.299581e-06,3.375000e-02
-4.291581e-06,-3.000000e-02
-4.283581e-06,1.750000e-02
-4.275581e-06,-2.125000e-02
-4.267581e-06,-1.250000e-03
-4.259581e-06,-1.875000e-02
-4.251581e-06,-1.125000e-02
-4.243581e-06,-2.375000e-02
-4.235581e-06,3.375000e-02
-4.227581e-06,3.750000e-03
-4.219581e-06,2.000000e-02
-4.211581e-06,3.750000e-03
-4.203581e-06,1.125000e-02
-4.195581e-06,-3.125000e-02
-4.187581e-06,1.000000e-02
-4.179581e-06,-5.000000e-02
-4.171581e-06,2.750000e-02
-4.163581e-06,-2.875000e-02
-4.155581e-06,2.625000e-02
-4.147581e-06,-4.250000e-02
-4.139581e-06,-5.000000e-03
-4.131581e-06,8.750000e-03
-4.123581e-06,-8.750000e-03
-4.115581e-06,-1.125000e-02
-4.107581e-06,3.750000e-03
-4.099581e-06,3.750000e-03
-4.091581e-06,4.500000e-02
-4.083581e-06,2.000000e-02
-4.075581e-06,2.500000e-02
-4.067581e-06,-2.250000e-02
-4.059581e-06,6.250000e-03
-4.051581e-06,-6.250000e-03
-4.043581e-06,2.500000e-03
-4.035581e-06,-2.125000e-02
-4.027581e-06,2.125000e-02
-4.019581e-06,-8.750000e-03
-4.011581e-06,4.000000e-02
-4.003581e-06,7.500000e-03
-3.995581e-06,-2.500000e-03
-3.987581e-06,6.250000e-03
-3.979581e-06,1.750000e-02
-3.971581e-06,2.500000e-03
-3.963581e-06,1.125000e-02
-3.955581e-06,3.750000e-03
-3.947581e-06,3.750000e-03
-3.939581e-06,-2.750000e-02
-3.931581e-06,1.750000e-02
-3.923581e-06,-2.875000e-02
-3.915581e-06,1.125000e-02
-3.907581e-06,-1.250000e-02
-3.899581e-06,2.250000e-02
-3.891581e-06,0.000000e+00
-3.883581e-06,5.000000e-03
-3.875581e-06,-4.000000e-02
-3.867581e-06,3.750000e-03
-3.859581e-06,-1.125000e-02
-3.851581e-06,2.750000e-02
-3.843581e-06,-1.375000e-02
-3.835581e-06,2.750000e-02
-3.827581e-06,2.500000e-03
-3.819581e-06,2.625000e-02
-3.811581e-06,-1.625000e-02
-3.803581e-06,2.500000e-02
-3.795581e-06,-1.375000e-02
-3.787581e-06,2.500000e-03
-3.779581e-06,-6.250000e-03
-3.771581e-06,3.500000e-02
-3.763581e-06,1.250000e-02
-3.755581e-06,-2.500000e-03
-3.747581e-06,-1.250000e-03
-3.739581e-06,2.125000e-02
-3.731581e-06,-2.750000e-02
-3.723581e-06,6.250000e-03
-3.715581e-06,-3.750000e-03
-3.707581e-06,1.875000e-02
-3.699581e-06,-5.000000e-03
-3.691581e-06,1.750000e-02
-3.683581e-06,-3.750000e-03
-3.675581e-06,1.625000e-02
-3.667581e-06,-1.625000e-02
-3.659581e-06,1.875000e-02
-3.651581e-06,-1.125000e-02
-3.643581e-06,3.500000e-02
-3.635581e-06,0.000000e+00
-3.627581e-06,1.000000e-02
-3.619581e-06,-1.500000e-02
-3.611581e-06,1.250000e-03
-3.603581e-06,-4.250000e-02
-3.595581e-06,2.000000e-02
-3.587581e-06,1.250000e-03
-3.579581e-06,5.000000e-03
-3.571581e-06,-1.750000e-02
-3.563581e-06,3.375000e-02
-3.555581e-06,-3.875000e-02
-3.547581e-06,3.125000e-02
-3.539581e-06,-2.375000e-02
-3.531581e-06,2.875000e-02
-3.523581e-06,-1.250000e-02
-3.515581e-06,2.750000e-02
-3.507581e-06,-3.250000e-02
-3.499581e-06,6.250000e-03
-3.491581e-06,-1.250000e-03
-3.483581e-06,1.250000e-03
-3.475581e-06,-1.125000e-02
-3.467581e-06,1.375000e-02
-3.459581e-06,-6.250000e-03
-3.451581e-06,2.375000e-02
-3.443581e-06,-7.500000e-03
-3.435581e-06,1.250000e-02
-3.427581e-06,-1.250000e-02
-3.419581e-06,3.375000e-02
-3.411581e-06,-1.750000e-02
-3.403581e-06,-1.250000e-03
-3.395581e-06,-3.875000e-02
-3.387581e-06,2.250000e-02
-3.379581e-06,-1.625000e-02
-3.371581e-06,1.625000e-02
-3.363581e-06,-2.375000e-02
-3.355581e-06,1.250000e-03
-3.347581e-06,-2.125000e-02
-3.339581e-06,2.625000e-02
-3.331581e-06,-8.750000e-03
-3.323581e-06,3.125000e-02
-3.315581e-06,-2.000000e-02
-3.307581e-06,1.250000e-03
-3.299581e-06,1.500000e-02
-3.291581e-06,2.500000e-03
-3.283581e-06,-3.000000e-02
-3.275581e-06,-3.750000e-03
-3.267581e-06,-3.000000e-02
-3.259581e-06,3.625000e-02
-3.251581e-06,-1.375000e-02
-3.243581e-06,1.750000e-02
-3.235581e-06,-5.000000e-03
-3.227581e-06,1.500000e-02
-3.219581e-06,-4.125000e-02
-3.211581e-06,2.250000e-02
-3.203581e-06,-1.375000e-02
-3.195581e-06,8.750000e-03
-3.187581e-06,3.750000e-03
-3.179581e-06,3.000000e-02
-3.171581e-06,1.250000e-03
-3.163581e-06,-1.250000e-03
-3.155581e-06,-3.000000e-02
-3.147581e-06,1.125000e-02
-3.139581e-06,-8.750000e-03
-3.131581e-06,2.500000e-02
-3.123581e-06,-1.500000e-02
-3.115581e-06,5.000000e-03
-3.107581e-06,-5.000000e-03
-3.099581e-06,5.000000e-03
-3.091581e-06,-1.375000e-02
-3.083581e-06,1.375000e-02
-3.075581e-06,-1.125000e-02
-3.067581e-06,3.250000e-02
-3.059581e-06,1.000000e-02
-3.051581e-06,2.375000e-02
-3.043581e-06,-1.500000e-02
-3.035581e-06,7.500000e-03
-3.027581e-06,-2.375000e-02
-3.019581e-06,1.000000e-02
-3.011581e-06,-2.125000e-02
-3.003581e-06,1.625000e-02
-2.995581e-06,-1.000000e-02
-2.987581e-06,1.625000e-02
-2.979581e-06,-2.750000e-02
-2.971581e-06,1.375000e-02
-2.963581e-06,-2.500000e-02
-2.955581e-06,-1.250000e-03
-2.947581e-06,-8.750000e-03
-2.939581e-06,7.500000e-03
-2.931581e-06,-2.500000e-03
-2.923581e-06,1.375000e-02
-2.915581e-06,-2.625000e-02
-2.907581e-06,3.375000e-02
-2.899581e-06,-2.000000e-02
-2.891581e-06,1.000000e-02
-2.883581e-06,-2.875000e-02
-2.875581e-06,2.875000e-02
-2.867581e-06,-3.750000e-02
-2.859581e-06,7.500000e-03
-2.851581e-06,-1.750000e-02
-2.843581e-06,2.625000e-02
-2.835581e-06,-1.375000e-02
-2.827581e-06,1.375000e-02
-2.819581e-06,-1.000000e-02
-2.811581e-06,2.375000e-02
-2.803581e-06,-1.250000e-02
-2.795581e-06,5.000000e-03
-2.787581e-06,-3.125000e-02
-2.779581e-06,1.000000e-02
-2.771581e-06,-3.500000e-02
-2.763581e-06,3.375000e-02
-2.755581e-06,-2.000000e-02
-2.747581e-06,2.000000e-02
-2.739581e-06,-1.250000e-02
-2.731581e-06,5.000000e-03
-2.723581e-06,1.250000e-03
-2.715581e-06,1.250000e-03
-2.707581e-06,-1.125000e-02
-2.699581e-06,1.250000e-02
-2.691581e-06,-6.250000e-03
-2.683581e-06,1.875000e-02
-2.675581e-06,6.250000e-03
-2.667581e-06,1.000000e-02
-2.659581e-06,-1.625000e-02
-2.651581e-06,-1.125000e-02
-2.643581e-06,-2.750000e-02
-2.635581e-06,1.000000e-02
-2.627581e-06,-2.625000e-02
-2.619581e-06,1.125000e-02
-2.611581e-06,-2.750000e-02
-2.603581e-06,-2.500000e-03
-2.595581e-06,-5.000000e-03
-2.587581e-06,1.250000e-03
-2.579581e-06,-5.000000e-03
-2.571581e-06,1.375000e-02
-2.563581e-06,-2.000000e-02
-2.555581e-06,1.625000e-02
-2.547581e-06,6.250000e-03
-2.539581e-06,4.375000e-02
-2.531581e-06,-2.750000e-02
-2.523581e-06,2.125000e-02
-2.515581e-06,-2.000000e-02
-2.507581e-06,-1.250000e-03
-2.499581e-06,-2.000000e-02
-2.491581e-06,3.250000e-02
-2.483581e-06,-1.250000e-02
-2.475581e-06,2.125000e-02
-2.467581e-06,-2.875000e-02
-2.459581e-06,1.750000e-02
-2.451581e-06,-8.750000e-03
-2.443581e-06,1.500000e-02
-2.435581e-06,1.125000e-02
-2.427581e-06,1.125000e-02
-2.419581e-06,1.000000e-02
-2.411581e-06,2.750000e-02
-2.403581e-06,-1.125000e-02
-2.395581e-06,1.750000e-02
-2.387581e-06,-3.625000e-02
-2.379581e-06,1.875000e-02
-2.371581e-06,-4.375000e-02
-2.363581e-06,2.250000e-02
-2.355581e-06,1.250000e-03
-2.347581e-06,1.250000e-02
-2.339581e-06,-2.125000e-02
-2.331581e-06,3.750000e-03
-2.323581e-06,-2.250000e-02
-2.315581e-06,2.750000e-02
-2.307581e-06,7.500000e-03
-2.299581e-06,2.000000e-02
-2.291581e-06,-3.750000e-03
-2.283581e-06,2.125000e-02
-2.275581e-06,-1.625000e-02
-2.267581e-06,1.250000e-02
-2.259581e-06,-2.000000e-02
-2.251581e-06,1.875000e-02
-2.243581e-06,-2.250000e-02
-2.235581e-06,3.375000e-02
-2.227581e-06,-1.000000e-02
-2.219581e-06,1.250000e-03
-2.211581e-06,-2.125000e-02
-2.203581e-06,1.750000e-02
-2.195581e-06,-1.750000e-02
-2.187581e-06,1.625000e-02
-2.179581e-06,-1.750000e-02
-2.171581e-06,1.125000e-02
-2.163581e-06,-1.250000e-02
-2.155581e-06,1.250000e-02
-2.147581e-06,-6.250000e-03
-2.139581e-06,-1.250000e-03
-2.131581e-06,-1.500000e-02
-2.123581e-06,2.375000e-02
-2.115581e-06,-1.500000e-02
-2.107581e-06,3.750000e-02
-2.099581e-06,-1.875000e-02
-2.091581e-06,-1.250000e-03
-2.083581e-06,-2.625000e-02
-2.075581e-06,1.000000e-02
-2.067581e-06,-3.000000e-02
-2.059581e-06,1.000000e-02
-2.051581e-06,1.375000e-02
-2.043581e-06,3.125000e-02
-2.035581e-06,8.750000e-03
-2.027581e-06,3.250000e-02
-2.019581e-06,5.000000e-03
-2.011581e-06,3.750000e-03
-2.003581e-06,-2.250000e-02
-1.995581e-06,1.625000e-02
-1.987581e-06,-2.125000e-02
-1.979581e-06,1.250000e-03
-1.971581e-06,-1.000000e-02
-1.963581e-06,2.000000e-02
-1.955581e-06,-1.000000e-02
-1.947581e-06,3.250000e-02
-1.939581e-06,-2.250000e-02
-1.931581e-06,2.125000e-02
-1.923581e-06,-2.500000e-03
-1.915581e-06,5.000000e-02
-1.907581e-06,-3.750000e-03
-1.899581e-06,2.250000e-02
-1.891581e-06,-1.875000e-02
-1.883581e-06,3.625000e-02
-1.875581e-06,-2.250000e-02
-1.867581e-06,2.000000e-02
-1.859581e-06,-2.000000e-02
-1.851581e-06,4.000000e-02
-1.843581e-06,-1.500000e-02
-1.835581e-06,2.375000e-02
-1.827581e-06,-6.250000e-03
-1.819581e-06,2.250000e-02
-1.811581e-06,-1.375000e-02
-1.803581e-06,2.500000e-02
-1.795581e-06,2.500000e-03
-1.787581e-06,3.375000e-02
-1.779581e-06,-3.750000e-03
-1.771581e-06,2.250000e-02
-1.763581e-06,-5.000000e-03
-1.755581e-06,2.125000e-02
-1.747581e-06,-3.000000e-02
-1.739581e-06,1.125000e-02
-1.731581e-06,-1.375000e-02
-1.723581e-06,2.875000e-02
-1.715581e-06,-3.625000e-02
-1.707581e-06,3.125000e-02
-1.699581e-06,-2.375000e-02
-1.691581e-06,1.250000e-02
-1.683581e-06,-1.875000e-02
-1.675581e-06,2.000000e-02
-1.667581e-06,-2.625000e-02
-1.659581e-06,1.875000e-02
-1.651581e-06,3.750000e-03
-1.643581e-06,1.500000e-02
-1.635581e-06,-1.125000e-02
-1.627581e-06,1.625000e-02
-1.619581e-06,-3.375000e-02
-1.611581e-06,2.750000e-02
-1.603581e-06,1.250000e-03
-1.595581e-06,2.000000e-02
-1.587581e-06,-2.000000e-02
-1.579581e-06,2.250000e-02
-1.571581e-06,-1.000000e-02
-1.563581e-06,-3.750000e-03
-1.555581e-06,-1.125000e-02
-1.547581e-06,3.750000e-03
-1.539581e-06,-2.500000e-02
-1.531581e-06,3.375000e-02
-1.523581e-06,-1.750000e-02
-1.515581e-06,8.750000e-03
-1.507581e-06,-1.750000e-02
-1.499581e-06,2.500000e-02
-1.491581e-06,-3.000000e-02
-1.483581e-06,3.375000e-02
-1.475581e-06,-1.875000e-02
-1.467581e-06,2.250000e-02
-1.459581e-06,-8.750000e-03
-1.451581e-06,3.500000e-02
-1.443581e-06,-2.375000e-02
-1.435581e-06,1.250000e-03
-1.427581e-06,-7.500000e-03
-1.419581e-06,1.375000e-02
-1.411581e-06,-1.250000e-02
-1.403581e-06,2.375000e-02
-1.395581e-06,-1.250000e-02
-1.387581e-06,1.500000e-02
-1.379581e-06,-2.375000e-02
-1.371581e-06,1.000000e-02
-1.363581e-06,-2.750000e-02
-1.355581e-06,-2.500000e-03
-1.347581e-06,0.000000e+00
-1.339581e-06,1.875000e-02
-1.331581e-06,2.500000e-03
-1.323581e-06,1.125000e-02
-1.315581e-06,-3.500000e-02
-1.307581e-06,2.500000e-03
-1.299581e-06,-1.125000e-02
-1.291581e-06,-3.750000e-03
-1.283581e-06,-2.500000e-03
-1.275581e-06,5.375000e-02
-1.267581e-06,-5.000000e-03
-1.259581e-06,2.875000e-02
-1.251581e-06,-1.000000e-02
-1.243581e-06,1.750000e-02
-1.235581e-06,-3.875000e-02
-1.227581e-06,1.125000e-02
-1.219581e-06,-3.875000e-02
-1.211581e-06,2.375000e-02
-1.203581e-06,-2.125000e-02
-1.195581e-06,1.750000e-02
-1.187581e-06,-2.625000e-02
-1.179581e-06,7.500000e-03
-1.171581e-06,-7.500000e-03
-1.163581e-06,2.500000e-03
-1.155581e-06,-1.250000e-03
-1.147581e-06,6.250000e-03
-1.139581e-06,-1.000000e-02
-1.131581e-06,6.250000e-03
-1.123581e-06,-1.375000e-02
-1.115581e-06,-8.750000e-03
-1.107581e-06,-2.875000e-02
-1.099581e-06,2.375000e-02
-1.091581e-06,-3.875000e-02
-1.083581e-06,1.625000e-02
-1.075581e-06,-2.625000e-02
-1.067581e-06,2.875000e-02
-1.059581e-06,-2.000000e-02
-1.051581e-06,7.500000e-03
-1.043581e-06,-2.250000e-02
-1.035581e-06,2.000000e-02
-1.027581e-06,6.250000e-03
-1.019581e-06,2.000000e-02
-1.011581e-06,-3.750000e-03
-1.003581e-06,-1.375000e-02
-9.955813e-07,-3.750000e-03
-9.875813e-07,3.250000e-02
-9.795813e-07,-3.625000e-02
-9.715813e-07,1.000000e-02
-9.635813e-07,-2.000000e-02
-9.555813e-07,2.125000e-02
-9.475813e-07,-7.500000e-03
-9.395813e-07,7.500000e-03
-9.315813e-07,-2.875000e-02
-9.235813e-07,4.125000e-02
-9.155813e-07,-2.125000e-02
-9.075813e-07,1.000000e-02
-8.995813e-07,2.500000e-03
-8.915813e-07,2.750000e-02
-8.835813e-07,-1.250000e-02
-8.755813e-07,3.750000e-02
-8.675813e-07,-2.125000e-02
-8.595813e-07,6.250000e-03
-8.515813e-07,-3.625000e-02
-8.435813e-07,1.250000e-02
-8.355813e-07,-8.750000e-03
-8.275813e-07,3.000000e-02
-8.195813e-07,-1.750000e-02
-8.115813e-07,2.500000e-03
-8.035813e-07,-1.375000e-02
-7.955813e-07,-1.625000e-02
-7.875813e-07,-1.000000e-02
-7.795813e-07,2.750000e-02
-7.715813e-07,-5.000000e-03
-7.635813e-07,2.375000e-02
-7.555813e-07,-2.250000e-02
-7.475813e-07,8.750000e-03
-7.395813e-07,-2.500000e-02
-7.315813e-07,2.750000e-02
-7.235813e-07,-1.500000e-02
-7.155813e-07,3.625000e-02
-7.075813e-07,-2.500000e-03
-6.995813e-07,5.000000e-03
-6.915813e-07,-2.500000e-02
-6.835813e-07,1.625000e-02
-6.755813e-07,-6.250000e-03
-6.675813e-07,6.250000e-03
-6.595813e-07,-1.750000e-02
-6.515813e-07,5.000000e-03
-6.435813e-07,-6.250000e-03
-6.355813e-07,3.125000e-02
-6.275813e-07,-2.500000e-03
-6.195813e-07,-1.250000e-03
-6.115813e-07,-2.500000e-03
-6.035813e-07,1.250000e-02
-5.955813e-07,-1.750000e-02
-5.875813e-07,2.500000e-03
-5.795813e-07,-1.625000e-02
-5.715813e-07,3.250000e-02
-5.635813e-07,-1.250000e-03
-5.555813e-07,-7.500000e-03
-5.475813e-07,-3.000000e-02
-5.395813e-07,-6.250000e-03
-5.315813e-07,-2.500000e-02
-5.235813e-07,1.500000e-02
-5.155813e-07,-3.750000e-03
-5.075813e-07,0.000000e+00
-4.995813e-07,1.375000e-02
-4.915813e-07,2.500000e-03
-4.835813e-07,-3.125000e-02
-4.755813e-07,3.375000e-02
-4.675813e-07,-1.125000e-02
-4.595813e-07,0.000000e+00
-4.515813e-07,-1.625000e-02
-4.435813e-07,3.750000e-02
-4.355813e-07,-1.625000e-02
-4.275813e-07,7.500000e-03
-4.195813e-07,-3.250000e-02
-4.115813e-07,3.375000e-02
-4.035813e-07,-1.625000e-02
-3.955813e-07,7.500000e-03
-3.875813e-07,1.625000e-02
-3.795813e-07,2.750000e-02
-3.715813e-07,5.000000e-03
-3.635813e-07,6.250000e-03
-3.555813e-07,-3.500000e-02
-3.475813e-07,2.500000e-03
-3.395813e-07,-1.625000e-02
-3.315813e-07,-1.125000e-02
-3.235813e-07,-2.250000e-02
-3.155813e-07,3.000000e-02
-3.075813e-07,-1.000000e-02
-2.995813e-07,1.875000e-02
-2.915813e-07,-2.125000e-02
-2.835813e-07,-7.500000e-03
-2.755813e-07,-2.500000e-02
-2.675813e-07,1.125000e-02
-2.595813e-07,7.500000e-03
-2.515813e-07,1.875000e-02
-2.435813e-07,-2.625000e-02
-2.355813e-07,3.250000e-02
-2.275813e-07,-3.625000e-02
-2.195813e-07,-8.750000e-03
-2.115813e-07,-3.625000e-02
-2.035813e-07,3.625000e-02
-1.955813e-07,-3.375000e-02
-1.875813e-07,2.750000e-02
-1.795813e-07,-3.500000e-02
-1.715813e-07,7.500000e-03
-1.635813e-07,-7.500000e-03
-1.555813e-07,1.875000e-02
-1.475813e-07,-2.250000e-02
-1.395813e-07,-3.750000e-03
-1.315813e-07,-2.500000e-03
-1.235813e-07,2.125000e-02
-1.155813e-07,2.500000e-03
-1.075813e-07,3.375000e-02
-9.958125e-08,-3.750000e-03
-9.158125e-08,1.125000e-02
-8.358125e-08,-3.750000e-02
-7.558125e-08,1.250000e-03
-6.758125e-08,-3.875000e-02
-5.958125e-08,2.625000e-02
-5.158125e-08,-2.000000e-02
-4.358125e-08,0.000000e+00
-3.558125e-08,-3.325000e-01
-2.758125e-08,-1.422500e+00
-1.958125e-08,-1.435000e+00
-1.158125e-08,-1.398750e+00
-3.581250e-09,-8.000000e-02
4.418750e-09,1.750000e-02
1.241875e-08,-1.250000e-03
2.041875e-08,2.375000e-02
2.841875e-08,1.250000e-03
3.641875e-08,6.250000e-03
4.441875e-08,-3.000000e-02
5.241875e-08,2.125000e-02
6.041875e-08,-2.000000e-02
6.841875e-08,2.125000e-02
7.641875e-08,-2.875000e-02
8.441875e-08,1.000000e-02
9.241875e-08,-2.500000e-03
1.004187e-07,2.625000e-02
1.084187e-07,1.250000e-03
1.164187e-07,5.000000e-03
1.244187e-07,-3.750000e-03
1.324187e-07,1.375000e-02
1.404187e-07,-2.375000e-02
1.484187e-07,1.000000e-02
1.564187e-07,-2.125000e-02
1.644187e-07,1.125000e-02
1.724187e-07,-2.875000e-02
1.804187e-07,1.250000e-02
1.884187e-07,-2.125000e-02
1.964187e-07,4.625000e-02
2.044187e-07,-2.000000e-02
2.124187e-07,1.250000e-03
2.204187e-07,-3.750000e-03
2.284187e-07,1.000000e-02
2.364187e-07,-3.000000e-02
2.444187e-07,7.500000e-03
2.524187e-07,-1.250000e-02
2.604187e-07,2.000000e-02
2.684187e-07,-1.125000e-02
2.764187e-07,1.875000e-02
2.844187e-07,-5.000000e-03
2.924187e-07,1.625000e-02
3.004187e-07,-3.875000e-02
3.084187e-07,1.125000e-02
3.164187e-07,-1.750000e-02
3.244187e-07,2.250000e-02
3.324187e-07,-2.375000e-02
3.404187e-07,2.125000e-02
3.484187e-07,-6.250000e-03
3.564187e-07,2.875000e-02
3.644187e-07,-2.250000e-02
3.724187e-07,1.125000e-02
3.804187e-07,-1.250000e-03
3.884187e-07,1.750000e-02
3.964187e-07,0.000000e+00
4.044187e-07,3.750000e-03
4.124187e-07,-2.375000e-02
4.204187e-07,6.250000e-03
4.284187e-07,-2.625000e-02
4.364187e-07,8.750000e-03
4.444187e-07,-2.000000e-02
4.524187e-07,7.500000e-03
4.604187e-07,-2.000000e-02
4.684187e-07,2.625000e-02
4.764187e-07,-1.250000e-03
4.844187e-07,1.000000e-02
4.924187e-07,-4.125000e-02
5.004187e-07,1.875000e-02
5.084187e-07,-1.375000e-02
5.164187e-07,2.000000e-02
5.244187e-07,-3.750000e-03
5.324187e-07,1.000000e-02
5.404187e-07,-1.125000e-02
5.484187e-07,6.250000e-03
5.564187e-07,-2.750000e-02
5.644187e-07,2.500000e-02
5.724187e-07,-3.125000e-02
5.804187e-07,1.125000e-02
5.884187e-07,-2.500000e-03
5.964187e-07,2.875000e-02
6.044187e-07,-1.625000e-02
6.124187e-07,1.375000e-02
6.204187e-07,-3.500000e-02
6.284187e-07,2.625000e-02
6.364187e-07,-2.500000e-03
6.444187e-07,8.750000e-03
6.524187e-07,-2.500000e-02
6.604187e-07,2.375000e-02
6.684187e-07,-6.250000e-03
6.764187e-07,3.500000e-02
6.844187e-07,-1.750000e-02
6.924187e-07,5.000000e-03
7.004187e-07,3.750000e-03
7.084187e-07,3.750000e-02
7.164187e-07,-1.250000e-03
7.244187e-07,-6.250000e-03
7.324187e-07,-1.500000e-02
7.404187e-07,2.125000e-02
7.484187e-07,-2.125000e-02
7.564187e-07,1.250000e-03
7.644187e-07,-1.250000e-03
7.724187e-07,2.875000e-02
7.804187e-07,3.750000e-03
7.884187e-07,1.750000e-02
7.964187e-07,-1.875000e-02
8.044187e-07,1.500000e-02
