run1/run1_ch1_20210318180135030.csv

Model,MSO64
Waveform Type,ANALOG
Horizontal Units,s
Sample Interval,8.000000e-09
Record Length,1250
Zero Index,624.925000
Vertical Units,V

TIME,CH1
-4.999400e-06,-2.125000e-02
-4.991400e-06,2.500000e-02
-4.983400e-06,-2.500000e-02
-4.975400e-06,1.000000e-02
-4.967400e-06,8.750000e-03
-4.959400e-06,2.250000e-02
-4.951400e-06,-6.250000e-03
-4.943400e-06,1.875000e-02
-4.935400e-06,-6.250000e-03
-4.927400e-06,2.125000e-02
-4.919400e-06,-2.500000e-02
-4.911400e-06,1.500000e-02
-4.903400e-06,-2.625000e-02
-4.895400e-06,1.500000e-02
-4.887400e-06,-2.500000e-02
-4.879400e-06,2.250000e-02
-4.871400e-06,-3.625000e-02
-4.863400e-06,1.500000e-02
-4.855400e-06,-1.250000e-02
-4.847400e-06,6.250000e-03
-4.839400e-06,-2.625000e-02
-4.831400e-06,6.250000e-03
-4.823400e-06,-2.500000e-03
-4.815400e-06,2.375000e-02
-4.807400e-06,-2.750000e-02
-4.799400e-06,2.000000e-02
-4.791400e-06,-1.250000e-02
-4.783400e-06,1.000000e-02
-4.775400e-06,-1.875000e-02
-4.767400e-06,2.875000e-02
-4.759400e-06,-2.500000e-02
-4.751400e-06,2.125000e-02
-4.743400e-06,3.750000e-03
-4.735400e-06,1.000000e-02
-4.727400e-06,-2.375000e-02
-4.719400e-06,1.750000e-02
-4.711400e-06,-2.625000e-02
-4.703400e-06,8.750000e-03
-4.695400e-06,-1.750000e-02
-4.687400e-06,2.000000e-02
-4.679400e-06,-1.250000e-02
-4.671400e-06,5.000000e-03
-4.663400e-06,-2.625000e-02
-4.655400e-06,1.500000e-02
-4.647400e-06,-2.750000e-02
-4.639400e-06,2.625000e-02
-4.631400e-06,-2.500000e-02
-4.623400e-06,1.750000e-02
-4.615400e-06,-3.750000e-02
-4.607400e-06,2.250000e-02
-4.599400e-06,-4.000000e-02
-4.591400e-06,2.250000e-02
-4.583400e-06,-2.375000e-02
-4.575400e-06,1.125000e-02
-4.567400e-06,-2.000000e-02
-4.559400e-06,3.500000e-02
-4.551400e-06,-7.500000e-03
-4.543400e-06,5.000000e-03
-4.535400e-06,-5.000000e-03
-4.527400e-06,2.500000e-02
-4.519400e-06,-3.750000e-02
-4.511400e-06,2.125000e-02
-4.503400e-06,-3.125000e-02
-4.495400e-06,1.625000e-02
-4.487400e-06,-2.000000e-02
-4.479400e-06,1.500000e-02
-4.471400e-06,-4.625000e-02
-4.463400e-06,2.125000e-02
-4.455400e-06,-1.875000e-02
-4.447400e-06,3.000000e-02
-4.439400e-06,3.750000e-03
-4.431400e-06,1.125000e-02
-4.423400e-06,-2.125000e-02
-4.415400e-06,2.125000e-02
-4.407400e-06,-8.750000e-03
-4.399400e-06,-6.250000e-03
-4.391400e-06,-3.500000e-02
-4.383400e-06,4.000000e-02
-4.375400e-06,-1.875000e-02
-4.367400e-06,3.500000e-02
-4.359400e-06,1.250000e-02
-4.351400e-06,1.125000e-02
-4.343400e-06,-1.875000e-02
-4.335400e-06,1.250000e-02
-4.327400e-06,-3.375000e-02
-4.319400e-06,3.125000e-02
-4.311400e-06,-1.125000e-02
-4.303400e-06,2.625000e-02
-4.295400e-06,-1.625000e-02
-4.287400e-06,3.750000e-02
-4.279400e-06,-3.000000e-02
-4.271400e-06,2.500000e-02
-4.263400e-06,-2.250000e-02
-4.255400e-06,2.000000e-02
-4.247400e-06,-4.000000e-02
-4.239400e-06,3.375000e-02
-4.231400e-06,-1.750000e-02
-4.223400e-06,-1.000000e-02
-4.215400e-06,-2.125000e-02
-4.207400e-06,2.750000e-02
-4.199400e-06,-2.625000e-02
-4.191400e-06,6.250000e-03
-4.183400e-06,-7.500000e-03
-4.175400e-06,3.375000e-02
-4.167400e-06,-7.500000e-03
-4.159400e-06,1.875000e-02
-4.151400e-06,-7.500000e-03
-4.143400e-06,3.125000e-02
-4.135400e-06,-8.750000e-03
-4.127400e-06,3.125000e-02
-4.119400e-06,-3.500000e-02
-4.111400e-06,1.875000e-02
-4.103400e-06,-1.750000e-02
-4.095400e-06,1.750000e-02
-4.087400e-06,-1.750000e-02
-4.079400e-06,5.000000e-03
-4.071400e-06,-1.000000e-02
-4.063400e-06,-3.750000e-03
-4.055400e-06,-8.750000e-03
-4.047400e-06,2.625000e-02
-4.039400e-06,-1.250000e-02
-4.031400e-06,1.625000e-02
-4.023400e-06,-2.375000e-02
-4.015400e-06,2.375000e-02
-4.007400e-06,-3.250000e-02
-3.999400e-06,2.500000e-03
-3.991400e-06,-4.500000e-02
-3.983400e-06,1.750000e-02
-3.975400e-06,-7.500000e-03
-3.967400e-06,3.750000e-03
-3.959400e-06,-1.250000e-02
-3.951400e-06,1.500000e-02
-3.943400e-06,-2.375000e-02
-3.935400e-06,2.250000e-02
-3.927400e-06,-6.250000e-03
-3.919400e-06,3.250000e-02
-3.911400e-06,1.000000e-02
-3.903400e-06,8.750000e-03
-3.895400e-06,-1.875000e-02
-3.887400e-06,5.000000e-03
-3.879400e-06,-3.500000e-02
-3.871400e-06,2.125000e-02
-3.863400e-06,-2.625000e-02
-3.855400e-06,1.250000e-02
-3.847400e-06,-7.500000e-03
-3.839400e-06,1.000000e-02
-3.831400e-06,-1.250000e-03
-3.823400e-06,7.500000e-03
-3.815400e-06,-2.250000e-02
-3.807400e-06,7.500000e-03
-3.799400e-06,0.000000e+00
-3.791400e-06,-2.500000e-03
-3.783400e-06,0.000000e+00
-3.775400e-06,-1.000000e-02
-3.767400e-06,-6.250000e-03
-3.759400e-06,2.125000e-02
-3.751400e-06,-2.250000e-02
-3.743400e-06,8.750000e-03
-3.735400e-06,-2.500000e-02
-3.727400e-06,2.375000e-02
-3.719400e-06,-1.000000e-02
-3.711400e-06,3.375000e-02
-3.703400e-06,8.750000e-03
-3.695400e-06,3.000000e-02
-3.687400e-06,-8.750000e-03
-3.679400e-06,1.375000e-02
-3.671400e-06,-1.000000e-02
-3.663400e-06,2.875000e-02
-3.655400e-06,-1.375000e-02
-3.647400e-06,1.375000e-02
-3.639400e-06,-1.000000e-02
-3.631400e-06,2.500000e-03
-3.623400e-06,-2.000000e-02
-3.615400e-06,0.000000e+00
-3.607400e-06,-4.000000e-02
-3.599400e-06,1.875000e-02
-3.591400e-06,-1.750000e-02
-3.583400e-06,5.000000e-03
-3.575400e-06,-1.000000e-02
-3.567400e-06,2.500000e-02
-3.559400e-06,-1.375000e-02
-3.551400e-06,1.500000e-02
-3.543400e-06,1.125000e-02
-3.535400e-06,1.125000e-02
-3.527400e-06,7.500000e-03
-3.519400e-06,1.500000e-02
-3.511400e-06,-3.000000e-02
-3.503400e-06,3.125000e-02
-3.495400e-06,-2.125000e-02
-3.487400e-06,2.125000e-02
-3.479400e-06,-1.500000e-02
-3.471400e-06,1.500000e-02
-3.463400e-06,-4.125000e-02
-3.455400e-06,-3.750000e-03
-3.447400e-06,1.250000e-03
-3.439400e-06,3.750000e-02
-3.431400e-06,-3.375000e-02
-3.423400e-06,2.250000e-02
-3.415400e-06,1.250000e-03
-3.407400e-06,2.125000e-02
-3.399400e-06,-7.500000e-03
-3.391400e-06,1.500000e-02
-3.383400e-06,-1.500000e-02
-3.375400e-06,1.625000e-02
-3.367400e-06,-2.375000e-02
-3.359400e-06,1.375000e-02
-3.351400e-06,-2.250000e-02
-3.343400e-06,1.750000e-02
-3.335400e-06,1.250000e-03
-3.327400e-06,2.125000e-02
-3.319400e-06,-2.125000e-02
-3.311400e-06,2.125000e-02
-3.303400e-06,-1.125000e-02
-3.295400e-06,1.500000e-02
-3.287400e-06,-1.250000e-03
-3.279400e-06,1.250000e-03
-3.271400e-06,7.500000e-03
-3.263400e-06,2.125000e-02
-3.255400e-06,-1.500000e-02
-3.247400e-06,3.625000e-02
-3.239400e-06,-4.125000e-02
-3.231400e-06,2.125000e-02
-3.223400e-06,-1.750000e-02
-3.215400e-06,1.750000e-02
-3.207400e-06,-8.750000e-03
-3.199400e-06,3.125000e-02
-3.191400e-06,0.000000e+00
-3.183400e-06,8.750000e-03
-3.175400e-06,-5.000000e-03
-3.167400e-06,-3.750000e-03
-3.159400e-06,7.500000e-03
-3.151400e-06,7.500000e-03
-3.143400e-06,-3.000000e-02
-3.135400e-06,1.250000e-02
-3.127400e-06,-3.125000e-02
-3.119400e-06,5.000000e-03
-3.111400e-06,-1.500000e-02
-3.103400e-06,1.125000e-02
-3.095400e-06,-1.625000e-02
-3.087400e-06,7.500000e-03
-3.079400e-06,-1.875000e-02
-3.071400e-06,2.875000e-02
-3.063400e-06,-3.125000e-02
-3.055400e-06,2.500000e-03
-3.047400e-06,-2.000000e-02
-3.039400e-06,1.750000e-02
-3.031400e-06,-2.125000e-02
-3.023400e-06,3.375000e-02
-3.015400e-06,-8.750000e-03
-3.007400e-06,-1.000000e-02
-2.999400e-06,-1.250000e-02
-2.991400e-06,1.875000e-02
-2.983400e-06,-4.250000e-02
-2.975400e-06,3.250000e-02
-2.967400e-06,2.500000e-03
-2.959400e-06,3.500000e-02
-2.951400e-06,1.250000e-03
-2.943400e-06,-1.500000e-02
-2.935400e-06,-2.375000e-02
-2.927400e-06,1.000000e-02
-2.919400e-06,-2.625000e-02
-2.911400e-06,3.125000e-02
-2.903400e-06,-3.750000e-03
-2.895400e-06,2.875000e-02
-2.887400e-06,-7.500000e-03
-2.879400e-06,1.000000e-02
-2.871400e-06,-1.375000e-02
-2.863400e-06,1.375000e-02
-2.855400e-06,-1.750000e-02
-2.847400e-06,1.875000e-02
-2.839400e-06,-2.250000e-02
-2.831400e-06,1.250000e-02
-2.823400e-06,-2.250000e-02
-2.815400e-06,1.750000e-02
-2.807400e-06,5.000000e-03
-2.799400e-06,1.375000e-02
-2.791400e-06,-1.500000e-02
-2.783400e-06,6.250000e-03
-2.775400e-06,7.500000e-03
-2.767400e-06,3.000000e-02
-2.759400e-06,-1.250000e-03
-2.751400e-06,8.750000e-03
-2.743400e-06,-1.750000e-02
-2.735400e-06,1.250000e-03
-2.727400e-06,-8.750000e-03
-2.719400e-06,1.125000e-02
-2.711400e-06,-2.125000e-02
-2.703400e-06,2.375000e-02
-2.695400e-06,8.750000e-03
-2.687400e-06,3.625000e-02
-2.679400e-06,-1.875000e-02
-2.671400e-06,1.750000e-02
-2.663400e-06,-8.750000e-03
-2.655400e-06,3.000000e-02
-2.647400e-06,0.000000e+00
-2.639400e-06,4.000000e-02
-2.631400e-06,-2.125000e-02
-2.623400e-06,2.125000e-02
-2.615400e-06,-2.125000e-02
-2.607400e-06,3.125000e-02
-2.599400e-06,-2.000000e-02
-2.591400e-06,2.500000e-02
-2.583400e-06,-1.375000e-02
-2.575400e-06,5.000000e-03
-2.567400e-06,-3.750000e-02
-2.559400e-06,0.000000e+00
-2.551400e-06,-1.125000e-02
-2.543400e-06,1.500000e-02
-2.535400e-06,-1.250000e-03
-2.527400e-06,7.500000e-03
-2.519400e-06,-1.875000e-02
-2.511400e-06,1.250000e-02
-2.503400e-06,-3.000000e-02
-2.495400e-06,1.750000e-02
-2.487400e-06,-1.500000e-02
-2.479400e-06,2.250000e-02
-2.471400e-06,-2.125000e-02
-2.463400e-06,2.375000e-02
-2.455400e-06,-8.750000e-03
-2.447400e-06,6.250000e-03
-2.439400e-06,-2.875000e-02
-2.431400e-06,1.750000e-02
-2.423400e-06,-2.500000e-03
-2.415400e-06,1.125000e-02
-2.407400e-06,-2.625000e-02
-2.399400e-06,2.750000e-02
-2.391400e-06,3.750000e-03
-2.383400e-06,6.250000e-03
-2.375400e-06,-1.000000e-02
-2.367400e-06,2.625000e-02
-2.359400e-06,-2.000000e-02
-2.351400e-06,2.625000e-02
-2.343400e-06,-7.500000e-03
-2.335400e-06,3.750000e-03
-2.327400e-06,-4.750000e-02
-2.319400e-06,2.000000e-02
-2.311400e-06,-1.125000e-02
-2.303400e-06,7.500000e-03
-2.295400e-06,-2.375000e-02
-2.287400e-06,2.375000e-02
-2.279400e-06,-3.625000e-02
-2.271400e-06,2.500000e-02
-2.263400e-06,-8.750000e-03
-2.255400e-06,2.125000e-02
-2.247400e-06,-2.375000e-02
-2.239400e-06,3.375000e-02
-2.231400e-06,-1.250000e-03
-2.223400e-06,2.875000e-02
-2.215400e-06,-3.125000e-02
-2.207400e-06,3.750000e-03
-2.199400e-06,-1.500000e-02
-2.191400e-06,2.250000e-02
-2.183400e-06,-5.000000e-03
-2.175400e-06,2.500000e-03
-2.167400e-06,-1.125000e-02
-2.159400e-06,5.000000e-03
-2.151400e-06,-2.875000e-02
-2.143400e-06,6.250000e-03
-2.135400e-06,-2.250000e-02
-2.127400e-06,1.875000e-02
-2.119400e-06,-2.375000e-02
-2.111400e-06,4.000000e-02
-2.103400e-06,-1.375000e-02
-2.095400e-06,1.125000e-02
-2.087400e-06,-3.125000e-02
-2.079400e-06,2.500000e-02
-2.071400e-06,-1.625000e-02
-2.063400e-06,4.250000e-02
-2.055400e-06,-2.875000e-02
-2.047400e-06,1.875000e-02
-2.039400e-06,3.750000e-03
-2.031400e-06,1.875000e-02
-2.023400e-06,-3.375000e-02
-2.015400e-06,1.750000e-02
-2.007400e-06,-1.000000e-02
-1.999400e-06,1.625000e-02
-1.991400e-06,-7.500000e-03
-1.983400e-06,2.250000e-02
-1.975400e-06,-1.250000e-02
-1.967400e-06,2.500000e-02
-1.959400e-06,-2.875000e-02
-1.951400e-06,1.125000e-02
-1.943400e-06,-1.375000e-02
-1.935400e-06,1.625000e-02
-1.927400e-06,-3.750000e-03
-1.919400e-06,1.000000e-02
-1.911400e-06,8.750000e-03
-1.903400e-06,2.250000e-02
-1.895400e-06,-2.750000e-02
-1.887400e-06,2.750000e-02
-1.879400e-06,-6.250000e-03
-1.871400e-06,1.625000e-02
-1.863400e-06,-1.500000e-02
-1.855400e-06,2.125000e-02
-1.847400e-06,-1.375000e-02
-1.839400e-06,5.000000e-03
-1.831400e-06,-2.000000e-02
-1.823400e-06,1.750000e-02
-1.815400e-06,-3.250000e-02
-1.807400e-06,2.750000e-02
-1.799400e-06,-1.625000e-02
-1.791400e-06,6.250000e-03
-1.783400e-06,-1.625000e-02
-1.775400e-06,1.625000e-02
-1.767400e-06,-2.125000e-02
-1.759400e-06,3.000000e-02
-1.751400e-06,-1.125000e-02
-1.743400e-06,1.125000e-02
-1.735400e-06,-3.750000e-03
-1.727400e-06,6.250000e-03
-1.719400e-06,-1.500000e-02
-1.711400e-06,1.250000e-03
-1.703400e-06,-1.375000e-02
-1.695400e-06,6.250000e-03
-1.687400e-06,-2.875000e-02
-1.679400e-06,1.875000e-02
-1.671400e-06,-1.750000e-02
-1.663400e-06,2.250000e-02
-1.655400e-06,1.250000e-03
-1.647400e-06,1.875000e-02
-1.639400e-06,-2.625000e-02
-1.631400e-06,1.125000e-02
-1.623400e-06,-1.250000e-03
-1.615400e-06,1.875000e-02
-1.607400e-06,-7.500000e-03
-1.599400e-06,1.250000e-02
-1.591400e-06,-2.250000e-02
-1.583400e-06,2.375000e-02
-1.575400e-06,-1.250000e-02
-1.567400e-06,1.625000e-02
-1.559400e-06,-6.250000e-03
-1.551400e-06,2.125000e-02
-1.543400e-06,-5.000000e-03
-1.535400e-06,2.000000e-02
-1.527400e-06,-1.250000e-03
-1.519400e-06,1.375000e-02
-1.511400e-06,-1.625000e-02
-1.503400e-06,8.750000e-03
-1.495400e-06,1.875000e-02
-1.487400e-06,1.250000e-02
-1.479400e-06,-2.125000e-02
-1.471400e-06,3.375000e-02
-1.463400e-06,-3.125000e-02
-1.455400e-06,2.875000e-02
-1.447400e-06,-3.625000e-02
-1.439400e-06,-1.125000e-02
-1.431400e-06,-3.500000e-02
-1.423400e-06,3.625000e-02
-1.415400e-06,-2.000000e-02
-1.407400e-06,1.250000e-02
-1.399400e-06,-1.125000e-02
-1.391400e-06,2.375000e-02
-1.383400e-06,-1.625000e-02
-1.375400e-06,8.750000e-03
-1.367400e-06,5.000000e-03
-1.359400e-06,2.500000e-02
-1.351400e-06,-1.000000e-02
-1.343400e-06,1.125000e-02
-1.335400e-06,-3.750000e-03
-1.327400e-06,1.875000e-02
-1.319400e-06,-1.250000e-02
-1.311400e-06,4.375000e-02
-1.303400e-06,-7.500000e-03
-1.295400e-06,3.000000e-02
-1.287400e-06,-2.625000e-02
-1.279400e-06,1.250000e-02
-1.271400e-06,-7.500000e-03
-1.263400e-06,1.125000e-02
-1.255400e-06,-2.125000e-02
-1.247400e-06,2.750000e-02
-1.239400e-06,-6.250000e-03
-1.231400e-06,1.750000e-02
-1.223400e-06,6.250000e-03
-1.215400e-06,7.500000e-03
-1.207400e-06,-1.625000e-02
-1.199400e-06,1.500000e-02
-1.191400e-06,-3.000000e-02
-1.183400e-06,2.375000e-02
-1.175400e-06,-1.750000e-02
-1.167400e-06,4.625000e-02
-1.159400e-06,-2.625000e-02
-1.151400e-06,-5.000000e-03
-1.143400e-06,1.250000e-03
-1.135400e-06,2.000000e-02
-1.127400e-06,-3.500000e-02
-1.119400e-06,6.250000e-03
-1.111400e-06,-1.250000e-03
-1.103400e-06,3.750000e-02
-1.095400e-06,-1.625000e-02
-1.087400e-06,1.375000e-02
-1.079400e-06,-1.875000e-02
-1.071400e-06,2.500000e-03
-1.063400e-06,1.250000e-03
-1.055400e-06,1.625000e-02
-1.047400e-06,-3.000000e-02
-1.039400e-06,2.625000e-02
-1.031400e-06,-2.875000e-02
-1.023400e-06,3.750000e-02
-1.015400e-06,-1.000000e-02
-1.007400e-06,2.500000e-02
-9.994000e-07,-2.875000e-02
-9.914000e-07,5.000000e-03
-9.834000e-07,-1.000000e-02
-9.754000e-07,2.625000e-02
-9.674000e-07,3.750000e-03
-9.594000e-07,8.750000e-03
-9.514000e-07,2.500000e-03
-9.434000e-07,-3.750000e-03
-9.354000e-07,-3.500000e-02
-9.274000e-07,2.625000e-02
-9.194000e-07,-1.000000e-02
-9.114000e-07,1.750000e-02
-9.034000e-07,-1.625000e-02
-8.954000e-07,2.875000e-02
-8.874000e-07,-3.125000e-02
-8.794000e-07,1.625000e-02
-8.714000e-07,-4.375000e-02
-8.634000e-07,7.500000e-03
-8.554000e-07,-1.125000e-02
-8.474000e-07,1.875000e-02
-8.394000e-07,5.000000e-03
-8.314000e-07,1.625000e-02
-8.234000e-07,-2.375000e-02
-8.154000e-07,3.750000e-03
-8.074000e-07,-2.125000e-02
-7.994000e-07,7.500000e-03
-7.914000e-07,-3.500000e-02
-7.834000e-07,1.000000e-02
-7.754000e-07,-6.250000e-03
-7.674000e-07,3.000000e-02
-7.594000e-07,-1.500000e-02
-7.514000e-07,1.625000e-02
-7.434000e-07,-2.875000e-02
-7.354000e-07,7.500000e-03
-7.274000e-07,3.750000e-03
-7.194000e-07,2.000000e-02
-7.114000e-07,-8.750000e-03
-7.034000e-07,5.000000e-03
-6.954000e-07,-3.250000e-02
-6.874000e-07,0.000000e+00
-6.794000e-07,-3.250000e-02
-6.714000e-07,1.750000e-02
-6.634000e-07,-2.500000e-02
-6.554000e-07,2.625000e-02
-6.474000e-07,-2.125000e-02
-6.394000e-07,-1.500000e-02
-6.314000e-07,-4.500000e-02
-6.234000e-07,1.000000e-02
-6.154000e-07,-1.375000e-02
-6.074000e-07,1.000000e-02
-5.994000e-07,-3.000000e-02
-5.914000e-07,1.500000e-02
-5.834000e-07,-1.875000e-02
-5.754000e-07,3.000000e-02
-5.674000e-07,-8.750000e-03
-5.594000e-07,1.375000e-02
-5.514000e-07,-1.500000e-02
-5.434000e-07,1.500000e-02
-5.354000e-07,-2.250000e-02
-5.274000e-07,2.875000e-02
-5.194000e-07,-1.250000e-03
-5.114000e-07,7.500000e-03
-5.034000e-07,-1.375000e-02
-4.954000e-07,2.125000e-02
-4.874000e-07,-1.125000e-02
-4.794000e-07,2.250000e-02
-4.714000e-07,7.500000e-03
-4.634000e-07,1.875000e-02
-4.554000e-07,-1.625000e-02
-4.474000e-07,1.500000e-02
-4.394000e-07,-1.500000e-02
-4.314000e-07,2.500000e-02
-4.234000e-07,-1.875000e-02
-4.154000e-07,2.625000e-02
-4.074000e-07,-3.375000e-02
-3.994000e-07,3.750000e-02
-3.914000e-07,-5.000000e-03
-3.834000e-07,1.250000e-03
-3.754000e-07,3.750000e-03
-3.674000e-07,2.250000e-02
-3.594000e-07,-1.500000e-02
-3.514000e-07,1.250000e-02
-3.434000e-07,-2.500000e-03
-3.354000e-07,2.125000e-02
-3.274000e-07,-2.000000e-02
-3.194000e-07,3.000000e-02
-3.114000e-07,-1.250000e-03
-3.034000e-07,-1.250000e-03
-2.954000e-07,-8.750000e-03
-2.874000e-07,8.750000e-03
-2.794000e-07,-2.250000e-02
-2.714000e-07,2.000000e-02
-2.634000e-07,-2.875000e-02
-2.554000e-07,7.500000e-03
-2.474000e-07,-2.500000e-03
-2.394000e-07,2.750000e-02
-2.314000e-07,-1.500000e-02
-2.234000e-07,6.250000e-03
-2.154000e-07,6.250000e-03
-2.074000e-07,3.625000e-02
-1.994000e-07,-1.625000e-02
-1.914000e-07,1.000000e-02
-1.834000e-07,-1.875000e-02
-1.754000e-07,1.000000e-02
-1.674000e-07,-2.500000e-03
-1.594000e-07,1.875000e-02
-1.514000e-07,-7.500000e-03
-1.434000e-07,4.000000e-02
-1.354000e-07,-2.625000e-02
-1.274000e-07,2.125000e-02
-1.194000e-07,-2.500000e-03
-1.114000e-07,1.625000e-02
-1.034000e-07,-2.875000e-02
-9.540000e-08,0.000000e+00
-8.740000e-08,-5.000000e-03
-7.940000e-08,2.250000e-02
-7.140000e-08,-5.000000e-03
-6.340000e-08,3.250000e-02
-5.540000e-08,-2.125000e-02
-4.740000e-08,1.000000e-02
-3.940000e-08,-3.125000e-02
-3.140000e-08,-1.386250e+00
-2.340000e-08,-1.431250e+00
-1.540000e-08,-1.397500e+00
-7.400000e-09,-1.340000e+00
6.000000e-10,-8.750000e-03
8.600000e-09,-2.875000e-02
1.660000e-08,3.000000e-02
2.460000e-08,-7.500000e-03
3.260000e-08,2.625000e-02
4.060000e-08,-2.000000e-02
4.860000e-08,4.000000e-02
5.660000e-08,-8.750000e-03
6.460000e-08,1.000000e-02
7.260000e-08,-2.500000e-02
8.060000e-08,2.875000e-02
8.860000e-08,-1.875000e-02
9.660000e-08,2.500000e-03
1.046000e-07,-1.000000e-02
1.126000e-07,2.375000e-02
1.206000e-07,-2.875000e-02
1.286000e-07,1.625000e-02
1.366000e-07,-1.625000e-02
1.446000e-07,3.125000e-02
1.526000e-07,-1.875000e-02
1.606000e-07,7.500000e-03
1.686000e-07,-1.500000e-02
1.766000e-07,1.750000e-02
1.846000e-07,0.000000e+00
1.926000e-07,2.750000e-02
2.006000e-07,-8.750000e-03
2.086000e-07,2.750000e-02
2.166000e-07,-2.750000e-02
2.246000e-07,2.125000e-02
2.326000e-07,-2.750000e-02
2.406000e-07,8.750000e-03
2.486000e-07,-8.750000e-03
2.566000e-07,2.750000e-02
2.646000e-07,-3.625000e-02
2.726000e-07,1.500000e-02
2.806000e-07,-1.500000e-02
2.886000e-07,2.875000e-02
2.966000e-07,-8.750000e-03
3.046000e-07,5.125000e-02
3.126000e-07,-1.125000e-02
3.206000e-07,2.000000e-02
3.286000e-07,-1.000000e-02
3.366000e-07,1.875000e-02
3.446000e-07,-4.125000e-02
3.526000e-07,2.000000e-02
3.606000e-07,-3.375000e-02
3.686000e-07,1.375000e-02
3.766000e-07,0.000000e+00
3.846000e-07,2.625000e-02
3.926000e-07,-3.750000e-03
4.006000e-07,6.250000e-03
4.086000e-07,-1.750000e-02
4.166000e-07,3.625000e-02
4.246000e-07,-5.000000e-03
4.326000e-07,2.375000e-02
4.406000e-07,1.375000e-02
4.486000e-07,2.500000e-02
4.566000e-07,3.750000e-03
4.646000e-07,1.250000e-03
4.726000e-07,-2.625000e-02
4.806000e-07,8.750000e-03
4.886000e-07,-1.500000e-02
4.966000e-07,2.000000e-02
5.046000e-07,-3.125000e-02
5.126000e-07,-8.750000e-03
5.206000e-07,-3.750000e-03
5.286000e-07,1.750000e-02
5.366000e-07,-2.625000e-02
5.446000e-07,8.750000e-03
5.526000e-07,-1.125000e-02
5.606000e-07,2.875000e-02
5.686000e-07,-1.000000e-02
5.766000e-07,1.750000e-02
5.846000e-07,1.250000e-03
5.926000e-07,1.750000e-02
6.006000e-07,-2.250000e-02
6.086000e-07,1.625000e-02
6.166000e-07,-7.500000e-03
6.246000e-07,2.500000e-02
6.326000e-07,-1.875000e-02
6.406000e-07,0.000000e+00
6.486000e-07,-1.875000e-02
6.566000e-07,1.750000e-02
6.646000e-07,-1.000000e-02
6.726000e-07,1.750000e-02
6.806000e-07,-1.250000e-02
6.886000e-07,2.375000e-02
6.966000e-07,-2.000000e-02
7.046000e-07,2.250000e-02
7.126000e-07,-2.500000e-03
7.206000e-07,2.500000e-03
7.286000e-07,-2.875000e-02
7.366000e-07,3.750000e-03
7.446000e-07,-2.875000e-02
7.526000e-07,1.500000e-02
7.606000e-07,-2.000000e-02
7.686000e-07,5.000000e-03
7.766000e-07,-1.875000e-02
7.846000e-07,6.250000e-03
7.926000e-07,-3.750000e-02
8.006000e-07,2.625000e-02
