run1/run1_ch1_20210318180305928.csv

Model,MSO64
Waveform Type,ANALOG
Horizontal Units,s
Sample Interval,8.000000e-09
Record Length,1250
Zero Index,624.420156
Vertical Units,V

TIME,CH1
-4.995361e-06,-8.750000e-03
-4.987361e-06,6.250000e-03
-4.979361e-06,7.500000e-03
-4.971361e-06,1.375000e-02
-4.963361e-06,-5.000000e-03
-4.955361e-06,2.125000e-02
-4.947361e-06,-2.375000e-02
-4.939361e-06,2.125000e-02
-4.931361e-06,0.000000e+00
-4.923361e-06,7.500000e-03
-4.915361e-06,-2.000000e-02
-4.907361e-06,1.875000e-02
-4.899361e-06,-1.125000e-02
-4.891361e-06,-2.500000e-03
-4.883361e-06,-4.000000e-02
-4.875361e-06,1.250000e-02
-4.867361e-06,-1.000000e-02
-4.859361e-06,3.750000e-02
-4.851361e-06,-1.000000e-02
-4.843361e-06,3.125000e-02
-4.835361e-06,-6.250000e-03
-4.827361e-06,1.375000e-02
-4.819361e-06,-1.250000e-02
-4.811361e-06,-6.250000e-03
-4.803361e-06,-1.625000e-02
-4.795361e-06,-5.000000e-03
-4.787361e-06,-6.250000e-03
-4.779361e-06,1.500000e-02
-4.771361e-06,-4.000000e-02
-4.763361e-06,1.875000e-02
-4.755361e-06,-2.125000e-02
-4.747361e-06,7.500000e-03
-4.739361e-06,-1.750000e-02
-4.731361e-06,3.625000e-02
-4.723361e-06,3.750000e-03
-4.715361e-06,7.500000e-03
-4.707361e-06,-7.500000e-03
-4.699361e-06,2.875000e-02
-4.691361e-06,7.500000e-03
-4.683361e-06,1.875000e-02
-4.675361e-06,-2.500000e-03
-4.667361e-06,1.000000e-02
-4.659361e-06,-8.750000e-03
-4.651361e-06,3.250000e-02
-4.643361e-06,-1.375000e-02
-4.635361e-06,7.500000e-03
-4.627361e-06,-3.000000e-02
-4.619361e-06,2.125000e-02
-4.611361e-06,-1.750000e-02
-4.603361e-06,4.125000e-02
-4.595361e-06,-2.125000e-02
-4.587361e-06,1.625000e-02
-4.579361e-06,-8.750000e-03
-4.571361e-06,7.500000e-03
-4.563361e-06,-7.500000e-03
-4.555361e-06,3.750000e-03
-4.547361e-06,-5.000000e-03
-4.539361e-06,1.375000e-02
-4.531361e-06,-7.500000e-03
-4.523361e-06,1.250000e-02
-4.515361e-06,-2.000000e-02
-4.507361e-06,2.250000e-02
-4.499361e-06,-1.875000e-02
-4.491361e-06,1.250000e-02
-4.483361e-06,-1.125000e-02
-4.475361e-06,1.875000e-02
-4.467361e-06,-1.000000e-02
-4.459361e-06,2.500000e-03
-4.451361e-06,-5.000000e-03
-4.443361e-06,1.625000e-02
-4.435361e-06,-2.000000e-02
-4.427361e-06,1.875000e-02
-4.419361e-06,-1.750000e-02
-4.411361e-06,-3.750000e-03
-4.403361e-06,-3.250000e-02
-4.395361e-06,-1.125000e-02
-4.387361e-06,-8.750000e-03
-4.379361e-06,1.250000e-02
-4.371361e-06,-1.125000e-02
-4.363361e-06,1.125000e-02
-4.355361e-06,-2.250000e-02
-4.347361e-06,1.000000e-02
-4.339361e-06,-5.000000e-03
-4.331361e-06,-3.750000e-03
-4.323361e-06,5.000000e-03
-4.315361e-06,2.125000e-02
-4.307361e-06,-6.250000e-03
-4.299361e-06,5.000000e-03
-4.291361e-06,-1.250000e-03
-4.283361e-06,2.125000e-02
-4.275361e-06,-7.500000e-03
-4.267361e-06,5.000000e-03
-4.259361e-06,-1.125000e-02
-4.251361e-06,8.750000e-03
-4.243361e-06,-2.625000e-02
-4.235361e-06,1.125000e-02
-4.227361e-06,-2.500000e-02
-4.219361e-06,3.250000e-02
-4.211361e-06,-3.375000e-02
-4.203361e-06,2.500000e-03
-4.195361e-06,-2.625000e-02
-4.187361e-06,3.750000e-03
-4.179361e-06,8.750000e-03
-4.171361e-06,-1.250000e-02
-4.163361e-06,3.750000e-03
-4.155361e-06,8.750000e-03
-4.147361e-06,-3.750000e-03
-4.139361e-06,8.750000e-03
-4.131361e-06,-2.500000e-03
-4.123361e-06,2.250000e-02
-4.115361e-06,-6.250000e-03
-4.107361e-06,1.500000e-02
-4.099361e-06,-3.375000e-02
-4.091361e-06,1.500000e-02
-4.083361e-06,-1.000000e-02
-4.075361e-06,2.000000e-02
-4.067361e-06,-2.125000e-02
-4.059361e-06,1.125000e-02
-4.051361e-06,-3.750000e-03
-4.043361e-06,1.250000e-03
-4.035361e-06,1.750000e-02
-4.027361e-06,1.250000e-02
-4.019361e-06,-5.000000e-03
-4.011361e-06,1.250000e-02
-4.003361e-06,-1.125000e-02
-3.995361e-06,2.500000e-02
-3.987361e-06,-1.750000e-02
-3.979361e-06,2.000000e-02
-3.971361e-06,-1.125000e-02
-3.963361e-06,2.625000e-02
-3.955361e-06,-8.750000e-03
-3.947361e-06,6.250000e-03
-3.939361e-06,-1.000000e-02
-3.931361e-06,-1.250000e-03
-3.923361e-06,-7.500000e-03
-3.915361e-06,2.500000e-02
-3.907361e-06,3.750000e-03
-3.899361e-06,3.750000e-03
-3.891361e-06,1.125000e-02
-3.883361e-06,2.000000e-02
-3.875361e-06,-2.125000e-02
-3.867361e-06,5.000000e-03
-3.859361e-06,-2.750000e-02
-3.851361e-06,3.500000e-02
-3.843361e-06,-1.875000e-02
-3.835361e-06,2.500000e-02
-3.827361e-06,-8.750000e-03
-3.819361e-06,6.250000e-03
-3.811361e-06,-2.500000e-03
-3.803361e-06,2.750000e-02
-3.795361e-06,-7.500000e-03
-3.787361e-06,-1.250000e-03
-3.779361e-06,-2.375000e-02
-3.771361e-06,2.875000e-02
-3.763361e-06,-1.625000e-02
-3.755361e-06,1.875000e-02
-3.747361e-06,-5.000000e-03
-3.739361e-06,2.625000e-02
-3.731361e-06,-2.500000e-02
-3.723361e-06,1.375000e-02
-3.715361e-06,-2.000000e-02
-3.707361e-06,2.250000e-02
-3.699361e-06,-3.750000e-03
-3.691361e-06,1.875000e-02
-3.683361e-06,0.000000e+00
-3.675361e-06,2.500000e-03
-3.667361e-06,-1.125000e-02
-3.659361e-06,3.750000e-03
-3.651361e-06,-2.375000e-02
-3.643361e-06,3.125000e-02
-3.635361e-06,5.000000e-03
-3.627361e-06,-3.750000e-03
-3.619361e-06,7.500000e-03
-3.611361e-06,1.875000e-02
-3.603361e-06,-2.250000e-02
-3.595361e-06,1.000000e-02
-3.587361e-06,1.250000e-03
-3.579361e-06,2.000000e-02
-3.571361e-06,-2.000000e-02
-3.563361e-06,1.750000e-02
-3.555361e-06,-2.750000e-02
-3.547361e-06,1.625000e-02
-3.539361e-06,-3.250000e-02
-3.531361e-06,8.750000e-03
-3.523361e-06,0.000000e+00
-3.515361e-06,2.000000e-02
-3.507361e-06,-5.000000e-03
-3.499361e-06,1.375000e-02
-3.491361e-06,-5.000000e-03
-3.483361e-06,1.625000e-02
-3.475361e-06,-1.750000e-02
-3.467361e-06,1.625000e-02
-3.459361e-06,-1.625000e-02
-3.451361e-06,2.500000e-02
-3.443361e-06,-8.750000e-03
-3.435361e-06,1.750000e-02
-3.427361e-06,-1.125000e-02
-3.419361e-06,-2.500000e-03
-3.411361e-06,-1.500000e-02
-3.403361e-06,1.250000e-02
-3.395361e-06,-1.125000e-02
-3.387361e-06,2.750000e-02
-3.379361e-06,-8.750000e-03
-3.371361e-06,1.375000e-02
-3.363361e-06,-4.750000e-02
-3.355361e-06,2.500000e-02
-3.347361e-06,-4.000000e-02
-3.339361e-06,5.000000e-03
-3.331361e-06,-1.250000e-02
-3.323361e-06,3.000000e-02
-3.315361e-06,-2.500000e-02
-3.307361e-06,3.750000e-03
-3.299361e-06,7.500000e-03
-3.291361e-06,1.250000e-03
-3.283361e-06,-3.750000e-02
-3.275361e-06,-1.250000e-03
-3.267361e-06,1.000000e-02
-3.259361e-06,1.750000e-02
-3.251361e-06,3.750000e-03
-3.243361e-06,2.000000e-02
-3.235361e-06,1.250000e-03
-3.227361e-06,1.500000e-02
-3.219361e-06,-2.500000e-02
-3.211361e-06,2.125000e-02
-3.203361e-06,-8.750000e-03
-3.195361e-06,7.500000e-03
-3.187361e-06,-1.250000e-03
-3.179361e-06,8.750000e-03
-3.171361e-06,-1.625000e-02
-3.163361e-06,-3.750000e-03
-3.155361e-06,-5.250000e-02
-3.147361e-06,-5.000000e-03
-3.139361e-06,-2.375000e-02
-3.131361e-06,2.875000e-02
-3.123361e-06,-1.875000e-02
-3.115361e-06,1.125000e-02
-3.107361e-06,-1.250000e-02
-3.099361e-06,1.000000e-02
-3.091361e-06,-2.750000e-02
-3.083361e-06,3.750000e-03
-3.075361e-06,-1.750000e-02
-3.067361e-06,3.125000e-02
-3.059361e-06,-1.375000e-02
-3.051361e-06,2.125000e-02
-3.043361e-06,-1.250000e-03
-3.035361e-06,1.750000e-02
-3.027361e-06,-1.500000e-02
-3.019361e-06,1.125000e-02
-3.011361e-06,-1.000000e-02
-3.003361e-06,2.375000e-02
-2.995361e-06,-8.750000e-03
-2.987361e-06,5.000000e-03
-2.979361e-06,-4.125000e-02
-2.971361e-06,2.000000e-02
-2.963361e-06,-1.875000e-02
-2.955361e-06,3.625000e-02
-2.947361e-06,-2.875000e-02
-2.939361e-06,2.875000e-02
-2.931361e-06,7.500000e-03
-2.923361e-06,8.750000e-03
-2.915361e-06,-2.625000e-02
-2.907361e-06,3.125000e-02
-2.899361e-06,-1.625000e-02
-2.891361e-06,2.625000e-02
-2.883361e-06,-1.250000e-03
-2.875361e-06,2.625000e-02
-2.867361e-06,-2.500000e-03
-2.859361e-06,1.875000e-02
-2.851361e-06,6.250000e-03
-2.843361e-06,1.250000e-02
-2.835361e-06,-5.250000e-02
-2.827361e-06,2.875000e-02
-2.819361e-06,-8.750000e-03
-2.811361e-06,1.125000e-02
-2.803361e-06,-2.750000e-02
-2.795361e-06,1.875000e-02
-2.787361e-06,-3.750000e-03
-2.779361e-06,-1.125000e-02
-2.771361e-06,1.375000e-02
-2.763361e-06,1.125000e-02
-2.755361e-06,-2.000000e-02
-2.747361e-06,2.375000e-02
-2.739361e-06,1.375000e-02
-2.731361e-06,2.500000e-02
-2.723361e-06,-1.125000e-02
-2.715361e-06,3.000000e-02
-2.707361e-06,-2.500000e-02
-2.699361e-06,7.500000e-03
-2.691361e-06,-2.250000e-02
-2.683361e-06,1.250000e-02
-2.675361e-06,-1.125000e-02
-2.667361e-06,1.750000e-02
-2.659361e-06,-1.250000e-03
-2.651361e-06,1.250000e-02
-2.643361e-06,-8.750000e-03
-2.635361e-06,-3.750000e-03
-2.627361e-06,-3.125000e-02
-2.619361e-06,1.500000e-02
-2.611361e-06,7.500000e-03
-2.603361e-06,5.000000e-03
-2.595361e-06,-1.375000e-02
-2.587361e-06,1.500000e-02
-2.579361e-06,-1.375000e-02
-2.571361e-06,1.500000e-02
-2.563361e-06,-8.750000e-03
-2.555361e-06,2.000000e-02
-2.547361e-06,-4.125000e-02
-2.539361e-06,1.500000e-02
-2.531361e-06,-1.250000e-02
-2.523361e-06,6.250000e-03
-2.515361e-06,-3.750000e-03
-2.507361e-06,3.625000e-02
-2.499361e-06,-1.750000e-02
-2.491361e-06,2.375000e-02
-2.483361e-06,-6.250000e-03
-2.475361e-06,2.125000e-02
-2.467361e-06,-2.250000e-02
-2.459361e-06,2.625000e-02
-2.451361e-06,-2.750000e-02
-2.443361e-06,1.875000e-02
-2.435361e-06,-1.125000e-02
-2.427361e-06,1.875000e-02
-2.419361e-06,-7.500000e-03
-2.411361e-06,3.125000e-02
-2.403361e-06,-2.125000e-02
-2.395361e-06,2.500000e-03
-2.387361e-06,-3.750000e-03
-2.379361e-06,6.250000e-03
-2.371361e-06,1.250000e-03
-2.363361e-06,3.500000e-02
-2.355361e-06,-1.250000e-03
-2.347361e-06,1.875000e-02
-2.339361e-06,-1.250000e-02
-2.331361e-06,3.000000e-02
-2.323361e-06,-1.750000e-02
-2.315361e-06,5.000000e-03
-2.307361e-06,-1.500000e-02
-2.299361e-06,2.625000e-02
-2.291361e-06,-2.000000e-02
-2.283361e-06,2.375000e-02
-2.275361e-06,-3.750000e-03
-2.267361e-06,3.250000e-02
-2.259361e-06,-8.750000e-03
-2.251361e-06,3.750000e-03
-2.243361e-06,-1.375000e-02
-2.235361e-06,2.750000e-02
-2.227361e-06,-2.250000e-02
-2.219361e-06,1.250000e-03
-2.211361e-06,-1.250000e-02
-2.203361e-06,1.250000e-02
-2.195361e-06,-2.250000e-02
-2.187361e-06,2.000000e-02
-2.179361e-06,-3.125000e-02
-2.171361e-06,3.000000e-02
-2.163361e-06,-2.125000e-02
-2.155361e-06,3.125000e-02
-2.147361e-06,-3.250000e-02
-2.139361e-06,2.125000e-02
-2.131361e-06,-2.375000e-02
-2.123361e-06,1.000000e-02
-2.115361e-06,-8.750000e-03
-2.107361e-06,2.000000e-02
-2.099361e-06,-1.750000e-02
-2.091361e-06,3.750000e-03
-2.083361e-06,-1.500000e-02
-2.075361e-06,-8.750000e-03
-2.067361e-06,-6.250000e-03
-2.059361e-06,8.750000e-03
-2.051361e-06,-1.125000e-02
-2.043361e-06,2.500000e-02
-2.035361e-06,-2.250000e-02
-2.027361e-06,2.000000e-02
-2.019361e-06,6.250000e-03
-2.011361e-06,1.625000e-02
-2.003361e-06,-1.250000e-03
-1.995361e-06,1.125000e-02
-1.987361e-06,-2.250000e-02
-1.979361e-06,2.000000e-02
-1.971361e-06,-8.750000e-03
-1.963361e-06,6.250000e-03
-1.955361e-06,-3.750000e-03
-1.947361e-06,1.250000e-02
-1.939361e-06,-2.500000e-02
-1.931361e-06,2.750000e-02
-1.923361e-06,-1.500000e-02
-1.915361e-06,1.125000e-02
-1.907361e-06,-8.750000e-03
-1.899361e-06,1.375000e-02
-1.891361e-06,-2.000000e-02
-1.883361e-06,7.500000e-03
-1.875361e-06,-1.000000e-02
-1.867361e-06,1.750000e-02
-1.859361e-06,-1.250000e-03
-1.851361e-06,1.250000e-02
-1.843361e-06,-8.750000e-03
-1.835361e-06,-1.125000e-02
-1.827361e-06,-5.000000e-03
-1.819361e-06,2.000000e-02
-1.811361e-06,-4.125000e-02
-1.803361e-06,2.125000e-02
-1.795361e-06,-1.750000e-02
-1.787361e-06,2.375000e-02
-1.779361e-06,-6.250000e-03
-1.771361e-06,1.500000e-02
-1.763361e-06,-2.625000e-02
-1.755361e-06,2.875000e-02
-1.747361e-06,-7.500000e-03
-1.739361e-06,3.000000e-02
-1.731361e-06,-1.625000e-02
-1.723361e-06,1.125000e-02
-1.715361e-06,5.000000e-03
-1.707361e-06,2.375000e-02
-1.699361e-06,-2.125000e-02
-1.691361e-06,-2.500000e-03
-1.683361e-06,-1.500000e-02
-1.675361e-06,1.250000e-02
-1.667361e-06,-1.500000e-02
-1.659361e-06,0.000000e+00
-1.651361e-06,-1.875000e-02
-1.643361e-06,3.750000e-02
-1.635361e-06,-5.000000e-03
-1.627361e-06,2.000000e-02
-1.619361e-06,-1.250000e-03
-1.611361e-06,2.500000e-03
-1.603361e-06,1.250000e-03
-1.595361e-06,1.375000e-02
-1.587361e-06,-1.125000e-02
-1.579361e-06,1.500000e-02
-1.571361e-06,2.500000e-03
-1.563361e-06,3.000000e-02
-1.555361e-06,-1.500000e-02
-1.547361e-06,1.250000e-02
-1.539361e-06,-1.500000e-02
-1.531361e-06,1.875000e-02
-1.523361e-06,5.000000e-03
-1.515361e-06,1.125000e-02
-1.507361e-06,-2.750000e-02
-1.499361e-06,1.000000e-02
-1.491361e-06,-2.875000e-02
-1.483361e-06,8.750000e-03
-1.475361e-06,1.250000e-03
-1.467361e-06,7.500000e-03
-1.459361e-06,-2.500000e-03
-1.451361e-06,7.500000e-03
-1.443361e-06,1.500000e-02
-1.435361e-06,1.375000e-02
-1.427361e-06,-3.250000e-02
-1.419361e-06,1.250000e-02
-1.411361e-06,-1.375000e-02
-1.403361e-06,2.375000e-02
-1.395361e-06,-8.750000e-03
-1.387361e-06,1.500000e-02
-1.379361e-06,-3.750000e-03
-1.371361e-06,2.375000e-02
-1.363361e-06,-1.750000e-02
-1.355361e-06,1.750000e-02
-1.347361e-06,-2.500000e-02
-1.339361e-06,-5.000000e-03
-1.331361e-06,-2.500000e-02
-1.323361e-06,2.250000e-02
-1.315361e-06,-1.625000e-02
-1.307361e-06,5.000000e-03
-1.299361e-06,-4.375000e-02
-1.291361e-06,2.125000e-02
-1.283361e-06,-3.500000e-02
-1.275361e-06,4.625000e-02
-1.267361e-06,1.250000e-03
-1.259361e-06,-2.125000e-02
-1.251361e-06,-1.500000e-02
-1.243361e-06,2.125000e-02
-1.235361e-06,-1.875000e-02
-1.227361e-06,8.750000e-03
-1.219361e-06,1.000000e-02
-1.211361e-06,1.500000e-02
-1.203361e-06,-6.250000e-03
-1.195361e-06,1.000000e-02
-1.187361e-06,-7.500000e-03
-1.179361e-06,5.000000e-03
-1.171361e-06,-5.000000e-02
-1.163361e-06,1.375000e-02
-1.155361e-06,-4.000000e-02
-1.147361e-06,1.500000e-02
-1.139361e-06,-8.750000e-03
-1.131361e-06,2.125000e-02
-1.123361e-06,0.000000e+00
-1.115361e-06,1.125000e-02
-1.107361e-06,-1.125000e-02
-1.099361e-06,2.125000e-02
-1.091361e-06,1.250000e-03
-1.083361e-06,2.625000e-02
-1.075361e-06,-1.000000e-02
-1.067361e-06,-1.125000e-02
-1.059361e-06,-5.000000e-03
-1.051361e-06,2.500000e-03
-1.043361e-06,-2.125000e-02
-1.035361e-06,8.750000e-03
-1.027361e-06,-1.125000e-02
-1.019361e-06,1.625000e-02
-1.011361e-06,-6.250000e-03
-1.003361e-06,3.750000e-03
-9.953613e-07,-2.000000e-02
-9.873612e-07,1.250000e-02
-9.793612e-07,-3.625000e-02
-9.713612e-07,8.750000e-03
-9.633612e-07,-1.250000e-03
-9.553613e-07,7.500000e-03
-9.473612e-07,0.000000e+00
-9.393612e-07,2.375000e-02
-9.313613e-07,-1.125000e-02
-9.233612e-07,2.500000e-03
-9.153612e-07,-3.625000e-02
-9.073613e-07,2.500000e-02
-8.993612e-07,-1.250000e-02
-8.913612e-07,2.375000e-02
-8.833613e-07,-2.750000e-02
-8.753612e-07,1.500000e-02
-8.673612e-07,-1.500000e-02
-8.593613e-07,7.500000e-03
-8.513612e-07,-2.250000e-02
-8.433612e-07,1.375000e-02
-8.353613e-07,-5.000000e-03
-8.273612e-07,8.750000e-03
-8.193612e-07,1.250000e-03
-8.113613e-07,1.125000e-02
-8.033612e-07,-1.750000e-02
-7.953612e-07,2.500000e-03
-7.873613e-07,-3.500000e-02
-7.793612e-07,2.375000e-02
-7.713612e-07,-2.625000e-02
-7.633613e-07,1.500000e-02
-7.553612e-07,-5.000000e-03
-7.473612e-07,1.625000e-02
-7.393613e-07,-1.250000e-02
-7.313612e-07,2.125000e-02
-7.233612e-07,-2.375000e-02
-7.153613e-07,1.500000e-02
-7.073612e-07,-1.500000e-02
-6.993612e-07,7.500000e-03
-6.913612e-07,-1.375000e-02
-6.833612e-07,6.250000e-03
-6.753612e-07,-2.000000e-02
-6.673612e-07,-2.125000e-02
-6.593612e-07,-3.250000e-02
-6.513612e-07,1.250000e-03
-6.433612e-07,-5.000000e-03
-6.353612e-07,3.750000e-02
-6.273612e-07,-2.500000e-03
-6.193612e-07,1.000000e-02
-6.113612e-07,-1.375000e-02
-6.033612e-07,2.750000e-02
-5.953612e-07,-1.625000e-02
-5.873612e-07,1.250000e-02
-5.793612e-07,0.000000e+00
-5.713612e-07,1.750000e-02
-5.633612e-07,-1.250000e-02
-5.553612e-07,1.250000e-02
-5.473612e-07,-1.250000e-03
-5.393612e-07,-7.500000e-03
-5.313612e-07,-2.125000e-02
-5.233612e-07,3.750000e-03
-5.153613e-07,-2.500000e-02
-5.073612e-07,2.000000e-02
-4.993612e-07,-2.250000e-02
-4.913613e-07,7.500000e-03
-4.833612e-07,-8.750000e-03
-4.753612e-07,1.625000e-02
-4.673612e-07,-7.500000e-03
-4.593612e-07,2.125000e-02
-4.513612e-07,-7.500000e-03
-4.433612e-07,6.250000e-03
-4.353612e-07,-3.750000e-03
-4.273612e-07,2.125000e-02
-4.193612e-07,-1.750000e-02
-4.113612e-07,2.375000e-02
-4.033612e-07,-2.000000e-02
-3.953612e-07,2.000000e-02
-3.873612e-07,0.000000e+00
-3.793612e-07,2.250000e-02
-3.713612e-07,-1.875000e-02
-3.633612e-07,2.875000e-02
-3.553612e-07,-1.125000e-02
-3.473612e-07,-2.500000e-03
-3.393612e-07,-1.375000e-02
-3.313612e-07,2.500000e-03
-3.233612e-07,1.250000e-03
-3.153612e-07,1.125000e-02
-3.073612e-07,-1.250000e-02
-2.993612e-07,7.500000e-03
-2.913612e-07,0.000000e+00
-2.833612e-07,1.500000e-02
-2.753612e-07,-1.500000e-02
-2.673612e-07,2.375000e-02
-2.593612e-07,7.500000e-03
-2.513612e-07,4.875000e-02
-2.433612e-07,7.500000e-03
-2.353612e-07,2.000000e-02
-2.273612e-07,-6.250000e-03
-2.193612e-07,1.000000e-02
-2.113612e-07,-1.375000e-02
-2.033612e-07,1.625000e-02
-1.953612e-07,-2.500000e-02
-1.873612e-07,7.500000e-03
-1.793612e-07,-1.000000e-02
-1.713612e-07,-1.250000e-03
-1.633612e-07,-2.375000e-02
-1.553612e-07,2.250000e-02
-1.473612e-07,-1.000000e-02
-1.393612e-07,1.375000e-02
-1.313612e-07,-4.375000e-02
-1.233612e-07,1.875000e-02
-1.153612e-07,-1.000000e-02
-1.073612e-07,2.500000e-02
-9.936125e-08,-6.250000e-03
-9.136125e-08,-1.500000e-02
-8.336125e-08,-1.750000e-02
-7.536125e-08,7.500000e-03
-6.736125e-08,-3.750000e-03
-5.936125e-08,3.375000e-02
-5.136125e-08,2.500000e-03
-4.336125e-08,1.500000e-02
-3.536125e-08,-3.750000e-03
-2.736125e-08,1.875000e-02
-1.936125e-08,-1.375000e-02
-1.136125e-08,6.250000e-03
-3.361250e-09,-1.500000e-02
4.638750e-09,-1.387500e+00
1.263875e-08,-1.437500e+00
2.063875e-08,-1.402500e+00
2.863875e-08,-1.191250e+00
3.663875e-08,1.125000e-02
4.463875e-08,-2.125000e-02
5.263875e-08,3.250000e-02
6.063875e-08,-2.000000e-02
6.863875e-08,2.375000e-02
7.663875e-08,3.750000e-03
8.463875e-08,2.500000e-02
9.263875e-08,-1.625000e-02
1.006388e-07,2.375000e-02
1.086388e-07,-1.375000e-02
1.166388e-07,5.000000e-03
1.246388e-07,-2.875000e-02
1.326388e-07,1.625000e-02
1.406388e-07,5.000000e-03
1.486388e-07,2.375000e-02
1.566388e-07,-1.625000e-02
1.646388e-07,2.875000e-02
1.726388e-07,-1.000000e-02
1.806388e-07,1.375000e-02
1.886388e-07,-7.500000e-03
1.966388e-07,2.375000e-02
2.046388e-07,6.250000e-03
2.126388e-07,7.500000e-03
2.206388e-07,-2.375000e-02
2.286388e-07,8.750000e-03
2.366388e-07,-2.875000e-02
2.446388e-07,3.750000e-03
2.526388e-07,-2.000000e-02
2.606388e-07,1.625000e-02
2.686388e-07,-2.125000e-02
2.766388e-07,-1.125000e-02
2.846388e-07,-6.250000e-03
2.926388e-07,1.250000e-03
3.006388e-07,-1.375000e-02
3.086388e-07,1.000000e-02
3.166388e-07,-1.000000e-02
3.246388e-07,2.250000e-02
3.326388e-07,-8.750000e-03
3.406388e-07,2.750000e-02
3.486388e-07,-1.000000e-02
3.566388e-07,2.500000e-03
3.646388e-07,-2.250000e-02
3.726388e-07,1.250000e-02
3.806388e-07,-1.500000e-02
3.886388e-07,2.875000e-02
3.966388e-07,1.250000e-03
4.046388e-07,1.500000e-02
4.126388e-07,-1.500000e-02
4.206388e-07,2.375000e-02
4.286388e-07,-1.250000e-02
4.366388e-07,-5.000000e-03
4.446388e-07,-1.125000e-02
4.526388e-07,4.250000e-02
4.606388e-07,-1.250000e-02
4.686388e-07,8.750000e-03
4.766388e-07,-2.000000e-02
4.846388e-07,1.375000e-02
4.926388e-07,-3.000000e-02
5.006388e-07,7.500000e-03
5.086388e-07,-5.000000e-03
5.166388e-07,1.250000e-02
5.246388e-07,-3.750000e-03
5.326388e-07,8.750000e-03
5.406388e-07,-3.000000e-02
5.486388e-07,1.000000e-02
5.566388e-07,1.000000e-02
5.646388e-07,3.750000e-03
5.726388e-07,7.500000e-03
5.806388e-07,2.500000e-03
5.886388e-07,3.750000e-03
5.966388e-07,3.000000e-02
6.046388e-07,-1.875000e-02
6.126388e-07,8.750000e-03
6.206388e-07,-4.125000e-02
6.286388e-07,1.125000e-02
6.366388e-07,-1.000000e-02
6.446388e-07,3.625000e-02
6.526388e-07,-8.750000e-03
6.606388e-07,2.250000e-02
6.686388e-07,-2.875000e-02
6.766388e-07,1.250000e-03
6.846388e-07,-2.000000e-02
6.926388e-07,1.125000e-02
7.006388e-07,-1.750000e-02
7.086388e-07,2.500000e-03
7.166388e-07,6.250000e-03
7.246388e-07,-2.500000e-03
7.326388e-07,-2.875000e-02
7.406388e-07,-6.250000e-03
7.486388e-07,-1.500000e-02
7.566388e-07,1.250000e-02
7.646388e-07,-3.750000e-02
7.726388e-07,1.375000e-02
7.806388e-07,-1.500000e-02
7.886388e-07,1.375000e-02
7.966388e-07,-1.750000e-02
8.046388e-07,-7.500000e-03
