run1/run1_ch3_20210318180322924.csv

Model,MSO64
Waveform Type,ANALOG
Horizontal Units,s
Sample Interval,8.000000e-09
Record Length,1250
Zero Index,624.470156
Vertical Units,V

TIME,CH3
-4.995761e-06,-7.306250e-01
-4.987761e-06,-7.490625e-01
-4.979761e-06,-7.275000e-01
-4.971761e-06,-7.325000e-01
-4.963761e-06,-7.300000e-01
-4.955761e-06,-7.471875e-01
-4.947761e-06,-7.184375e-01
-4.939761e-06,-7.396875e-01
-4.931761e-06,-7.234375e-01
-4.923761e-06,-7.403125e-01
-4.915761e-06,-7.300000e-01
-4.907761e-06,-7.512500e-01
-4.899761e-06,-7.250000e-01
-4.891761e-06,-7.268750e-01
-4.883761e-06,-7.212500e-01
-4.875761e-06,-7.371875e-01
-4.867761e-06,-7.325000e-01
-4.859761e-06,-7.343750e-01
-4.851761e-06,-7.284375e-01
-4.843761e-06,-7.546875e-01
-4.835761e-06,-7.275000e-01
-4.827761e-06,-7.506250e-01
-4.819761e-06,-7.250000e-01
-4.811761e-06,-7.331250e-01
-4.803761e-06,-7.237500e-01
-4.795761e-06,-7.531250e-01
-4.787761e-06,-7.300000e-01
-4.779761e-06,-7.468750e-01
-4.771761e-06,-7.203125e-01
-4.763761e-06,-7.406250e-01
-4.755761e-06,-7.131250e-01
-4.747761e-06,-7.568750e-01
-4.739761e-06,-7.328125e-01
-4.731761e-06,-7.493750e-01
-4.723761e-06,-7.325000e-01
-4.715761e-06,-7.453125e-01
-4.707761e-06,-7.268750e-01
-4.699761e-06,-7.437500e-01
-4.691761e-06,-7.271875e-01
-4.683761e-06,-7.487500e-01
-4.675761e-06,-7.090625e-01
-4.667761e-06,-7.578125e-01
-4.659761e-06,-7.312500e-01
-4.651761e-06,-7.450000e-01
-4.643761e-06,-7.184375e-01
-4.635761e-06,-7.315625e-01
-4.627761e-06,-7.187500e-01
-4.619761e-06,-7.412500e-01
-4.611761e-06,-7.475000e-01
-4.603761e-06,-7.481250e-01
-4.595761e-06,-7.362500e-01
-4.587761e-06,-7.493750e-01
-4.579761e-06,-7.228125e-01
-4.571761e-06,-7.428125e-01
-4.563761e-06,-7.275000e-01
-4.555761e-06,-7.421875e-01
-4.547761e-06,-7.215625e-01
-4.539761e-06,-7.490625e-01
-4.531761e-06,-7.275000e-01
-4.523761e-06,-7.575000e-01
-4.515761e-06,-7.328125e-01
-4.507761e-06,-7.300000e-01
-4.499761e-06,-7.125000e-01
-4.491761e-06,-7.378125e-01
-4.483761e-06,-7.306250e-01
-4.475761e-06,-7.350000e-01
-4.467761e-06,-7.268750e-01
-4.459761e-06,-7.500000e-01
-4.451761e-06,-7.225000e-01
-4.443761e-06,-7.275000e-01
-4.435761e-06,-7.321875e-01
-4.427761e-06,-7.450000e-01
-4.419761e-06,-7.184375e-01
-4.411761e-06,-7.581250e-01
-4.403761e-06,-7.287500e-01
-4.395761e-06,-7.500000e-01
-4.387761e-06,-7.268750e-01
-4.379761e-06,-7.425000e-01
-4.371761e-06,-7.206250e-01
-4.363761e-06,-7.321875e-01
-4.355761e-06,-7.303125e-01
-4.347761e-06,-7.378125e-01
-4.339761e-06,-7.350000e-01
-4.331761e-06,-7.490625e-01
-4.323761e-06,-7.459375e-01
-4.315761e-06,-7.421875e-01
-4.307761e-06,-7.184375e-01
-4.299761e-06,-7.296875e-01
-4.291761e-06,-7.284375e-01
-4.283761e-06,-7.378125e-01
-4.275761e-06,-7.346875e-01
-4.267761e-06,-7.443750e-01
-4.259761e-06,-7.331250e-01
-4.251761e-06,-7.350000e-01
-4.243761e-06,-7.225000e-01
-4.235761e-06,-7.431250e-01
-4.227761e-06,-7.356250e-01
-4.219761e-06,-7.465625e-01
-4.211761e-06,-7.256250e-01
-4.203761e-06,-7.509375e-01
-4.195761e-06,-7.106250e-01
-4.187761e-06,-7.450000e-01
-4.179761e-06,-7.181250e-01
-4.171761e-06,-7.371875e-01
-4.163761e-06,-7.400000e-01
-4.155761e-06,-7.490625e-01
-4.147761e-06,-7.168750e-01
-4.139761e-06,-7.562500e-01
-4.131761e-06,-7.168750e-01
-4.123761e-06,-7.550000e-01
-4.115761e-06,-7.028125e-01
-4.107761e-06,-7.328125e-01
-4.099761e-06,-7.346875e-01
-4.091761e-06,-7.440625e-01
-4.083761e-06,-7.375000e-01
-4.075761e-06,-7.587500e-01
-4.067761e-06,-7.293750e-01
-4.059761e-06,-7.456250e-01
-4.051761e-06,-7.337500e-01
-4.043761e-06,-7.393750e-01
-4.035761e-06,-7.268750e-01
-4.027761e-06,-7.550000e-01
-4.019761e-06,-7.331250e-01
-4.011761e-06,-7.540625e-01
-4.003761e-06,-7.303125e-01
-3.995761e-06,-7.343750e-01
-3.987761e-06,-7.109375e-01
-3.979761e-06,-7.331250e-01
-3.971761e-06,-7.318750e-01
-3.963761e-06,-7.396875e-01
-3.955761e-06,-7.350000e-01
-3.947761e-06,-7.528125e-01
-3.939761e-06,-7.268750e-01
-3.931761e-06,-7.343750e-01
-3.923761e-06,-7.293750e-01
-3.915761e-06,-7.440625e-01
-3.907761e-06,-7.368750e-01
-3.899761e-06,-7.381250e-01
-3.891761e-06,-7.387500e-01
-3.883761e-06,-7.393750e-01
-3.875761e-06,-7.231250e-01
-3.867761e-06,-7.515625e-01
-3.859761e-06,-7.268750e-01
-3.851761e-06,-7.409375e-01
-3.843761e-06,-7.456250e-01
-3.835761e-06,-7.343750e-01
-3.827761e-06,-7.368750e-01
-3.819761e-06,-7.468750e-01
-3.811761e-06,-7.300000e-01
-3.803761e-06,-7.475000e-01
-3.795761e-06,-7.262500e-01
-3.787761e-06,-7.281250e-01
-3.779761e-06,-7.275000e-01
-3.771761e-06,-7.618750e-01
-3.763761e-06,-7.275000e-01
-3.755761e-06,-7.556250e-01
-3.747761e-06,-7.246875e-01
-3.739761e-06,-7.312500e-01
-3.731761e-06,-7.287500e-01
-3.723761e-06,-7.390625e-01
-3.715761e-06,-7.362500e-01
-3.707761e-06,-7.403125e-01
-3.699761e-06,-7.200000e-01
-3.691761e-06,-7.484375e-01
-3.683761e-06,-7.287500e-01
-3.675761e-06,-7.365625e-01
-3.667761e-06,-7.259375e-01
-3.659761e-06,-7.400000e-01
-3.651761e-06,-7.218750e-01
-3.643761e-06,-7.440625e-01
-3.635761e-06,-7.218750e-01
-3.627761e-06,-7.490625e-01
-3.619761e-06,-7.250000e-01
-3.611761e-06,-7.325000e-01
-3.603761e-06,-7.268750e-01
-3.595761e-06,-7.418750e-01
-3.587761e-06,-7.359375e-01
-3.579761e-06,-7.384375e-01
-3.571761e-06,-7.318750e-01
-3.563761e-06,-7.618750e-01
-3.555761e-06,-7.281250e-01
-3.547761e-06,-7.500000e-01
-3.539761e-06,-7.312500e-01
-3.531761e-06,-7.434375e-01
-3.523761e-06,-7.278125e-01
-3.515761e-06,-7.468750e-01
-3.507761e-06,-7.293750e-01
-3.499761e-06,-7.515625e-01
-3.491761e-06,-7.387500e-01
-3.483761e-06,-7.318750e-01
-3.475761e-06,-7.125000e-01
-3.467761e-06,-7.437500e-01
-3.459761e-06,-7.400000e-01
-3.451761e-06,-7.478125e-01
-3.443761e-06,-7.159375e-01
-3.435761e-06,-7.475000e-01
-3.427761e-06,-7.209375e-01
-3.419761e-06,-7.350000e-01
-3.411761e-06,-7.350000e-01
-3.403761e-06,-7.334375e-01
-3.395761e-06,-7.281250e-01
-3.387761e-06,-7.459375e-01
-3.379761e-06,-7.256250e-01
-3.371761e-06,-7.396875e-01
-3.363761e-06,-7.253125e-01
-3.355761e-06,-7.493750e-01
-3.347761e-06,-7.237500e-01
-3.339761e-06,-7.556250e-01
-3.331761e-06,-7.337500e-01
-3.323761e-06,-7.437500e-01
-3.315761e-06,-7.346875e-01
-3.307761e-06,-7.421875e-01
-3.299761e-06,-7.328125e-01
-3.291761e-06,-7.415625e-01
-3.283761e-06,-7.256250e-01
-3.275761e-06,-7.425000e-01
-3.267761e-06,-7.218750e-01
-3.259761e-06,-7.484375e-01
-3.251761e-06,-7.262500e-01
-3.243761e-06,-7.421875e-01
-3.235761e-06,-7.203125e-01
-3.227761e-06,-7.506250e-01
-3.219761e-06,-7.159375e-01
-3.211761e-06,-7.450000e-01
-3.203761e-06,-7.350000e-01
-3.195761e-06,-7.331250e-01
-3.187761e-06,-7.378125e-01
-3.179761e-06,-7.478125e-01
-3.171761e-06,-7.243750e-01
-3.163761e-06,-7.325000e-01
-3.155761e-06,-7.268750e-01
-3.147761e-06,-7.368750e-01
-3.139761e-06,-7.350000e-01
-3.131761e-06,-7.575000e-01
-3.123761e-06,-7.203125e-01
-3.115761e-06,-7.500000e-01
-3.107761e-06,-7.346875e-01
-3.099761e-06,-7.465625e-01
-3.091761e-06,-7.215625e-01
-3.083761e-06,-7.543750e-01
-3.075761e-06,-7.318750e-01
-3.067761e-06,-7.437500e-01
-3.059761e-06,-7.262500e-01
-3.051761e-06,-7.453125e-01
-3.043761e-06,-7.337500e-01
-3.035761e-06,-7.475000e-01
-3.027761e-06,-7.303125e-01
-3.019761e-06,-7.350000e-01
-3.011761e-06,-7.306250e-01
-3.003761e-06,-7.468750e-01
-2.995761e-06,-7.237500e-01
-2.987761e-06,-7.487500e-01
-2.979761e-06,-7.268750e-01
-2.971761e-06,-7.337500e-01
-2.963761e-06,-7.206250e-01
-2.955761e-06,-7.487500e-01
-2.947761e-06,-7.381250e-01
-2.939761e-06,-7.471875e-01
-2.931761e-06,-7.346875e-01
-2.923761e-06,-7.603125e-01
-2.915761e-06,-7.187500e-01
-2.907761e-06,-7.318750e-01
-2.899761e-06,-7.381250e-01
-2.891761e-06,-7.296875e-01
-2.883761e-06,-7.262500e-01
-2.875761e-06,-7.446875e-01
-2.867761e-06,-7.256250e-01
-2.859761e-06,-7.450000e-01
-2.851761e-06,-7.281250e-01
-2.843761e-06,-7.387500e-01
-2.835761e-06,-7.150000e-01
-2.827761e-06,-7.334375e-01
-2.819761e-06,-7.387500e-01
-2.811761e-06,-7.471875e-01
-2.803761e-06,-7.300000e-01
-2.795761e-06,-7.562500e-01
-2.787761e-06,-7.215625e-01
-2.779761e-06,-7.362500e-01
-2.771761e-06,-7.271875e-01
-2.763761e-06,-7.415625e-01
-2.755761e-06,-7.209375e-01
-2.747761e-06,-7.493750e-01
-2.739761e-06,-7.334375e-01
-2.731761e-06,-7.553125e-01
-2.723761e-06,-7.365625e-01
-2.715761e-06,-7.475000e-01
-2.707761e-06,-7.109375e-01
-2.699761e-06,-7.456250e-01
-2.691761e-06,-7.328125e-01
-2.683761e-06,-7.459375e-01
-2.675761e-06,-7.328125e-01
-2.667761e-06,-7.587500e-01
-2.659761e-06,-7.250000e-01
-2.651761e-06,-7.375000e-01
-2.643761e-06,-7.228125e-01
-2.635761e-06,-7.409375e-01
-2.627761e-06,-7.325000e-01
-2.619761e-06,-7.481250e-01
-2.611761e-06,-7.178125e-01
-2.603761e-06,-7.437500e-01
-2.595761e-06,-7.206250e-01
-2.587761e-06,-7.368750e-01
-2.579761e-06,-7.190625e-01
-2.571761e-06,-7.400000e-01
-2.563761e-06,-7.343750e-01
-2.555761e-06,-7.381250e-01
-2.547761e-06,-7.337500e-01
-2.539761e-06,-7.509375e-01
-2.531761e-06,-7.187500e-01
-2.523761e-06,-7.371875e-01
-2.515761e-06,-7.287500e-01
-2.507761e-06,-7.371875e-01
-2.499761e-06,-7.350000e-01
-2.491761e-06,-7.493750e-01
-2.483761e-06,-7.368750e-01
-2.475761e-06,-7.531250e-01
-2.467761e-06,-7.221875e-01
-2.459761e-06,-7.378125e-01
-2.451761e-06,-7.103125e-01
-2.443761e-06,-7.487500e-01
-2.435761e-06,-7.381250e-01
-2.427761e-06,-7.403125e-01
-2.419761e-06,-7.390625e-01
-2.411761e-06,-7.575000e-01
-2.403761e-06,-7.240625e-01
-2.395761e-06,-7.318750e-01
-2.387761e-06,-7.165625e-01
-2.379761e-06,-7.440625e-01
-2.371761e-06,-7.134375e-01
-2.363761e-06,-7.384375e-01
-2.355761e-06,-7.243750e-01
-2.347761e-06,-7.493750e-01
-2.339761e-06,-7.368750e-01
-2.331761e-06,-7.425000e-01
-2.323761e-06,-7.084375e-01
-2.315761e-06,-7.550000e-01
-2.307761e-06,-7.325000e-01
-2.299761e-06,-7.368750e-01
-2.291761e-06,-7.421875e-01
-2.283761e-06,-7.575000e-01
-2.275761e-06,-7.265625e-01
-2.267761e-06,-7.362500e-01
-2.259761e-06,-7.325000e-01
-2.251761e-06,-7.356250e-01
-2.243761e-06,-7.250000e-01
-2.235761e-06,-7.446875e-01
-2.227761e-06,-7.393750e-01
-2.219761e-06,-7.493750e-01
-2.211761e-06,-7.287500e-01
-2.203761e-06,-7.453125e-01
-2.195761e-06,-7.106250e-01
-2.187761e-06,-7.440625e-01
-2.179761e-06,-7.315625e-01
-2.171761e-06,-7.453125e-01
-2.163761e-06,-7.275000e-01
-2.155761e-06,-7.506250e-01
-2.147761e-06,-7.343750e-01
-2.139761e-06,-7.478125e-01
-2.131761e-06,-7.300000e-01
-2.123761e-06,-7.300000e-01
-2.115761e-06,-7.150000e-01
-2.107761e-06,-7.446875e-01
-2.099761e-06,-7.168750e-01
-2.091761e-06,-7.531250e-01
-2.083761e-06,-7.262500e-01
-2.075761e-06,-7.462500e-01
-2.067761e-06,-7.150000e-01
-2.059761e-06,-7.543750e-01
-2.051761e-06,-7.371875e-01
-2.043761e-06,-7.475000e-01
-2.035761e-06,-7.337500e-01
-2.027761e-06,-7.450000e-01
-2.019761e-06,-7.440625e-01
-2.011761e-06,-7.459375e-01
-2.003761e-06,-7.306250e-01
-1.995761e-06,-7.471875e-01
-1.987761e-06,-7.346875e-01
-1.979761e-06,-7.487500e-01
-1.971761e-06,-7.184375e-01
-1.963761e-06,-7.525000e-01
-1.955761e-06,-7.450000e-01
-1.947761e-06,-7.387500e-01
-1.939761e-06,-7.190625e-01
-1.931761e-06,-7.396875e-01
-1.923761e-06,-7.328125e-01
-1.915761e-06,-7.512500e-01
-1.907761e-06,-7.325000e-01
-1.899761e-06,-7.465625e-01
-1.891761e-06,-7.356250e-01
-1.883761e-06,-7.356250e-01
-1.875761e-06,-7.237500e-01
-1.867761e-06,-7.359375e-01
-1.859761e-06,-7.175000e-01
-1.851761e-06,-7.490625e-01
-1.843761e-06,-7.356250e-01
-1.835761e-06,-7.459375e-01
-1.827761e-06,-7.362500e-01
-1.819761e-06,-7.446875e-01
-1.811761e-06,-7.190625e-01
-1.803761e-06,-7.450000e-01
-1.795761e-06,-7.318750e-01
-1.787761e-06,-7.462500e-01
-1.779761e-06,-7.371875e-01
-1.771761e-06,-7.596875e-01
-1.763761e-06,-7.068750e-01
-1.755761e-06,-7.400000e-01
-1.747761e-06,-7.281250e-01
-1.739761e-06,-7.356250e-01
-1.731761e-06,-7.321875e-01
-1.723761e-06,-7.484375e-01
-1.715761e-06,-7.321875e-01
-1.707761e-06,-7.465625e-01
-1.699761e-06,-7.268750e-01
-1.691761e-06,-7.418750e-01
-1.683761e-06,-7.256250e-01
-1.675761e-06,-7.396875e-01
-1.667761e-06,-7.443750e-01
-1.659761e-06,-7.490625e-01
-1.651761e-06,-7.356250e-01
-1.643761e-06,-7.559375e-01
-1.635761e-06,-7.256250e-01
-1.627761e-06,-7.509375e-01
-1.619761e-06,-7.315625e-01
-1.611761e-06,-7.287500e-01
-1.603761e-06,-7.128125e-01
-1.595761e-06,-7.590625e-01
-1.587761e-06,-7.334375e-01
-1.579761e-06,-7.471875e-01
-1.571761e-06,-7.300000e-01
-1.563761e-06,-7.384375e-01
-1.555761e-06,-7.256250e-01
-1.547761e-06,-7.518750e-01
-1.539761e-06,-7.337500e-01
-1.531761e-06,-7.331250e-01
-1.523761e-06,-7.331250e-01
-1.515761e-06,-7.484375e-01
-1.507761e-06,-7.250000e-01
-1.499761e-06,-7.300000e-01
-1.491761e-06,-7.250000e-01
-1.483761e-06,-7.415625e-01
-1.475761e-06,-7.228125e-01
-1.467761e-06,-7.459375e-01
-1.459761e-06,-7.268750e-01
-1.451761e-06,-7.481250e-01
-1.443761e-06,-7.262500e-01
-1.435761e-06,-7.350000e-01
-1.427761e-06,-7.150000e-01
-1.419761e-06,-7.431250e-01
-1.411761e-06,-7.331250e-01
-1.403761e-06,-7.562500e-01
-1.395761e-06,-7.234375e-01
-1.387761e-06,-7.468750e-01
-1.379761e-06,-7.165625e-01
-1.371761e-06,-7.575000e-01
-1.363761e-06,-7.312500e-01
-1.355761e-06,-7.365625e-01
-1.347761e-06,-7.231250e-01
-1.339761e-06,-7.596875e-01
-1.331761e-06,-7.290625e-01
-1.323761e-06,-7.434375e-01
-1.315761e-06,-7.346875e-01
-1.307761e-06,-7.375000e-01
-1.299761e-06,-7.212500e-01
-1.291761e-06,-7.459375e-01
-1.283761e-06,-7.468750e-01
-1.275761e-06,-7.456250e-01
-1.267761e-06,-7.353125e-01
-1.259761e-06,-7.506250e-01
-1.251761e-06,-7.275000e-01
-1.243761e-06,-7.400000e-01
-1.235761e-06,-7.240625e-01
-1.227761e-06,-7.375000e-01
-1.219761e-06,-7.121875e-01
-1.211761e-06,-7.440625e-01
-1.203761e-06,-7.293750e-01
-1.195761e-06,-7.525000e-01
-1.187761e-06,-7.212500e-01
-1.179761e-06,-7.368750e-01
-1.171761e-06,-7.234375e-01
-1.163761e-06,-7.512500e-01
-1.155761e-06,-7.440625e-01
-1.147761e-06,-7.471875e-01
-1.139761e-06,-7.253125e-01
-1.131761e-06,-7.384375e-01
-1.123761e-06,-7.268750e-01
-1.115761e-06,-7.415625e-01
-1.107761e-06,-7.343750e-01
-1.099761e-06,-7.362500e-01
-1.091761e-06,-7.281250e-01
-1.083761e-06,-7.481250e-01
-1.075761e-06,-7.287500e-01
-1.067761e-06,-7.496875e-01
-1.059761e-06,-7.234375e-01
-1.051761e-06,-7.387500e-01
-1.043761e-06,-7.187500e-01
-1.035761e-06,-7.481250e-01
-1.027761e-06,-7.437500e-01
-1.019761e-06,-7.471875e-01
-1.011761e-06,-7.390625e-01
-1.003761e-06,-7.596875e-01
-9.957612e-07,-7.346875e-01
-9.877612e-07,-7.415625e-01
-9.797612e-07,-7.165625e-01
-9.717612e-07,-7.409375e-01
-9.637612e-07,-7.337500e-01
-9.557612e-07,-7.515625e-01
-9.477612e-07,-7.203125e-01
-9.397612e-07,-7.525000e-01
-9.317612e-07,-7.240625e-01
-9.237612e-07,-7.521875e-01
-9.157612e-07,-7.250000e-01
-9.077612e-07,-7.512500e-01
-8.997612e-07,-7.400000e-01
-8.917612e-07,-7.390625e-01
-8.837612e-07,-7.334375e-01
-8.757612e-07,-7.462500e-01
-8.677612e-07,-7.215625e-01
-8.597612e-07,-7.428125e-01
-8.517612e-07,-7.184375e-01
-8.437612e-07,-7.415625e-01
-8.357612e-07,-7.262500e-01
-8.277612e-07,-7.518750e-01
-8.197612e-07,-7.262500e-01
-8.117612e-07,-7.606250e-01
-8.037612e-07,-7.331250e-01
-7.957612e-07,-7.443750e-01
-7.877612e-07,-7.184375e-01
-7.797612e-07,-7.468750e-01
-7.717612e-07,-7.350000e-01
-7.637612e-07,-7.471875e-01
-7.557612e-07,-7.318750e-01
-7.477612e-07,-7.490625e-01
-7.397612e-07,-7.318750e-01
-7.317612e-07,-7.381250e-01
-7.237612e-07,-7.246875e-01
-7.157612e-07,-7.440625e-01
-7.077612e-07,-7.343750e-01
-6.997612e-07,-7.553125e-01
-6.917612e-07,-7.325000e-01
-6.837612e-07,-7.459375e-01
-6.757612e-07,-7.375000e-01
-6.677612e-07,-7.406250e-01
-6.597612e-07,-7.118750e-01
-6.517612e-07,-7.431250e-01
-6.437612e-07,-7.375000e-01
-6.357612e-07,-7.371875e-01
-6.277612e-07,-7.318750e-01
-6.197612e-07,-7.628125e-01
-6.117612e-07,-7.284375e-01
-6.037612e-07,-7.362500e-01
-5.957612e-07,-7.375000e-01
-5.877612e-07,-7.321875e-01
-5.797612e-07,-7.203125e-01
-5.717612e-07,-7.465625e-01
-5.637612e-07,-7.225000e-01
-5.557612e-07,-7.521875e-01
-5.477612e-07,-7.228125e-01
-5.397612e-07,-7.450000e-01
-5.317612e-07,-7.296875e-01
-5.237612e-07,-7.381250e-01
-5.157612e-07,-7.337500e-01
-5.077612e-07,-7.450000e-01
-4.997612e-07,-7.425000e-01
-4.917612e-07,-7.440625e-01
-4.837612e-07,-7.084375e-01
-4.757612e-07,-7.493750e-01
-4.677612e-07,-7.343750e-01
-4.597612e-07,-7.437500e-01
-4.517612e-07,-7.300000e-01
-4.437612e-07,-7.471875e-01
-4.357612e-07,-7.146875e-01
-4.277612e-07,-7.459375e-01
-4.197612e-07,-7.237500e-01
-4.117612e-07,-7.437500e-01
-4.037612e-07,-7.118750e-01
-3.957612e-07,-7.431250e-01
-3.877612e-07,-7.350000e-01
-3.797612e-07,-7.515625e-01
-3.717612e-07,-7.428125e-01
-3.637612e-07,-7.421875e-01
-3.557612e-07,-7.368750e-01
-3.477612e-07,-7.387500e-01
-3.397612e-07,-7.146875e-01
-3.317612e-07,-7.396875e-01
-3.237612e-07,-7.293750e-01
-3.157612e-07,-7.593750e-01
-3.077612e-07,-7.281250e-01
-2.997612e-07,-7.331250e-01
-2.917612e-07,-7.300000e-01
-2.837612e-07,-7.484375e-01
-2.757612e-07,-7.296875e-01
-2.677612e-07,-7.356250e-01
-2.597612e-07,-7.381250e-01
-2.517612e-07,-7.521875e-01
-2.437612e-07,-7.221875e-01
-2.357612e-07,-7.525000e-01
-2.277612e-07,-7.275000e-01
-2.197612e-07,-7.421875e-01
-2.117612e-07,-7.137500e-01
-2.037612e-07,-7.334375e-01
-1.957612e-07,-7.268750e-01
-1.877612e-07,-7.518750e-01
-1.797612e-07,-7.459375e-01
-1.717612e-07,-7.593750e-01
-1.637612e-07,-7.225000e-01
-1.557612e-07,-7.456250e-01
-1.477612e-07,-7.212500e-01
-1.397612e-07,-7.443750e-01
-1.317612e-07,-7.318750e-01
-1.237612e-07,-7.462500e-01
-1.157612e-07,-7.231250e-01
-1.077612e-07,-7.631250e-01
-9.976125e-08,-7.362500e-01
-9.176125e-08,-7.368750e-01
-8.376125e-08,-7.346875e-01
-7.576125e-08,-7.371875e-01
-6.776125e-08,-7.309375e-01
-5.976125e-08,-7.575000e-01
-5.176125e-08,-7.256250e-01
-4.376125e-08,-7.456250e-01
-3.576125e-08,-7.362500e-01
-2.776125e-08,-7.559375e-01
-1.976125e-08,-7.240625e-01
-1.176125e-08,-7.450000e-01
-3.761250e-09,-7.303125e-01
4.238750e-09,-7.525000e-01
1.223875e-08,-7.362500e-01
2.023875e-08,-7.453125e-01
2.823875e-08,-7.237500e-01
3.623875e-08,-7.431250e-01
4.423875e-08,-7.340625e-01
5.223875e-08,-7.418750e-01
6.023875e-08,-7.393750e-01
6.823875e-08,-7.531250e-01
7.623875e-08,-7.368750e-01
8.423875e-08,-7.562500e-01
9.223875e-08,-7.228125e-01
1.002388e-07,-7.487500e-01
1.082388e-07,-7.093750e-01
1.162388e-07,-7.525000e-01
1.242388e-07,-7.325000e-01
1.322388e-07,-7.418750e-01
1.402388e-07,-7.153125e-01
1.482388e-07,-7.675000e-01
1.562388e-07,-7.231250e-01
1.642388e-07,-7.543750e-01
1.722388e-07,-7.309375e-01
1.802388e-07,-7.353125e-01
1.882388e-07,-7.275000e-01
1.962388e-07,-7.525000e-01
2.042388e-07,-7.300000e-01
2.122388e-07,-7.484375e-01
2.202388e-07,-7.190625e-01
2.282388e-07,-7.462500e-01
2.362388e-07,-7.156250e-01
2.442388e-07,-7.500000e-01
2.522388e-07,-7.350000e-01
2.602388e-07,-7.531250e-01
2.682388e-07,-7.281250e-01
2.762388e-07,-7.481250e-01
2.842388e-07,-7.356250e-01
2.922388e-07,-7.450000e-01
3.002388e-07,-7.334375e-01
3.082388e-07,-7.368750e-01
3.162388e-07,-7.446875e-01
3.242388e-07,-7.540625e-01
3.322388e-07,-7.318750e-01
3.402388e-07,-7.528125e-01
3.482388e-07,-7.206250e-01
3.562388e-07,-7.556250e-01
3.642388e-07,-7.159375e-01
3.722388e-07,-7.525000e-01
3.802388e-07,-7.287500e-01
3.882388e-07,-7.553125e-01
3.962388e-07,-7.425000e-01
4.042388e-07,-7.550000e-01
4.122388e-07,-7.368750e-01
4.202388e-07,-7.475000e-01
4.282388e-07,-7.278125e-01
4.362388e-07,-7.587500e-01
4.442388e-07,-7.293750e-01
4.522388e-07,-7.456250e-01
4.602388e-07,-7.190625e-01
4.682388e-07,-7.525000e-01
4.762388e-07,-7.318750e-01
4.842388e-07,-7.368750e-01
4.922388e-07,-7.237500e-01
5.002388e-07,-7.331250e-01
5.082388e-07,-7.281250e-01
5.162388e-07,-7.465625e-01
5.242388e-07,-7.337500e-01
5.322388e-07,-7.612500e-01
5.402388e-07,-7.246875e-01
5.482388e-07,-7.390625e-01
5.562388e-07,-7.356250e-01
5.642388e-07,-7.340625e-01
5.722388e-07,-7.234375e-01
5.802388e-07,-7.325000e-01
5.882388e-07,-7.203125e-01
5.962388e-07,-7.493750e-01
6.042388e-07,-7.268750e-01
6.122388e-07,-7.431250e-01
6.202388e-07,-7.237500e-01
6.282388e-07,-7.556250e-01
6.362388e-07,-7.293750e-01
6.442388e-07,-7.600000e-01
6.522388e-07,-7.321875e-01
6.602388e-07,-7.565625e-01
6.682388e-07,-7.153125e-01
6.762388e-07,-7.296875e-01
6.842388e-07,-7.243750e-01
6.922388e-07,-7.525000e-01
