run1/run1_ch1_20210318180202805.csv

Model,MSO64
Waveform Type,ANALOG
Horizontal Units,s
Sample Interval,8.000000e-09
Record Length,1250
Zero Index,624.640000
Vertical Units,V

TIME,CH1
-4.997120e-06,1.250000e-03
-4.989120e-06,-1.750000e-02
-4.981120e-06,1.625000e-02
-4.973120e-06,-2.000000e-02
-4.965120e-06,2.375000e-02
-4.957120e-06,-1.500000e-02
-4.949120e-06,1.875000e-02
-4.941120e-06,-2.750000e-02
-4.933120e-06,3.750000e-03
-4.925120e-06,-2.375000e-02
-4.917120e-06,1.750000e-02
-4.909120e-06,1.000000e-02
-4.901120e-06,1.375000e-02
-4.893120e-06,-2.375000e-02
-4.885120e-06,1.875000e-02
-4.877120e-06,-1.250000e-02
-4.869120e-06,1.750000e-02
-4.861120e-06,-2.500000e-03
-4.853120e-06,3.125000e-02
-4.845120e-06,1.250000e-03
-4.837120e-06,1.625000e-02
-4.829120e-06,-3.000000e-02
-4.821120e-06,1.875000e-02
-4.813120e-06,-1.500000e-02
-4.805120e-06,2.000000e-02
-4.797120e-06,-3.000000e-02
-4.789120e-06,7.500000e-03
-4.781120e-06,1.250000e-02
-4.773120e-06,3.000000e-02
-4.765120e-06,-1.250000e-03
-4.757120e-06,5.000000e-03
-4.749120e-06,-1.250000e-03
-4.741120e-06,2.000000e-02
-4.733120e-06,-1.625000e-02
-4.725120e-06,2.625000e-02
-4.717120e-06,-2.125000e-02
-4.709120e-06,2.375000e-02
-4.701120e-06,-1.000000e-02
-4.693120e-06,2.500000e-02
-4.685120e-06,5.000000e-03
-4.677120e-06,1.000000e-02
-4.669120e-06,-2.500000e-02
-4.661120e-06,3.250000e-02
-4.653120e-06,-2.000000e-02
-4.645120e-06,3.875000e-02
-4.637120e-06,-1.000000e-02
-4.629120e-06,3.375000e-02
-4.621120e-06,-2.250000e-02
-4.613120e-06,1.625000e-02
-4.605120e-06,-2.125000e-02
-4.597120e-06,3.750000e-02
-4.589120e-06,6.250000e-03
-4.581120e-06,1.625000e-02
-4.573120e-06,-8.750000e-03
-4.565120e-06,-8.750000e-03
-4.557120e-06,-6.250000e-03
-4.549120e-06,1.250000e-02
-4.541120e-06,-1.875000e-02
-4.533120e-06,2.750000e-02
-4.525120e-06,-1.375000e-02
-4.517120e-06,2.500000e-02
-4.509120e-06,8.750000e-03
-4.501120e-06,1.750000e-02
-4.493120e-06,-1.625000e-02
-4.485120e-06,2.000000e-02
-4.477120e-06,-7.500000e-03
-4.469120e-06,3.250000e-02
-4.461120e-06,-2.000000e-02
-4.453120e-06,2.625000e-02
-4.445120e-06,-2.000000e-02
-4.437120e-06,1.750000e-02
-4.429120e-06,-1.625000e-02
-4.421120e-06,3.500000e-02
-4.413120e-06,-8.750000e-03
-4.405120e-06,2.500000e-02
-4.397120e-06,-1.625000e-02
-4.389120e-06,3.250000e-02
-4.381120e-06,-1.375000e-02
-4.373120e-06,5.000000e-03
-4.365120e-06,5.000000e-03
-4.357120e-06,-3.750000e-03
-4.349120e-06,-2.125000e-02
-4.341120e-06,1.500000e-02
-4.333120e-06,5.000000e-03
-4.325120e-06,1.375000e-02
-4.317120e-06,-1.000000e-02
-4.309120e-06,3.125000e-02
-4.301120e-06,-2.000000e-02
-4.293120e-06,1.375000e-02
-4.285120e-06,-2.250000e-02
-4.277120e-06,0.000000e+00
-4.269120e-06,-1.750000e-02
-4.261120e-06,3.750000e-03
-4.253120e-06,1.250000e-03
-4.245120e-06,2.000000e-02
-4.237120e-06,-1.250000e-02
-4.229120e-06,-1.250000e-03
-4.221120e-06,-3.750000e-03
-4.213120e-06,2.500000e-02
-4.205120e-06,-1.125000e-02
-4.197120e-06,2.625000e-02
-4.189120e-06,-1.375000e-02
-4.181120e-06,3.000000e-02
-4.173120e-06,-3.625000e-02
-4.165120e-06,3.000000e-02
-4.157120e-06,-2.625000e-02
-4.149120e-06,3.125000e-02
-4.141120e-06,-8.750000e-03
-4.133120e-06,1.750000e-02
-4.125120e-06,-1.000000e-02
-4.117120e-06,3.750000e-03
-4.109120e-06,-2.125000e-02
-4.101120e-06,2.125000e-02
-4.093120e-06,1.250000e-03
-4.085120e-06,1.250000e-03
-4.077120e-06,-1.625000e-02
-4.069120e-06,2.750000e-02
-4.061120e-06,-1.500000e-02
-4.053120e-06,1.500000e-02
-4.045120e-06,-3.750000e-03
-4.037120e-06,1.625000e-02
-4.029120e-06,-2.375000e-02
-4.021120e-06,1.750000e-02
-4.013120e-06,-1.500000e-02
-4.005120e-06,0.000000e+00
-3.997120e-06,-1.375000e-02
-3.989120e-06,1.875000e-02
-3.981120e-06,-1.875000e-02
-3.973120e-06,1.250000e-02
-3.965120e-06,-1.125000e-02
-3.957120e-06,1.750000e-02
-3.949120e-06,-1.250000e-03
-3.941120e-06,1.500000e-02
-3.933120e-06,-2.000000e-02
-3.925120e-06,1.250000e-02
-3.917120e-06,-1.625000e-02
-3.909120e-06,7.500000e-03
-3.901120e-06,-1.875000e-02
-3.893120e-06,1.625000e-02
-3.885120e-06,-1.750000e-02
-3.877120e-06,-1.250000e-03
-3.869120e-06,-3.375000e-02
-3.861120e-06,7.500000e-03
-3.853120e-06,-3.125000e-02
-3.845120e-06,-1.250000e-03
-3.837120e-06,-5.000000e-03
-3.829120e-06,-7.500000e-03
-3.821120e-06,-2.000000e-02
-3.813120e-06,1.625000e-02
-3.805120e-06,7.500000e-03
-3.797120e-06,2.250000e-02
-3.789120e-06,-2.000000e-02
-3.781120e-06,8.750000e-03
-3.773120e-06,-1.625000e-02
-3.765120e-06,1.625000e-02
-3.757120e-06,-3.750000e-03
-3.749120e-06,2.250000e-02
-3.741120e-06,-6.250000e-03
-3.733120e-06,2.125000e-02
-3.725120e-06,-8.750000e-03
-3.717120e-06,2.250000e-02
-3.709120e-06,3.750000e-03
-3.701120e-06,6.250000e-03
-3.693120e-06,-1.250000e-03
-3.685120e-06,1.500000e-02
-3.677120e-06,1.250000e-03
-3.669120e-06,1.875000e-02
-3.661120e-06,-7.500000e-03
-3.653120e-06,3.750000e-02
-3.645120e-06,-1.500000e-02
-3.637120e-06,3.000000e-02
-3.629120e-06,0.000000e+00
-3.621120e-06,1.375000e-02
-3.613120e-06,-1.625000e-02
-3.605120e-06,1.750000e-02
-3.597120e-06,-1.500000e-02
-3.589120e-06,1.250000e-02
-3.581120e-06,7.500000e-03
-3.573120e-06,7.500000e-03
-3.565120e-06,-8.750000e-03
-3.557120e-06,1.375000e-02
-3.549120e-06,-5.000000e-03
-3.541120e-06,2.625000e-02
-3.533120e-06,-3.125000e-02
-3.525120e-06,2.500000e-03
-3.517120e-06,-8.750000e-03
-3.509120e-06,4.500000e-02
-3.501120e-06,-7.500000e-03
-3.493120e-06,2.125000e-02
-3.485120e-06,-3.250000e-02
-3.477120e-06,6.250000e-03
-3.469120e-06,-1.000000e-02
-3.461120e-06,2.000000e-02
-3.453120e-06,-1.625000e-02
-3.445120e-06,1.250000e-03
-3.437120e-06,-1.625000e-02
-3.429120e-06,7.500000e-03
-3.421120e-06,-2.750000e-02
-3.413120e-06,1.125000e-02
-3.405120e-06,-1.250000e-02
-3.397120e-06,1.250000e-03
-3.389120e-06,-1.000000e-02
-3.381120e-06,2.000000e-02
-3.373120e-06,-1.125000e-02
-3.365120e-06,2.125000e-02
-3.357120e-06,2.500000e-03
-3.349120e-06,2.500000e-03
-3.341120e-06,-2.125000e-02
-3.333120e-06,2.375000e-02
-3.325120e-06,-3.750000e-03
-3.317120e-06,2.125000e-02
-3.309120e-06,-6.250000e-03
-3.301120e-06,2.750000e-02
-3.293120e-06,-2.125000e-02
-3.285120e-06,7.500000e-03
-3.277120e-06,-2.250000e-02
-3.269120e-06,1.875000e-02
-3.261120e-06,-1.000000e-02
-3.253120e-06,1.500000e-02
-3.245120e-06,1.250000e-03
-3.237120e-06,3.250000e-02
-3.229120e-06,-4.375000e-02
-3.221120e-06,2.500000e-02
-3.213120e-06,-5.000000e-03
-3.205120e-06,3.750000e-02
-3.197120e-06,5.000000e-03
-3.189120e-06,7.500000e-03
-3.181120e-06,0.000000e+00
-3.173120e-06,2.875000e-02
-3.165120e-06,8.750000e-03
-3.157120e-06,1.500000e-02
-3.149120e-06,-4.500000e-02
-3.141120e-06,1.875000e-02
-3.133120e-06,-1.500000e-02
-3.125120e-06,2.625000e-02
-3.117120e-06,-2.750000e-02
-3.109120e-06,5.000000e-03
-3.101120e-06,-3.125000e-02
-3.093120e-06,3.750000e-03
-3.085120e-06,-6.250000e-03
-3.077120e-06,6.250000e-03
-3.069120e-06,-1.250000e-03
-3.061120e-06,1.500000e-02
-3.053120e-06,-5.000000e-03
-3.045120e-06,2.125000e-02
-3.037120e-06,-3.750000e-03
-3.029120e-06,2.375000e-02
-3.021120e-06,-2.500000e-02
-3.013120e-06,-2.500000e-03
-3.005120e-06,-2.875000e-02
-2.997120e-06,2.000000e-02
-2.989120e-06,-3.750000e-03
-2.981120e-06,2.250000e-02
-2.973120e-06,-1.625000e-02
-2.965120e-06,1.875000e-02
-2.957120e-06,7.500000e-03
-2.949120e-06,3.125000e-02
-2.941120e-06,-3.750000e-03
-2.933120e-06,2.750000e-02
-2.925120e-06,-2.000000e-02
-2.917120e-06,2.000000e-02
-2.909120e-06,-3.375000e-02
-2.901120e-06,2.000000e-02
-2.893120e-06,-1.000000e-02
-2.885120e-06,6.250000e-03
-2.877120e-06,-1.250000e-02
-2.869120e-06,3.250000e-02
-2.861120e-06,1.250000e-03
-2.853120e-06,1.500000e-02
-2.845120e-06,-3.500000e-02
-2.837120e-06,2.500000e-02
-2.829120e-06,-1.375000e-02
-2.821120e-06,2.250000e-02
-2.813120e-06,1.000000e-02
-2.805120e-06,8.750000e-03
-2.797120e-06,2.500000e-03
-2.789120e-06,1.875000e-02
-2.781120e-06,-6.250000e-03
-2.773120e-06,1.500000e-02
-2.765120e-06,-1.875000e-02
-2.757120e-06,1.125000e-02
-2.749120e-06,-2.875000e-02
-2.741120e-06,3.875000e-02
-2.733120e-06,-8.750000e-03
-2.725120e-06,2.500000e-03
-2.717120e-06,-1.375000e-02
-2.709120e-06,7.500000e-03
-2.701120e-06,-1.250000e-03
-2.693120e-06,1.875000e-02
-2.685120e-06,8.750000e-03
-2.677120e-06,1.375000e-02
-2.669120e-06,-1.500000e-02
-2.661120e-06,3.625000e-02
-2.653120e-06,8.750000e-03
-2.645120e-06,1.500000e-02
-2.637120e-06,-2.500000e-02
-2.629120e-06,1.625000e-02
-2.621120e-06,-1.625000e-02
-2.613120e-06,3.375000e-02
-2.605120e-06,-2.000000e-02
-2.597120e-06,3.375000e-02
-2.589120e-06,2.500000e-03
-2.581120e-06,2.625000e-02
-2.573120e-06,-1.875000e-02
-2.565120e-06,1.875000e-02
-2.557120e-06,1.125000e-02
-2.549120e-06,2.125000e-02
-2.541120e-06,-1.750000e-02
-2.533120e-06,1.625000e-02
-2.525120e-06,-8.750000e-03
-2.517120e-06,2.750000e-02
-2.509120e-06,-2.375000e-02
-2.501120e-06,-1.250000e-03
-2.493120e-06,-1.500000e-02
-2.485120e-06,2.500000e-02
-2.477120e-06,2.500000e-03
-2.469120e-06,1.625000e-02
-2.461120e-06,-1.125000e-02
-2.453120e-06,2.500000e-03
-2.445120e-06,-1.750000e-02
-2.437120e-06,1.375000e-02
-2.429120e-06,6.250000e-03
-2.421120e-06,2.250000e-02
-2.413120e-06,-1.500000e-02
-2.405120e-06,2.750000e-02
-2.397120e-06,-2.125000e-02
-2.389120e-06,0.000000e+00
-2.381120e-06,-1.875000e-02
-2.373120e-06,-8.750000e-03
-2.365120e-06,-3.375000e-02
-2.357120e-06,1.750000e-02
-2.349120e-06,1.000000e-02
-2.341120e-06,1.125000e-02
-2.333120e-06,-8.750000e-03
-2.325120e-06,8.750000e-03
-2.317120e-06,-1.125000e-02
-2.309120e-06,6.250000e-03
-2.301120e-06,-8.750000e-03
-2.293120e-06,3.750000e-03
-2.285120e-06,-1.000000e-02
-2.277120e-06,1.250000e-03
-2.269120e-06,-1.250000e-03
-2.261120e-06,1.750000e-02
-2.253120e-06,-2.375000e-02
-2.245120e-06,3.375000e-02
-2.237120e-06,-2.500000e-03
-2.229120e-06,2.875000e-02
-2.221120e-06,-1.625000e-02
-2.213120e-06,1.125000e-02
-2.205120e-06,0.000000e+00
-2.197120e-06,-1.375000e-02
-2.189120e-06,-1.375000e-02
-2.181120e-06,4.000000e-02
-2.173120e-06,1.500000e-02
-2.165120e-06,5.375000e-02
-2.157120e-06,-2.500000e-03
-2.149120e-06,1.500000e-02
-2.141120e-06,-2.000000e-02
-2.133120e-06,2.000000e-02
-2.125120e-06,-2.000000e-02
-2.117120e-06,3.000000e-02
-2.109120e-06,-1.375000e-02
-2.101120e-06,3.000000e-02
-2.093120e-06,7.500000e-03
-2.085120e-06,8.750000e-03
-2.077120e-06,-3.250000e-02
-2.069120e-06,2.625000e-02
-2.061120e-06,-2.750000e-02
-2.053120e-06,-8.750000e-03
-2.045120e-06,-6.250000e-03
-2.037120e-06,1.750000e-02
-2.029120e-06,-2.000000e-02
-2.021120e-06,2.500000e-02
-2.013120e-06,-5.000000e-03
-2.005120e-06,2.375000e-02
-1.997120e-06,-2.000000e-02
-1.989120e-06,1.000000e-02
-1.981120e-06,-2.375000e-02
-1.973120e-06,3.875000e-02
-1.965120e-06,-1.250000e-02
-1.957120e-06,1.375000e-02
-1.949120e-06,-1.750000e-02
-1.941120e-06,3.375000e-02
-1.933120e-06,-1.375000e-02
-1.925120e-06,2.875000e-02
-1.917120e-06,6.250000e-03
-1.909120e-06,2.125000e-02
-1.901120e-06,-5.000000e-03
-1.893120e-06,1.625000e-02
-1.885120e-06,-1.625000e-02
-1.877120e-06,1.750000e-02
-1.869120e-06,-2.375000e-02
-1.861120e-06,2.500000e-03
-1.853120e-06,-6.250000e-03
-1.845120e-06,1.750000e-02
-1.837120e-06,0.000000e+00
-1.829120e-06,2.625000e-02
-1.821120e-06,-3.750000e-03
-1.813120e-06,2.625000e-02
-1.805120e-06,-3.750000e-03
-1.797120e-06,2.250000e-02
-1.789120e-06,1.000000e-02
-1.781120e-06,1.625000e-02
-1.773120e-06,-1.250000e-03
-1.765120e-06,1.125000e-02
-1.757120e-06,-2.500000e-03
-1.749120e-06,2.625000e-02
-1.741120e-06,-2.750000e-02
-1.733120e-06,6.250000e-03
-1.725120e-06,-1.125000e-02
-1.717120e-06,3.250000e-02
-1.709120e-06,1.125000e-02
-1.701120e-06,3.500000e-02
-1.693120e-06,-8.750000e-03
-1.685120e-06,1.125000e-02
-1.677120e-06,-4.250000e-02
-1.669120e-06,-6.250000e-03
-1.661120e-06,-5.000000e-03
-1.653120e-06,1.625000e-02
-1.645120e-06,1.250000e-02
-1.637120e-06,1.000000e-02
-1.629120e-06,1.375000e-02
-1.621120e-06,7.500000e-03
-1.613120e-06,-6.250000e-03
-1.605120e-06,2.750000e-02
-1.597120e-06,-1.375000e-02
-1.589120e-06,2.750000e-02
-1.581120e-06,-2.625000e-02
-1.573120e-06,2.000000e-02
-1.565120e-06,-7.500000e-03
-1.557120e-06,5.000000e-03
-1.549120e-06,0.000000e+00
-1.541120e-06,1.125000e-02
-1.533120e-06,-1.000000e-02
-1.525120e-06,1.375000e-02
-1.517120e-06,1.250000e-03
-1.509120e-06,2.250000e-02
-1.501120e-06,-1.625000e-02
-1.493120e-06,1.250000e-02
-1.485120e-06,-3.000000e-02
-1.477120e-06,3.750000e-03
-1.469120e-06,-2.750000e-02
-1.461120e-06,2.875000e-02
-1.453120e-06,-2.125000e-02
-1.445120e-06,1.875000e-02
-1.437120e-06,-2.500000e-02
-1.429120e-06,7.500000e-03
-1.421120e-06,-1.125000e-02
-1.413120e-06,8.750000e-03
-1.405120e-06,7.500000e-03
-1.397120e-06,2.375000e-02
-1.389120e-06,5.000000e-03
-1.381120e-06,1.750000e-02
-1.373120e-06,-1.500000e-02
-1.365120e-06,1.875000e-02
-1.357120e-06,-2.875000e-02
-1.349120e-06,1.375000e-02
-1.341120e-06,-3.500000e-02
-1.333120e-06,2.875000e-02
-1.325120e-06,-5.000000e-03
-1.317120e-06,5.000000e-03
-1.309120e-06,-1.500000e-02
-1.301120e-06,2.500000e-03
-1.293120e-06,-2.500000e-03
-1.285120e-06,6.250000e-03
-1.277120e-06,8.750000e-03
-1.269120e-06,1.750000e-02
-1.261120e-06,1.250000e-02
-1.253120e-06,2.375000e-02
-1.245120e-06,-2.250000e-02
-1.237120e-06,-3.750000e-03
-1.229120e-06,-2.000000e-02
-1.221120e-06,1.875000e-02
-1.213120e-06,-2.250000e-02
-1.205120e-06,2.375000e-02
-1.197120e-06,-1.375000e-02
-1.189120e-06,2.500000e-03
-1.181120e-06,-3.000000e-02
-1.173120e-06,2.500000e-02
-1.165120e-06,-2.000000e-02
-1.157120e-06,1.500000e-02
-1.149120e-06,1.250000e-03
-1.141120e-06,2.250000e-02
-1.133120e-06,-1.000000e-02
-1.125120e-06,1.625000e-02
-1.117120e-06,-1.250000e-02
-1.109120e-06,1.250000e-02
-1.101120e-06,-2.125000e-02
-1.093120e-06,5.000000e-03
-1.085120e-06,-1.750000e-02
-1.077120e-06,2.375000e-02
-1.069120e-06,-2.500000e-03
-1.061120e-06,2.375000e-02
-1.053120e-06,2.500000e-03
-1.045120e-06,2.250000e-02
-1.037120e-06,-1.625000e-02
-1.029120e-06,2.875000e-02
-1.021120e-06,2.500000e-03
-1.013120e-06,8.750000e-03
-1.005120e-06,-1.000000e-02
-9.971200e-07,1.875000e-02
-9.891200e-07,1.500000e-02
-9.811200e-07,2.125000e-02
-9.731200e-07,-1.500000e-02
-9.651200e-07,3.000000e-02
-9.571200e-07,-8.750000e-03
-9.491200e-07,3.125000e-02
-9.411200e-07,-1.375000e-02
-9.331200e-07,5.000000e-03
-9.251200e-07,1.250000e-02
-9.171200e-07,2.625000e-02
-9.091200e-07,-1.125000e-02
-9.011200e-07,2.250000e-02
-8.931200e-07,-1.625000e-02
-8.851200e-07,2.750000e-02
-8.771200e-07,1.500000e-02
-8.691200e-07,3.125000e-02
-8.611200e-07,-2.375000e-02
-8.531200e-07,3.250000e-02
-8.451200e-07,-4.000000e-02
-8.371200e-07,1.750000e-02
-8.291200e-07,-1.375000e-02
-8.211200e-07,1.625000e-02
-8.131200e-07,5.000000e-03
-8.051200e-07,2.500000e-03
-7.971200e-07,-6.250000e-03
-7.891200e-07,1.875000e-02
-7.811200e-07,-3.875000e-02
-7.731200e-07,1.000000e-02
-7.651200e-07,2.125000e-02
-7.571200e-07,3.625000e-02
-7.491200e-07,-2.625000e-02
-7.411200e-07,1.000000e-02
-7.331200e-07,3.750000e-03
-7.251200e-07,1.375000e-02
-7.171200e-07,-1.375000e-02
-7.091200e-07,2.500000e-03
-7.011200e-07,-1.625000e-02
-6.931200e-07,2.875000e-02
-6.851200e-07,-8.750000e-03
-6.771200e-07,2.625000e-02
-6.691200e-07,2.500000e-03
-6.611200e-07,2.125000e-02
-6.531200e-07,1.250000e-02
-6.451200e-07,1.125000e-02
-6.371200e-07,-1.500000e-02
-6.291200e-07,1.125000e-02
-6.211200e-07,-2.375000e-02
-6.131200e-07,1.750000e-02
-6.051200e-07,-1.125000e-02
-5.971200e-07,1.375000e-02
-5.891200e-07,-2.875000e-02
-5.811200e-07,6.250000e-03
-5.731200e-07,-2.750000e-02
-5.651200e-07,1.750000e-02
-5.571200e-07,2.500000e-03
-5.491200e-07,1.625000e-02
-5.411200e-07,-3.750000e-03
-5.331200e-07,2.000000e-02
-5.251200e-07,-1.625000e-02
-5.171200e-07,1.125000e-02
-5.091200e-07,-1.250000e-03
-5.011200e-07,2.625000e-02
-4.931200e-07,-1.250000e-03
-4.851200e-07,2.750000e-02
-4.771200e-07,-1.000000e-02
-4.691200e-07,1.250000e-02
-4.611200e-07,-1.750000e-02
-4.531200e-07,1.500000e-02
-4.451200e-07,-3.000000e-02
-4.371200e-07,3.375000e-02
-4.291200e-07,-1.500000e-02
-4.211200e-07,-1.250000e-03
-4.131200e-07,-2.125000e-02
-4.051200e-07,3.250000e-02
-3.971200e-07,1.000000e-02
-3.891200e-07,3.750000e-03
-3.811200e-07,-7.500000e-03
-3.731200e-07,1.625000e-02
-3.651200e-07,1.250000e-03
-3.571200e-07,1.625000e-02
-3.491200e-07,-3.750000e-03
-3.411200e-07,1.875000e-02
-3.331200e-07,-4.250000e-02
-3.251200e-07,1.250000e-02
-3.171200e-07,-2.125000e-02
-3.091200e-07,2.500000e-02
-3.011200e-07,-8.750000e-03
-2.931200e-07,8.750000e-03
-2.851200e-07,-1.250000e-03
-2.771200e-07,1.250000e-03
-2.691200e-07,-2.375000e-02
-2.611200e-07,2.250000e-02
-2.531200e-07,2.125000e-02
-2.451200e-07,1.750000e-02
-2.371200e-07,7.500000e-03
-2.291200e-07,6.250000e-03
-2.211200e-07,-7.500000e-03
-2.131200e-07,-1.250000e-02
-2.051200e-07,-2.125000e-02
-1.971200e-07,1.000000e-02
-1.891200e-07,-2.625000e-02
-1.811200e-07,1.000000e-02
-1.731200e-07,1.125000e-02
-1.651200e-07,7.500000e-03
-1.571200e-07,-3.750000e-03
-1.491200e-07,1.625000e-02
-1.411200e-07,-1.000000e-02
-1.331200e-07,1.250000e-02
-1.251200e-07,-1.250000e-03
-1.171200e-07,3.625000e-02
-1.091200e-07,-1.250000e-02
-1.011200e-07,1.125000e-02
-9.312000e-08,-2.750000e-02
-8.512000e-08,1.750000e-02
-7.712000e-08,-2.250000e-02
-6.912000e-08,2.500000e-02
-6.112000e-08,-3.250000e-02
-5.312000e-08,1.625000e-02
-4.512000e-08,3.750000e-03
-3.712000e-08,2.000000e-02
-2.912000e-08,-1.400000e+00
-2.112000e-08,-1.415000e+00
-1.312000e-08,-1.432500e+00
-5.120000e-09,-5.300000e-01
2.880000e-09,-2.500000e-02
1.088000e-08,8.750000e-03
1.888000e-08,-1.750000e-02
2.688000e-08,2.750000e-02
3.488000e-08,-2.375000e-02
4.288000e-08,2.125000e-02
5.088000e-08,-1.500000e-02
5.888000e-08,1.250000e-02
6.688000e-08,-4.125000e-02
7.488000e-08,2.000000e-02
8.288000e-08,0.000000e+00
9.088000e-08,1.750000e-02
9.888000e-08,6.250000e-03
1.068800e-07,2.500000e-03
1.148800e-07,1.250000e-03
1.228800e-07,7.500000e-03
1.308800e-07,0.000000e+00
1.388800e-07,3.000000e-02
1.468800e-07,-2.500000e-02
1.548800e-07,1.250000e-02
1.628800e-07,-8.750000e-03
1.708800e-07,3.750000e-03
1.788800e-07,-1.000000e-02
1.868800e-07,1.000000e-02
1.948800e-07,-8.750000e-03
2.028800e-07,1.375000e-02
2.108800e-07,-6.250000e-03
2.188800e-07,3.125000e-02
2.268800e-07,2.500000e-03
2.348800e-07,-7.500000e-03
2.428800e-07,-3.500000e-02
2.508800e-07,7.500000e-03
2.588800e-07,-6.250000e-03
2.668800e-07,6.250000e-03
2.748800e-07,-2.500000e-02
2.828800e-07,2.625000e-02
2.908800e-07,-3.125000e-02
2.988800e-07,2.250000e-02
3.068800e-07,-1.500000e-02
3.148800e-07,2.500000e-02
3.228800e-07,-5.000000e-03
3.308800e-07,1.625000e-02
3.388800e-07,-5.000000e-03
3.468800e-07,2.125000e-02
3.548800e-07,-1.250000e-02
3.628800e-07,2.875000e-02
3.708800e-07,-3.125000e-02
3.788800e-07,2.375000e-02
3.868800e-07,8.750000e-03
3.948800e-07,0.000000e+00
4.028800e-07,-6.250000e-03
4.108800e-07,-6.250000e-03
4.188800e-07,-6.250000e-03
4.268800e-07,-1.125000e-02
4.348800e-07,-5.125000e-02
4.428800e-07,2.875000e-02
4.508800e-07,-1.500000e-02
4.588800e-07,2.250000e-02
4.668800e-07,-7.500000e-03
4.748800e-07,2.000000e-02
4.828800e-07,-2.250000e-02
4.908800e-07,1.500000e-02
4.988800e-07,-1.000000e-02
5.068800e-07,1.000000e-02
5.148800e-07,-7.500000e-03
5.228800e-07,7.500000e-03
5.308800e-07,-8.750000e-03
5.388800e-07,1.500000e-02
5.468800e-07,-1.125000e-02
5.548800e-07,1.125000e-02
5.628800e-07,-6.250000e-03
5.708800e-07,3.750000e-03
5.788800e-07,-4.500000e-02
5.868800e-07,5.125000e-02
5.948800e-07,-2.000000e-02
6.028800e-07,2.375000e-02
6.108800e-07,-4.250000e-02
6.188800e-07,5.000000e-03
6.268800e-07,-8.750000e-03
6.348800e-07,1.000000e-02
6.428800e-07,3.750000e-03
6.508800e-07,2.250000e-02
6.588800e-07,-1.250000e-03
6.668800e-07,1.375000e-02
6.748800e-07,-3.125000e-02
6.828800e-07,3.125000e-02
6.908800e-07,-2.500000e-03
6.988800e-07,1.250000e-02
7.068800e-07,1.250000e-03
7.148800e-07,1.375000e-02
7.228800e-07,-1.250000e-03
7.308800e-07,1.250000e-03
7.388800e-07,-2.000000e-02
7.468800e-07,2.000000e-02
7.548800e-07,-2.625000e-02
7.628800e-07,3.875000e-02
7.708800e-07,3.750000e-03
7.788800e-07,3.125000e-02
7.868800e-07,-5.000000e-03
7.948800e-07,2.000000e-02
8.028800e-07,1.250000e-03
8.108800e-07,5.000000e-03
