run1/run1_ch1_20210318180309838.csv

Model,MSO64
Waveform Type,ANALOG
Horizontal Units,s
Sample Interval,8.000000e-09
Record Length,1250
Zero Index,624.555156
Vertical Units,V

TIME,CH1
-4.996441e-06,2.250000e-02
-4.988441e-06,-1.500000e-02
-4.980441e-06,2.500000e-02
-4.972441e-06,-7.500000e-03
-4.964441e-06,-1.375000e-02
-4.956441e-06,-7.500000e-03
-4.948441e-06,1.500000e-02
-4.940441e-06,-2.750000e-02
-4.932441e-06,5.000000e-03
-4.924441e-06,-1.875000e-02
-4.916441e-06,-3.750000e-03
-4.908441e-06,-2.875000e-02
-4.900441e-06,2.000000e-02
-4.892441e-06,-2.250000e-02
-4.884441e-06,7.500000e-03
-4.876441e-06,-2.375000e-02
-4.868441e-06,1.125000e-02
-4.860441e-06,-1.250000e-02
-4.852441e-06,1.000000e-02
-4.844441e-06,-2.000000e-02
-4.836441e-06,8.750000e-03
-4.828441e-06,-1.125000e-02
-4.820441e-06,1.750000e-02
-4.812441e-06,-6.250000e-03
-4.804441e-06,-3.750000e-03
-4.796441e-06,-3.375000e-02
-4.788441e-06,-2.500000e-03
-4.780441e-06,-1.000000e-02
-4.772441e-06,2.125000e-02
-4.764441e-06,-2.875000e-02
-4.756441e-06,2.125000e-02
-4.748441e-06,-2.250000e-02
-4.740441e-06,1.250000e-03
-4.732441e-06,-3.125000e-02
-4.724441e-06,2.875000e-02
-4.716441e-06,-1.625000e-02
-4.708441e-06,2.500000e-03
-4.700441e-06,3.750000e-03
-4.692441e-06,1.375000e-02
-4.684441e-06,-3.500000e-02
-4.676441e-06,1.375000e-02
-4.668441e-06,-5.000000e-03
-4.660441e-06,2.500000e-03
-4.652441e-06,-2.375000e-02
-4.644441e-06,8.750000e-03
-4.636441e-06,-8.750000e-03
-4.628441e-06,2.000000e-02
-4.620441e-06,-1.750000e-02
-4.612441e-06,1.000000e-02
-4.604441e-06,-2.250000e-02
-4.596441e-06,1.125000e-02
-4.588441e-06,-3.000000e-02
-4.580441e-06,1.375000e-02
-4.572441e-06,-1.500000e-02
-4.564441e-06,1.250000e-02
-4.556441e-06,-1.125000e-02
-4.548441e-06,5.000000e-03
-4.540441e-06,-1.250000e-02
-4.532441e-06,-1.000000e-02
-4.524441e-06,-2.375000e-02
-4.516441e-06,3.250000e-02
-4.508441e-06,8.750000e-03
-4.500441e-06,1.125000e-02
-4.492441e-06,-1.750000e-02
-4.484441e-06,4.125000e-02
-4.476441e-06,-2.875000e-02
-4.468441e-06,2.250000e-02
-4.460441e-06,-2.875000e-02
-4.452441e-06,1.875000e-02
-4.444441e-06,-2.500000e-03
-4.436441e-06,2.625000e-02
-4.428441e-06,6.250000e-03
-4.420441e-06,2.875000e-02
-4.412441e-06,-8.750000e-03
-4.404441e-06,-1.375000e-02
-4.396441e-06,-3.250000e-02
-4.388441e-06,-1.000000e-02
-4.380441e-06,1.000000e-02
-4.372441e-06,1.250000e-02
-4.364441e-06,0.000000e+00
-4.356441e-06,-6.250000e-03
-4.348441e-06,-3.000000e-02
-4.340441e-06,5.000000e-03
-4.332441e-06,-1.250000e-03
-4.324441e-06,1.250000e-03
-4.316441e-06,-1.750000e-02
-4.308441e-06,6.250000e-03
-4.300441e-06,-1.875000e-02
-4.292441e-06,1.000000e-02
-4.284441e-06,-1.250000e-03
-4.276441e-06,2.500000e-03
-4.268441e-06,-2.125000e-02
-4.260441e-06,1.375000e-02
-4.252441e-06,1.250000e-03
-4.244441e-06,2.875000e-02
-4.236441e-06,2.500000e-03
-4.228441e-06,3.125000e-02
-4.220441e-06,-7.500000e-03
-4.212441e-06,2.500000e-03
-4.204441e-06,-7.500000e-03
-4.196441e-06,6.250000e-03
-4.188441e-06,-1.375000e-02
-4.180441e-06,2.500000e-03
-4.172441e-06,1.625000e-02
-4.164441e-06,-1.000000e-02
-4.156441e-06,-3.125000e-02
-4.148441e-06,1.250000e-02
-4.140441e-06,-5.000000e-03
-4.132441e-06,2.375000e-02
-4.124441e-06,-2.000000e-02
-4.116441e-06,3.750000e-03
-4.108441e-06,-1.625000e-02
-4.100441e-06,1.625000e-02
-4.092441e-06,-1.750000e-02
-4.084441e-06,2.125000e-02
-4.076441e-06,-1.750000e-02
-4.068441e-06,3.750000e-03
-4.060441e-06,2.500000e-03
-4.052441e-06,2.000000e-02
-4.044441e-06,-3.750000e-03
-4.036441e-06,1.000000e-02
-4.028441e-06,-1.375000e-02
-4.020441e-06,1.000000e-02
-4.012441e-06,-2.875000e-02
-4.004441e-06,2.125000e-02
-3.996441e-06,-3.000000e-02
-3.988441e-06,8.750000e-03
-3.980441e-06,-1.250000e-02
-3.972441e-06,5.000000e-03
-3.964441e-06,-2.500000e-03
-3.956441e-06,7.500000e-03
-3.948441e-06,-8.750000e-03
-3.940441e-06,1.000000e-02
-3.932441e-06,-8.750000e-03
-3.924441e-06,1.625000e-02
-3.916441e-06,-2.125000e-02
-3.908441e-06,6.250000e-03
-3.900441e-06,0.000000e+00
-3.892441e-06,-5.000000e-03
-3.884441e-06,-1.250000e-02
-3.876441e-06,5.000000e-03
-3.868441e-06,1.500000e-02
-3.860441e-06,1.000000e-02
-3.852441e-06,1.250000e-03
-3.844441e-06,1.500000e-02
-3.836441e-06,-2.500000e-03
-3.828441e-06,2.375000e-02
-3.820441e-06,-8.750000e-03
-3.812441e-06,3.750000e-02
-3.804441e-06,-3.875000e-02
-3.796441e-06,2.250000e-02
-3.788441e-06,-2.500000e-02
-3.780441e-06,3.125000e-02
-3.772441e-06,-2.625000e-02
-3.764441e-06,2.500000e-03
-3.756441e-06,-3.250000e-02
-3.748441e-06,1.875000e-02
-3.740441e-06,-1.250000e-02
-3.732441e-06,3.750000e-03
-3.724441e-06,-6.250000e-03
-3.716441e-06,1.750000e-02
-3.708441e-06,-1.000000e-02
-3.700441e-06,7.500000e-03
-3.692441e-06,-3.750000e-03
-3.684441e-06,1.000000e-02
-3.676441e-06,-1.875000e-02
-3.668441e-06,5.000000e-03
-3.660441e-06,-2.000000e-02
-3.652441e-06,3.125000e-02
-3.644441e-06,-7.500000e-03
-3.636441e-06,-3.750000e-03
-3.628441e-06,-3.000000e-02
-3.620441e-06,2.375000e-02
-3.612441e-06,-2.500000e-03
-3.604441e-06,1.000000e-02
-3.596441e-06,-1.125000e-02
-3.588441e-06,1.875000e-02
-3.580441e-06,-2.250000e-02
-3.572441e-06,-5.000000e-03
-3.564441e-06,8.750000e-03
-3.556441e-06,-8.750000e-03
-3.548441e-06,-6.250000e-03
-3.540441e-06,-2.500000e-03
-3.532441e-06,-3.750000e-02
-3.524441e-06,7.500000e-03
-3.516441e-06,-1.625000e-02
-3.508441e-06,1.625000e-02
-3.500441e-06,-2.500000e-03
-3.492441e-06,1.250000e-03
-3.484441e-06,-3.750000e-03
-3.476441e-06,2.250000e-02
-3.468441e-06,-2.250000e-02
-3.460441e-06,1.500000e-02
-3.452441e-06,-1.500000e-02
-3.444441e-06,2.625000e-02
-3.436441e-06,-1.375000e-02
-3.428441e-06,-1.250000e-03
-3.420441e-06,6.250000e-03
-3.412441e-06,1.500000e-02
-3.404441e-06,-8.750000e-03
-3.396441e-06,0.000000e+00
-3.388441e-06,-2.125000e-02
-3.380441e-06,5.000000e-03
-3.372441e-06,-3.625000e-02
-3.364441e-06,7.500000e-03
-3.356441e-06,-1.125000e-02
-3.348441e-06,1.000000e-02
-3.340441e-06,-1.250000e-02
-3.332441e-06,2.000000e-02
-3.324441e-06,-1.500000e-02
-3.316441e-06,2.750000e-02
-3.308441e-06,-2.125000e-02
-3.300441e-06,-2.500000e-02
-3.292441e-06,-3.500000e-02
-3.284441e-06,5.000000e-03
-3.276441e-06,0.000000e+00
-3.268441e-06,6.250000e-03
-3.260441e-06,-1.625000e-02
-3.252441e-06,2.000000e-02
-3.244441e-06,-2.375000e-02
-3.236441e-06,2.250000e-02
-3.228441e-06,-1.375000e-02
-3.220441e-06,-1.500000e-02
-3.212441e-06,-2.125000e-02
-3.204441e-06,2.500000e-02
-3.196441e-06,-2.375000e-02
-3.188441e-06,-2.500000e-03
-3.180441e-06,-6.250000e-03
-3.172441e-06,1.750000e-02
-3.164441e-06,-6.250000e-03
-3.156441e-06,2.375000e-02
-3.148441e-06,-3.750000e-03
-3.140441e-06,-3.750000e-03
-3.132441e-06,-7.500000e-03
-3.124441e-06,-5.000000e-03
-3.116441e-06,-2.625000e-02
-3.108441e-06,1.125000e-02
-3.100441e-06,-2.375000e-02
-3.092441e-06,3.125000e-02
-3.084441e-06,5.000000e-03
-3.076441e-06,1.250000e-02
-3.068441e-06,-2.375000e-02
-3.060441e-06,-5.000000e-03
-3.052441e-06,6.250000e-03
-3.044441e-06,6.250000e-03
-3.036441e-06,-1.375000e-02
-3.028441e-06,0.000000e+00
-3.020441e-06,-1.500000e-02
-3.012441e-06,1.625000e-02
-3.004441e-06,-2.250000e-02
-2.996441e-06,2.000000e-02
-2.988441e-06,-3.875000e-02
-2.980441e-06,1.000000e-02
-2.972441e-06,-2.250000e-02
-2.964441e-06,1.500000e-02
-2.956441e-06,-1.000000e-02
-2.948441e-06,2.000000e-02
-2.940441e-06,-1.125000e-02
-2.932441e-06,0.000000e+00
-2.924441e-06,-2.500000e-03
-2.916441e-06,1.250000e-02
-2.908441e-06,-1.625000e-02
-2.900441e-06,7.500000e-03
-2.892441e-06,-1.000000e-02
-2.884441e-06,-6.250000e-03
-2.876441e-06,-2.250000e-02
-2.868441e-06,0.000000e+00
-2.860441e-06,-3.875000e-02
-2.852441e-06,-6.250000e-03
-2.844441e-06,-5.000000e-03
-2.836441e-06,2.500000e-02
-2.828441e-06,6.250000e-03
-2.820441e-06,2.500000e-02
-2.812441e-06,-8.750000e-03
-2.804441e-06,-1.250000e-03
-2.796441e-06,-1.125000e-02
-2.788441e-06,2.625000e-02
-2.780441e-06,-1.500000e-02
-2.772441e-06,1.375000e-02
-2.764441e-06,-2.000000e-02
-2.756441e-06,2.500000e-02
-2.748441e-06,-3.250000e-02
-2.740441e-06,-3.750000e-03
-2.732441e-06,-3.000000e-02
-2.724441e-06,-3.750000e-03
-2.716441e-06,-1.375000e-02
-2.708441e-06,1.000000e-02
-2.700441e-06,6.250000e-03
-2.692441e-06,1.625000e-02
-2.684441e-06,-1.625000e-02
-2.676441e-06,1.250000e-03
-2.668441e-06,7.500000e-03
-2.660441e-06,1.000000e-02
-2.652441e-06,8.750000e-03
-2.644441e-06,-2.500000e-03
-2.636441e-06,-4.125000e-02
-2.628441e-06,1.625000e-02
-2.620441e-06,-2.000000e-02
-2.612441e-06,2.250000e-02
-2.604441e-06,-2.750000e-02
-2.596441e-06,1.000000e-02
-2.588441e-06,-5.000000e-03
-2.580441e-06,1.375000e-02
-2.572441e-06,-1.250000e-03
-2.564441e-06,6.250000e-03
-2.556441e-06,3.750000e-03
-2.548441e-06,8.750000e-03
-2.540441e-06,6.250000e-03
-2.532441e-06,4.000000e-02
-2.524441e-06,-1.750000e-02
-2.516441e-06,2.000000e-02
-2.508441e-06,-1.125000e-02
-2.500441e-06,1.375000e-02
-2.492441e-06,3.750000e-03
-2.484441e-06,8.750000e-03
-2.476441e-06,-2.875000e-02
-2.468441e-06,8.750000e-03
-2.460441e-06,-1.625000e-02
-2.452441e-06,2.625000e-02
-2.444441e-06,-1.375000e-02
-2.436441e-06,-3.750000e-03
-2.428441e-06,-1.125000e-02
-2.420441e-06,-1.375000e-02
-2.412441e-06,-1.250000e-03
-2.404441e-06,-2.500000e-03
-2.396441e-06,-2.750000e-02
-2.388441e-06,1.000000e-02
-2.380441e-06,-1.875000e-02
-2.372441e-06,1.750000e-02
-2.364441e-06,-8.750000e-03
-2.356441e-06,1.375000e-02
-2.348441e-06,-1.375000e-02
-2.340441e-06,2.000000e-02
-2.332441e-06,-8.750000e-03
-2.324441e-06,7.500000e-03
-2.316441e-06,-1.875000e-02
-2.308441e-06,2.500000e-02
-2.300441e-06,-3.625000e-02
-2.292441e-06,-1.125000e-02
-2.284441e-06,-1.375000e-02
-2.276441e-06,0.000000e+00
-2.268441e-06,-1.375000e-02
-2.260441e-06,2.125000e-02
-2.252441e-06,-1.000000e-02
-2.244441e-06,5.000000e-03
-2.236441e-06,-2.000000e-02
-2.228441e-06,0.000000e+00
-2.220441e-06,-6.250000e-03
-2.212441e-06,2.250000e-02
-2.204441e-06,-3.750000e-02
-2.196441e-06,-3.750000e-03
-2.188441e-06,-1.375000e-02
-2.180441e-06,1.125000e-02
-2.172441e-06,-1.375000e-02
-2.164441e-06,1.250000e-02
-2.156441e-06,-8.750000e-03
-2.148441e-06,1.250000e-02
-2.140441e-06,-1.375000e-02
-2.132441e-06,5.000000e-03
-2.124441e-06,-1.625000e-02
-2.116441e-06,-3.750000e-03
-2.108441e-06,-2.875000e-02
-2.100441e-06,7.500000e-03
-2.092441e-06,-2.250000e-02
-2.084441e-06,1.000000e-02
-2.076441e-06,-1.125000e-02
-2.068441e-06,1.250000e-02
-2.060441e-06,2.500000e-03
-2.052441e-06,1.625000e-02
-2.044441e-06,-5.000000e-03
-2.036441e-06,1.875000e-02
-2.028441e-06,8.750000e-03
-2.020441e-06,8.750000e-03
-2.012441e-06,-2.500000e-03
-2.004441e-06,7.500000e-03
-1.996441e-06,3.750000e-03
-1.988441e-06,1.250000e-02
-1.980441e-06,-1.625000e-02
-1.972441e-06,1.500000e-02
-1.964441e-06,-1.000000e-02
-1.956441e-06,2.375000e-02
-1.948441e-06,-7.500000e-03
-1.940441e-06,1.625000e-02
-1.932441e-06,-1.000000e-02
-1.924441e-06,2.875000e-02
-1.916441e-06,-8.750000e-03
-1.908441e-06,1.000000e-02
-1.900441e-06,-6.250000e-03
-1.892441e-06,2.250000e-02
-1.884441e-06,-5.000000e-03
-1.876441e-06,2.500000e-02
-1.868441e-06,-3.125000e-02
-1.860441e-06,1.000000e-02
-1.852441e-06,-1.250000e-03
-1.844441e-06,1.875000e-02
-1.836441e-06,-2.625000e-02
-1.828441e-06,1.250000e-02
-1.820441e-06,1.000000e-02
-1.812441e-06,1.125000e-02
-1.804441e-06,-7.500000e-03
-1.796441e-06,2.625000e-02
-1.788441e-06,-3.625000e-02
-1.780441e-06,2.375000e-02
-1.772441e-06,2.500000e-03
-1.764441e-06,-8.750000e-03
-1.756441e-06,-5.000000e-03
-1.748441e-06,1.625000e-02
-1.740441e-06,-1.250000e-02
-1.732441e-06,2.375000e-02
-1.724441e-06,2.500000e-03
-1.716441e-06,1.375000e-02
-1.708441e-06,-1.875000e-02
-1.700441e-06,2.500000e-03
-1.692441e-06,-7.500000e-03
-1.684441e-06,2.000000e-02
-1.676441e-06,-1.250000e-02
-1.668441e-06,7.500000e-03
-1.660441e-06,-1.000000e-02
-1.652441e-06,6.250000e-03
-1.644441e-06,1.000000e-02
-1.636441e-06,3.625000e-02
-1.628441e-06,-1.250000e-02
-1.620441e-06,-1.250000e-03
-1.612441e-06,-2.125000e-02
-1.604441e-06,3.750000e-03
-1.596441e-06,-1.875000e-02
-1.588441e-06,3.125000e-02
-1.580441e-06,-2.750000e-02
-1.572441e-06,3.125000e-02
-1.564441e-06,-1.875000e-02
-1.556441e-06,1.500000e-02
-1.548441e-06,-2.375000e-02
-1.540441e-06,2.500000e-02
-1.532441e-06,-1.875000e-02
-1.524441e-06,1.125000e-02
-1.516441e-06,1.125000e-02
-1.508441e-06,-2.500000e-03
-1.500441e-06,-2.000000e-02
-1.492441e-06,1.500000e-02
-1.484441e-06,-6.250000e-03
-1.476441e-06,1.000000e-02
-1.468441e-06,0.000000e+00
-1.460441e-06,-6.250000e-03
-1.452441e-06,-3.125000e-02
-1.444441e-06,4.375000e-02
-1.436441e-06,-8.750000e-03
-1.428441e-06,2.500000e-03
-1.420441e-06,-1.875000e-02
-1.412441e-06,1.000000e-02
-1.404441e-06,-2.375000e-02
-1.396441e-06,-1.250000e-03
-1.388441e-06,-6.250000e-03
-1.380441e-06,2.375000e-02
-1.372441e-06,1.500000e-02
-1.364441e-06,1.375000e-02
-1.356441e-06,1.250000e-03
-1.348441e-06,1.125000e-02
-1.340441e-06,0.000000e+00
-1.332441e-06,8.750000e-03
-1.324441e-06,-2.625000e-02
-1.316441e-06,-3.750000e-03
-1.308441e-06,7.500000e-03
-1.300441e-06,1.625000e-02
-1.292441e-06,-1.750000e-02
-1.284441e-06,1.375000e-02
-1.276441e-06,-5.000000e-03
-1.268441e-06,7.500000e-03
-1.260441e-06,-1.875000e-02
-1.252441e-06,1.750000e-02
-1.244441e-06,1.750000e-02
-1.236441e-06,6.250000e-03
-1.228441e-06,-1.250000e-02
-1.220441e-06,7.500000e-03
-1.212441e-06,-2.375000e-02
-1.204441e-06,2.125000e-02
-1.196441e-06,-3.750000e-03
-1.188441e-06,-1.250000e-02
-1.180441e-06,-1.625000e-02
-1.172441e-06,2.750000e-02
-1.164441e-06,-2.500000e-02
-1.156441e-06,-3.750000e-03
-1.148441e-06,-2.500000e-02
-1.140441e-06,1.500000e-02
-1.132441e-06,-2.500000e-03
-1.124441e-06,1.375000e-02
-1.116441e-06,1.375000e-02
-1.108441e-06,1.000000e-02
-1.100441e-06,-5.000000e-03
-1.092441e-06,5.000000e-03
-1.084441e-06,-2.000000e-02
-1.076441e-06,1.875000e-02
-1.068441e-06,2.500000e-03
-1.060441e-06,1.000000e-02
-1.052441e-06,5.000000e-03
-1.044441e-06,5.000000e-03
-1.036441e-06,-1.875000e-02
-1.028441e-06,1.500000e-02
-1.020441e-06,-2.125000e-02
-1.012441e-06,1.125000e-02
-1.004441e-06,1.250000e-03
-9.964412e-07,1.875000e-02
-9.884412e-07,-1.125000e-02
-9.804412e-07,-8.750000e-03
-9.724412e-07,-1.375000e-02
-9.644412e-07,3.875000e-02
-9.564412e-07,-2.250000e-02
-9.484412e-07,-2.500000e-03
-9.404412e-07,-1.375000e-02
-9.324412e-07,2.125000e-02
-9.244412e-07,6.250000e-03
-9.164412e-07,1.750000e-02
-9.084412e-07,5.000000e-03
-9.004412e-07,1.250000e-02
-8.924412e-07,-3.500000e-02
-8.844412e-07,2.000000e-02
-8.764412e-07,-1.250000e-03
-8.684412e-07,8.750000e-03
-8.604412e-07,-1.000000e-02
-8.524412e-07,3.750000e-03
-8.444412e-07,-1.750000e-02
-8.364412e-07,-2.500000e-03
-8.284412e-07,-2.375000e-02
-8.204412e-07,1.500000e-02
-8.124412e-07,-2.000000e-02
-8.044412e-07,3.125000e-02
-7.964412e-07,2.500000e-03
-7.884412e-07,1.250000e-02
-7.804412e-07,-2.750000e-02
-7.724412e-07,2.125000e-02
-7.644412e-07,-1.250000e-03
-7.564412e-07,1.250000e-03
-7.484412e-07,1.500000e-02
-7.404412e-07,7.500000e-03
-7.324412e-07,2.500000e-03
-7.244412e-07,1.250000e-03
-7.164412e-07,-1.875000e-02
-7.084412e-07,1.375000e-02
-7.004412e-07,-2.125000e-02
-6.924412e-07,3.750000e-03
-6.844412e-07,-1.875000e-02
-6.764412e-07,1.625000e-02
-6.684412e-07,-7.500000e-03
-6.604412e-07,1.125000e-02
-6.524412e-07,-2.125000e-02
-6.444412e-07,1.250000e-02
-6.364412e-07,-1.375000e-02
-6.284412e-07,7.500000e-03
-6.204412e-07,1.250000e-03
-6.124412e-07,1.250000e-03
-6.044412e-07,8.750000e-03
-5.964412e-07,1.000000e-02
-5.884412e-07,-2.125000e-02
-5.804412e-07,1.250000e-02
-5.724412e-07,-2.000000e-02
-5.644412e-07,-3.750000e-03
-5.564412e-07,-1.500000e-02
-5.484412e-07,2.250000e-02
-5.404412e-07,-2.750000e-02
-5.324412e-07,1.250000e-02
-5.244412e-07,-7.500000e-03
-5.164412e-07,2.375000e-02
-5.084412e-07,-1.875000e-02
-5.004412e-07,1.375000e-02
-4.924412e-07,-1.250000e-03
-4.844412e-07,6.250000e-03
-4.764412e-07,-1.625000e-02
-4.684412e-07,1.250000e-03
-4.604412e-07,-1.250000e-03
-4.524412e-07,3.250000e-02
-4.444412e-07,-6.250000e-03
-4.364412e-07,-8.750000e-03
-4.284412e-07,-8.750000e-03
-4.204412e-07,3.375000e-02
-4.124412e-07,-5.000000e-03
-4.044412e-07,3.500000e-02
-3.964412e-07,-1.375000e-02
-3.884412e-07,1.750000e-02
-3.804412e-07,-1.750000e-02
-3.724412e-07,3.000000e-02
-3.644412e-07,-1.625000e-02
-3.564412e-07,1.625000e-02
-3.484412e-07,-3.750000e-03
-3.404412e-07,-3.750000e-03
-3.324412e-07,-2.500000e-03
-3.244412e-07,0.000000e+00
-3.164412e-07,-3.250000e-02
-3.084412e-07,3.750000e-03
-3.004412e-07,-5.875000e-02
-2.924412e-07,1.000000e-02
-2.844412e-07,1.250000e-03
-2.764412e-07,1.375000e-02
-2.684412e-07,-3.000000e-02
-2.604412e-07,3.375000e-02
-2.524412e-07,-4.000000e-02
-2.444412e-07,6.250000e-03
-2.364412e-07,-1.625000e-02
-2.284412e-07,2.625000e-02
-2.204412e-07,3.750000e-03
-2.124412e-07,1.000000e-02
-2.044412e-07,-2.250000e-02
-1.964412e-07,3.750000e-03
-1.884412e-07,-2.000000e-02
-1.804412e-07,2.500000e-03
-1.724412e-07,5.000000e-03
-1.644412e-07,1.875000e-02
-1.564412e-07,-1.500000e-02
-1.484412e-07,3.500000e-02
-1.404412e-07,-2.000000e-02
-1.324412e-07,3.625000e-02
-1.244412e-07,-1.125000e-02
-1.164412e-07,1.000000e-02
-1.084412e-07,1.125000e-02
-1.004412e-07,7.500000e-03
-9.244125e-08,-1.375000e-02
-8.444125e-08,1.750000e-02
-7.644125e-08,-1.625000e-02
-6.844125e-08,2.125000e-02
-6.044125e-08,-2.750000e-02
-5.244125e-08,8.750000e-03
-4.444125e-08,-1.875000e-02
-3.644125e-08,1.375000e-02
-2.844125e-08,-2.375000e-02
-2.044125e-08,-1.250000e-03
-1.244125e-08,-1.375000e-02
-4.441250e-09,2.000000e-02
3.558750e-09,-1.397500e+00
1.155875e-08,-1.428750e+00
1.955875e-08,-1.440000e+00
2.755875e-08,-1.353750e+00
3.555875e-08,-2.875000e-02
4.355875e-08,2.125000e-02
5.155875e-08,-1.625000e-02
5.955875e-08,2.125000e-02
6.755875e-08,-2.500000e-02
7.555875e-08,2.250000e-02
8.355875e-08,0.000000e+00
9.155875e-08,1.375000e-02
9.955875e-08,-2.750000e-02
1.075588e-07,1.375000e-02
1.155588e-07,-1.250000e-02
1.235588e-07,2.125000e-02
1.315588e-07,-2.625000e-02
1.395588e-07,1.625000e-02
1.475588e-07,7.500000e-03
1.555588e-07,1.750000e-02
1.635588e-07,-1.375000e-02
1.715588e-07,2.625000e-02
1.795588e-07,-1.875000e-02
1.875588e-07,2.125000e-02
1.955588e-07,-2.750000e-02
2.035588e-07,7.500000e-03
2.115588e-07,-1.250000e-03
2.195588e-07,2.750000e-02
2.275588e-07,-2.500000e-02
2.355588e-07,5.000000e-03
2.435588e-07,1.500000e-02
2.515588e-07,1.500000e-02
2.595588e-07,-2.000000e-02
2.675588e-07,1.625000e-02
2.755588e-07,6.250000e-03
2.835588e-07,1.125000e-02
2.915588e-07,-1.500000e-02
2.995588e-07,1.250000e-02
3.075588e-07,-1.750000e-02
3.155588e-07,5.000000e-03
3.235588e-07,-2.250000e-02
3.315588e-07,2.375000e-02
3.395588e-07,-2.625000e-02
3.475588e-07,2.250000e-02
3.555588e-07,7.500000e-03
3.635588e-07,1.125000e-02
3.715588e-07,-6.250000e-03
3.795588e-07,1.750000e-02
3.875588e-07,-3.750000e-03
3.955588e-07,6.250000e-03
4.035588e-07,0.000000e+00
4.115588e-07,7.500000e-03
4.195588e-07,0.000000e+00
4.275588e-07,2.500000e-02
4.355588e-07,-6.250000e-03
4.435588e-07,1.875000e-02
4.515588e-07,-2.125000e-02
4.595588e-07,-3.750000e-03
4.675588e-07,-2.000000e-02
4.755588e-07,1.875000e-02
4.835588e-07,-1.250000e-03
4.915588e-07,1.125000e-02
4.995588e-07,2.500000e-03
5.075588e-07,6.250000e-03
5.155588e-07,1.250000e-03
5.235588e-07,5.000000e-03
5.315588e-07,-1.000000e-02
5.395588e-07,7.500000e-03
5.475588e-07,-2.500000e-03
5.555588e-07,-1.250000e-03
5.635588e-07,1.250000e-03
5.715588e-07,1.500000e-02
5.795588e-07,-1.250000e-03
5.875588e-07,5.000000e-03
5.955588e-07,-1.250000e-02
6.035588e-07,2.125000e-02
6.115588e-07,-6.250000e-03
6.195588e-07,1.000000e-02
6.275588e-07,-2.625000e-02
6.355588e-07,3.000000e-02
6.435588e-07,-3.750000e-03
6.515588e-07,-2.500000e-03
6.595588e-07,-3.750000e-03
6.675588e-07,1.250000e-02
6.755588e-07,-1.250000e-02
6.835588e-07,2.125000e-02
6.915588e-07,-5.000000e-03
6.995588e-07,1.250000e-02
7.075588e-07,-1.500000e-02
7.155588e-07,7.500000e-03
7.235588e-07,-3.000000e-02
7.315588e-07,4.000000e-02
7.395588e-07,-2.500000e-03
7.475588e-07,5.000000e-03
7.555588e-07,-1.375000e-02
7.635588e-07,2.875000e-02
7.715588e-07,-7.500000e-03
7.795588e-07,1.375000e-02
7.875588e-07,-1.750000e-02
7.955588e-07,-3.750000e-03
