run1/run1_ch1_20210318180347892.csv

Model,MSO64
Waveform Type,ANALOG
Horizontal Units,s
Sample Interval,8.000000e-09
Record Length,1250
Zero Index,624.180156
Vertical Units,V

TIME,CH1
-4.993441e-06,0.000000e+00
-4.985441e-06,3.750000e-03
-4.977441e-06,-2.250000e-02
-4.969441e-06,1.625000e-02
-4.961441e-06,-6.250000e-03
-4.953441e-06,1.000000e-02
-4.945441e-06,3.750000e-03
-4.937441e-06,0.000000e+00
-4.929441e-06,-1.250000e-02
-4.921441e-06,8.750000e-03
-4.913441e-06,-3.125000e-02
-4.905441e-06,1.125000e-02
-4.897441e-06,3.750000e-03
-4.889441e-06,1.000000e-02
-4.881441e-06,-1.875000e-02
-4.873441e-06,1.125000e-02
-4.865441e-06,-1.625000e-02
-4.857441e-06,1.500000e-02
-4.849441e-06,-2.750000e-02
-4.841441e-06,5.000000e-03
-4.833441e-06,1.250000e-02
-4.825441e-06,1.625000e-02
-4.817441e-06,-1.875000e-02
-4.809441e-06,2.250000e-02
-4.801441e-06,-8.750000e-03
-4.793441e-06,1.625000e-02
-4.785441e-06,-3.375000e-02
-4.777441e-06,1.375000e-02
-4.769441e-06,-1.750000e-02
-4.761441e-06,2.000000e-02
-4.753441e-06,6.250000e-03
-4.745441e-06,-1.500000e-02
-4.737441e-06,-1.625000e-02
-4.729441e-06,7.500000e-03
-4.721441e-06,-2.500000e-03
-4.713441e-06,-7.500000e-03
-4.705441e-06,-8.750000e-03
-4.697441e-06,1.625000e-02
-4.689441e-06,-8.750000e-03
-4.681441e-06,1.250000e-02
-4.673441e-06,-1.375000e-02
-4.665441e-06,8.750000e-03
-4.657441e-06,-2.500000e-02
-4.649441e-06,1.250000e-02
-4.641441e-06,6.250000e-03
-4.633441e-06,2.000000e-02
-4.625441e-06,-1.750000e-02
-4.617441e-06,1.375000e-02
-4.609441e-06,-2.125000e-02
-4.601441e-06,2.000000e-02
-4.593441e-06,-2.125000e-02
-4.585441e-06,5.000000e-03
-4.577441e-06,2.500000e-03
-4.569441e-06,7.500000e-03
-4.561441e-06,-1.625000e-02
-4.553441e-06,6.250000e-03
-4.545441e-06,-3.625000e-02
-4.537441e-06,3.125000e-02
-4.529441e-06,0.000000e+00
-4.521441e-06,1.625000e-02
-4.513441e-06,-8.750000e-03
-4.505441e-06,2.250000e-02
-4.497441e-06,-2.500000e-02
-4.489441e-06,1.125000e-02
-4.481441e-06,-1.250000e-03
-4.473441e-06,1.125000e-02
-4.465441e-06,-1.875000e-02
-4.457441e-06,2.500000e-03
-4.449441e-06,-1.000000e-02
-4.441441e-06,-8.750000e-03
-4.433441e-06,-1.125000e-02
-4.425441e-06,2.125000e-02
-4.417441e-06,2.500000e-03
-4.409441e-06,-7.500000e-03
-4.401441e-06,-1.250000e-02
-4.393441e-06,3.750000e-03
-4.385441e-06,5.000000e-03
-4.377441e-06,1.125000e-02
-4.369441e-06,-1.375000e-02
-4.361441e-06,2.125000e-02
-4.353441e-06,-1.125000e-02
-4.345441e-06,1.125000e-02
-4.337441e-06,-2.750000e-02
-4.329441e-06,1.125000e-02
-4.321441e-06,-6.250000e-03
-4.313441e-06,1.250000e-02
-4.305441e-06,5.000000e-03
-4.297441e-06,2.000000e-02
-4.289441e-06,-3.750000e-02
-4.281441e-06,1.250000e-02
-4.273441e-06,-2.625000e-02
-4.265441e-06,5.000000e-03
-4.257441e-06,-1.125000e-02
-4.249441e-06,1.125000e-02
-4.241441e-06,-3.750000e-03
-4.233441e-06,2.125000e-02
-4.225441e-06,-1.250000e-02
-4.217441e-06,1.500000e-02
-4.209441e-06,-1.250000e-02
-4.201441e-06,2.125000e-02
-4.193441e-06,-5.000000e-03
-4.185441e-06,6.250000e-03
-4.177441e-06,-2.625000e-02
-4.169441e-06,3.750000e-02
-4.161441e-06,-2.750000e-02
-4.153441e-06,1.250000e-03
-4.145441e-06,-6.250000e-03
-4.137441e-06,-1.250000e-03
-4.129441e-06,-3.125000e-02
-4.121441e-06,2.375000e-02
-4.113441e-06,-1.500000e-02
-4.105441e-06,1.750000e-02
-4.097441e-06,-1.250000e-03
-4.089441e-06,3.625000e-02
-4.081441e-06,-3.750000e-03
-4.073441e-06,0.000000e+00
-4.065441e-06,-1.625000e-02
-4.057441e-06,1.375000e-02
-4.049441e-06,-2.375000e-02
-4.041441e-06,3.250000e-02
-4.033441e-06,-5.000000e-03
-4.025441e-06,2.125000e-02
-4.017441e-06,-2.250000e-02
-4.009441e-06,3.750000e-03
-4.001441e-06,-1.250000e-03
-3.993441e-06,1.125000e-02
-3.985441e-06,-7.500000e-03
-3.977441e-06,1.375000e-02
-3.969441e-06,-1.750000e-02
-3.961441e-06,-3.750000e-03
-3.953441e-06,-6.250000e-03
-3.945441e-06,1.625000e-02
-3.937441e-06,-1.750000e-02
-3.929441e-06,3.125000e-02
-3.921441e-06,-3.000000e-02
-3.913441e-06,1.625000e-02
-3.905441e-06,-2.000000e-02
-3.897441e-06,1.500000e-02
-3.889441e-06,-1.125000e-02
-3.881441e-06,1.000000e-02
-3.873441e-06,-3.250000e-02
-3.865441e-06,2.750000e-02
-3.857441e-06,1.250000e-02
-3.849441e-06,2.125000e-02
-3.841441e-06,-1.250000e-02
-3.833441e-06,0.000000e+00
-3.825441e-06,-1.000000e-02
-3.817441e-06,1.125000e-02
-3.809441e-06,-1.125000e-02
-3.801441e-06,1.625000e-02
-3.793441e-06,6.250000e-03
-3.785441e-06,1.625000e-02
-3.777441e-06,-1.500000e-02
-3.769441e-06,-5.000000e-03
-3.761441e-06,-1.750000e-02
-3.753441e-06,2.500000e-03
-3.745441e-06,-3.125000e-02
-3.737441e-06,2.125000e-02
-3.729441e-06,-1.500000e-02
-3.721441e-06,1.625000e-02
-3.713441e-06,-2.500000e-03
-3.705441e-06,1.375000e-02
-3.697441e-06,-2.750000e-02
-3.689441e-06,2.625000e-02
-3.681441e-06,-5.000000e-03
-3.673441e-06,3.125000e-02
-3.665441e-06,0.000000e+00
-3.657441e-06,0.000000e+00
-3.649441e-06,-1.625000e-02
-3.641441e-06,2.375000e-02
-3.633441e-06,-3.000000e-02
-3.625441e-06,2.000000e-02
-3.617441e-06,-1.250000e-03
-3.609441e-06,1.375000e-02
-3.601441e-06,-1.375000e-02
-3.593441e-06,3.500000e-02
-3.585441e-06,6.250000e-03
-3.577441e-06,7.500000e-03
-3.569441e-06,-7.500000e-03
-3.561441e-06,3.750000e-03
-3.553441e-06,1.375000e-02
-3.545441e-06,1.875000e-02
-3.537441e-06,-1.250000e-02
-3.529441e-06,3.750000e-03
-3.521441e-06,-6.250000e-03
-3.513441e-06,3.875000e-02
-3.505441e-06,-1.250000e-02
-3.497441e-06,6.250000e-03
-3.489441e-06,-2.000000e-02
-3.481441e-06,1.750000e-02
-3.473441e-06,2.500000e-03
-3.465441e-06,1.125000e-02
-3.457441e-06,-2.000000e-02
-3.449441e-06,2.250000e-02
-3.441441e-06,-2.500000e-02
-3.433441e-06,1.750000e-02
-3.425441e-06,8.750000e-03
-3.417441e-06,4.875000e-02
-3.409441e-06,-2.500000e-03
-3.401441e-06,2.250000e-02
-3.393441e-06,-1.000000e-02
-3.385441e-06,2.000000e-02
-3.377441e-06,-2.125000e-02
-3.369441e-06,0.000000e+00
-3.361441e-06,-2.250000e-02
-3.353441e-06,3.875000e-02
-3.345441e-06,1.250000e-03
-3.337441e-06,2.875000e-02
-3.329441e-06,8.750000e-03
-3.321441e-06,2.375000e-02
-3.313441e-06,-1.500000e-02
-3.305441e-06,1.000000e-02
-3.297441e-06,-1.125000e-02
-3.289441e-06,1.375000e-02
-3.281441e-06,-2.500000e-03
-3.273441e-06,8.750000e-03
-3.265441e-06,-8.750000e-03
-3.257441e-06,0.000000e+00
-3.249441e-06,-2.750000e-02
-3.241441e-06,2.625000e-02
-3.233441e-06,-1.875000e-02
-3.225441e-06,1.125000e-02
-3.217441e-06,0.000000e+00
-3.209441e-06,2.750000e-02
-3.201441e-06,0.000000e+00
-3.193441e-06,1.875000e-02
-3.185441e-06,0.000000e+00
-3.177441e-06,-2.500000e-03
-3.169441e-06,0.000000e+00
-3.161441e-06,2.375000e-02
-3.153441e-06,-1.375000e-02
-3.145441e-06,7.500000e-03
-3.137441e-06,7.500000e-03
-3.129441e-06,2.500000e-02
-3.121441e-06,-3.750000e-03
-3.113441e-06,2.375000e-02
-3.105441e-06,1.250000e-03
-3.097441e-06,-1.250000e-03
-3.089441e-06,-1.250000e-03
-3.081441e-06,2.750000e-02
-3.073441e-06,1.125000e-02
-3.065441e-06,2.000000e-02
-3.057441e-06,-6.250000e-03
-3.049441e-06,2.875000e-02
-3.041441e-06,3.750000e-03
-3.033441e-06,2.125000e-02
-3.025441e-06,1.375000e-02
-3.017441e-06,7.500000e-03
-3.009441e-06,2.500000e-03
-3.001441e-06,1.875000e-02
-2.993441e-06,-4.000000e-02
-2.985441e-06,-1.250000e-03
-2.977441e-06,-1.250000e-02
-2.969441e-06,1.500000e-02
-2.961441e-06,-1.250000e-03
-2.953441e-06,1.375000e-02
-2.945441e-06,-2.500000e-02
-2.937441e-06,1.250000e-02
-2.929441e-06,-1.250000e-02
-2.921441e-06,4.000000e-02
-2.913441e-06,-2.875000e-02
-2.905441e-06,2.750000e-02
-2.897441e-06,-1.250000e-03
-2.889441e-06,2.125000e-02
-2.881441e-06,-1.250000e-02
-2.873441e-06,1.375000e-02
-2.865441e-06,-1.750000e-02
-2.857441e-06,1.875000e-02
-2.849441e-06,5.000000e-03
-2.841441e-06,3.125000e-02
-2.833441e-06,0.000000e+00
-2.825441e-06,6.250000e-03
-2.817441e-06,2.500000e-03
-2.809441e-06,1.000000e-02
-2.801441e-06,3.750000e-03
-2.793441e-06,-3.750000e-03
-2.785441e-06,-1.875000e-02
-2.777441e-06,2.875000e-02
-2.769441e-06,-5.000000e-03
-2.761441e-06,0.000000e+00
-2.753441e-06,-8.750000e-03
-2.745441e-06,1.250000e-02
-2.737441e-06,-2.250000e-02
-2.729441e-06,1.500000e-02
-2.721441e-06,-1.750000e-02
-2.713441e-06,1.875000e-02
-2.705441e-06,-7.500000e-03
-2.697441e-06,1.750000e-02
-2.689441e-06,2.500000e-03
-2.681441e-06,3.000000e-02
-2.673441e-06,-7.500000e-03
-2.665441e-06,-2.500000e-03
-2.657441e-06,7.500000e-03
-2.649441e-06,1.000000e-02
-2.641441e-06,-1.500000e-02
-2.633441e-06,8.750000e-03
-2.625441e-06,6.250000e-03
-2.617441e-06,8.750000e-03
-2.609441e-06,-3.750000e-03
-2.601441e-06,-6.250000e-03
-2.593441e-06,-2.875000e-02
-2.585441e-06,1.750000e-02
-2.577441e-06,1.750000e-02
-2.569441e-06,-2.500000e-03
-2.561441e-06,-2.250000e-02
-2.553441e-06,2.000000e-02
-2.545441e-06,-1.375000e-02
-2.537441e-06,1.625000e-02
-2.529441e-06,0.000000e+00
-2.521441e-06,3.750000e-03
-2.513441e-06,0.000000e+00
-2.505441e-06,3.750000e-03
-2.497441e-06,-1.375000e-02
-2.489441e-06,0.000000e+00
-2.481441e-06,-1.750000e-02
-2.473441e-06,1.000000e-02
-2.465441e-06,-1.875000e-02
-2.457441e-06,2.875000e-02
-2.449441e-06,-1.250000e-03
-2.441441e-06,1.125000e-02
-2.433441e-06,-2.250000e-02
-2.425441e-06,1.375000e-02
-2.417441e-06,-2.750000e-02
-2.409441e-06,6.250000e-03
-2.401441e-06,8.750000e-03
-2.393441e-06,2.250000e-02
-2.385441e-06,6.250000e-03
-2.377441e-06,2.125000e-02
-2.369441e-06,-1.125000e-02
-2.361441e-06,7.500000e-03
-2.353441e-06,-2.500000e-02
-2.345441e-06,1.750000e-02
-2.337441e-06,-6.250000e-03
-2.329441e-06,8.750000e-03
-2.321441e-06,0.000000e+00
-2.313441e-06,3.750000e-03
-2.305441e-06,-1.750000e-02
-2.297441e-06,1.375000e-02
-2.289441e-06,-2.125000e-02
-2.281441e-06,1.375000e-02
-2.273441e-06,1.125000e-02
-2.265441e-06,2.250000e-02
-2.257441e-06,-1.250000e-03
-2.249441e-06,7.500000e-03
-2.241441e-06,-7.500000e-03
-2.233441e-06,5.000000e-03
-2.225441e-06,-1.500000e-02
-2.217441e-06,3.125000e-02
-2.209441e-06,1.375000e-02
-2.201441e-06,7.500000e-03
-2.193441e-06,-3.750000e-03
-2.185441e-06,1.875000e-02
-2.177441e-06,-1.375000e-02
-2.169441e-06,2.125000e-02
-2.161441e-06,-3.625000e-02
-2.153441e-06,2.500000e-03
-2.145441e-06,6.250000e-03
-2.137441e-06,1.125000e-02
-2.129441e-06,-1.250000e-02
-2.121441e-06,-2.500000e-03
-2.113441e-06,6.250000e-03
-2.105441e-06,1.250000e-02
-2.097441e-06,-7.500000e-03
-2.089441e-06,0.000000e+00
-2.081441e-06,-2.750000e-02
-2.073441e-06,0.000000e+00
-2.065441e-06,-2.375000e-02
-2.057441e-06,6.250000e-03
-2.049441e-06,-1.000000e-02
-2.041441e-06,1.875000e-02
-2.033441e-06,-1.250000e-02
-2.025441e-06,-2.000000e-02
-2.017441e-06,1.125000e-02
-2.009441e-06,3.000000e-02
-2.001441e-06,8.750000e-03
-1.993441e-06,1.250000e-03
-1.985441e-06,-1.375000e-02
-1.977441e-06,1.250000e-03
-1.969441e-06,-2.250000e-02
-1.961441e-06,2.750000e-02
-1.953441e-06,-1.000000e-02
-1.945441e-06,2.750000e-02
-1.937441e-06,-2.125000e-02
-1.929441e-06,2.250000e-02
-1.921441e-06,-2.500000e-03
-1.913441e-06,5.000000e-03
-1.905441e-06,5.000000e-03
-1.897441e-06,2.250000e-02
-1.889441e-06,8.750000e-03
-1.881441e-06,1.375000e-02
-1.873441e-06,-5.000000e-03
-1.865441e-06,-3.750000e-03
-1.857441e-06,-2.000000e-02
-1.849441e-06,1.375000e-02
-1.841441e-06,-1.625000e-02
-1.833441e-06,7.500000e-03
-1.825441e-06,2.500000e-03
-1.817441e-06,2.375000e-02
-1.809441e-06,1.250000e-03
-1.801441e-06,2.500000e-03
-1.793441e-06,-7.500000e-03
-1.785441e-06,2.500000e-03
-1.777441e-06,-2.000000e-02
-1.769441e-06,2.625000e-02
-1.761441e-06,-6.250000e-03
-1.753441e-06,1.125000e-02
-1.745441e-06,-6.250000e-03
-1.737441e-06,1.000000e-02
-1.729441e-06,1.875000e-02
-1.721441e-06,2.875000e-02
-1.713441e-06,-1.375000e-02
-1.705441e-06,1.250000e-02
-1.697441e-06,-1.750000e-02
-1.689441e-06,1.875000e-02
-1.681441e-06,-1.250000e-03
-1.673441e-06,1.250000e-02
-1.665441e-06,-1.375000e-02
-1.657441e-06,1.750000e-02
-1.649441e-06,2.500000e-03
-1.641441e-06,5.000000e-03
-1.633441e-06,8.750000e-03
-1.625441e-06,1.625000e-02
-1.617441e-06,6.250000e-03
-1.609441e-06,1.000000e-02
-1.601441e-06,-1.875000e-02
-1.593441e-06,3.250000e-02
-1.585441e-06,-1.125000e-02
-1.577441e-06,2.500000e-03
-1.569441e-06,-6.250000e-03
-1.561441e-06,2.625000e-02
-1.553441e-06,2.500000e-03
-1.545441e-06,1.625000e-02
-1.537441e-06,0.000000e+00
-1.529441e-06,4.000000e-02
-1.521441e-06,-6.250000e-03
-1.513441e-06,2.125000e-02
-1.505441e-06,-5.000000e-03
-1.497441e-06,3.250000e-02
-1.489441e-06,-2.500000e-03
-1.481441e-06,2.125000e-02
-1.473441e-06,-2.375000e-02
-1.465441e-06,2.625000e-02
-1.457441e-06,1.750000e-02
-1.449441e-06,1.750000e-02
-1.441441e-06,-8.750000e-03
-1.433441e-06,2.500000e-03
-1.425441e-06,-1.250000e-02
-1.417441e-06,1.625000e-02
-1.409441e-06,-1.250000e-02
-1.401441e-06,3.125000e-02
-1.393441e-06,-6.250000e-03
-1.385441e-06,7.500000e-03
-1.377441e-06,-3.000000e-02
-1.369441e-06,3.375000e-02
-1.361441e-06,1.250000e-03
-1.353441e-06,2.375000e-02
-1.345441e-06,0.000000e+00
-1.337441e-06,8.750000e-03
-1.329441e-06,-5.000000e-03
-1.321441e-06,2.500000e-02
-1.313441e-06,-1.250000e-03
-1.305441e-06,2.375000e-02
-1.297441e-06,-8.750000e-03
-1.289441e-06,1.375000e-02
-1.281441e-06,3.750000e-03
-1.273441e-06,1.250000e-02
-1.265441e-06,-1.125000e-02
-1.257441e-06,1.125000e-02
-1.249441e-06,-2.250000e-02
-1.241441e-06,1.500000e-02
-1.233441e-06,-3.750000e-02
-1.225441e-06,6.250000e-03
-1.217441e-06,-2.000000e-02
-1.209441e-06,-3.750000e-03
-1.201441e-06,-1.000000e-02
-1.193441e-06,7.500000e-03
-1.185441e-06,-1.125000e-02
-1.177441e-06,1.250000e-03
-1.169441e-06,-1.250000e-02
-1.161441e-06,7.500000e-03
-1.153441e-06,-2.125000e-02
-1.145441e-06,1.500000e-02
-1.137441e-06,-1.500000e-02
-1.129441e-06,1.750000e-02
-1.121441e-06,-3.375000e-02
-1.113441e-06,1.625000e-02
-1.105441e-06,-2.500000e-03
-1.097441e-06,2.625000e-02
-1.089441e-06,-6.250000e-03
-1.081441e-06,1.750000e-02
-1.073441e-06,-1.875000e-02
-1.065441e-06,5.000000e-03
-1.057441e-06,0.000000e+00
-1.049441e-06,2.500000e-03
-1.041441e-06,-1.250000e-03
-1.033441e-06,1.125000e-02
-1.025441e-06,-1.500000e-02
-1.017441e-06,0.000000e+00
-1.009441e-06,-3.125000e-02
-1.001441e-06,2.125000e-02
-9.934413e-07,-1.625000e-02
-9.854412e-07,2.500000e-02
-9.774412e-07,-5.000000e-03
-9.694412e-07,1.875000e-02
-9.614412e-07,1.250000e-02
-9.534412e-07,1.250000e-03
-9.454412e-07,-1.500000e-02
-9.374412e-07,1.500000e-02
-9.294412e-07,0.000000e+00
-9.214412e-07,5.000000e-03
-9.134412e-07,6.250000e-03
-9.054412e-07,2.000000e-02
-8.974412e-07,-1.250000e-02
-8.894412e-07,1.125000e-02
-8.814412e-07,1.125000e-02
-8.734412e-07,6.250000e-03
-8.654412e-07,-7.500000e-03
-8.574412e-07,2.875000e-02
-8.494412e-07,-2.125000e-02
-8.414412e-07,3.750000e-03
-8.334412e-07,-2.500000e-03
-8.254412e-07,2.125000e-02
-8.174412e-07,-2.500000e-03
-8.094412e-07,6.250000e-03
-8.014412e-07,6.250000e-03
-7.934412e-07,1.500000e-02
-7.854412e-07,-6.250000e-03
-7.774412e-07,1.000000e-02
-7.694412e-07,6.250000e-03
-7.614412e-07,-3.750000e-03
-7.534412e-07,-1.750000e-02
-7.454412e-07,3.750000e-03
-7.374412e-07,-1.250000e-03
-7.294412e-07,2.625000e-02
-7.214412e-07,-1.250000e-02
-7.134412e-07,1.750000e-02
-7.054412e-07,-1.750000e-02
-6.974412e-07,2.500000e-02
-6.894412e-07,-1.250000e-03
-6.814412e-07,1.125000e-02
-6.734412e-07,-2.750000e-02
-6.654412e-07,6.250000e-03
-6.574412e-07,5.000000e-03
-6.494412e-07,-3.750000e-03
-6.414412e-07,-2.500000e-03
-6.334412e-07,8.750000e-03
-6.254412e-07,-1.500000e-02
-6.174412e-07,1.375000e-02
-6.094412e-07,0.000000e+00
-6.014412e-07,7.500000e-03
-5.934412e-07,-2.625000e-02
-5.854412e-07,1.125000e-02
-5.774412e-07,-1.125000e-02
-5.694412e-07,2.250000e-02
-5.614412e-07,-2.875000e-02
-5.534412e-07,1.625000e-02
-5.454412e-07,-1.625000e-02
-5.374412e-07,6.250000e-03
-5.294412e-07,-2.625000e-02
-5.214412e-07,1.250000e-02
-5.134412e-07,-7.500000e-03
-5.054412e-07,1.750000e-02
-4.974412e-07,-1.000000e-02
-4.894412e-07,7.500000e-03
-4.814412e-07,5.000000e-03
-4.734412e-07,2.875000e-02
-4.654412e-07,-1.250000e-02
-4.574412e-07,1.500000e-02
-4.494412e-07,-1.500000e-02
-4.414412e-07,3.000000e-02
-4.334412e-07,-1.500000e-02
-4.254412e-07,6.250000e-03
-4.174412e-07,-6.250000e-03
-4.094412e-07,1.250000e-02
-4.014412e-07,-3.125000e-02
-3.934412e-07,7.500000e-03
-3.854412e-07,6.250000e-03
-3.774412e-07,3.375000e-02
-3.694412e-07,-3.750000e-03
-3.614412e-07,1.375000e-02
-3.534412e-07,-2.500000e-03
-3.454412e-07,5.000000e-03
-3.374412e-07,6.250000e-03
-3.294412e-07,2.250000e-02
-3.214412e-07,-1.125000e-02
-3.134412e-07,2.000000e-02
-3.054412e-07,-2.750000e-02
-2.974412e-07,3.750000e-03
-2.894412e-07,-8.750000e-03
-2.814412e-07,1.375000e-02
-2.734412e-07,1.375000e-02
-2.654412e-07,6.250000e-03
-2.574412e-07,-2.000000e-02
-2.494412e-07,3.000000e-02
-2.414412e-07,-1.125000e-02
-2.334412e-07,3.250000e-02
-2.254412e-07,-2.500000e-03
-2.174412e-07,3.750000e-02
-2.094412e-07,1.500000e-02
-2.014412e-07,2.500000e-02
-1.934412e-07,-7.500000e-03
-1.854412e-07,2.500000e-02
-1.774412e-07,-1.500000e-02
-1.694412e-07,1.750000e-02
-1.614412e-07,8.750000e-03
-1.534412e-07,1.250000e-02
-1.454412e-07,1.250000e-03
-1.374412e-07,2.750000e-02
-1.294412e-07,-2.625000e-02
-1.214412e-07,5.000000e-03
-1.134412e-07,-1.250000e-02
-1.054412e-07,1.000000e-02
-9.744125e-08,-5.000000e-03
-8.944125e-08,1.375000e-02
-8.144125e-08,2.500000e-03
-7.344125e-08,1.250000e-02
-6.544125e-08,-1.500000e-02
-5.744125e-08,1.500000e-02
-4.944125e-08,-1.875000e-02
-4.144125e-08,-7.500000e-03
-3.344125e-08,-1.750000e-02
-2.544125e-08,1.875000e-02
-1.744125e-08,3.750000e-03
-9.441250e-09,2.875000e-02
-1.441250e-09,-5.000000e-03
6.558750e-09,-1.411250e+00
1.455875e-08,-1.433750e+00
2.255875e-08,-1.396250e+00
3.055875e-08,-3.112500e-01
3.855875e-08,-3.750000e-03
4.655875e-08,6.250000e-03
5.455875e-08,2.875000e-02
6.255875e-08,-7.500000e-03
7.055875e-08,8.750000e-03
7.855875e-08,-3.750000e-03
8.655875e-08,1.500000e-02
9.455875e-08,-1.625000e-02
1.025588e-07,1.500000e-02
1.105588e-07,-1.625000e-02
1.185588e-07,1.875000e-02
1.265588e-07,-2.500000e-03
1.345588e-07,0.000000e+00
1.425588e-07,-2.375000e-02
1.505588e-07,1.000000e-02
1.585588e-07,3.750000e-03
1.665588e-07,1.750000e-02
1.745588e-07,1.500000e-02
1.825588e-07,1.125000e-02
1.905588e-07,1.500000e-02
1.985588e-07,1.875000e-02
2.065588e-07,-1.875000e-02
2.145588e-07,1.625000e-02
2.225588e-07,-1.750000e-02
2.305588e-07,-6.250000e-03
2.385588e-07,-1.500000e-02
2.465588e-07,-1.375000e-02
2.545588e-07,6.250000e-03
2.625588e-07,1.500000e-02
2.705588e-07,-2.125000e-02
2.785588e-07,-6.250000e-03
2.865588e-07,-1.250000e-02
2.945588e-07,7.500000e-03
3.025588e-07,0.000000e+00
3.105588e-07,1.250000e-02
3.185588e-07,-8.750000e-03
3.265588e-07,1.750000e-02
3.345588e-07,-1.125000e-02
3.425588e-07,7.500000e-03
3.505588e-07,-1.375000e-02
3.585588e-07,8.750000e-03
3.665588e-07,-8.750000e-03
3.745588e-07,4.750000e-02
3.825588e-07,-1.250000e-03
3.905588e-07,1.625000e-02
3.985588e-07,-2.625000e-02
4.065588e-07,2.125000e-02
4.145588e-07,2.125000e-02
4.225588e-07,0.000000e+00
4.305588e-07,-1.250000e-02
4.385588e-07,2.625000e-02
4.465588e-07,-6.250000e-03
4.545588e-07,2.625000e-02
4.625588e-07,-2.000000e-02
4.705588e-07,-5.000000e-03
4.785588e-07,-2.125000e-02
4.865588e-07,1.000000e-02
4.945588e-07,-1.000000e-02
5.025588e-07,0.000000e+00
5.105588e-07,-1.750000e-02
5.185588e-07,2.500000e-02
5.265588e-07,5.000000e-03
5.345588e-07,1.875000e-02
5.425588e-07,-3.750000e-03
5.505588e-07,1.000000e-02
5.585588e-07,-5.000000e-03
5.665588e-07,3.000000e-02
5.745588e-07,-7.500000e-03
5.825588e-07,3.375000e-02
5.905588e-07,-2.500000e-02
5.985588e-07,1.750000e-02
6.065588e-07,-3.375000e-02
6.145588e-07,2.625000e-02
6.225588e-07,-3.000000e-02
6.305588e-07,-2.500000e-03
6.385588e-07,-1.000000e-02
6.465588e-07,2.375000e-02
6.545588e-07,-1.250000e-03
6.625588e-07,2.375000e-02
6.705588e-07,-7.500000e-03
6.785588e-07,2.625000e-02
6.865588e-07,-2.000000e-02
6.945588e-07,-3.750000e-03
7.025588e-07,-1.625000e-02
7.105588e-07,2.125000e-02
7.185588e-07,-1.375000e-02
7.265588e-07,2.250000e-02
7.345588e-07,-1.625000e-02
7.425588e-07,0.000000e+00
7.505588e-07,-1.500000e-02
7.585588e-07,5.000000e-03
7.665588e-07,-1.250000e-02
7.745588e-07,1.750000e-02
7.825588e-07,-6.250000e-03
7.905588e-07,-1.250000e-03
7.985588e-07,-1.250000e-03
8.065588e-07,1.750000e-02
8.145588e-07,-1.250000e-03
