run1/run1_ch1_20210318180205711.csv

Model,MSO64
Waveform Type,ANALOG
Horizontal Units,s
Sample Interval,8.000000e-09
Record Length,1250
Zero Index,624.325000
Vertical Units,V

TIME,CH1
-4.994600e-06,8.750000e-03
-4.986600e-06,1.000000e-02
-4.978600e-06,6.250000e-03
-4.970600e-06,-3.750000e-03
-4.962600e-06,2.250000e-02
-4.954600e-06,-2.625000e-02
-4.946600e-06,1.000000e-02
-4.938600e-06,-3.750000e-02
-4.930600e-06,1.250000e-03
-4.922600e-06,-1.250000e-02
-4.914600e-06,4.000000e-02
-4.906600e-06,0.000000e+00
-4.898600e-06,-3.750000e-03
-4.890600e-06,-1.375000e-02
-4.882600e-06,8.750000e-03
-4.874600e-06,-1.750000e-02
-4.866600e-06,2.625000e-02
-4.858600e-06,-1.000000e-02
-4.850600e-06,2.000000e-02
-4.842600e-06,1.250000e-03
-4.834600e-06,1.375000e-02
-4.826600e-06,-1.000000e-02
-4.818600e-06,1.375000e-02
-4.810600e-06,-4.125000e-02
-4.802600e-06,1.500000e-02
-4.794600e-06,-1.625000e-02
-4.786600e-06,3.250000e-02
-4.778600e-06,1.000000e-02
-4.770600e-06,1.375000e-02
-4.762600e-06,-8.750000e-03
-4.754600e-06,-1.500000e-02
-4.746600e-06,2.500000e-03
-4.738600e-06,1.250000e-02
-4.730600e-06,-1.750000e-02
-4.722600e-06,2.250000e-02
-4.714600e-06,-1.250000e-02
-4.706600e-06,-1.125000e-02
-4.698600e-06,0.000000e+00
-4.690600e-06,1.125000e-02
-4.682600e-06,-3.125000e-02
-4.674600e-06,0.000000e+00
-4.666600e-06,-2.750000e-02
-4.658600e-06,2.125000e-02
-4.650600e-06,-1.875000e-02
-4.642600e-06,-2.125000e-02
-4.634600e-06,-1.250000e-02
-4.626600e-06,2.125000e-02
-4.618600e-06,-1.750000e-02
-4.610600e-06,-2.500000e-03
-4.602600e-06,-1.750000e-02
-4.594600e-06,2.000000e-02
-4.586600e-06,-8.750000e-03
-4.578600e-06,1.000000e-02
-4.570600e-06,-3.125000e-02
-4.562600e-06,2.375000e-02
-4.554600e-06,-1.000000e-02
-4.546600e-06,2.500000e-02
-4.538600e-06,-2.750000e-02
-4.530600e-06,3.625000e-02
-4.522600e-06,8.750000e-03
-4.514600e-06,3.875000e-02
-4.506600e-06,-1.125000e-02
-4.498600e-06,1.875000e-02
-4.490600e-06,-3.250000e-02
-4.482600e-06,7.500000e-03
-4.474600e-06,-2.500000e-03
-4.466600e-06,3.375000e-02
-4.458600e-06,-2.625000e-02
-4.450600e-06,7.500000e-03
-4.442600e-06,-2.250000e-02
-4.434600e-06,4.625000e-02
-4.426600e-06,-1.375000e-02
-4.418600e-06,-2.500000e-03
-4.410600e-06,5.000000e-03
-4.402600e-06,6.250000e-03
-4.394600e-06,-2.875000e-02
-4.386600e-06,1.000000e-02
-4.378600e-06,-1.375000e-02
-4.370600e-06,1.625000e-02
-4.362600e-06,-1.250000e-03
-4.354600e-06,1.500000e-02
-4.346600e-06,-3.250000e-02
-4.338600e-06,1.625000e-02
-4.330600e-06,1.250000e-03
-4.322600e-06,1.125000e-02
-4.314600e-06,-1.250000e-03
-4.306600e-06,3.750000e-03
-4.298600e-06,-2.750000e-02
-4.290600e-06,2.000000e-02
-4.282600e-06,-1.750000e-02
-4.274600e-06,3.125000e-02
-4.266600e-06,-1.250000e-02
-4.258600e-06,1.000000e-02
-4.250600e-06,-6.250000e-03
-4.242600e-06,1.125000e-02
-4.234600e-06,-1.625000e-02
-4.226600e-06,6.250000e-03
-4.218600e-06,-2.625000e-02
-4.210600e-06,7.500000e-03
-4.202600e-06,3.750000e-03
-4.194600e-06,3.750000e-03
-4.186600e-06,-2.625000e-02
-4.178600e-06,2.125000e-02
-4.170600e-06,-4.500000e-02
-4.162600e-06,1.750000e-02
-4.154600e-06,-7.500000e-03
-4.146600e-06,3.125000e-02
-4.138600e-06,-3.750000e-03
-4.130600e-06,1.875000e-02
-4.122600e-06,-1.750000e-02
-4.114600e-06,0.000000e+00
-4.106600e-06,-1.125000e-02
-4.098600e-06,3.750000e-03
-4.090600e-06,1.250000e-03
-4.082600e-06,1.375000e-02
-4.074600e-06,-2.125000e-02
-4.066600e-06,7.500000e-03
-4.058600e-06,-3.250000e-02
-4.050600e-06,2.625000e-02
-4.042600e-06,-1.500000e-02
-4.034600e-06,2.625000e-02
-4.026600e-06,-2.500000e-03
-4.018600e-06,1.625000e-02
-4.010600e-06,-3.750000e-03
-4.002600e-06,2.375000e-02
-3.994600e-06,-1.375000e-02
-3.986600e-06,2.125000e-02
-3.978600e-06,-6.250000e-03
-3.970600e-06,2.750000e-02
-3.962600e-06,-7.500000e-03
-3.954600e-06,1.000000e-02
-3.946600e-06,-2.500000e-03
-3.938600e-06,6.250000e-03
-3.930600e-06,-1.500000e-02
-3.922600e-06,3.500000e-02
-3.914600e-06,0.000000e+00
-3.906600e-06,2.000000e-02
-3.898600e-06,-3.250000e-02
-3.890600e-06,2.125000e-02
-3.882600e-06,2.500000e-03
-3.874600e-06,5.000000e-03
-3.866600e-06,-2.500000e-02
-3.858600e-06,1.500000e-02
-3.850600e-06,-1.375000e-02
-3.842600e-06,2.250000e-02
-3.834600e-06,8.750000e-03
-3.826600e-06,2.375000e-02
-3.818600e-06,1.625000e-02
-3.810600e-06,3.125000e-02
-3.802600e-06,-8.750000e-03
-3.794600e-06,1.875000e-02
-3.786600e-06,-1.125000e-02
-3.778600e-06,6.250000e-03
-3.770600e-06,-1.375000e-02
-3.762600e-06,2.625000e-02
-3.754600e-06,8.750000e-03
-3.746600e-06,5.000000e-03
-3.738600e-06,-1.625000e-02
-3.730600e-06,-7.500000e-03
-3.722600e-06,3.750000e-03
-3.714600e-06,-5.000000e-03
-3.706600e-06,-3.750000e-03
-3.698600e-06,4.125000e-02
-3.690600e-06,1.625000e-02
-3.682600e-06,2.250000e-02
-3.674600e-06,-1.000000e-02
-3.666600e-06,2.000000e-02
-3.658600e-06,-8.750000e-03
-3.650600e-06,1.000000e-02
-3.642600e-06,-2.375000e-02
-3.634600e-06,2.125000e-02
-3.626600e-06,-2.500000e-02
-3.618600e-06,1.750000e-02
-3.610600e-06,-1.250000e-02
-3.602600e-06,1.500000e-02
-3.594600e-06,-1.125000e-02
-3.586600e-06,5.000000e-03
-3.578600e-06,3.750000e-03
-3.570600e-06,3.125000e-02
-3.562600e-06,-1.250000e-02
-3.554600e-06,1.250000e-02
-3.546600e-06,-2.500000e-03
-3.538600e-06,3.875000e-02
-3.530600e-06,-3.500000e-02
-3.522600e-06,1.250000e-02
-3.514600e-06,-3.500000e-02
-3.506600e-06,7.500000e-03
-3.498600e-06,-1.125000e-02
-3.490600e-06,2.500000e-03
-3.482600e-06,-1.375000e-02
-3.474600e-06,1.500000e-02
-3.466600e-06,-1.625000e-02
-3.458600e-06,2.250000e-02
-3.450600e-06,-2.500000e-03
-3.442600e-06,1.750000e-02
-3.434600e-06,2.500000e-03
-3.426600e-06,7.500000e-03
-3.418600e-06,5.000000e-03
-3.410600e-06,2.750000e-02
-3.402600e-06,-5.000000e-03
-3.394600e-06,5.000000e-03
-3.386600e-06,-1.125000e-02
-3.378600e-06,-7.500000e-03
-3.370600e-06,2.500000e-03
-3.362600e-06,1.000000e-02
-3.354600e-06,-1.875000e-02
-3.346600e-06,2.000000e-02
-3.338600e-06,-6.250000e-03
-3.330600e-06,1.250000e-03
-3.322600e-06,1.250000e-03
-3.314600e-06,1.250000e-02
-3.306600e-06,-6.250000e-03
-3.298600e-06,2.625000e-02
-3.290600e-06,-1.625000e-02
-3.282600e-06,6.250000e-03
-3.274600e-06,-4.750000e-02
-3.266600e-06,2.000000e-02
-3.258600e-06,-1.625000e-02
-3.250600e-06,1.375000e-02
-3.242600e-06,-3.750000e-02
-3.234600e-06,2.500000e-03
-3.226600e-06,-1.000000e-02
-3.218600e-06,1.250000e-03
-3.210600e-06,-2.000000e-02
-3.202600e-06,1.625000e-02
-3.194600e-06,-6.250000e-03
-3.186600e-06,2.375000e-02
-3.178600e-06,-1.250000e-03
-3.170600e-06,1.875000e-02
-3.162600e-06,-7.500000e-03
-3.154600e-06,2.625000e-02
-3.146600e-06,-3.875000e-02
-3.138600e-06,0.000000e+00
-3.130600e-06,-7.500000e-03
-3.122600e-06,3.625000e-02
-3.114600e-06,-1.875000e-02
-3.106600e-06,2.000000e-02
-3.098600e-06,3.750000e-03
-3.090600e-06,-6.250000e-03
-3.082600e-06,-2.750000e-02
-3.074600e-06,0.000000e+00
-3.066600e-06,1.000000e-02
-3.058600e-06,1.250000e-02
-3.050600e-06,-1.125000e-02
-3.042600e-06,1.375000e-02
-3.034600e-06,0.000000e+00
-3.026600e-06,1.500000e-02
-3.018600e-06,-3.875000e-02
-3.010600e-06,1.750000e-02
-3.002600e-06,-1.250000e-03
-2.994600e-06,1.500000e-02
-2.986600e-06,-6.250000e-03
-2.978600e-06,2.375000e-02
-2.970600e-06,-3.000000e-02
-2.962600e-06,1.000000e-02
-2.954600e-06,-8.750000e-03
-2.946600e-06,1.625000e-02
-2.938600e-06,-2.375000e-02
-2.930600e-06,1.500000e-02
-2.922600e-06,-7.500000e-03
-2.914600e-06,3.500000e-02
-2.906600e-06,-5.000000e-03
-2.898600e-06,1.250000e-03
-2.890600e-06,-1.750000e-02
-2.882600e-06,1.500000e-02
-2.874600e-06,-1.000000e-02
-2.866600e-06,2.125000e-02
-2.858600e-06,-7.500000e-03
-2.850600e-06,1.250000e-02
-2.842600e-06,-2.125000e-02
-2.834600e-06,1.625000e-02
-2.826600e-06,-7.500000e-03
-2.818600e-06,2.625000e-02
-2.810600e-06,7.500000e-03
-2.802600e-06,3.750000e-02
-2.794600e-06,-1.000000e-02
-2.786600e-06,8.750000e-03
-2.778600e-06,-6.250000e-03
-2.770600e-06,2.625000e-02
-2.762600e-06,-2.250000e-02
-2.754600e-06,1.125000e-02
-2.746600e-06,-2.875000e-02
-2.738600e-06,2.750000e-02
-2.730600e-06,-2.375000e-02
-2.722600e-06,-1.000000e-02
-2.714600e-06,-1.875000e-02
-2.706600e-06,7.500000e-03
-2.698600e-06,-8.750000e-03
-2.690600e-06,2.125000e-02
-2.682600e-06,-5.000000e-03
-2.674600e-06,2.500000e-03
-2.666600e-06,1.000000e-02
-2.658600e-06,2.625000e-02
-2.650600e-06,-1.250000e-03
-2.642600e-06,2.250000e-02
-2.634600e-06,-6.250000e-03
-2.626600e-06,6.250000e-03
-2.618600e-06,-1.500000e-02
-2.610600e-06,1.250000e-02
-2.602600e-06,-2.625000e-02
-2.594600e-06,1.375000e-02
-2.586600e-06,1.375000e-02
-2.578600e-06,1.125000e-02
-2.570600e-06,-1.250000e-02
-2.562600e-06,-1.250000e-03
-2.554600e-06,-1.000000e-02
-2.546600e-06,2.125000e-02
-2.538600e-06,1.250000e-03
-2.530600e-06,2.250000e-02
-2.522600e-06,-2.125000e-02
-2.514600e-06,0.000000e+00
-2.506600e-06,-2.375000e-02
-2.498600e-06,1.250000e-03
-2.490600e-06,-2.375000e-02
-2.482600e-06,1.250000e-02
-2.474600e-06,-1.000000e-02
-2.466600e-06,-5.000000e-03
-2.458600e-06,-2.500000e-03
-2.450600e-06,1.125000e-02
-2.442600e-06,-1.250000e-03
-2.434600e-06,1.625000e-02
-2.426600e-06,1.250000e-02
-2.418600e-06,2.500000e-03
-2.410600e-06,7.500000e-03
-2.402600e-06,2.000000e-02
-2.394600e-06,2.500000e-02
-2.386600e-06,2.500000e-03
-2.378600e-06,-2.625000e-02
-2.370600e-06,1.375000e-02
-2.362600e-06,-2.125000e-02
-2.354600e-06,1.500000e-02
-2.346600e-06,-2.750000e-02
-2.338600e-06,1.750000e-02
-2.330600e-06,-1.125000e-02
-2.322600e-06,3.250000e-02
-2.314600e-06,-5.000000e-03
-2.306600e-06,6.250000e-03
-2.298600e-06,-1.250000e-03
-2.290600e-06,2.000000e-02
-2.282600e-06,6.250000e-03
-2.274600e-06,1.000000e-02
-2.266600e-06,-8.750000e-03
-2.258600e-06,1.750000e-02
-2.250600e-06,1.000000e-02
-2.242600e-06,1.250000e-02
-2.234600e-06,8.750000e-03
-2.226600e-06,2.250000e-02
-2.218600e-06,8.750000e-03
-2.210600e-06,-3.750000e-03
-2.202600e-06,-7.500000e-03
-2.194600e-06,2.500000e-02
-2.186600e-06,-2.500000e-03
-2.178600e-06,4.125000e-02
-2.170600e-06,-5.000000e-03
-2.162600e-06,2.375000e-02
-2.154600e-06,3.750000e-03
-2.146600e-06,-5.000000e-03
-2.138600e-06,-8.750000e-03
-2.130600e-06,6.250000e-03
-2.122600e-06,-5.000000e-03
-2.114600e-06,2.750000e-02
-2.106600e-06,-4.125000e-02
-2.098600e-06,3.000000e-02
-2.090600e-06,-1.250000e-02
-2.082600e-06,7.500000e-03
-2.074600e-06,3.750000e-03
-2.066600e-06,-3.750000e-03
-2.058600e-06,-2.875000e-02
-2.050600e-06,8.750000e-03
-2.042600e-06,-5.000000e-03
-2.034600e-06,2.000000e-02
-2.026600e-06,1.750000e-02
-2.018600e-06,1.875000e-02
-2.010600e-06,1.250000e-03
-2.002600e-06,1.875000e-02
-1.994600e-06,-2.750000e-02
-1.986600e-06,3.125000e-02
-1.978600e-06,-1.625000e-02
-1.970600e-06,2.125000e-02
-1.962600e-06,-1.250000e-02
-1.954600e-06,1.250000e-02
-1.946600e-06,-1.750000e-02
-1.938600e-06,3.500000e-02
-1.930600e-06,-8.750000e-03
-1.922600e-06,4.125000e-02
-1.914600e-06,1.125000e-02
-1.906600e-06,8.750000e-03
-1.898600e-06,-2.250000e-02
-1.890600e-06,2.375000e-02
-1.882600e-06,-3.250000e-02
-1.874600e-06,1.375000e-02
-1.866600e-06,-1.375000e-02
-1.858600e-06,2.250000e-02
-1.850600e-06,-2.875000e-02
-1.842600e-06,1.875000e-02
-1.834600e-06,-2.625000e-02
-1.826600e-06,1.250000e-02
-1.818600e-06,-2.375000e-02
-1.810600e-06,1.250000e-03
-1.802600e-06,-6.250000e-03
-1.794600e-06,8.750000e-03
-1.786600e-06,-1.250000e-03
-1.778600e-06,4.000000e-02
-1.770600e-06,-1.125000e-02
-1.762600e-06,5.250000e-02
-1.754600e-06,-7.500000e-03
-1.746600e-06,2.000000e-02
-1.738600e-06,-1.125000e-02
-1.730600e-06,1.750000e-02
-1.722600e-06,-3.375000e-02
-1.714600e-06,2.625000e-02
-1.706600e-06,-2.750000e-02
-1.698600e-06,1.125000e-02
-1.690600e-06,-2.500000e-02
-1.682600e-06,2.125000e-02
-1.674600e-06,-1.000000e-02
-1.666600e-06,2.250000e-02
-1.658600e-06,-3.000000e-02
-1.650600e-06,2.875000e-02
-1.642600e-06,1.000000e-02
-1.634600e-06,1.625000e-02
-1.626600e-06,-3.625000e-02
-1.618600e-06,-3.750000e-03
-1.610600e-06,-1.250000e-02
-1.602600e-06,1.250000e-02
-1.594600e-06,-3.000000e-02
-1.586600e-06,8.750000e-03
-1.578600e-06,-1.875000e-02
-1.570600e-06,-3.750000e-03
-1.562600e-06,-1.125000e-02
-1.554600e-06,3.750000e-03
-1.546600e-06,-1.375000e-02
-1.538600e-06,3.750000e-03
-1.530600e-06,-5.000000e-03
-1.522600e-06,1.375000e-02
-1.514600e-06,-1.250000e-03
-1.506600e-06,1.000000e-02
-1.498600e-06,-1.375000e-02
-1.490600e-06,2.750000e-02
-1.482600e-06,-2.375000e-02
-1.474600e-06,2.125000e-02
-1.466600e-06,-1.500000e-02
-1.458600e-06,2.500000e-02
-1.450600e-06,-1.125000e-02
-1.442600e-06,1.375000e-02
-1.434600e-06,-1.750000e-02
-1.426600e-06,3.500000e-02
-1.418600e-06,-1.000000e-02
-1.410600e-06,5.000000e-03
-1.402600e-06,3.750000e-03
-1.394600e-06,-5.000000e-03
-1.386600e-06,-3.750000e-03
-1.378600e-06,3.125000e-02
-1.370600e-06,-1.875000e-02
-1.362600e-06,1.250000e-03
-1.354600e-06,-2.375000e-02
-1.346600e-06,6.250000e-03
-1.338600e-06,-1.375000e-02
-1.330600e-06,1.875000e-02
-1.322600e-06,-2.000000e-02
-1.314600e-06,1.875000e-02
-1.306600e-06,-7.500000e-03
-1.298600e-06,2.500000e-03
-1.290600e-06,-1.375000e-02
-1.282600e-06,2.375000e-02
-1.274600e-06,3.750000e-03
-1.266600e-06,1.000000e-02
-1.258600e-06,2.500000e-03
-1.250600e-06,2.125000e-02
-1.242600e-06,-2.250000e-02
-1.234600e-06,3.000000e-02
-1.226600e-06,-3.500000e-02
-1.218600e-06,1.500000e-02
-1.210600e-06,-1.500000e-02
-1.202600e-06,4.000000e-02
-1.194600e-06,-6.250000e-03
-1.186600e-06,0.000000e+00
-1.178600e-06,3.750000e-03
-1.170600e-06,1.500000e-02
-1.162600e-06,-7.500000e-03
-1.154600e-06,2.625000e-02
-1.146600e-06,1.250000e-03
-1.138600e-06,2.250000e-02
-1.130600e-06,-8.750000e-03
-1.122600e-06,2.375000e-02
-1.114600e-06,-2.750000e-02
-1.106600e-06,2.375000e-02
-1.098600e-06,-3.375000e-02
-1.090600e-06,7.500000e-03
-1.082600e-06,-2.500000e-02
-1.074600e-06,2.000000e-02
-1.066600e-06,-3.750000e-03
-1.058600e-06,2.000000e-02
-1.050600e-06,-1.625000e-02
-1.042600e-06,1.250000e-03
-1.034600e-06,-2.000000e-02
-1.026600e-06,1.250000e-02
-1.018600e-06,-6.250000e-03
-1.010600e-06,2.750000e-02
-1.002600e-06,-8.750000e-03
-9.946000e-07,2.750000e-02
-9.866000e-07,-1.375000e-02
-9.786000e-07,2.750000e-02
-9.706000e-07,1.250000e-03
-9.626000e-07,2.875000e-02
-9.546000e-07,-2.875000e-02
-9.466000e-07,2.875000e-02
-9.386000e-07,-1.000000e-02
-9.306000e-07,1.375000e-02
-9.226000e-07,-2.500000e-02
-9.146000e-07,8.750000e-03
-9.066000e-07,-1.875000e-02
-8.986000e-07,1.250000e-02
-8.906000e-07,-5.000000e-03
-8.826000e-07,8.750000e-03
-8.746000e-07,1.250000e-03
-8.666000e-07,1.750000e-02
-8.586000e-07,-2.500000e-03
-8.506000e-07,1.875000e-02
-8.426000e-07,-1.625000e-02
-8.346000e-07,2.500000e-02
-8.266000e-07,-2.625000e-02
-8.186000e-07,2.875000e-02
-8.106000e-07,-2.250000e-02
-8.026000e-07,-3.750000e-03
-7.946000e-07,-2.000000e-02
-7.866000e-07,2.125000e-02
-7.786000e-07,-1.250000e-02
-7.706000e-07,2.125000e-02
-7.626000e-07,-2.500000e-03
-7.546000e-07,3.125000e-02
-7.466000e-07,-6.250000e-03
-7.386000e-07,2.000000e-02
-7.306000e-07,-7.500000e-03
-7.226000e-07,2.500000e-02
-7.146000e-07,-3.750000e-02
-7.066000e-07,2.000000e-02
-6.986000e-07,6.250000e-03
-6.906000e-07,2.125000e-02
-6.826000e-07,-1.500000e-02
-6.746000e-07,-3.750000e-03
-6.666000e-07,-5.000000e-03
-6.586000e-07,-3.750000e-03
-6.506000e-07,-2.500000e-03
-6.426000e-07,2.500000e-02
-6.346000e-07,-5.375000e-02
-6.266000e-07,7.500000e-03
-6.186000e-07,-2.250000e-02
-6.106000e-07,2.375000e-02
-6.026000e-07,-3.000000e-02
-5.946000e-07,-1.250000e-03
-5.866000e-07,-3.500000e-02
-5.786000e-07,3.750000e-02
-5.706000e-07,-1.625000e-02
-5.626000e-07,7.500000e-03
-5.546000e-07,-1.375000e-02
-5.466000e-07,7.500000e-03
-5.386000e-07,-1.375000e-02
-5.306000e-07,2.625000e-02
-5.226000e-07,-2.750000e-02
-5.146000e-07,7.500000e-03
-5.066000e-07,-1.250000e-02
-4.986000e-07,2.125000e-02
-4.906000e-07,1.250000e-03
-4.826000e-07,2.375000e-02
-4.746000e-07,1.250000e-02
-4.666000e-07,5.000000e-03
-4.586000e-07,-2.000000e-02
-4.506000e-07,1.750000e-02
-4.426000e-07,-1.750000e-02
-4.346000e-07,2.875000e-02
-4.266000e-07,-5.000000e-03
-4.186000e-07,1.875000e-02
-4.106000e-07,-1.250000e-02
-4.026000e-07,1.250000e-02
-3.946000e-07,-6.250000e-03
-3.866000e-07,-1.250000e-03
-3.786000e-07,-1.375000e-02
-3.706000e-07,3.875000e-02
-3.626000e-07,-1.375000e-02
-3.546000e-07,3.750000e-03
-3.466000e-07,-8.750000e-03
-3.386000e-07,5.000000e-03
-3.306000e-07,-2.875000e-02
-3.226000e-07,2.500000e-02
-3.146000e-07,-1.875000e-02
-3.066000e-07,1.125000e-02
-2.986000e-07,-1.375000e-02
-2.906000e-07,2.375000e-02
-2.826000e-07,-5.000000e-03
-2.746000e-07,1.500000e-02
-2.666000e-07,-2.500000e-03
-2.586000e-07,2.250000e-02
-2.506000e-07,8.750000e-03
-2.426000e-07,1.500000e-02
-2.346000e-07,-1.750000e-02
-2.266000e-07,1.125000e-02
-2.186000e-07,-1.250000e-03
-2.106000e-07,3.750000e-03
-2.026000e-07,-2.750000e-02
-1.946000e-07,2.000000e-02
-1.866000e-07,-2.625000e-02
-1.786000e-07,7.500000e-03
-1.706000e-07,-1.250000e-02
-1.626000e-07,1.875000e-02
-1.546000e-07,-2.500000e-03
-1.466000e-07,2.250000e-02
-1.386000e-07,-1.250000e-03
-1.306000e-07,1.250000e-02
-1.226000e-07,-1.750000e-02
-1.146000e-07,2.750000e-02
-1.066000e-07,-2.250000e-02
-9.860000e-08,1.625000e-02
-9.060000e-08,-2.625000e-02
-8.260000e-08,1.250000e-02
-7.460000e-08,-1.875000e-02
-6.660000e-08,2.750000e-02
-5.860000e-08,1.000000e-02
-5.060000e-08,2.750000e-02
-4.260000e-08,-8.750000e-03
-3.460000e-08,3.375000e-02
-2.660000e-08,-1.418750e+00
-1.860000e-08,-1.426250e+00
-1.060000e-08,-1.436250e+00
-2.600000e-09,-2.087500e-01
5.400000e-09,-2.750000e-02
1.340000e-08,3.500000e-02
2.140000e-08,-1.375000e-02
2.940000e-08,3.500000e-02
3.740000e-08,-8.750000e-03
4.540000e-08,1.125000e-02
5.340000e-08,-1.750000e-02
6.140000e-08,1.000000e-02
6.940000e-08,-3.125000e-02
7.740000e-08,1.875000e-02
8.540000e-08,-2.500000e-03
9.340000e-08,3.000000e-02
1.014000e-07,-2.625000e-02
1.094000e-07,2.500000e-03
1.174000e-07,-4.000000e-02
1.254000e-07,7.500000e-03
1.334000e-07,1.250000e-03
1.414000e-07,1.500000e-02
1.494000e-07,-2.375000e-02
1.574000e-07,1.875000e-02
1.654000e-07,-3.750000e-03
1.734000e-07,7.500000e-03
1.814000e-07,-2.125000e-02
1.894000e-07,5.000000e-03
1.974000e-07,-2.875000e-02
2.054000e-07,1.750000e-02
2.134000e-07,-2.375000e-02
2.214000e-07,2.000000e-02
2.294000e-07,-1.875000e-02
2.374000e-07,1.625000e-02
2.454000e-07,-1.125000e-02
2.534000e-07,1.375000e-02
2.614000e-07,-1.625000e-02
2.694000e-07,1.125000e-02
2.774000e-07,8.750000e-03
2.854000e-07,2.250000e-02
2.934000e-07,-2.500000e-02
3.014000e-07,3.750000e-03
3.094000e-07,-1.375000e-02
3.174000e-07,3.000000e-02
3.254000e-07,-1.000000e-02
3.334000e-07,3.000000e-02
3.414000e-07,-2.250000e-02
3.494000e-07,7.500000e-03
3.574000e-07,-2.125000e-02
3.654000e-07,1.500000e-02
3.734000e-07,-2.250000e-02
3.814000e-07,-2.500000e-03
3.894000e-07,6.250000e-03
3.974000e-07,1.250000e-03
4.054000e-07,-1.375000e-02
4.134000e-07,3.875000e-02
4.214000e-07,-1.625000e-02
4.294000e-07,2.750000e-02
4.374000e-07,-2.125000e-02
4.454000e-07,2.500000e-02
4.534000e-07,-1.250000e-02
4.614000e-07,2.625000e-02
4.694000e-07,-6.250000e-03
4.774000e-07,1.375000e-02
4.854000e-07,-7.500000e-03
4.934000e-07,1.250000e-02
5.014000e-07,-1.750000e-02
5.094000e-07,1.625000e-02
5.174000e-07,5.000000e-03
5.254000e-07,6.250000e-03
5.334000e-07,-1.375000e-02
5.414000e-07,6.250000e-03
5.494000e-07,3.750000e-03
5.574000e-07,2.750000e-02
5.654000e-07,-1.125000e-02
5.734000e-07,1.625000e-02
5.814000e-07,-3.375000e-02
5.894000e-07,1.500000e-02
5.974000e-07,1.250000e-03
6.054000e-07,5.000000e-03
6.134000e-07,-1.875000e-02
6.214000e-07,1.125000e-02
6.294000e-07,-6.250000e-03
6.374000e-07,2.250000e-02
6.454000e-07,-8.750000e-03
6.534000e-07,3.250000e-02
6.614000e-07,1.250000e-03
6.694000e-07,3.875000e-02
6.774000e-07,-2.125000e-02
6.854000e-07,3.000000e-02
6.934000e-07,-2.125000e-02
7.014000e-07,2.125000e-02
7.094000e-07,-2.375000e-02
7.174000e-07,2.250000e-02
7.254000e-07,-2.000000e-02
7.334000e-07,-1.500000e-02
7.414000e-07,-2.625000e-02
7.494000e-07,3.750000e-03
7.574000e-07,-1.500000e-02
7.654000e-07,-1.250000e-03
7.734000e-07,-1.375000e-02
7.814000e-07,1.000000e-02
7.894000e-07,-2.500000e-03
7.974000e-07,-5.000000e-03
8.054000e-07,-1.000000e-02
