run1/run1_ch1_20210318180200826.csv

Model,MSO64
Waveform Type,ANALOG
Horizontal Units,s
Sample Interval,8.000000e-09
Record Length,1250
Zero Index,624.645000
Vertical Units,V

TIME,CH1
-4.997160e-06,3.125000e-02
-4.989160e-06,-1.250000e-03
-4.981160e-06,1.000000e-02
-4.973160e-06,-1.875000e-02
-4.965160e-06,2.250000e-02
-4.957160e-06,-7.500000e-03
-4.949160e-06,3.375000e-02
-4.941160e-06,6.250000e-03
-4.933160e-06,5.000000e-03
-4.925160e-06,-1.250000e-02
-4.917160e-06,8.750000e-03
-4.909160e-06,-1.875000e-02
-4.901160e-06,3.125000e-02
-4.893160e-06,-7.500000e-03
-4.885160e-06,1.625000e-02
-4.877160e-06,-1.375000e-02
-4.869160e-06,2.375000e-02
-4.861160e-06,1.250000e-03
-4.853160e-06,3.750000e-03
-4.845160e-06,-1.250000e-02
-4.837160e-06,2.375000e-02
-4.829160e-06,-7.500000e-03
-4.821160e-06,5.500000e-02
-4.813160e-06,2.375000e-02
-4.805160e-06,3.750000e-03
-4.797160e-06,-1.250000e-02
-4.789160e-06,3.000000e-02
-4.781160e-06,-1.625000e-02
-4.773160e-06,1.000000e-02
-4.765160e-06,-8.750000e-03
-4.757160e-06,1.375000e-02
-4.749160e-06,-1.625000e-02
-4.741160e-06,2.375000e-02
-4.733160e-06,-8.750000e-03
-4.725160e-06,1.750000e-02
-4.717160e-06,-2.500000e-02
-4.709160e-06,1.875000e-02
-4.701160e-06,-2.375000e-02
-4.693160e-06,2.875000e-02
-4.685160e-06,-1.250000e-03
-4.677160e-06,2.250000e-02
-4.669160e-06,-2.000000e-02
-4.661160e-06,-6.250000e-03
-4.653160e-06,-8.750000e-03
-4.645160e-06,1.000000e-02
-4.637160e-06,-3.750000e-03
-4.629160e-06,1.125000e-02
-4.621160e-06,-1.875000e-02
-4.613160e-06,8.750000e-03
-4.605160e-06,-2.125000e-02
-4.597160e-06,6.250000e-03
-4.589160e-06,-1.750000e-02
-4.581160e-06,2.750000e-02
-4.573160e-06,-3.375000e-02
-4.565160e-06,2.750000e-02
-4.557160e-06,-3.750000e-03
-4.549160e-06,-2.500000e-03
-4.541160e-06,-2.500000e-03
-4.533160e-06,8.750000e-03
-4.525160e-06,6.250000e-03
-4.517160e-06,1.375000e-02
-4.509160e-06,-3.750000e-03
-4.501160e-06,2.375000e-02
-4.493160e-06,7.500000e-03
-4.485160e-06,2.625000e-02
-4.477160e-06,-2.125000e-02
-4.469160e-06,2.125000e-02
-4.461160e-06,-3.375000e-02
-4.453160e-06,3.125000e-02
-4.445160e-06,-3.250000e-02
-4.437160e-06,1.125000e-02
-4.429160e-06,-1.000000e-02
-4.421160e-06,1.375000e-02
-4.413160e-06,-1.875000e-02
-4.405160e-06,-1.250000e-03
-4.397160e-06,-2.000000e-02
-4.389160e-06,1.375000e-02
-4.381160e-06,5.000000e-03
-4.373160e-06,5.000000e-03
-4.365160e-06,-1.250000e-02
-4.357160e-06,2.500000e-02
-4.349160e-06,-3.000000e-02
-4.341160e-06,5.000000e-03
-4.333160e-06,-1.375000e-02
-4.325160e-06,1.750000e-02
-4.317160e-06,-2.625000e-02
-4.309160e-06,3.875000e-02
-4.301160e-06,1.250000e-03
-4.293160e-06,1.375000e-02
-4.285160e-06,-3.125000e-02
-4.277160e-06,7.500000e-03
-4.269160e-06,-1.375000e-02
-4.261160e-06,1.750000e-02
-4.253160e-06,1.000000e-02
-4.245160e-06,3.750000e-03
-4.237160e-06,-5.000000e-03
-4.229160e-06,-1.000000e-02
-4.221160e-06,-5.000000e-03
-4.213160e-06,1.375000e-02
-4.205160e-06,-2.625000e-02
-4.197160e-06,2.000000e-02
-4.189160e-06,-2.500000e-02
-4.181160e-06,3.250000e-02
-4.173160e-06,3.250000e-02
-4.165160e-06,7.500000e-03
-4.157160e-06,-2.250000e-02
-4.149160e-06,1.375000e-02
-4.141160e-06,-1.000000e-02
-4.133160e-06,1.250000e-02
-4.125160e-06,1.250000e-02
-4.117160e-06,2.500000e-02
-4.109160e-06,0.000000e+00
-4.101160e-06,7.500000e-03
-4.093160e-06,-1.500000e-02
-4.085160e-06,1.625000e-02
-4.077160e-06,-1.500000e-02
-4.069160e-06,2.375000e-02
-4.061160e-06,-1.250000e-03
-4.053160e-06,2.625000e-02
-4.045160e-06,-1.625000e-02
-4.037160e-06,7.500000e-03
-4.029160e-06,-1.750000e-02
-4.021160e-06,5.000000e-03
-4.013160e-06,-8.750000e-03
-4.005160e-06,1.000000e-02
-3.997160e-06,2.500000e-03
-3.989160e-06,2.500000e-02
-3.981160e-06,2.125000e-02
-3.973160e-06,2.375000e-02
-3.965160e-06,-2.250000e-02
-3.957160e-06,1.375000e-02
-3.949160e-06,-2.750000e-02
-3.941160e-06,1.875000e-02
-3.933160e-06,-8.750000e-03
-3.925160e-06,2.750000e-02
-3.917160e-06,-2.000000e-02
-3.909160e-06,6.250000e-03
-3.901160e-06,-2.500000e-03
-3.893160e-06,0.000000e+00
-3.885160e-06,-1.000000e-02
-3.877160e-06,5.000000e-03
-3.869160e-06,-1.250000e-02
-3.861160e-06,1.500000e-02
-3.853160e-06,-5.000000e-03
-3.845160e-06,-2.500000e-03
-3.837160e-06,-5.000000e-03
-3.829160e-06,2.250000e-02
-3.821160e-06,-2.875000e-02
-3.813160e-06,1.125000e-02
-3.805160e-06,1.250000e-02
-3.797160e-06,2.875000e-02
-3.789160e-06,-3.625000e-02
-3.781160e-06,1.125000e-02
-3.773160e-06,-1.250000e-02
-3.765160e-06,-5.000000e-03
-3.757160e-06,-3.750000e-03
-3.749160e-06,7.500000e-03
-3.741160e-06,-2.000000e-02
-3.733160e-06,1.875000e-02
-3.725160e-06,2.500000e-02
-3.717160e-06,7.500000e-03
-3.709160e-06,-6.250000e-03
-3.701160e-06,2.125000e-02
-3.693160e-06,-3.500000e-02
-3.685160e-06,1.125000e-02
-3.677160e-06,-2.750000e-02
-3.669160e-06,2.125000e-02
-3.661160e-06,-6.250000e-03
-3.653160e-06,3.250000e-02
-3.645160e-06,-2.125000e-02
-3.637160e-06,1.375000e-02
-3.629160e-06,1.125000e-02
-3.621160e-06,1.250000e-02
-3.613160e-06,-2.250000e-02
-3.605160e-06,-7.500000e-03
-3.597160e-06,-1.375000e-02
-3.589160e-06,2.375000e-02
-3.581160e-06,-8.750000e-03
-3.573160e-06,2.250000e-02
-3.565160e-06,-1.875000e-02
-3.557160e-06,2.125000e-02
-3.549160e-06,0.000000e+00
-3.541160e-06,1.625000e-02
-3.533160e-06,-1.750000e-02
-3.525160e-06,7.500000e-03
-3.517160e-06,-2.500000e-02
-3.509160e-06,-1.250000e-03
-3.501160e-06,-8.750000e-03
-3.493160e-06,2.250000e-02
-3.485160e-06,-1.625000e-02
-3.477160e-06,2.625000e-02
-3.469160e-06,-1.500000e-02
-3.461160e-06,2.375000e-02
-3.453160e-06,-1.125000e-02
-3.445160e-06,2.250000e-02
-3.437160e-06,-4.375000e-02
-3.429160e-06,1.250000e-02
-3.421160e-06,-2.500000e-02
-3.413160e-06,2.125000e-02
-3.405160e-06,-1.750000e-02
-3.397160e-06,1.500000e-02
-3.389160e-06,2.500000e-03
-3.381160e-06,1.250000e-02
-3.373160e-06,-1.500000e-02
-3.365160e-06,2.625000e-02
-3.357160e-06,-8.750000e-03
-3.349160e-06,7.500000e-03
-3.341160e-06,1.375000e-02
-3.333160e-06,-1.250000e-03
-3.325160e-06,-2.875000e-02
-3.317160e-06,-6.250000e-03
-3.309160e-06,-2.250000e-02
-3.301160e-06,3.250000e-02
-3.293160e-06,-2.125000e-02
-3.285160e-06,3.250000e-02
-3.277160e-06,-1.500000e-02
-3.269160e-06,3.000000e-02
-3.261160e-06,-2.375000e-02
-3.253160e-06,1.000000e-02
-3.245160e-06,-5.000000e-03
-3.237160e-06,1.375000e-02
-3.229160e-06,-1.250000e-02
-3.221160e-06,1.750000e-02
-3.213160e-06,1.000000e-02
-3.205160e-06,1.375000e-02
-3.197160e-06,-2.500000e-02
-3.189160e-06,0.000000e+00
-3.181160e-06,-2.125000e-02
-3.173160e-06,3.375000e-02
-3.165160e-06,-3.625000e-02
-3.157160e-06,2.375000e-02
-3.149160e-06,-1.875000e-02
-3.141160e-06,-6.250000e-03
-3.133160e-06,-1.625000e-02
-3.125160e-06,3.125000e-02
-3.117160e-06,-1.125000e-02
-3.109160e-06,1.500000e-02
-3.101160e-06,-1.875000e-02
-3.093160e-06,1.125000e-02
-3.085160e-06,2.500000e-03
-3.077160e-06,1.750000e-02
-3.069160e-06,-1.250000e-02
-3.061160e-06,3.250000e-02
-3.053160e-06,-3.875000e-02
-3.045160e-06,4.875000e-02
-3.037160e-06,-2.875000e-02
-3.029160e-06,4.125000e-02
-3.021160e-06,0.000000e+00
-3.013160e-06,2.875000e-02
-3.005160e-06,-1.000000e-02
-2.997160e-06,1.500000e-02
-2.989160e-06,-1.250000e-02
-2.981160e-06,2.875000e-02
-2.973160e-06,0.000000e+00
-2.965160e-06,3.375000e-02
-2.957160e-06,1.000000e-02
-2.949160e-06,2.125000e-02
-2.941160e-06,-1.375000e-02
-2.933160e-06,1.750000e-02
-2.925160e-06,-2.125000e-02
-2.917160e-06,2.250000e-02
-2.909160e-06,-2.875000e-02
-2.901160e-06,3.750000e-02
-2.893160e-06,-2.125000e-02
-2.885160e-06,7.500000e-03
-2.877160e-06,-1.250000e-02
-2.869160e-06,1.625000e-02
-2.861160e-06,-1.250000e-03
-2.853160e-06,1.500000e-02
-2.845160e-06,-6.250000e-03
-2.837160e-06,2.000000e-02
-2.829160e-06,1.750000e-02
-2.821160e-06,-1.750000e-02
-2.813160e-06,2.500000e-03
-2.805160e-06,3.875000e-02
-2.797160e-06,-2.875000e-02
-2.789160e-06,1.250000e-02
-2.781160e-06,-2.625000e-02
-2.773160e-06,1.000000e-02
-2.765160e-06,2.000000e-02
-2.757160e-06,-2.500000e-03
-2.749160e-06,3.750000e-03
-2.741160e-06,2.250000e-02
-2.733160e-06,-3.625000e-02
-2.725160e-06,1.250000e-03
-2.717160e-06,-1.125000e-02
-2.709160e-06,3.125000e-02
-2.701160e-06,-1.375000e-02
-2.693160e-06,-8.750000e-03
-2.685160e-06,-2.125000e-02
-2.677160e-06,2.500000e-03
-2.669160e-06,-2.375000e-02
-2.661160e-06,1.375000e-02
-2.653160e-06,-3.250000e-02
-2.645160e-06,3.000000e-02
-2.637160e-06,-2.875000e-02
-2.629160e-06,6.250000e-03
-2.621160e-06,-1.500000e-02
-2.613160e-06,8.750000e-03
-2.605160e-06,-2.000000e-02
-2.597160e-06,5.000000e-03
-2.589160e-06,-1.250000e-02
-2.581160e-06,1.500000e-02
-2.573160e-06,-1.250000e-02
-2.565160e-06,2.625000e-02
-2.557160e-06,-1.500000e-02
-2.549160e-06,8.750000e-03
-2.541160e-06,-3.375000e-02
-2.533160e-06,1.250000e-02
-2.525160e-06,-2.000000e-02
-2.517160e-06,3.250000e-02
-2.509160e-06,-8.750000e-03
-2.501160e-06,-1.250000e-03
-2.493160e-06,1.250000e-03
-2.485160e-06,1.875000e-02
-2.477160e-06,-1.625000e-02
-2.469160e-06,1.000000e-02
-2.461160e-06,5.000000e-03
-2.453160e-06,2.375000e-02
-2.445160e-06,-1.250000e-03
-2.437160e-06,4.125000e-02
-2.429160e-06,-3.625000e-02
-2.421160e-06,1.250000e-03
-2.413160e-06,-1.750000e-02
-2.405160e-06,5.000000e-03
-2.397160e-06,-1.125000e-02
-2.389160e-06,2.125000e-02
-2.381160e-06,-1.875000e-02
-2.373160e-06,3.000000e-02
-2.365160e-06,8.750000e-03
-2.357160e-06,1.250000e-02
-2.349160e-06,-2.250000e-02
-2.341160e-06,7.500000e-03
-2.333160e-06,-1.750000e-02
-2.325160e-06,1.750000e-02
-2.317160e-06,-2.500000e-03
-2.309160e-06,1.625000e-02
-2.301160e-06,-1.125000e-02
-2.293160e-06,2.375000e-02
-2.285160e-06,-1.500000e-02
-2.277160e-06,1.500000e-02
-2.269160e-06,-1.250000e-03
-2.261160e-06,4.500000e-02
-2.253160e-06,-1.250000e-03
-2.245160e-06,2.500000e-02
-2.237160e-06,-1.125000e-02
-2.229160e-06,1.625000e-02
-2.221160e-06,1.250000e-03
-2.213160e-06,1.250000e-02
-2.205160e-06,-2.750000e-02
-2.197160e-06,2.500000e-02
-2.189160e-06,-5.000000e-03
-2.181160e-06,4.250000e-02
-2.173160e-06,-1.125000e-02
-2.165160e-06,2.000000e-02
-2.157160e-06,-2.875000e-02
-2.149160e-06,2.750000e-02
-2.141160e-06,-1.875000e-02
-2.133160e-06,1.750000e-02
-2.125160e-06,-2.625000e-02
-2.117160e-06,5.000000e-03
-2.109160e-06,1.000000e-02
-2.101160e-06,2.125000e-02
-2.093160e-06,-3.625000e-02
-2.085160e-06,2.750000e-02
-2.077160e-06,-8.750000e-03
-2.069160e-06,5.000000e-03
-2.061160e-06,-1.750000e-02
-2.053160e-06,2.625000e-02
-2.045160e-06,-1.875000e-02
-2.037160e-06,3.875000e-02
-2.029160e-06,-2.375000e-02
-2.021160e-06,1.875000e-02
-2.013160e-06,-3.875000e-02
-2.005160e-06,1.750000e-02
-1.997160e-06,-2.500000e-02
-1.989160e-06,2.625000e-02
-1.981160e-06,-1.250000e-03
-1.973160e-06,8.750000e-03
-1.965160e-06,3.750000e-03
-1.957160e-06,2.250000e-02
-1.949160e-06,1.250000e-03
-1.941160e-06,1.875000e-02
-1.933160e-06,-1.000000e-02
-1.925160e-06,2.375000e-02
-1.917160e-06,-1.250000e-03
-1.909160e-06,2.250000e-02
-1.901160e-06,-3.125000e-02
-1.893160e-06,1.875000e-02
-1.885160e-06,-1.875000e-02
-1.877160e-06,3.125000e-02
-1.869160e-06,-2.875000e-02
-1.861160e-06,1.625000e-02
-1.853160e-06,-2.000000e-02
-1.845160e-06,3.000000e-02
-1.837160e-06,-1.500000e-02
-1.829160e-06,1.875000e-02
-1.821160e-06,-2.000000e-02
-1.813160e-06,3.250000e-02
-1.805160e-06,1.000000e-02
-1.797160e-06,1.250000e-03
-1.789160e-06,-1.750000e-02
-1.781160e-06,3.250000e-02
-1.773160e-06,-1.125000e-02
-1.765160e-06,-2.500000e-03
-1.757160e-06,-1.625000e-02
-1.749160e-06,3.750000e-03
-1.741160e-06,-2.625000e-02
-1.733160e-06,2.125000e-02
-1.725160e-06,-3.750000e-03
-1.717160e-06,3.000000e-02
-1.709160e-06,-2.000000e-02
-1.701160e-06,1.750000e-02
-1.693160e-06,-8.750000e-03
-1.685160e-06,4.875000e-02
-1.677160e-06,6.250000e-03
-1.669160e-06,5.000000e-03
-1.661160e-06,-1.625000e-02
-1.653160e-06,1.250000e-02
-1.645160e-06,-4.375000e-02
-1.637160e-06,6.250000e-03
-1.629160e-06,-1.500000e-02
-1.621160e-06,2.125000e-02
-1.613160e-06,-8.750000e-03
-1.605160e-06,1.500000e-02
-1.597160e-06,-1.125000e-02
-1.589160e-06,3.125000e-02
-1.581160e-06,-1.500000e-02
-1.573160e-06,2.125000e-02
-1.565160e-06,1.125000e-02
-1.557160e-06,1.625000e-02
-1.549160e-06,-2.625000e-02
-1.541160e-06,3.750000e-03
-1.533160e-06,-1.500000e-02
-1.525160e-06,2.000000e-02
-1.517160e-06,-2.625000e-02
-1.509160e-06,7.500000e-03
-1.501160e-06,8.750000e-03
-1.493160e-06,2.000000e-02
-1.485160e-06,0.000000e+00
-1.477160e-06,1.625000e-02
-1.469160e-06,-2.125000e-02
-1.461160e-06,0.000000e+00
-1.453160e-06,-2.500000e-02
-1.445160e-06,-1.250000e-03
-1.437160e-06,-1.250000e-02
-1.429160e-06,1.125000e-02
-1.421160e-06,-2.375000e-02
-1.413160e-06,1.000000e-02
-1.405160e-06,-1.125000e-02
-1.397160e-06,3.375000e-02
-1.389160e-06,-3.750000e-03
-1.381160e-06,3.000000e-02
-1.373160e-06,-3.375000e-02
-1.365160e-06,1.875000e-02
-1.357160e-06,-1.875000e-02
-1.349160e-06,1.000000e-02
-1.341160e-06,5.000000e-03
-1.333160e-06,1.375000e-02
-1.325160e-06,-1.250000e-03
-1.317160e-06,1.125000e-02
-1.309160e-06,5.000000e-03
-1.301160e-06,2.125000e-02
-1.293160e-06,1.250000e-03
-1.285160e-06,2.750000e-02
-1.277160e-06,-2.875000e-02
-1.269160e-06,3.000000e-02
-1.261160e-06,-3.875000e-02
-1.253160e-06,8.750000e-03
-1.245160e-06,-1.500000e-02
-1.237160e-06,1.875000e-02
-1.229160e-06,0.000000e+00
-1.221160e-06,-1.000000e-02
-1.213160e-06,-2.500000e-03
-1.205160e-06,1.625000e-02
-1.197160e-06,-8.750000e-03
-1.189160e-06,3.750000e-02
-1.181160e-06,-2.000000e-02
-1.173160e-06,1.250000e-02
-1.165160e-06,-2.500000e-03
-1.157160e-06,2.875000e-02
-1.149160e-06,-3.125000e-02
-1.141160e-06,2.250000e-02
-1.133160e-06,-4.375000e-02
-1.125160e-06,1.875000e-02
-1.117160e-06,-1.000000e-02
-1.109160e-06,0.000000e+00
-1.101160e-06,-1.250000e-02
-1.093160e-06,3.625000e-02
-1.085160e-06,-2.000000e-02
-1.077160e-06,6.250000e-03
-1.069160e-06,-6.250000e-03
-1.061160e-06,0.000000e+00
-1.053160e-06,-7.500000e-03
-1.045160e-06,1.250000e-02
-1.037160e-06,6.250000e-03
-1.029160e-06,5.000000e-03
-1.021160e-06,-1.750000e-02
-1.013160e-06,1.125000e-02
-1.005160e-06,-2.750000e-02
-9.971600e-07,1.375000e-02
-9.891600e-07,-2.875000e-02
-9.811600e-07,3.250000e-02
-9.731600e-07,3.750000e-03
-9.651600e-07,6.250000e-03
-9.571600e-07,-1.250000e-03
-9.491600e-07,1.500000e-02
-9.411600e-07,-5.000000e-03
-9.331600e-07,1.500000e-02
-9.251600e-07,1.250000e-03
-9.171600e-07,1.000000e-02
-9.091600e-07,5.000000e-03
-9.011600e-07,1.500000e-02
-8.931600e-07,-1.625000e-02
-8.851600e-07,2.750000e-02
-8.771600e-07,-2.625000e-02
-8.691600e-07,2.750000e-02
-8.611600e-07,-6.250000e-03
-8.531600e-07,4.000000e-02
-8.451600e-07,0.000000e+00
-8.371600e-07,1.625000e-02
-8.291600e-07,-5.000000e-03
-8.211600e-07,1.250000e-02
-8.131600e-07,-1.875000e-02
-8.051600e-07,2.500000e-02
-7.971600e-07,6.250000e-03
-7.891600e-07,2.875000e-02
-7.811600e-07,2.875000e-02
-7.731600e-07,2.625000e-02
-7.651600e-07,-8.750000e-03
-7.571600e-07,2.875000e-02
-7.491600e-07,-8.750000e-03
-7.411600e-07,6.250000e-03
-7.331600e-07,-2.500000e-02
-7.251600e-07,1.125000e-02
-7.171600e-07,-2.625000e-02
-7.091600e-07,7.500000e-03
-7.011600e-07,-7.500000e-03
-6.931600e-07,2.625000e-02
-6.851600e-07,-1.875000e-02
-6.771600e-07,1.000000e-02
-6.691600e-07,-1.250000e-03
-6.611600e-07,2.250000e-02
-6.531600e-07,-3.750000e-03
-6.451600e-07,3.750000e-02
-6.371600e-07,-2.250000e-02
-6.291600e-07,1.750000e-02
-6.211600e-07,-1.625000e-02
-6.131600e-07,0.000000e+00
-6.051600e-07,-2.375000e-02
-5.971600e-07,8.750000e-03
-5.891600e-07,-1.125000e-02
-5.811600e-07,-3.750000e-03
-5.731600e-07,5.000000e-03
-5.651600e-07,-1.250000e-03
-5.571600e-07,-3.875000e-02
-5.491600e-07,1.125000e-02
-5.411600e-07,-1.250000e-03
-5.331600e-07,2.750000e-02
-5.251600e-07,3.750000e-03
-5.171600e-07,3.375000e-02
-5.091600e-07,-1.250000e-02
-5.011600e-07,2.250000e-02
-4.931600e-07,-2.625000e-02
-4.851600e-07,1.250000e-03
-4.771600e-07,-2.125000e-02
-4.691600e-07,1.750000e-02
-4.611600e-07,-1.750000e-02
-4.531600e-07,2.750000e-02
-4.451600e-07,-2.000000e-02
-4.371600e-07,1.500000e-02
-4.291600e-07,-2.000000e-02
-4.211600e-07,1.750000e-02
-4.131600e-07,-3.750000e-02
-4.051600e-07,1.750000e-02
-3.971600e-07,-1.000000e-02
-3.891600e-07,3.000000e-02
-3.811600e-07,-2.000000e-02
-3.731600e-07,1.500000e-02
-3.651600e-07,-2.625000e-02
-3.571600e-07,2.250000e-02
-3.491600e-07,-2.250000e-02
-3.411600e-07,2.375000e-02
-3.331600e-07,-1.500000e-02
-3.251600e-07,1.250000e-02
-3.171600e-07,1.250000e-03
-3.091600e-07,8.750000e-03
-3.011600e-07,-1.250000e-02
-2.931600e-07,-2.500000e-03
-2.851600e-07,6.250000e-03
-2.771600e-07,2.125000e-02
-2.691600e-07,2.250000e-02
-2.611600e-07,2.875000e-02
-2.531600e-07,-2.750000e-02
-2.451600e-07,6.250000e-03
-2.371600e-07,-2.000000e-02
-2.291600e-07,1.375000e-02
-2.211600e-07,-5.000000e-03
-2.131600e-07,2.125000e-02
-2.051600e-07,-1.125000e-02
-1.971600e-07,8.750000e-03
-1.891600e-07,-3.125000e-02
-1.811600e-07,5.000000e-03
-1.731600e-07,0.000000e+00
-1.651600e-07,1.875000e-02
-1.571600e-07,1.125000e-02
-1.491600e-07,3.125000e-02
-1.411600e-07,1.500000e-02
-1.331600e-07,3.250000e-02
-1.251600e-07,-1.000000e-02
-1.171600e-07,5.000000e-03
-1.091600e-07,-4.375000e-02
-1.011600e-07,2.375000e-02
-9.316000e-08,-1.875000e-02
-8.516000e-08,3.250000e-02
-7.716000e-08,5.000000e-03
-6.916000e-08,3.375000e-02
-6.116000e-08,1.750000e-02
-5.316000e-08,3.875000e-02
-4.516000e-08,-2.125000e-02
-3.716000e-08,-1.395000e+00
-2.916000e-08,-1.418750e+00
-2.116000e-08,-1.381250e+00
-1.316000e-08,-1.328750e+00
-5.160000e-09,2.500000e-03
2.840000e-09,-3.125000e-02
1.084000e-08,2.500000e-02
1.884000e-08,-1.625000e-02
2.684000e-08,1.375000e-02
3.484000e-08,-1.500000e-02
4.284000e-08,3.125000e-02
5.084000e-08,-1.375000e-02
5.884000e-08,4.375000e-02
6.684000e-08,-1.000000e-02
7.484000e-08,1.750000e-02
8.284000e-08,-2.125000e-02
9.084000e-08,-5.000000e-03
9.884000e-08,-2.000000e-02
1.068400e-07,3.250000e-02
1.148400e-07,1.375000e-02
1.228400e-07,8.750000e-03
1.308400e-07,2.500000e-03
1.388400e-07,2.000000e-02
1.468400e-07,-1.625000e-02
1.548400e-07,1.000000e-02
1.628400e-07,-5.000000e-03
1.708400e-07,3.125000e-02
1.788400e-07,1.125000e-02
1.868400e-07,4.000000e-02
1.948400e-07,-2.625000e-02
2.028400e-07,2.500000e-03
2.108400e-07,-1.750000e-02
2.188400e-07,3.750000e-02
2.268400e-07,-1.250000e-02
2.348400e-07,3.625000e-02
2.428400e-07,1.375000e-02
2.508400e-07,3.625000e-02
2.588400e-07,-1.875000e-02
2.668400e-07,3.250000e-02
2.748400e-07,-3.500000e-02
2.828400e-07,3.000000e-02
2.908400e-07,-1.500000e-02
2.988400e-07,3.375000e-02
3.068400e-07,-7.500000e-03
3.148400e-07,3.500000e-02
3.228400e-07,-1.750000e-02
3.308400e-07,8.750000e-03
3.388400e-07,-5.000000e-03
3.468400e-07,1.375000e-02
3.548400e-07,-3.000000e-02
3.628400e-07,2.500000e-03
3.708400e-07,-1.375000e-02
3.788400e-07,3.125000e-02
3.868400e-07,-1.500000e-02
3.948400e-07,0.000000e+00
4.028400e-07,0.000000e+00
4.108400e-07,1.625000e-02
4.188400e-07,-1.125000e-02
4.268400e-07,1.875000e-02
4.348400e-07,-8.750000e-03
4.428400e-07,8.750000e-03
4.508400e-07,-1.875000e-02
4.588400e-07,1.250000e-02
4.668400e-07,-8.750000e-03
4.748400e-07,1.125000e-02
4.828400e-07,-7.500000e-03
4.908400e-07,1.250000e-02
4.988400e-07,-2.125000e-02
5.068400e-07,1.000000e-02
5.148400e-07,-7.500000e-03
5.228400e-07,7.500000e-03
5.308400e-07,-3.000000e-02
5.388400e-07,1.125000e-02
5.468400e-07,-1.500000e-02
5.548400e-07,3.125000e-02
5.628400e-07,-2.375000e-02
5.708400e-07,-2.500000e-03
5.788400e-07,-8.750000e-03
5.868400e-07,-2.500000e-03
5.948400e-07,-8.750000e-03
6.028400e-07,2.250000e-02
6.108400e-07,-1.250000e-02
6.188400e-07,1.625000e-02
6.268400e-07,-2.500000e-03
6.348400e-07,8.750000e-03
6.428400e-07,-1.625000e-02
6.508400e-07,1.375000e-02
6.588400e-07,-7.500000e-03
6.668400e-07,-1.250000e-03
6.748400e-07,-2.750000e-02
6.828400e-07,1.625000e-02
6.908400e-07,-1.500000e-02
6.988400e-07,1.750000e-02
7.068400e-07,-6.250000e-03
7.148400e-07,7.500000e-03
7.228400e-07,-1.375000e-02
7.308400e-07,6.250000e-03
7.388400e-07,-2.125000e-02
7.468400e-07,2.125000e-02
7.548400e-07,-2.500000e-03
7.628400e-07,4.625000e-02
7.708400e-07,-2.875000e-02
7.788400e-07,1.250000e-03
7.868400e-07,-1.625000e-02
7.948400e-07,1.375000e-02
8.028400e-07,2.500000e-03
8.108400e-07,3.500000e-02
