run1/run1_ch3_20210318180142303.csv

Model,MSO64
Waveform Type,ANALOG
Horizontal Units,s
Sample Interval,8.000000e-09
Record Length,1250
Zero Index,624.235000
Vertical Units,V

TIME,CH3
-4.993880e-06,-7.306250e-01
-4.985880e-06,-7.237500e-01
-4.977880e-06,-7.462500e-01
-4.969880e-06,-7.378125e-01
-4.961880e-06,-7.525000e-01
-4.953880e-06,-7.384375e-01
-4.945880e-06,-7.500000e-01
-4.937880e-06,-7.218750e-01
-4.929880e-06,-7.437500e-01
-4.921880e-06,-7.343750e-01
-4.913880e-06,-7.565625e-01
-4.905880e-06,-7.484375e-01
-4.897880e-06,-7.500000e-01
-4.889880e-06,-7.337500e-01
-4.881880e-06,-7.496875e-01
-4.873880e-06,-7.415625e-01
-4.865880e-06,-7.537500e-01
-4.857880e-06,-7.275000e-01
-4.849880e-06,-7.662500e-01
-4.841880e-06,-7.293750e-01
-4.833880e-06,-7.518750e-01
-4.825880e-06,-7.243750e-01
-4.817880e-06,-7.487500e-01
-4.809880e-06,-7.306250e-01
-4.801880e-06,-7.525000e-01
-4.793880e-06,-7.312500e-01
-4.785880e-06,-7.418750e-01
-4.777880e-06,-7.521875e-01
-4.769880e-06,-7.568750e-01
-4.761880e-06,-7.325000e-01
-4.753880e-06,-7.562500e-01
-4.745880e-06,-7.284375e-01
-4.737880e-06,-7.493750e-01
-4.729880e-06,-7.393750e-01
-4.721880e-06,-7.518750e-01
-4.713880e-06,-7.325000e-01
-4.705880e-06,-7.593750e-01
-4.697880e-06,-7.296875e-01
-4.689880e-06,-7.528125e-01
-4.681880e-06,-7.234375e-01
-4.673880e-06,-7.581250e-01
-4.665880e-06,-7.390625e-01
-4.657880e-06,-7.390625e-01
-4.649880e-06,-7.412500e-01
-4.641880e-06,-7.553125e-01
-4.633880e-06,-7.325000e-01
-4.625880e-06,-7.493750e-01
-4.617880e-06,-7.321875e-01
-4.609880e-06,-7.328125e-01
-4.601880e-06,-7.303125e-01
-4.593880e-06,-7.615625e-01
-4.585880e-06,-7.318750e-01
-4.577880e-06,-7.553125e-01
-4.569880e-06,-7.350000e-01
-4.561880e-06,-7.562500e-01
-4.553880e-06,-7.187500e-01
-4.545880e-06,-7.575000e-01
-4.537880e-06,-7.500000e-01
-4.529880e-06,-7.506250e-01
-4.521880e-06,-7.368750e-01
-4.513880e-06,-7.487500e-01
-4.505880e-06,-7.315625e-01
-4.497880e-06,-7.503125e-01
-4.489880e-06,-7.250000e-01
-4.481880e-06,-7.378125e-01
-4.473880e-06,-7.384375e-01
-4.465880e-06,-7.615625e-01
-4.457880e-06,-7.306250e-01
-4.449880e-06,-7.534375e-01
-4.441880e-06,-7.115625e-01
-4.433880e-06,-7.471875e-01
-4.425880e-06,-7.243750e-01
-4.417880e-06,-7.581250e-01
-4.409880e-06,-7.440625e-01
-4.401880e-06,-7.503125e-01
-4.393880e-06,-7.425000e-01
-4.385880e-06,-7.634375e-01
-4.377880e-06,-7.262500e-01
-4.369880e-06,-7.506250e-01
-4.361880e-06,-7.534375e-01
-4.353880e-06,-7.375000e-01
-4.345880e-06,-7.356250e-01
-4.337880e-06,-7.600000e-01
-4.329880e-06,-7.259375e-01
-4.321880e-06,-7.584375e-01
-4.313880e-06,-7.290625e-01
-4.305880e-06,-7.525000e-01
-4.297880e-06,-7.168750e-01
-4.289880e-06,-7.531250e-01
-4.281880e-06,-7.325000e-01
-4.273880e-06,-7.418750e-01
-4.265880e-06,-7.412500e-01
-4.257880e-06,-7.503125e-01
-4.249880e-06,-7.246875e-01
-4.241880e-06,-7.528125e-01
-4.233880e-06,-7.325000e-01
-4.225880e-06,-7.365625e-01
-4.217880e-06,-7.159375e-01
-4.209880e-06,-7.528125e-01
-4.201880e-06,-7.371875e-01
-4.193880e-06,-7.500000e-01
-4.185880e-06,-7.287500e-01
-4.177880e-06,-7.468750e-01
-4.169880e-06,-7.084375e-01
-4.161880e-06,-7.434375e-01
-4.153880e-06,-7.203125e-01
-4.145880e-06,-7.534375e-01
-4.137880e-06,-7.312500e-01
-4.129880e-06,-7.465625e-01
-4.121880e-06,-7.143750e-01
-4.113880e-06,-7.456250e-01
-4.105880e-06,-7.387500e-01
-4.097880e-06,-7.387500e-01
-4.089880e-06,-7.287500e-01
-4.081880e-06,-7.490625e-01
-4.073880e-06,-7.268750e-01
-4.065880e-06,-7.506250e-01
-4.057880e-06,-7.478125e-01
-4.049880e-06,-7.331250e-01
-4.041880e-06,-7.284375e-01
-4.033880e-06,-7.562500e-01
-4.025880e-06,-7.368750e-01
-4.017880e-06,-7.565625e-01
-4.009880e-06,-7.471875e-01
-4.001880e-06,-7.537500e-01
-3.993880e-06,-7.253125e-01
-3.985880e-06,-7.518750e-01
-3.977880e-06,-7.318750e-01
-3.969880e-06,-7.525000e-01
-3.961880e-06,-7.343750e-01
-3.953880e-06,-7.578125e-01
-3.945880e-06,-7.368750e-01
-3.937880e-06,-7.662500e-01
-3.929880e-06,-7.300000e-01
-3.921880e-06,-7.421875e-01
-3.913880e-06,-7.228125e-01
-3.905880e-06,-7.481250e-01
-3.897880e-06,-7.409375e-01
-3.889880e-06,-7.509375e-01
-3.881880e-06,-7.246875e-01
-3.873880e-06,-7.487500e-01
-3.865880e-06,-7.281250e-01
-3.857880e-06,-7.387500e-01
-3.849880e-06,-7.331250e-01
-3.841880e-06,-7.528125e-01
-3.833880e-06,-7.300000e-01
-3.825880e-06,-7.506250e-01
-3.817880e-06,-7.262500e-01
-3.809880e-06,-7.550000e-01
-3.801880e-06,-7.300000e-01
-3.793880e-06,-7.493750e-01
-3.785880e-06,-7.225000e-01
-3.777880e-06,-7.487500e-01
-3.769880e-06,-7.356250e-01
-3.761880e-06,-7.484375e-01
-3.753880e-06,-7.393750e-01
-3.745880e-06,-7.559375e-01
-3.737880e-06,-7.359375e-01
-3.729880e-06,-7.453125e-01
-3.721880e-06,-7.406250e-01
-3.713880e-06,-7.559375e-01
-3.705880e-06,-7.275000e-01
-3.697880e-06,-7.531250e-01
-3.689880e-06,-7.381250e-01
-3.681880e-06,-7.606250e-01
-3.673880e-06,-7.387500e-01
-3.665880e-06,-7.493750e-01
-3.657880e-06,-7.218750e-01
-3.649880e-06,-7.453125e-01
-3.641880e-06,-7.318750e-01
-3.633880e-06,-7.481250e-01
-3.625880e-06,-7.546875e-01
-3.617880e-06,-7.615625e-01
-3.609880e-06,-7.246875e-01
-3.601880e-06,-7.531250e-01
-3.593880e-06,-7.390625e-01
-3.585880e-06,-7.456250e-01
-3.577880e-06,-7.187500e-01
-3.569880e-06,-7.575000e-01
-3.561880e-06,-7.390625e-01
-3.553880e-06,-7.534375e-01
-3.545880e-06,-7.321875e-01
-3.537880e-06,-7.481250e-01
-3.529880e-06,-7.209375e-01
-3.521880e-06,-7.440625e-01
-3.513880e-06,-7.456250e-01
-3.505880e-06,-7.356250e-01
-3.497880e-06,-7.478125e-01
-3.489880e-06,-7.446875e-01
-3.481880e-06,-7.287500e-01
-3.473880e-06,-7.559375e-01
-3.465880e-06,-7.278125e-01
-3.457880e-06,-7.493750e-01
-3.449880e-06,-7.359375e-01
-3.441880e-06,-7.603125e-01
-3.433880e-06,-7.278125e-01
-3.425880e-06,-7.596875e-01
-3.417880e-06,-7.328125e-01
-3.409880e-06,-7.468750e-01
-3.401880e-06,-7.206250e-01
-3.393880e-06,-7.590625e-01
-3.385880e-06,-7.418750e-01
-3.377880e-06,-7.534375e-01
-3.369880e-06,-7.343750e-01
-3.361880e-06,-7.475000e-01
-3.353880e-06,-7.271875e-01
-3.345880e-06,-7.500000e-01
-3.337880e-06,-7.278125e-01
-3.329880e-06,-7.515625e-01
-3.321880e-06,-7.337500e-01
-3.313880e-06,-7.618750e-01
-3.305880e-06,-7.337500e-01
-3.297880e-06,-7.571875e-01
-3.289880e-06,-7.337500e-01
-3.281880e-06,-7.553125e-01
-3.273880e-06,-7.303125e-01
-3.265880e-06,-7.425000e-01
-3.257880e-06,-7.353125e-01
-3.249880e-06,-7.453125e-01
-3.241880e-06,-7.506250e-01
-3.233880e-06,-7.621875e-01
-3.225880e-06,-7.421875e-01
-3.217880e-06,-7.459375e-01
-3.209880e-06,-7.287500e-01
-3.201880e-06,-7.512500e-01
-3.193880e-06,-7.228125e-01
-3.185880e-06,-7.478125e-01
-3.177880e-06,-7.425000e-01
-3.169880e-06,-7.471875e-01
-3.161880e-06,-7.312500e-01
-3.153880e-06,-7.478125e-01
-3.145880e-06,-7.237500e-01
-3.137880e-06,-7.437500e-01
-3.129880e-06,-7.190625e-01
-3.121880e-06,-7.396875e-01
-3.113880e-06,-7.287500e-01
-3.105880e-06,-7.493750e-01
-3.097880e-06,-7.275000e-01
-3.089880e-06,-7.412500e-01
-3.081880e-06,-7.350000e-01
-3.073880e-06,-7.468750e-01
-3.065880e-06,-7.221875e-01
-3.057880e-06,-7.556250e-01
-3.049880e-06,-7.256250e-01
-3.041880e-06,-7.493750e-01
-3.033880e-06,-7.346875e-01
-3.025880e-06,-7.534375e-01
-3.017880e-06,-7.250000e-01
-3.009880e-06,-7.581250e-01
-3.001880e-06,-7.387500e-01
-2.993880e-06,-7.606250e-01
-2.985880e-06,-7.290625e-01
-2.977880e-06,-7.578125e-01
-2.969880e-06,-7.293750e-01
-2.961880e-06,-7.531250e-01
-2.953880e-06,-7.234375e-01
-2.945880e-06,-7.421875e-01
-2.937880e-06,-7.356250e-01
-2.929880e-06,-7.596875e-01
-2.921880e-06,-7.256250e-01
-2.913880e-06,-7.575000e-01
-2.905880e-06,-7.437500e-01
-2.897880e-06,-7.368750e-01
-2.889880e-06,-7.259375e-01
-2.881880e-06,-7.521875e-01
-2.873880e-06,-7.428125e-01
-2.865880e-06,-7.468750e-01
-2.857880e-06,-7.481250e-01
-2.849880e-06,-7.609375e-01
-2.841880e-06,-7.303125e-01
-2.833880e-06,-7.587500e-01
-2.825880e-06,-7.378125e-01
-2.817880e-06,-7.396875e-01
-2.809880e-06,-7.237500e-01
-2.801880e-06,-7.453125e-01
-2.793880e-06,-7.306250e-01
-2.785880e-06,-7.525000e-01
-2.777880e-06,-7.506250e-01
-2.769880e-06,-7.468750e-01
-2.761880e-06,-7.190625e-01
-2.753880e-06,-7.500000e-01
-2.745880e-06,-7.387500e-01
-2.737880e-06,-7.478125e-01
-2.729880e-06,-7.396875e-01
-2.721880e-06,-7.512500e-01
-2.713880e-06,-7.359375e-01
-2.705880e-06,-7.368750e-01
-2.697880e-06,-7.309375e-01
-2.689880e-06,-7.384375e-01
-2.681880e-06,-7.275000e-01
-2.673880e-06,-7.565625e-01
-2.665880e-06,-7.337500e-01
-2.657880e-06,-7.546875e-01
-2.649880e-06,-7.321875e-01
-2.641880e-06,-7.531250e-01
-2.633880e-06,-7.212500e-01
-2.625880e-06,-7.425000e-01
-2.617880e-06,-7.356250e-01
-2.609880e-06,-7.459375e-01
-2.601880e-06,-7.503125e-01
-2.593880e-06,-7.581250e-01
-2.585880e-06,-7.315625e-01
-2.577880e-06,-7.550000e-01
-2.569880e-06,-7.312500e-01
-2.561880e-06,-7.384375e-01
-2.553880e-06,-7.368750e-01
-2.545880e-06,-7.687500e-01
-2.537880e-06,-7.281250e-01
-2.529880e-06,-7.546875e-01
-2.521880e-06,-7.337500e-01
-2.513880e-06,-7.509375e-01
-2.505880e-06,-7.218750e-01
-2.497880e-06,-7.553125e-01
-2.489880e-06,-7.362500e-01
-2.481880e-06,-7.428125e-01
-2.473880e-06,-7.303125e-01
-2.465880e-06,-7.543750e-01
-2.457880e-06,-7.218750e-01
-2.449880e-06,-7.381250e-01
-2.441880e-06,-7.168750e-01
-2.433880e-06,-7.400000e-01
-2.425880e-06,-7.325000e-01
-2.417880e-06,-7.550000e-01
-2.409880e-06,-7.418750e-01
-2.401880e-06,-7.593750e-01
-2.393880e-06,-7.381250e-01
-2.385880e-06,-7.468750e-01
-2.377880e-06,-7.190625e-01
-2.369880e-06,-7.443750e-01
-2.361880e-06,-7.296875e-01
-2.353880e-06,-7.509375e-01
-2.345880e-06,-7.375000e-01
-2.337880e-06,-7.596875e-01
-2.329880e-06,-7.234375e-01
-2.321880e-06,-7.362500e-01
-2.313880e-06,-7.212500e-01
-2.305880e-06,-7.425000e-01
-2.297880e-06,-7.340625e-01
-2.289880e-06,-7.546875e-01
-2.281880e-06,-7.353125e-01
-2.273880e-06,-7.525000e-01
-2.265880e-06,-7.353125e-01
-2.257880e-06,-7.443750e-01
-2.249880e-06,-7.246875e-01
-2.241880e-06,-7.568750e-01
-2.233880e-06,-7.462500e-01
-2.225880e-06,-7.443750e-01
-2.217880e-06,-7.453125e-01
-2.209880e-06,-7.559375e-01
-2.201880e-06,-7.278125e-01
-2.193880e-06,-7.425000e-01
-2.185880e-06,-7.350000e-01
-2.177880e-06,-7.431250e-01
-2.169880e-06,-7.231250e-01
-2.161880e-06,-7.434375e-01
-2.153880e-06,-7.325000e-01
-2.145880e-06,-7.365625e-01
-2.137880e-06,-7.256250e-01
-2.129880e-06,-7.381250e-01
-2.121880e-06,-7.159375e-01
-2.113880e-06,-7.537500e-01
-2.105880e-06,-7.384375e-01
-2.097880e-06,-7.481250e-01
-2.089880e-06,-7.468750e-01
-2.081880e-06,-7.478125e-01
-2.073880e-06,-7.275000e-01
-2.065880e-06,-7.381250e-01
-2.057880e-06,-7.312500e-01
-2.049880e-06,-7.387500e-01
-2.041880e-06,-7.287500e-01
-2.033880e-06,-7.612500e-01
-2.025880e-06,-7.343750e-01
-2.017880e-06,-7.575000e-01
-2.009880e-06,-7.465625e-01
-2.001880e-06,-7.431250e-01
-1.993880e-06,-7.234375e-01
-1.985880e-06,-7.384375e-01
-1.977880e-06,-7.443750e-01
-1.969880e-06,-7.537500e-01
-1.961880e-06,-7.412500e-01
-1.953880e-06,-7.609375e-01
-1.945880e-06,-7.315625e-01
-1.937880e-06,-7.503125e-01
-1.929880e-06,-7.403125e-01
-1.921880e-06,-7.318750e-01
-1.913880e-06,-7.378125e-01
-1.905880e-06,-7.525000e-01
-1.897880e-06,-7.256250e-01
-1.889880e-06,-7.521875e-01
-1.881880e-06,-7.300000e-01
-1.873880e-06,-7.475000e-01
-1.865880e-06,-7.171875e-01
-1.857880e-06,-7.615625e-01
-1.849880e-06,-7.331250e-01
-1.841880e-06,-7.487500e-01
-1.833880e-06,-7.328125e-01
-1.825880e-06,-7.531250e-01
-1.817880e-06,-7.331250e-01
-1.809880e-06,-7.356250e-01
-1.801880e-06,-7.328125e-01
-1.793880e-06,-7.371875e-01
-1.785880e-06,-7.212500e-01
-1.777880e-06,-7.403125e-01
-1.769880e-06,-7.418750e-01
-1.761880e-06,-7.496875e-01
-1.753880e-06,-7.325000e-01
-1.745880e-06,-7.503125e-01
-1.737880e-06,-7.237500e-01
-1.729880e-06,-7.471875e-01
-1.721880e-06,-7.315625e-01
-1.713880e-06,-7.421875e-01
-1.705880e-06,-7.346875e-01
-1.697880e-06,-7.606250e-01
-1.689880e-06,-7.346875e-01
-1.681880e-06,-7.556250e-01
-1.673880e-06,-7.171875e-01
-1.665880e-06,-7.384375e-01
-1.657880e-06,-7.343750e-01
-1.649880e-06,-7.543750e-01
-1.641880e-06,-7.287500e-01
-1.633880e-06,-7.662500e-01
-1.625880e-06,-7.281250e-01
-1.617880e-06,-7.450000e-01
-1.609880e-06,-7.303125e-01
-1.601880e-06,-7.509375e-01
-1.593880e-06,-7.465625e-01
-1.585880e-06,-7.543750e-01
-1.577880e-06,-7.481250e-01
-1.569880e-06,-7.518750e-01
-1.561880e-06,-7.425000e-01
-1.553880e-06,-7.600000e-01
-1.545880e-06,-7.234375e-01
-1.537880e-06,-7.525000e-01
-1.529880e-06,-7.275000e-01
-1.521880e-06,-7.568750e-01
-1.513880e-06,-7.287500e-01
-1.505880e-06,-7.440625e-01
-1.497880e-06,-7.296875e-01
-1.489880e-06,-7.418750e-01
-1.481880e-06,-7.331250e-01
-1.473880e-06,-7.500000e-01
-1.465880e-06,-7.381250e-01
-1.457880e-06,-7.515625e-01
-1.449880e-06,-7.350000e-01
-1.441880e-06,-7.606250e-01
-1.433880e-06,-7.175000e-01
-1.425880e-06,-7.515625e-01
-1.417880e-06,-7.221875e-01
-1.409880e-06,-7.428125e-01
-1.401880e-06,-7.306250e-01
-1.393880e-06,-7.531250e-01
-1.385880e-06,-7.368750e-01
-1.377880e-06,-7.434375e-01
-1.369880e-06,-7.315625e-01
-1.361880e-06,-7.612500e-01
-1.353880e-06,-7.256250e-01
-1.345880e-06,-7.506250e-01
-1.337880e-06,-7.431250e-01
-1.329880e-06,-7.571875e-01
-1.321880e-06,-7.396875e-01
-1.313880e-06,-7.521875e-01
-1.305880e-06,-7.337500e-01
-1.297880e-06,-7.387500e-01
-1.289880e-06,-7.262500e-01
-1.281880e-06,-7.428125e-01
-1.273880e-06,-7.312500e-01
-1.265880e-06,-7.587500e-01
-1.257880e-06,-7.315625e-01
-1.249880e-06,-7.528125e-01
-1.241880e-06,-7.268750e-01
-1.233880e-06,-7.431250e-01
-1.225880e-06,-7.168750e-01
-1.217880e-06,-7.468750e-01
-1.209880e-06,-7.318750e-01
-1.201880e-06,-7.434375e-01
-1.193880e-06,-7.446875e-01
-1.185880e-06,-7.556250e-01
-1.177880e-06,-7.190625e-01
-1.169880e-06,-7.465625e-01
-1.161880e-06,-7.300000e-01
-1.153880e-06,-7.293750e-01
-1.145880e-06,-7.325000e-01
-1.137880e-06,-7.584375e-01
-1.129880e-06,-7.434375e-01
-1.121880e-06,-7.440625e-01
-1.113880e-06,-7.250000e-01
-1.105880e-06,-7.581250e-01
-1.097880e-06,-7.212500e-01
-1.089880e-06,-7.375000e-01
-1.081880e-06,-7.287500e-01
-1.073880e-06,-7.509375e-01
-1.065880e-06,-7.471875e-01
-1.057880e-06,-7.465625e-01
-1.049880e-06,-7.312500e-01
-1.041880e-06,-7.362500e-01
-1.033880e-06,-7.246875e-01
-1.025880e-06,-7.384375e-01
-1.017880e-06,-7.237500e-01
-1.009880e-06,-7.450000e-01
-1.001880e-06,-7.284375e-01
-9.938800e-07,-7.528125e-01
-9.858800e-07,-7.246875e-01
-9.778800e-07,-7.575000e-01
-9.698800e-07,-7.215625e-01
-9.618800e-07,-7.525000e-01
-9.538800e-07,-7.415625e-01
-9.458800e-07,-7.506250e-01
-9.378800e-07,-7.409375e-01
-9.298800e-07,-7.503125e-01
-9.218800e-07,-7.393750e-01
-9.138800e-07,-7.465625e-01
-9.058800e-07,-7.278125e-01
-8.978800e-07,-7.446875e-01
-8.898800e-07,-7.256250e-01
-8.818800e-07,-7.531250e-01
-8.738800e-07,-7.321875e-01
-8.658800e-07,-7.553125e-01
-8.578800e-07,-7.321875e-01
-8.498800e-07,-7.556250e-01
-8.418800e-07,-7.206250e-01
-8.338800e-07,-7.481250e-01
-8.258800e-07,-7.250000e-01
-8.178800e-07,-7.425000e-01
-8.098800e-07,-7.381250e-01
-8.018800e-07,-7.559375e-01
-7.938800e-07,-7.250000e-01
-7.858800e-07,-7.346875e-01
-7.778800e-07,-7.234375e-01
-7.698800e-07,-7.409375e-01
-7.618800e-07,-7.350000e-01
-7.538800e-07,-7.590625e-01
-7.458800e-07,-7.306250e-01
-7.378800e-07,-7.459375e-01
-7.298800e-07,-7.262500e-01
-7.218800e-07,-7.481250e-01
-7.138800e-07,-7.275000e-01
-7.058800e-07,-7.362500e-01
-6.978800e-07,-7.509375e-01
-6.898800e-07,-7.496875e-01
-6.818800e-07,-7.418750e-01
-6.738800e-07,-7.521875e-01
-6.658800e-07,-7.334375e-01
-6.578800e-07,-7.512500e-01
-6.498800e-07,-7.368750e-01
-6.418800e-07,-7.525000e-01
-6.338800e-07,-7.343750e-01
-6.258800e-07,-7.537500e-01
-6.178800e-07,-7.337500e-01
-6.098800e-07,-7.462500e-01
-6.018800e-07,-7.362500e-01
-5.938800e-07,-7.490625e-01
-5.858800e-07,-7.181250e-01
-5.778800e-07,-7.575000e-01
-5.698800e-07,-7.353125e-01
-5.618800e-07,-7.525000e-01
-5.538800e-07,-7.406250e-01
-5.458800e-07,-7.512500e-01
-5.378800e-07,-7.215625e-01
-5.298800e-07,-7.550000e-01
-5.218800e-07,-7.337500e-01
-5.138800e-07,-7.512500e-01
-5.058800e-07,-7.262500e-01
-4.978800e-07,-7.525000e-01
-4.898800e-07,-7.231250e-01
-4.818800e-07,-7.584375e-01
-4.738800e-07,-7.318750e-01
-4.658800e-07,-7.462500e-01
-4.578800e-07,-7.265625e-01
-4.498800e-07,-7.440625e-01
-4.418800e-07,-7.396875e-01
-4.338800e-07,-7.484375e-01
-4.258800e-07,-7.390625e-01
-4.178800e-07,-7.521875e-01
-4.098800e-07,-7.303125e-01
-4.018800e-07,-7.434375e-01
-3.938800e-07,-7.250000e-01
-3.858800e-07,-7.428125e-01
-3.778800e-07,-7.465625e-01
-3.698800e-07,-7.640625e-01
-3.618800e-07,-7.400000e-01
-3.538800e-07,-7.515625e-01
-3.458800e-07,-7.284375e-01
-3.378800e-07,-7.534375e-01
-3.298800e-07,-7.153125e-01
-3.218800e-07,-7.543750e-01
-3.138800e-07,-7.418750e-01
-3.058800e-07,-7.493750e-01
-2.978800e-07,-7.284375e-01
-2.898800e-07,-7.487500e-01
-2.818800e-07,-7.256250e-01
-2.738800e-07,-7.518750e-01
-2.658800e-07,-7.275000e-01
-2.578800e-07,-7.475000e-01
-2.498800e-07,-7.343750e-01
-2.418800e-07,-7.446875e-01
-2.338800e-07,-7.446875e-01
-2.258800e-07,-7.556250e-01
-2.178800e-07,-7.362500e-01
-2.098800e-07,-7.350000e-01
-2.018800e-07,-7.268750e-01
-1.938800e-07,-7.462500e-01
-1.858800e-07,-7.418750e-01
-1.778800e-07,-7.368750e-01
-1.698800e-07,-7.328125e-01
-1.618800e-07,-7.531250e-01
-1.538800e-07,-7.243750e-01
-1.458800e-07,-7.296875e-01
-1.378800e-07,-7.378125e-01
-1.298800e-07,-7.268750e-01
-1.218800e-07,-7.190625e-01
-1.138800e-07,-7.446875e-01
-1.058800e-07,-7.306250e-01
-9.788000e-08,-7.581250e-01
-8.988000e-08,-7.231250e-01
-8.188000e-08,-7.471875e-01
-7.388000e-08,-7.150000e-01
-6.588000e-08,-7.381250e-01
-5.788000e-08,-7.365625e-01
-4.988000e-08,-7.443750e-01
-4.188000e-08,-6.946875e-01
-3.388000e-08,-5.750000e-02
-2.588000e-08,-3.031250e-02
-1.788000e-08,-4.125000e-02
-9.880000e-09,-3.875000e-02
-1.880000e-09,-5.250000e-02
6.120000e-09,-3.437500e-02
1.412000e-08,-5.750000e-02
2.212000e-08,-4.500000e-02
3.012000e-08,-5.062500e-02
3.812000e-08,-3.250000e-02
4.612000e-08,-4.625000e-02
5.412000e-08,-2.125000e-02
6.212000e-08,-4.312500e-02
7.012000e-08,-4.812500e-02
7.812000e-08,-4.812500e-02
8.612000e-08,-5.187500e-02
9.412000e-08,-6.125000e-02
1.021200e-07,-3.531250e-02
1.101200e-07,-3.625000e-02
1.181200e-07,-2.437500e-02
1.261200e-07,-4.875000e-02
1.341200e-07,-3.812500e-02
1.421200e-07,-4.875000e-02
1.501200e-07,-3.031250e-02
1.581200e-07,-5.250000e-02
1.661200e-07,-3.437500e-02
1.741200e-07,-3.562500e-02
1.821200e-07,-2.500000e-02
1.901200e-07,-4.750000e-02
1.981200e-07,-4.250000e-02
2.061200e-07,-4.406250e-02
2.141200e-07,-4.375000e-02
2.221200e-07,-3.906250e-02
2.301200e-07,-2.250000e-02
2.381200e-07,-4.321875e-01
2.461200e-07,-7.137500e-01
2.541200e-07,-7.306250e-01
2.621200e-07,-7.243750e-01
2.701200e-07,-7.281250e-01
2.781200e-07,-7.209375e-01
2.861200e-07,-7.471875e-01
2.941200e-07,-7.312500e-01
3.021200e-07,-7.418750e-01
3.101200e-07,-7.103125e-01
3.181200e-07,-7.496875e-01
3.261200e-07,-7.390625e-01
3.341200e-07,-7.325000e-01
3.421200e-07,-7.318750e-01
3.501200e-07,-7.481250e-01
3.581200e-07,-7.253125e-01
3.661200e-07,-7.371875e-01
3.741200e-07,-7.281250e-01
3.821200e-07,-7.365625e-01
3.901200e-07,-7.209375e-01
3.981200e-07,-7.509375e-01
4.061200e-07,-7.275000e-01
4.141200e-07,-7.512500e-01
4.221200e-07,-7.287500e-01
4.301200e-07,-7.443750e-01
4.381200e-07,-7.109375e-01
4.461200e-07,-7.531250e-01
4.541200e-07,-7.331250e-01
4.621200e-07,-7.537500e-01
4.701200e-07,-7.387500e-01
4.781200e-07,-7.484375e-01
4.861200e-07,-7.181250e-01
4.941200e-07,-7.384375e-01
5.021200e-07,-7.368750e-01
5.101200e-07,-7.343750e-01
5.181200e-07,-7.321875e-01
5.261200e-07,-7.496875e-01
5.341200e-07,-7.268750e-01
5.421200e-07,-7.540625e-01
5.501200e-07,-7.231250e-01
5.581200e-07,-7.340625e-01
5.661200e-07,-7.171875e-01
5.741200e-07,-7.306250e-01
5.821200e-07,-7.465625e-01
5.901200e-07,-7.537500e-01
5.981200e-07,-7.525000e-01
6.061200e-07,-7.546875e-01
6.141200e-07,-7.331250e-01
6.221200e-07,-7.356250e-01
6.301200e-07,-7.396875e-01
6.381200e-07,-7.393750e-01
6.461200e-07,-7.262500e-01
6.541200e-07,-7.581250e-01
6.621200e-07,-7.262500e-01
6.701200e-07,-7.575000e-01
6.781200e-07,-7.215625e-01
6.861200e-07,-7.450000e-01
6.941200e-07,-7.225000e-01
