run1/run1_ch1_20210318180316951.csv

Model,MSO64
Waveform Type,ANALOG
Horizontal Units,s
Sample Interval,8.000000e-09
Record Length,1250
Zero Index,624.025156
Vertical Units,V

TIME,CH1
-4.992201e-06,-3.250000e-02
-4.984201e-06,1.375000e-02
-4.976201e-06,-1.250000e-02
-4.968201e-06,3.000000e-02
-4.960201e-06,-1.625000e-02
-4.952201e-06,-7.500000e-03
-4.944201e-06,-2.250000e-02
-4.936201e-06,1.250000e-02
-4.928201e-06,2.500000e-03
-4.920201e-06,2.875000e-02
-4.912201e-06,-2.250000e-02
-4.904201e-06,4.250000e-02
-4.896201e-06,-2.500000e-03
-4.888201e-06,1.250000e-03
-4.880201e-06,-6.000000e-02
-4.872201e-06,5.000000e-03
-4.864201e-06,-2.875000e-02
-4.856201e-06,1.375000e-02
-4.848201e-06,3.750000e-03
-4.840201e-06,2.500000e-03
-4.832201e-06,-8.750000e-03
-4.824201e-06,7.500000e-03
-4.816201e-06,-2.375000e-02
-4.808201e-06,1.125000e-02
-4.800201e-06,3.750000e-03
-4.792201e-06,1.250000e-02
-4.784201e-06,-1.000000e-02
-4.776201e-06,7.500000e-03
-4.768201e-06,-3.500000e-02
-4.760201e-06,1.125000e-02
-4.752201e-06,-3.500000e-02
-4.744201e-06,1.500000e-02
-4.736201e-06,-3.000000e-02
-4.728201e-06,1.000000e-02
-4.720201e-06,-1.250000e-02
-4.712201e-06,-7.500000e-03
-4.704201e-06,-2.000000e-02
-4.696201e-06,1.750000e-02
-4.688201e-06,-4.500000e-02
-4.680201e-06,2.125000e-02
-4.672201e-06,1.250000e-03
-4.664201e-06,1.750000e-02
-4.656201e-06,1.375000e-02
-4.648201e-06,1.000000e-02
-4.640201e-06,-2.875000e-02
-4.632201e-06,7.500000e-03
-4.624201e-06,-3.125000e-02
-4.616201e-06,1.125000e-02
-4.608201e-06,-3.000000e-02
-4.600201e-06,1.000000e-02
-4.592201e-06,1.125000e-02
-4.584201e-06,5.000000e-03
-4.576201e-06,-6.250000e-03
-4.568201e-06,1.250000e-03
-4.560201e-06,-3.000000e-02
-4.552201e-06,2.250000e-02
-4.544201e-06,-1.250000e-02
-4.536201e-06,5.000000e-03
-4.528201e-06,-1.250000e-02
-4.520201e-06,-1.375000e-02
-4.512201e-06,-2.000000e-02
-4.504201e-06,1.250000e-02
-4.496201e-06,-3.250000e-02
-4.488201e-06,6.250000e-03
-4.480201e-06,-2.375000e-02
-4.472201e-06,2.375000e-02
-4.464201e-06,-7.500000e-03
-4.456201e-06,-1.000000e-02
-4.448201e-06,-2.000000e-02
-4.440201e-06,1.250000e-03
-4.432201e-06,-2.000000e-02
-4.424201e-06,2.250000e-02
-4.416201e-06,-1.875000e-02
-4.408201e-06,1.500000e-02
-4.400201e-06,-1.000000e-02
-4.392201e-06,1.750000e-02
-4.384201e-06,-2.250000e-02
-4.376201e-06,1.500000e-02
-4.368201e-06,-2.375000e-02
-4.360201e-06,1.750000e-02
-4.352201e-06,-7.500000e-03
-4.344201e-06,1.250000e-02
-4.336201e-06,-1.250000e-03
-4.328201e-06,0.000000e+00
-4.320201e-06,-3.750000e-03
-4.312201e-06,-2.500000e-03
-4.304201e-06,-1.875000e-02
-4.296201e-06,3.750000e-03
-4.288201e-06,0.000000e+00
-4.280201e-06,1.000000e-02
-4.272201e-06,0.000000e+00
-4.264201e-06,1.000000e-02
-4.256201e-06,-2.500000e-02
-4.248201e-06,8.750000e-03
-4.240201e-06,-3.125000e-02
-4.232201e-06,1.500000e-02
-4.224201e-06,-1.875000e-02
-4.216201e-06,1.625000e-02
-4.208201e-06,-1.625000e-02
-4.200201e-06,-1.250000e-03
-4.192201e-06,-2.500000e-03
-4.184201e-06,2.000000e-02
-4.176201e-06,-8.750000e-03
-4.168201e-06,2.375000e-02
-4.160201e-06,-1.250000e-02
-4.152201e-06,1.500000e-02
-4.144201e-06,-2.625000e-02
-4.136201e-06,2.375000e-02
-4.128201e-06,-6.250000e-03
-4.120201e-06,1.625000e-02
-4.112201e-06,-3.625000e-02
-4.104201e-06,1.375000e-02
-4.096201e-06,-2.125000e-02
-4.088201e-06,3.875000e-02
-4.080201e-06,3.750000e-03
-4.072201e-06,3.750000e-03
-4.064201e-06,-3.125000e-02
-4.056201e-06,-1.125000e-02
-4.048201e-06,-3.875000e-02
-4.040201e-06,1.250000e-03
-4.032201e-06,3.750000e-03
-4.024201e-06,-3.750000e-03
-4.016201e-06,1.000000e-02
-4.008201e-06,1.500000e-02
-4.000201e-06,-1.875000e-02
-3.992201e-06,6.250000e-03
-3.984201e-06,-1.500000e-02
-3.976201e-06,1.625000e-02
-3.968201e-06,-1.500000e-02
-3.960201e-06,1.875000e-02
-3.952201e-06,-1.250000e-02
-3.944201e-06,-6.250000e-03
-3.936201e-06,-1.500000e-02
-3.928201e-06,1.625000e-02
-3.920201e-06,-2.750000e-02
-3.912201e-06,2.000000e-02
-3.904201e-06,0.000000e+00
-3.896201e-06,1.625000e-02
-3.888201e-06,-1.125000e-02
-3.880201e-06,1.375000e-02
-3.872201e-06,-2.500000e-02
-3.864201e-06,2.500000e-03
-3.856201e-06,-2.000000e-02
-3.848201e-06,3.250000e-02
-3.840201e-06,-1.500000e-02
-3.832201e-06,1.875000e-02
-3.824201e-06,-1.000000e-02
-3.816201e-06,1.375000e-02
-3.808201e-06,-1.375000e-02
-3.800201e-06,2.250000e-02
-3.792201e-06,-1.750000e-02
-3.784201e-06,-1.250000e-02
-3.776201e-06,-1.375000e-02
-3.768201e-06,1.375000e-02
-3.760201e-06,0.000000e+00
-3.752201e-06,1.125000e-02
-3.744201e-06,-7.500000e-03
-3.736201e-06,1.875000e-02
-3.728201e-06,-1.500000e-02
-3.720201e-06,0.000000e+00
-3.712201e-06,-3.000000e-02
-3.704201e-06,1.125000e-02
-3.696201e-06,-1.625000e-02
-3.688201e-06,7.500000e-03
-3.680201e-06,-3.000000e-02
-3.672201e-06,2.500000e-02
-3.664201e-06,-2.750000e-02
-3.656201e-06,1.000000e-02
-3.648201e-06,1.375000e-02
-3.640201e-06,1.000000e-02
-3.632201e-06,-2.500000e-03
-3.624201e-06,2.500000e-03
-3.616201e-06,-2.375000e-02
-3.608201e-06,2.500000e-02
-3.600201e-06,-3.250000e-02
-3.592201e-06,6.250000e-03
-3.584201e-06,-2.625000e-02
-3.576201e-06,1.875000e-02
-3.568201e-06,-2.500000e-03
-3.560201e-06,7.500000e-03
-3.552201e-06,-1.875000e-02
-3.544201e-06,6.250000e-03
-3.536201e-06,-3.000000e-02
-3.528201e-06,0.000000e+00
-3.520201e-06,-5.000000e-03
-3.512201e-06,1.250000e-02
-3.504201e-06,-1.000000e-02
-3.496201e-06,2.250000e-02
-3.488201e-06,0.000000e+00
-3.480201e-06,3.750000e-03
-3.472201e-06,-2.250000e-02
-3.464201e-06,1.500000e-02
-3.456201e-06,-2.125000e-02
-3.448201e-06,4.000000e-02
-3.440201e-06,-1.375000e-02
-3.432201e-06,1.375000e-02
-3.424201e-06,-1.125000e-02
-3.416201e-06,2.625000e-02
-3.408201e-06,-1.375000e-02
-3.400201e-06,1.500000e-02
-3.392201e-06,1.000000e-02
-3.384201e-06,1.500000e-02
-3.376201e-06,-1.750000e-02
-3.368201e-06,1.500000e-02
-3.360201e-06,-3.375000e-02
-3.352201e-06,2.250000e-02
-3.344201e-06,-1.625000e-02
-3.336201e-06,6.250000e-03
-3.328201e-06,-3.625000e-02
-3.320201e-06,3.375000e-02
-3.312201e-06,-1.875000e-02
-3.304201e-06,2.000000e-02
-3.296201e-06,-1.500000e-02
-3.288201e-06,-2.500000e-03
-3.280201e-06,-2.250000e-02
-3.272201e-06,5.000000e-03
-3.264201e-06,5.000000e-03
-3.256201e-06,4.375000e-02
-3.248201e-06,-6.250000e-03
-3.240201e-06,2.375000e-02
-3.232201e-06,-3.375000e-02
-3.224201e-06,5.000000e-03
-3.216201e-06,-1.625000e-02
-3.208201e-06,3.125000e-02
-3.200201e-06,-1.625000e-02
-3.192201e-06,7.500000e-03
-3.184201e-06,3.750000e-03
-3.176201e-06,2.125000e-02
-3.168201e-06,2.500000e-03
-3.160201e-06,-1.250000e-03
-3.152201e-06,-1.250000e-02
-3.144201e-06,2.000000e-02
-3.136201e-06,-1.000000e-02
-3.128201e-06,1.125000e-02
-3.120201e-06,-1.250000e-03
-3.112201e-06,-7.500000e-03
-3.104201e-06,-3.375000e-02
-3.096201e-06,1.625000e-02
-3.088201e-06,-1.250000e-02
-3.080201e-06,2.000000e-02
-3.072201e-06,1.250000e-03
-3.064201e-06,3.625000e-02
-3.056201e-06,8.750000e-03
-3.048201e-06,-1.000000e-02
-3.040201e-06,0.000000e+00
-3.032201e-06,-1.250000e-03
-3.024201e-06,-2.750000e-02
-3.016201e-06,5.000000e-03
-3.008201e-06,1.250000e-02
-3.000201e-06,1.000000e-02
-2.992201e-06,-1.000000e-02
-2.984201e-06,6.250000e-03
-2.976201e-06,-1.500000e-02
-2.968201e-06,1.125000e-02
-2.960201e-06,-2.250000e-02
-2.952201e-06,2.500000e-03
-2.944201e-06,-1.500000e-02
-2.936201e-06,2.500000e-03
-2.928201e-06,7.500000e-03
-2.920201e-06,-1.000000e-02
-2.912201e-06,-1.375000e-02
-2.904201e-06,1.750000e-02
-2.896201e-06,-1.500000e-02
-2.888201e-06,7.500000e-03
-2.880201e-06,-3.750000e-03
-2.872201e-06,8.750000e-03
-2.864201e-06,8.750000e-03
-2.856201e-06,1.000000e-02
-2.848201e-06,-3.125000e-02
-2.840201e-06,-1.250000e-03
-2.832201e-06,-3.875000e-02
-2.824201e-06,1.625000e-02
-2.816201e-06,-3.250000e-02
-2.808201e-06,2.750000e-02
-2.800201e-06,-7.500000e-03
-2.792201e-06,2.625000e-02
-2.784201e-06,-3.500000e-02
-2.776201e-06,2.125000e-02
-2.768201e-06,-1.000000e-02
-2.760201e-06,1.375000e-02
-2.752201e-06,-6.250000e-03
-2.744201e-06,1.250000e-03
-2.736201e-06,-5.000000e-03
-2.728201e-06,-1.375000e-02
-2.720201e-06,-2.000000e-02
-2.712201e-06,6.250000e-03
-2.704201e-06,-1.625000e-02
-2.696201e-06,1.250000e-03
-2.688201e-06,-2.750000e-02
-2.680201e-06,1.250000e-03
-2.672201e-06,-1.375000e-02
-2.664201e-06,1.250000e-02
-2.656201e-06,0.000000e+00
-2.648201e-06,1.250000e-02
-2.640201e-06,-6.250000e-03
-2.632201e-06,1.750000e-02
-2.624201e-06,0.000000e+00
-2.616201e-06,4.875000e-02
-2.608201e-06,-3.750000e-03
-2.600201e-06,-3.750000e-03
-2.592201e-06,-6.250000e-03
-2.584201e-06,1.625000e-02
-2.576201e-06,-2.750000e-02
-2.568201e-06,2.875000e-02
-2.560201e-06,-2.500000e-02
-2.552201e-06,3.750000e-02
-2.544201e-06,-1.000000e-02
-2.536201e-06,-1.250000e-02
-2.528201e-06,-3.250000e-02
-2.520201e-06,2.000000e-02
-2.512201e-06,-3.750000e-03
-2.504201e-06,3.250000e-02
-2.496201e-06,-6.250000e-03
-2.488201e-06,7.500000e-03
-2.480201e-06,-1.375000e-02
-2.472201e-06,-3.750000e-03
-2.464201e-06,3.750000e-03
-2.456201e-06,3.500000e-02
-2.448201e-06,-6.250000e-02
-2.440201e-06,-1.500000e-02
-2.432201e-06,-3.125000e-02
-2.424201e-06,1.000000e-02
-2.416201e-06,-1.000000e-02
-2.408201e-06,7.500000e-03
-2.400201e-06,1.250000e-03
-2.392201e-06,1.750000e-02
-2.384201e-06,-2.500000e-02
-2.376201e-06,7.500000e-03
-2.368201e-06,5.000000e-03
-2.360201e-06,6.250000e-03
-2.352201e-06,2.500000e-03
-2.344201e-06,2.250000e-02
-2.336201e-06,-1.125000e-02
-2.328201e-06,1.000000e-02
-2.320201e-06,-1.500000e-02
-2.312201e-06,2.500000e-02
-2.304201e-06,-2.125000e-02
-2.296201e-06,3.500000e-02
-2.288201e-06,-1.750000e-02
-2.280201e-06,2.875000e-02
-2.272201e-06,-2.625000e-02
-2.264201e-06,1.000000e-02
-2.256201e-06,-1.875000e-02
-2.248201e-06,8.750000e-03
-2.240201e-06,-1.375000e-02
-2.232201e-06,2.500000e-03
-2.224201e-06,2.500000e-03
-2.216201e-06,3.250000e-02
-2.208201e-06,-1.250000e-03
-2.200201e-06,-6.250000e-03
-2.192201e-06,-2.125000e-02
-2.184201e-06,7.500000e-03
-2.176201e-06,1.375000e-02
-2.168201e-06,3.000000e-02
-2.160201e-06,1.375000e-02
-2.152201e-06,-1.000000e-02
-2.144201e-06,1.250000e-03
-2.136201e-06,1.625000e-02
-2.128201e-06,-2.625000e-02
-2.120201e-06,1.250000e-02
-2.112201e-06,-2.250000e-02
-2.104201e-06,2.125000e-02
-2.096201e-06,2.500000e-03
-2.088201e-06,2.375000e-02
-2.080201e-06,-1.250000e-02
-2.072201e-06,3.375000e-02
-2.064201e-06,-1.625000e-02
-2.056201e-06,3.750000e-03
-2.048201e-06,-1.500000e-02
-2.040201e-06,1.375000e-02
-2.032201e-06,-3.625000e-02
-2.024201e-06,-1.250000e-03
-2.016201e-06,5.000000e-03
-2.008201e-06,2.250000e-02
-2.000201e-06,-8.750000e-03
-1.992201e-06,1.000000e-02
-1.984201e-06,-1.500000e-02
-1.976201e-06,2.875000e-02
-1.968201e-06,-2.250000e-02
-1.960201e-06,2.875000e-02
-1.952201e-06,-6.250000e-03
-1.944201e-06,1.875000e-02
-1.936201e-06,-3.375000e-02
-1.928201e-06,6.250000e-03
-1.920201e-06,-2.875000e-02
-1.912201e-06,3.125000e-02
-1.904201e-06,0.000000e+00
-1.896201e-06,1.125000e-02
-1.888201e-06,-5.000000e-03
-1.880201e-06,7.500000e-03
-1.872201e-06,-1.500000e-02
-1.864201e-06,1.750000e-02
-1.856201e-06,-1.250000e-03
-1.848201e-06,2.500000e-03
-1.840201e-06,-1.750000e-02
-1.832201e-06,8.750000e-03
-1.824201e-06,-7.500000e-03
-1.816201e-06,1.500000e-02
-1.808201e-06,-2.750000e-02
-1.800201e-06,1.125000e-02
-1.792201e-06,-4.750000e-02
-1.784201e-06,4.000000e-02
-1.776201e-06,-3.750000e-03
-1.768201e-06,8.750000e-03
-1.760201e-06,-7.500000e-03
-1.752201e-06,2.500000e-03
-1.744201e-06,-2.750000e-02
-1.736201e-06,1.000000e-02
-1.728201e-06,5.000000e-03
-1.720201e-06,1.250000e-03
-1.712201e-06,0.000000e+00
-1.704201e-06,8.750000e-03
-1.696201e-06,-3.375000e-02
-1.688201e-06,-2.500000e-03
-1.680201e-06,-1.000000e-02
-1.672201e-06,5.000000e-03
-1.664201e-06,-1.750000e-02
-1.656201e-06,7.500000e-03
-1.648201e-06,-1.875000e-02
-1.640201e-06,-1.000000e-02
-1.632201e-06,5.000000e-03
-1.624201e-06,3.000000e-02
-1.616201e-06,5.000000e-03
-1.608201e-06,1.000000e-02
-1.600201e-06,-1.250000e-02
-1.592201e-06,7.500000e-03
-1.584201e-06,5.000000e-03
-1.576201e-06,2.875000e-02
-1.568201e-06,-2.250000e-02
-1.560201e-06,1.625000e-02
-1.552201e-06,-3.625000e-02
-1.544201e-06,-1.250000e-03
-1.536201e-06,-1.000000e-02
-1.528201e-06,-1.250000e-02
-1.520201e-06,-7.500000e-03
-1.512201e-06,1.750000e-02
-1.504201e-06,-1.375000e-02
-1.496201e-06,1.375000e-02
-1.488201e-06,-2.625000e-02
-1.480201e-06,6.250000e-03
-1.472201e-06,1.875000e-02
-1.464201e-06,1.875000e-02
-1.456201e-06,-1.500000e-02
-1.448201e-06,2.500000e-02
-1.440201e-06,-8.750000e-03
-1.432201e-06,1.250000e-03
-1.424201e-06,-3.500000e-02
-1.416201e-06,2.375000e-02
-1.408201e-06,-1.375000e-02
-1.400201e-06,2.500000e-02
-1.392201e-06,-3.750000e-03
-1.384201e-06,7.500000e-03
-1.376201e-06,-4.125000e-02
-1.368201e-06,5.000000e-03
-1.360201e-06,-1.750000e-02
-1.352201e-06,3.500000e-02
-1.344201e-06,1.250000e-02
-1.336201e-06,3.375000e-02
-1.328201e-06,-1.625000e-02
-1.320201e-06,1.250000e-02
-1.312201e-06,-1.000000e-02
-1.304201e-06,-1.375000e-02
-1.296201e-06,-1.375000e-02
-1.288201e-06,7.500000e-03
-1.280201e-06,-3.750000e-03
-1.272201e-06,8.750000e-03
-1.264201e-06,-3.000000e-02
-1.256201e-06,-7.500000e-03
-1.248201e-06,-1.750000e-02
-1.240201e-06,-8.750000e-03
-1.232201e-06,-1.375000e-02
-1.224201e-06,2.750000e-02
-1.216201e-06,7.500000e-03
-1.208201e-06,8.750000e-03
-1.200201e-06,-3.125000e-02
-1.192201e-06,2.125000e-02
-1.184201e-06,-2.500000e-03
-1.176201e-06,1.500000e-02
-1.168201e-06,-3.500000e-02
-1.160201e-06,-1.250000e-02
-1.152201e-06,-3.750000e-03
-1.144201e-06,8.750000e-03
-1.136201e-06,-1.500000e-02
-1.128201e-06,3.750000e-03
-1.120201e-06,1.125000e-02
-1.112201e-06,1.250000e-02
-1.104201e-06,-2.000000e-02
-1.096201e-06,1.375000e-02
-1.088201e-06,-2.000000e-02
-1.080201e-06,3.625000e-02
-1.072201e-06,-1.875000e-02
-1.064201e-06,2.000000e-02
-1.056201e-06,-1.500000e-02
-1.048201e-06,2.500000e-03
-1.040201e-06,-2.000000e-02
-1.032201e-06,2.250000e-02
-1.024201e-06,-1.125000e-02
-1.016201e-06,2.250000e-02
-1.008201e-06,-1.750000e-02
-1.000201e-06,3.750000e-03
-9.922013e-07,-3.750000e-03
-9.842013e-07,-1.375000e-02
-9.762013e-07,-2.750000e-02
-9.682013e-07,1.500000e-02
-9.602013e-07,-1.250000e-02
-9.522013e-07,2.500000e-02
-9.442013e-07,-1.125000e-02
-9.362013e-07,2.500000e-02
-9.282013e-07,1.000000e-02
-9.202013e-07,7.500000e-03
-9.122013e-07,-4.125000e-02
-9.042013e-07,2.750000e-02
-8.962013e-07,-2.875000e-02
-8.882013e-07,2.625000e-02
-8.802013e-07,-1.875000e-02
-8.722013e-07,1.000000e-02
-8.642013e-07,1.250000e-03
-8.562013e-07,2.375000e-02
-8.482013e-07,-3.125000e-02
-8.402013e-07,-8.750000e-03
-8.322013e-07,-1.125000e-02
-8.242013e-07,2.250000e-02
-8.162013e-07,-7.500000e-03
-8.082013e-07,1.250000e-02
-8.002013e-07,-1.750000e-02
-7.922013e-07,-1.500000e-02
-7.842013e-07,-3.250000e-02
-7.762013e-07,2.750000e-02
-7.682013e-07,-3.625000e-02
-7.602013e-07,3.500000e-02
-7.522013e-07,-2.000000e-02
-7.442013e-07,1.875000e-02
-7.362013e-07,-2.000000e-02
-7.282013e-07,0.000000e+00
-7.202013e-07,-1.000000e-02
-7.122013e-07,6.250000e-03
-7.042013e-07,-1.250000e-02
-6.962013e-07,2.375000e-02
-6.882013e-07,8.750000e-03
-6.802013e-07,1.125000e-02
-6.722013e-07,-7.500000e-03
-6.642013e-07,1.750000e-02
-6.562013e-07,-1.875000e-02
-6.482013e-07,0.000000e+00
-6.402013e-07,-1.250000e-02
-6.322013e-07,1.625000e-02
-6.242013e-07,-2.500000e-03
-6.162013e-07,1.375000e-02
-6.082013e-07,-2.500000e-03
-6.002013e-07,2.250000e-02
-5.922013e-07,-2.250000e-02
-5.842013e-07,1.875000e-02
-5.762013e-07,7.500000e-03
-5.682013e-07,1.750000e-02
-5.602013e-07,-1.625000e-02
-5.522013e-07,1.125000e-02
-5.442013e-07,-3.375000e-02
-5.362013e-07,-2.000000e-02
-5.282013e-07,-1.500000e-02
-5.202013e-07,1.000000e-02
-5.122013e-07,-1.500000e-02
-5.042013e-07,2.750000e-02
-4.962013e-07,-2.125000e-02
-4.882013e-07,3.750000e-03
-4.802013e-07,-2.125000e-02
-4.722013e-07,1.750000e-02
-4.642013e-07,-7.500000e-03
-4.562013e-07,2.000000e-02
-4.482013e-07,-1.750000e-02
-4.402013e-07,2.000000e-02
-4.322013e-07,1.875000e-02
-4.242013e-07,0.000000e+00
-4.162013e-07,-3.125000e-02
-4.082013e-07,1.250000e-03
-4.002013e-07,-2.375000e-02
-3.922013e-07,-2.500000e-03
-3.842013e-07,-3.250000e-02
-3.762013e-07,2.750000e-02
-3.682013e-07,-3.500000e-02
-3.602013e-07,-1.250000e-03
-3.522013e-07,-7.500000e-03
-3.442013e-07,7.500000e-03
-3.362013e-07,-2.500000e-02
-3.282013e-07,1.250000e-02
-3.202013e-07,1.250000e-03
-3.122013e-07,8.750000e-03
-3.042013e-07,-1.000000e-02
-2.962013e-07,1.875000e-02
-2.882013e-07,-3.000000e-02
-2.802013e-07,2.500000e-02
-2.722013e-07,-1.250000e-02
-2.642013e-07,1.375000e-02
-2.562013e-07,-1.375000e-02
-2.482013e-07,1.875000e-02
-2.402013e-07,-8.750000e-03
-2.322013e-07,1.000000e-02
-2.242013e-07,-2.125000e-02
-2.162013e-07,3.750000e-03
-2.082013e-07,-1.500000e-02
-2.002013e-07,8.750000e-03
-1.922013e-07,-2.500000e-03
-1.842013e-07,1.250000e-02
-1.762013e-07,6.250000e-03
-1.682013e-07,3.000000e-02
-1.602013e-07,-3.875000e-02
-1.522013e-07,2.250000e-02
-1.442013e-07,-1.625000e-02
-1.362013e-07,2.500000e-02
-1.282013e-07,-3.000000e-02
-1.202013e-07,1.625000e-02
-1.122013e-07,-2.750000e-02
-1.042013e-07,0.000000e+00
-9.620125e-08,-2.000000e-02
-8.820125e-08,-7.500000e-03
-8.020125e-08,-1.375000e-02
-7.220125e-08,-1.250000e-03
-6.420125e-08,8.750000e-03
-5.620125e-08,1.500000e-02
-4.820125e-08,-2.250000e-02
-4.020125e-08,3.750000e-03
-3.220125e-08,2.500000e-03
-2.420125e-08,1.250000e-02
-1.620125e-08,-1.875000e-02
-8.201250e-09,8.750000e-03
-2.012500e-10,-1.625000e-01
7.798750e-09,-1.388750e+00
1.579875e-08,-1.398750e+00
2.379875e-08,-1.395000e+00
3.179875e-08,-1.037500e-01
3.979875e-08,1.250000e-02
4.779875e-08,5.000000e-03
5.579875e-08,2.375000e-02
6.379875e-08,1.375000e-02
7.179875e-08,8.750000e-03
7.979875e-08,-1.125000e-02
8.779875e-08,-7.500000e-03
9.579875e-08,-3.500000e-02
1.037987e-07,2.750000e-02
1.117987e-07,-3.500000e-02
1.197987e-07,5.000000e-03
1.277987e-07,-2.000000e-02
1.357987e-07,1.500000e-02
1.437987e-07,-5.000000e-03
1.517987e-07,-8.750000e-03
1.597987e-07,-3.375000e-02
1.677987e-07,6.250000e-03
1.757987e-07,-1.375000e-02
1.837987e-07,1.000000e-02
1.917987e-07,1.375000e-02
1.997987e-07,1.000000e-02
2.077987e-07,-5.000000e-03
2.157987e-07,3.750000e-03
2.237987e-07,-1.375000e-02
2.317987e-07,3.000000e-02
2.397987e-07,-1.750000e-02
2.477987e-07,3.875000e-02
2.557987e-07,-2.500000e-03
2.637987e-07,3.375000e-02
2.717987e-07,-1.625000e-02
2.797987e-07,6.250000e-03
2.877987e-07,-1.625000e-02
2.957987e-07,1.750000e-02
3.037987e-07,-2.000000e-02
3.117987e-07,2.500000e-03
3.197987e-07,-2.500000e-03
3.277987e-07,2.125000e-02
3.357987e-07,-7.500000e-03
3.437987e-07,1.250000e-02
3.517987e-07,-1.375000e-02
3.597987e-07,2.250000e-02
3.677987e-07,-1.250000e-03
3.757987e-07,2.625000e-02
3.837987e-07,-2.375000e-02
3.917987e-07,3.500000e-02
3.997987e-07,0.000000e+00
4.077987e-07,1.000000e-02
4.157987e-07,-1.000000e-02
4.237987e-07,2.875000e-02
4.317987e-07,-1.375000e-02
4.397987e-07,1.500000e-02
4.477987e-07,-7.500000e-03
4.557987e-07,1.250000e-02
4.637987e-07,-5.000000e-03
4.717987e-07,6.250000e-03
4.797987e-07,-2.375000e-02
4.877987e-07,2.875000e-02
4.957987e-07,-1.625000e-02
5.037987e-07,1.750000e-02
5.117987e-07,-1.375000e-02
5.197988e-07,1.000000e-02
5.277987e-07,-3.500000e-02
5.357987e-07,3.000000e-02
5.437988e-07,2.500000e-03
5.517987e-07,6.250000e-03
5.597987e-07,-3.000000e-02
5.677988e-07,2.375000e-02
5.757987e-07,-2.500000e-03
5.837987e-07,1.750000e-02
5.917988e-07,-3.750000e-03
5.997987e-07,1.875000e-02
6.077987e-07,-1.125000e-02
6.157988e-07,1.750000e-02
6.237987e-07,5.000000e-03
6.317987e-07,7.500000e-03
6.397988e-07,-2.250000e-02
6.477987e-07,7.500000e-03
6.557987e-07,-1.500000e-02
6.637988e-07,8.750000e-03
6.717987e-07,0.000000e+00
6.797987e-07,1.750000e-02
6.877987e-07,-2.375000e-02
6.957987e-07,8.750000e-03
7.037987e-07,7.500000e-03
7.117987e-07,3.375000e-02
7.197987e-07,-5.000000e-03
7.277987e-07,-3.750000e-03
7.357987e-07,-1.500000e-02
7.437987e-07,6.250000e-03
7.517987e-07,-1.750000e-02
7.597987e-07,3.250000e-02
7.677987e-07,-6.250000e-03
7.757987e-07,2.000000e-02
7.837987e-07,-2.125000e-02
7.917988e-07,1.875000e-02
7.997987e-07,-2.250000e-02
8.077987e-07,2.500000e-03
