run1/run1_ch1_20210318180332819.csv

Model,MSO64
Waveform Type,ANALOG
Horizontal Units,s
Sample Interval,8.000000e-09
Record Length,1250
Zero Index,624.135156
Vertical Units,V

TIME,CH1
-4.993081e-06,-1.625000e-02
-4.985081e-06,8.750000e-03
-4.977081e-06,1.375000e-02
-4.969081e-06,3.250000e-02
-4.961081e-06,-2.250000e-02
-4.953081e-06,1.625000e-02
-4.945081e-06,-1.250000e-02
-4.937081e-06,3.500000e-02
-4.929081e-06,-2.625000e-02
-4.921081e-06,3.000000e-02
-4.913081e-06,5.000000e-03
-4.905081e-06,1.625000e-02
-4.897081e-06,1.625000e-02
-4.889081e-06,7.500000e-03
-4.881081e-06,-2.125000e-02
-4.873081e-06,2.375000e-02
-4.865081e-06,-3.375000e-02
-4.857081e-06,5.000000e-03
-4.849081e-06,-5.000000e-03
-4.841081e-06,2.625000e-02
-4.833081e-06,-2.500000e-03
-4.825081e-06,2.375000e-02
-4.817081e-06,-3.125000e-02
-4.809081e-06,1.000000e-02
-4.801081e-06,-3.125000e-02
-4.793081e-06,1.375000e-02
-4.785081e-06,1.250000e-03
-4.777081e-06,1.375000e-02
-4.769081e-06,-5.000000e-03
-4.761081e-06,-1.250000e-03
-4.753081e-06,-2.250000e-02
-4.745081e-06,1.125000e-02
-4.737081e-06,-1.750000e-02
-4.729081e-06,3.000000e-02
-4.721081e-06,-2.125000e-02
-4.713081e-06,3.750000e-03
-4.705081e-06,-2.750000e-02
-4.697081e-06,1.250000e-03
-4.689081e-06,-2.125000e-02
-4.681081e-06,-7.500000e-03
-4.673081e-06,-2.500000e-02
-4.665081e-06,3.750000e-03
-4.657081e-06,2.125000e-02
-4.649081e-06,2.625000e-02
-4.641081e-06,-1.375000e-02
-4.633081e-06,2.625000e-02
-4.625081e-06,-7.500000e-03
-4.617081e-06,1.625000e-02
-4.609081e-06,-6.250000e-03
-4.601081e-06,1.375000e-02
-4.593081e-06,-1.875000e-02
-4.585081e-06,2.375000e-02
-4.577081e-06,-1.500000e-02
-4.569081e-06,2.500000e-02
-4.561081e-06,-1.000000e-02
-4.553081e-06,2.125000e-02
-4.545081e-06,-2.500000e-02
-4.537081e-06,1.250000e-02
-4.529081e-06,-1.250000e-02
-4.521081e-06,1.625000e-02
-4.513081e-06,-1.500000e-02
-4.505081e-06,2.125000e-02
-4.497081e-06,-2.250000e-02
-4.489081e-06,7.500000e-03
-4.481081e-06,-2.625000e-02
-4.473081e-06,2.500000e-02
-4.465081e-06,-1.750000e-02
-4.457081e-06,2.625000e-02
-4.449081e-06,1.250000e-02
-4.441081e-06,1.500000e-02
-4.433081e-06,-6.250000e-03
-4.425081e-06,5.000000e-03
-4.417081e-06,-1.250000e-02
-4.409081e-06,4.250000e-02
-4.401081e-06,-2.500000e-02
-4.393081e-06,0.000000e+00
-4.385081e-06,-1.125000e-02
-4.377081e-06,1.250000e-02
-4.369081e-06,-1.750000e-02
-4.361081e-06,1.625000e-02
-4.353081e-06,-1.625000e-02
-4.345081e-06,3.750000e-03
-4.337081e-06,-1.125000e-02
-4.329081e-06,3.625000e-02
-4.321081e-06,1.250000e-03
-4.313081e-06,3.125000e-02
-4.305081e-06,7.500000e-03
-4.297081e-06,1.750000e-02
-4.289081e-06,5.000000e-03
-4.281081e-06,7.500000e-03
-4.273081e-06,3.750000e-03
-4.265081e-06,1.125000e-02
-4.257081e-06,5.000000e-03
-4.249081e-06,1.125000e-02
-4.241081e-06,-1.250000e-03
-4.233081e-06,3.000000e-02
-4.225081e-06,-3.250000e-02
-4.217081e-06,2.125000e-02
-4.209081e-06,-2.500000e-02
-4.201081e-06,2.375000e-02
-4.193081e-06,-1.375000e-02
-4.185081e-06,2.500000e-02
-4.177081e-06,2.500000e-03
-4.169081e-06,3.125000e-02
-4.161081e-06,2.500000e-03
-4.153081e-06,2.625000e-02
-4.145081e-06,-5.000000e-03
-4.137081e-06,1.125000e-02
-4.129081e-06,1.250000e-02
-4.121081e-06,1.000000e-02
-4.113081e-06,-1.000000e-02
-4.105081e-06,8.750000e-03
-4.097081e-06,-3.125000e-02
-4.089081e-06,8.750000e-03
-4.081081e-06,-1.250000e-02
-4.073081e-06,1.625000e-02
-4.065081e-06,5.000000e-03
-4.057081e-06,2.125000e-02
-4.049081e-06,6.250000e-03
-4.041081e-06,8.750000e-03
-4.033081e-06,6.250000e-03
-4.025081e-06,3.750000e-03
-4.017081e-06,-5.000000e-03
-4.009081e-06,3.000000e-02
-4.001081e-06,-1.125000e-02
-3.993081e-06,8.750000e-03
-3.985081e-06,-2.250000e-02
-3.977081e-06,2.500000e-03
-3.969081e-06,-3.125000e-02
-3.961081e-06,7.500000e-03
-3.953081e-06,-3.125000e-02
-3.945081e-06,1.500000e-02
-3.937081e-06,1.625000e-02
-3.929081e-06,8.750000e-03
-3.921081e-06,-2.750000e-02
-3.913081e-06,6.250000e-03
-3.905081e-06,-1.125000e-02
-3.897081e-06,1.750000e-02
-3.889081e-06,1.250000e-02
-3.881081e-06,0.000000e+00
-3.873081e-06,-8.750000e-03
-3.865081e-06,1.500000e-02
-3.857081e-06,-5.000000e-03
-3.849081e-06,2.125000e-02
-3.841081e-06,-1.375000e-02
-3.833081e-06,-5.000000e-03
-3.825081e-06,-1.750000e-02
-3.817081e-06,2.375000e-02
-3.809081e-06,-1.250000e-02
-3.801081e-06,-3.750000e-03
-3.793081e-06,-1.750000e-02
-3.785081e-06,1.125000e-02
-3.777081e-06,-4.000000e-02
-3.769081e-06,1.000000e-02
-3.761081e-06,-1.250000e-02
-3.753081e-06,4.125000e-02
-3.745081e-06,2.500000e-03
-3.737081e-06,1.125000e-02
-3.729081e-06,-6.250000e-03
-3.721081e-06,2.500000e-02
-3.713081e-06,-1.500000e-02
-3.705081e-06,-1.500000e-02
-3.697081e-06,-1.625000e-02
-3.689081e-06,2.250000e-02
-3.681081e-06,8.750000e-03
-3.673081e-06,-7.500000e-03
-3.665081e-06,-1.750000e-02
-3.657081e-06,3.750000e-03
-3.649081e-06,-1.875000e-02
-3.641081e-06,1.250000e-03
-3.633081e-06,-1.000000e-02
-3.625081e-06,6.250000e-03
-3.617081e-06,-2.500000e-03
-3.609081e-06,2.875000e-02
-3.601081e-06,-6.250000e-03
-3.593081e-06,1.250000e-02
-3.585081e-06,-2.250000e-02
-3.577081e-06,1.500000e-02
-3.569081e-06,-1.250000e-02
-3.561081e-06,1.875000e-02
-3.553081e-06,-1.500000e-02
-3.545081e-06,1.875000e-02
-3.537081e-06,-8.750000e-03
-3.529081e-06,-8.750000e-03
-3.521081e-06,-2.625000e-02
-3.513081e-06,-1.250000e-03
-3.505081e-06,5.000000e-03
-3.497081e-06,1.375000e-02
-3.489081e-06,2.500000e-03
-3.481081e-06,2.500000e-03
-3.473081e-06,0.000000e+00
-3.465081e-06,2.375000e-02
-3.457081e-06,-1.125000e-02
-3.449081e-06,3.000000e-02
-3.441081e-06,-1.750000e-02
-3.433081e-06,7.500000e-03
-3.425081e-06,3.750000e-03
-3.417081e-06,1.875000e-02
-3.409081e-06,-3.875000e-02
-3.401081e-06,1.000000e-02
-3.393081e-06,-1.875000e-02
-3.385081e-06,1.250000e-02
-3.377081e-06,-1.500000e-02
-3.369081e-06,2.500000e-03
-3.361081e-06,0.000000e+00
-3.353081e-06,1.250000e-02
-3.345081e-06,-2.625000e-02
-3.337081e-06,2.625000e-02
-3.329081e-06,-1.000000e-02
-3.321081e-06,1.375000e-02
-3.313081e-06,-1.250000e-02
-3.305081e-06,1.125000e-02
-3.297081e-06,-1.000000e-02
-3.289081e-06,-7.500000e-03
-3.281081e-06,-5.000000e-03
-3.273081e-06,7.500000e-03
-3.265081e-06,-1.875000e-02
-3.257081e-06,-3.750000e-03
-3.249081e-06,-2.500000e-02
-3.241081e-06,5.000000e-03
-3.233081e-06,5.000000e-03
-3.225081e-06,1.750000e-02
-3.217081e-06,-2.250000e-02
-3.209081e-06,1.250000e-02
-3.201081e-06,-3.250000e-02
-3.193081e-06,1.125000e-02
-3.185081e-06,-2.500000e-02
-3.177081e-06,1.250000e-02
-3.169081e-06,-1.625000e-02
-3.161081e-06,2.625000e-02
-3.153081e-06,-2.750000e-02
-3.145081e-06,2.875000e-02
-3.137081e-06,-1.250000e-03
-3.129081e-06,3.125000e-02
-3.121081e-06,1.375000e-02
-3.113081e-06,2.500000e-03
-3.105081e-06,1.000000e-02
-3.097081e-06,2.375000e-02
-3.089081e-06,-8.750000e-03
-3.081081e-06,-3.750000e-03
-3.073081e-06,-1.500000e-02
-3.065081e-06,1.375000e-02
-3.057081e-06,-1.125000e-02
-3.049081e-06,1.625000e-02
-3.041081e-06,-2.875000e-02
-3.033081e-06,-1.250000e-03
-3.025081e-06,-1.000000e-02
-3.017081e-06,2.000000e-02
-3.009081e-06,-2.375000e-02
-3.001081e-06,2.375000e-02
-2.993081e-06,-2.000000e-02
-2.985081e-06,2.000000e-02
-2.977081e-06,-1.125000e-02
-2.969081e-06,2.750000e-02
-2.961081e-06,-1.375000e-02
-2.953081e-06,8.750000e-03
-2.945081e-06,-3.375000e-02
-2.937081e-06,0.000000e+00
-2.929081e-06,-2.875000e-02
-2.921081e-06,2.625000e-02
-2.913081e-06,-1.000000e-02
-2.905081e-06,-5.000000e-03
-2.897081e-06,-7.500000e-03
-2.889081e-06,1.125000e-02
-2.881081e-06,-8.750000e-03
-2.873081e-06,1.500000e-02
-2.865081e-06,-7.500000e-03
-2.857081e-06,-2.500000e-03
-2.849081e-06,-6.250000e-03
-2.841081e-06,1.125000e-02
-2.833081e-06,-2.500000e-02
-2.825081e-06,-2.500000e-03
-2.817081e-06,-1.750000e-02
-2.809081e-06,2.500000e-03
-2.801081e-06,-1.875000e-02
-2.793081e-06,2.000000e-02
-2.785081e-06,-2.125000e-02
-2.777081e-06,2.500000e-02
-2.769081e-06,-1.375000e-02
-2.761081e-06,2.000000e-02
-2.753081e-06,-3.750000e-03
-2.745081e-06,2.000000e-02
-2.737081e-06,-1.375000e-02
-2.729081e-06,1.375000e-02
-2.721081e-06,-3.000000e-02
-2.713081e-06,1.250000e-03
-2.705081e-06,-3.250000e-02
-2.697081e-06,6.250000e-03
-2.689081e-06,-2.125000e-02
-2.681081e-06,2.250000e-02
-2.673081e-06,-3.000000e-02
-2.665081e-06,3.375000e-02
-2.657081e-06,-2.500000e-03
-2.649081e-06,-7.500000e-03
-2.641081e-06,-1.125000e-02
-2.633081e-06,7.500000e-03
-2.625081e-06,-1.250000e-03
-2.617081e-06,6.250000e-03
-2.609081e-06,7.500000e-03
-2.601081e-06,2.875000e-02
-2.593081e-06,-1.375000e-02
-2.585081e-06,1.625000e-02
-2.577081e-06,-1.000000e-02
-2.569081e-06,-1.250000e-03
-2.561081e-06,-1.875000e-02
-2.553081e-06,1.500000e-02
-2.545081e-06,-8.750000e-03
-2.537081e-06,2.500000e-02
-2.529081e-06,-1.500000e-02
-2.521081e-06,3.750000e-03
-2.513081e-06,-2.500000e-03
-2.505081e-06,1.000000e-02
-2.497081e-06,-8.750000e-03
-2.489081e-06,2.500000e-03
-2.481081e-06,-1.250000e-02
-2.473081e-06,-1.750000e-02
-2.465081e-06,-1.875000e-02
-2.457081e-06,2.250000e-02
-2.449081e-06,-7.500000e-03
-2.441081e-06,1.000000e-02
-2.433081e-06,-2.125000e-02
-2.425081e-06,6.250000e-03
-2.417081e-06,-8.750000e-03
-2.409081e-06,6.250000e-03
-2.401081e-06,-5.000000e-03
-2.393081e-06,1.250000e-03
-2.385081e-06,-1.750000e-02
-2.377081e-06,1.500000e-02
-2.369081e-06,-2.250000e-02
-2.361081e-06,-1.500000e-02
-2.353081e-06,-8.750000e-03
-2.345081e-06,1.750000e-02
-2.337081e-06,5.000000e-03
-2.329081e-06,1.250000e-02
-2.321081e-06,-6.250000e-03
-2.313081e-06,2.000000e-02
-2.305081e-06,-1.750000e-02
-2.297081e-06,-1.250000e-03
-2.289081e-06,-3.250000e-02
-2.281081e-06,2.875000e-02
-2.273081e-06,-2.500000e-02
-2.265081e-06,1.250000e-02
-2.257081e-06,-3.250000e-02
-2.249081e-06,1.000000e-02
-2.241081e-06,-3.500000e-02
-2.233081e-06,1.000000e-02
-2.225081e-06,2.500000e-03
-2.217081e-06,3.625000e-02
-2.209081e-06,2.500000e-03
-2.201081e-06,2.500000e-03
-2.193081e-06,0.000000e+00
-2.185081e-06,1.750000e-02
-2.177081e-06,-2.500000e-02
-2.169081e-06,2.750000e-02
-2.161081e-06,-2.875000e-02
-2.153081e-06,3.500000e-02
-2.145081e-06,-5.000000e-03
-2.137081e-06,-1.250000e-03
-2.129081e-06,-1.250000e-02
-2.121081e-06,1.375000e-02
-2.113081e-06,-1.250000e-02
-2.105081e-06,1.375000e-02
-2.097081e-06,-1.000000e-02
-2.089081e-06,1.500000e-02
-2.081081e-06,-3.000000e-02
-2.073081e-06,1.000000e-02
-2.065081e-06,-5.000000e-03
-2.057081e-06,2.250000e-02
-2.049081e-06,-3.500000e-02
-2.041081e-06,1.750000e-02
-2.033081e-06,-2.750000e-02
-2.025081e-06,2.000000e-02
-2.017081e-06,-1.250000e-02
-2.009081e-06,1.375000e-02
-2.001081e-06,-8.750000e-03
-1.993081e-06,1.250000e-02
-1.985081e-06,-2.625000e-02
-1.977081e-06,5.000000e-03
-1.969081e-06,5.000000e-03
-1.961081e-06,1.875000e-02
-1.953081e-06,-2.500000e-03
-1.945081e-06,-1.250000e-03
-1.937081e-06,-1.125000e-02
-1.929081e-06,2.375000e-02
-1.921081e-06,-3.250000e-02
-1.913081e-06,6.250000e-03
-1.905081e-06,-4.000000e-02
-1.897081e-06,1.250000e-02
-1.889081e-06,1.250000e-03
-1.881081e-06,1.625000e-02
-1.873081e-06,-1.250000e-02
-1.865081e-06,2.500000e-02
-1.857081e-06,-3.250000e-02
-1.849081e-06,1.250000e-03
-1.841081e-06,0.000000e+00
-1.833081e-06,1.875000e-02
-1.825081e-06,-3.750000e-03
-1.817081e-06,2.000000e-02
-1.809081e-06,1.250000e-03
-1.801081e-06,4.125000e-02
-1.793081e-06,-1.750000e-02
-1.785081e-06,1.375000e-02
-1.777081e-06,-3.500000e-02
-1.769081e-06,3.875000e-02
-1.761081e-06,0.000000e+00
-1.753081e-06,1.500000e-02
-1.745081e-06,-1.500000e-02
-1.737081e-06,2.750000e-02
-1.729081e-06,1.250000e-02
-1.721081e-06,1.250000e-03
-1.713081e-06,1.375000e-02
-1.705081e-06,1.625000e-02
-1.697081e-06,-2.250000e-02
-1.689081e-06,1.750000e-02
-1.681081e-06,-3.500000e-02
-1.673081e-06,7.500000e-03
-1.665081e-06,-6.250000e-03
-1.657081e-06,8.750000e-03
-1.649081e-06,-1.250000e-02
-1.641081e-06,6.250000e-03
-1.633081e-06,0.000000e+00
-1.625081e-06,1.500000e-02
-1.617081e-06,5.000000e-03
-1.609081e-06,1.875000e-02
-1.601081e-06,-1.125000e-02
-1.593081e-06,1.000000e-02
-1.585081e-06,-2.500000e-03
-1.577081e-06,2.625000e-02
-1.569081e-06,-1.125000e-02
-1.561081e-06,1.500000e-02
-1.553081e-06,-1.000000e-02
-1.545081e-06,7.500000e-03
-1.537081e-06,-5.000000e-03
-1.529081e-06,7.500000e-03
-1.521081e-06,-3.000000e-02
-1.513081e-06,1.625000e-02
-1.505081e-06,-2.875000e-02
-1.497081e-06,1.625000e-02
-1.489081e-06,-1.250000e-02
-1.481081e-06,2.000000e-02
-1.473081e-06,-2.750000e-02
-1.465081e-06,5.000000e-03
-1.457081e-06,1.250000e-03
-1.449081e-06,1.375000e-02
-1.441081e-06,6.250000e-03
-1.433081e-06,5.000000e-03
-1.425081e-06,-8.750000e-03
-1.417081e-06,1.125000e-02
-1.409081e-06,-3.000000e-02
-1.401081e-06,5.000000e-03
-1.393081e-06,-1.250000e-02
-1.385081e-06,3.375000e-02
-1.377081e-06,-2.125000e-02
-1.369081e-06,5.000000e-03
-1.361081e-06,-2.500000e-02
-1.353081e-06,1.125000e-02
-1.345081e-06,-1.000000e-02
-1.337081e-06,-3.750000e-03
-1.329081e-06,-2.500000e-03
-1.321081e-06,3.750000e-03
-1.313081e-06,-2.875000e-02
-1.305081e-06,0.000000e+00
-1.297081e-06,0.000000e+00
-1.289081e-06,2.000000e-02
-1.281081e-06,-4.250000e-02
-1.273081e-06,1.125000e-02
-1.265081e-06,-2.375000e-02
-1.257081e-06,2.250000e-02
-1.249081e-06,-1.625000e-02
-1.241081e-06,1.375000e-02
-1.233081e-06,-1.625000e-02
-1.225081e-06,3.125000e-02
-1.217081e-06,-1.500000e-02
-1.209081e-06,3.750000e-03
-1.201081e-06,-1.625000e-02
-1.193081e-06,2.000000e-02
-1.185081e-06,-1.250000e-03
-1.177081e-06,2.500000e-02
-1.169081e-06,-2.750000e-02
-1.161081e-06,3.250000e-02
-1.153081e-06,-2.375000e-02
-1.145081e-06,1.000000e-02
-1.137081e-06,-2.375000e-02
-1.129081e-06,3.125000e-02
-1.121081e-06,6.250000e-03
-1.113081e-06,1.500000e-02
-1.105081e-06,-1.250000e-02
-1.097081e-06,1.000000e-02
-1.089081e-06,-1.500000e-02
-1.081081e-06,7.500000e-03
-1.073081e-06,-1.125000e-02
-1.065081e-06,2.750000e-02
-1.057081e-06,-6.250000e-03
-1.049081e-06,2.250000e-02
-1.041081e-06,-2.625000e-02
-1.033081e-06,1.750000e-02
-1.025081e-06,-2.125000e-02
-1.017081e-06,1.250000e-02
-1.009081e-06,-2.750000e-02
-1.001081e-06,2.750000e-02
-9.930813e-07,-6.250000e-03
-9.850813e-07,3.750000e-03
-9.770813e-07,-1.500000e-02
-9.690813e-07,2.500000e-02
-9.610813e-07,-1.875000e-02
-9.530813e-07,1.375000e-02
-9.450813e-07,-7.500000e-03
-9.370813e-07,1.875000e-02
-9.290813e-07,-1.875000e-02
-9.210813e-07,1.625000e-02
-9.130813e-07,1.000000e-02
-9.050813e-07,2.000000e-02
-8.970813e-07,-1.750000e-02
-8.890813e-07,2.500000e-02
-8.810813e-07,-8.750000e-03
-8.730813e-07,1.625000e-02
-8.650813e-07,-1.250000e-03
-8.570813e-07,7.500000e-03
-8.490813e-07,-2.375000e-02
-8.410813e-07,7.500000e-03
-8.330813e-07,-1.500000e-02
-8.250813e-07,2.250000e-02
-8.170813e-07,-2.000000e-02
-8.090813e-07,2.250000e-02
-8.010813e-07,-2.625000e-02
-7.930813e-07,2.750000e-02
-7.850813e-07,-8.750000e-03
-7.770813e-07,1.500000e-02
-7.690813e-07,-1.500000e-02
-7.610813e-07,3.375000e-02
-7.530813e-07,-2.000000e-02
-7.450813e-07,8.750000e-03
-7.370813e-07,-5.000000e-03
-7.290813e-07,1.250000e-03
-7.210813e-07,-2.000000e-02
-7.130813e-07,-7.500000e-03
-7.050813e-07,-3.125000e-02
-6.970813e-07,1.000000e-02
-6.890813e-07,1.375000e-02
-6.810813e-07,3.000000e-02
-6.730813e-07,-1.250000e-02
-6.650813e-07,1.000000e-02
-6.570813e-07,-1.750000e-02
-6.490813e-07,3.750000e-03
-6.410813e-07,-1.625000e-02
-6.330813e-07,1.125000e-02
-6.250813e-07,-1.125000e-02
-6.170813e-07,1.375000e-02
-6.090813e-07,-1.250000e-02
-6.010813e-07,-1.625000e-02
-5.930813e-07,-2.375000e-02
-5.850813e-07,1.250000e-03
-5.770813e-07,-1.250000e-03
-5.690813e-07,1.000000e-02
-5.610813e-07,-8.750000e-03
-5.530813e-07,1.375000e-02
-5.450813e-07,-2.375000e-02
-5.370813e-07,5.000000e-03
-5.290813e-07,-6.250000e-03
-5.210813e-07,1.000000e-02
-5.130813e-07,-3.125000e-02
-5.050813e-07,7.500000e-03
-4.970813e-07,-7.500000e-03
-4.890813e-07,1.750000e-02
-4.810813e-07,-1.875000e-02
-4.730813e-07,1.125000e-02
-4.650813e-07,-3.750000e-03
-4.570813e-07,3.750000e-03
-4.490813e-07,0.000000e+00
-4.410813e-07,3.375000e-02
-4.330813e-07,-1.000000e-02
-4.250813e-07,6.250000e-03
-4.170813e-07,-5.000000e-03
-4.090813e-07,1.125000e-02
-4.010813e-07,-5.000000e-03
-3.930813e-07,-2.500000e-03
-3.850813e-07,-1.500000e-02
-3.770813e-07,1.750000e-02
-3.690813e-07,-3.750000e-03
-3.610813e-07,-5.000000e-03
-3.530813e-07,-4.500000e-02
-3.450813e-07,5.000000e-03
-3.370813e-07,-7.500000e-03
-3.290813e-07,1.125000e-02
-3.210813e-07,-1.750000e-02
-3.130813e-07,2.000000e-02
-3.050813e-07,-7.500000e-03
-2.970813e-07,2.750000e-02
-2.890813e-07,-2.500000e-03
-2.810813e-07,1.000000e-02
-2.730813e-07,-1.500000e-02
-2.650813e-07,-1.250000e-03
-2.570813e-07,-1.125000e-02
-2.490813e-07,3.750000e-03
-2.410813e-07,-3.500000e-02
-2.330813e-07,6.250000e-03
-2.250813e-07,8.750000e-03
-2.170813e-07,1.875000e-02
-2.090813e-07,-7.500000e-03
-2.010813e-07,-5.000000e-03
-1.930813e-07,-8.750000e-03
-1.850813e-07,2.875000e-02
-1.770813e-07,-1.125000e-02
-1.690813e-07,1.250000e-03
-1.610813e-07,-2.500000e-03
-1.530813e-07,7.500000e-03
-1.450813e-07,-2.500000e-03
-1.370813e-07,5.000000e-03
-1.290813e-07,-1.500000e-02
-1.210813e-07,7.500000e-03
-1.130813e-07,-2.500000e-02
-1.050813e-07,2.625000e-02
-9.708125e-08,-7.500000e-03
-8.908125e-08,2.000000e-02
-8.108125e-08,-2.250000e-02
-7.308125e-08,-3.750000e-03
-6.508125e-08,-1.250000e-02
-5.708125e-08,1.500000e-02
-4.908125e-08,-7.500000e-03
-4.108125e-08,5.000000e-03
-3.308125e-08,-1.000000e-02
-2.508125e-08,-5.000000e-03
-1.708125e-08,-2.125000e-02
-9.081250e-09,2.500000e-02
-1.081250e-09,-1.750000e-02
6.918750e-09,-1.405000e+00
1.491875e-08,-1.450000e+00
2.291875e-08,-1.395000e+00
3.091875e-08,-2.050000e-01
3.891875e-08,-2.500000e-02
4.691875e-08,1.375000e-02
5.491875e-08,2.750000e-02
6.291875e-08,-2.500000e-03
7.091875e-08,1.750000e-02
7.891875e-08,3.750000e-03
8.691875e-08,1.750000e-02
9.491875e-08,-2.250000e-02
1.029187e-07,1.250000e-02
1.109187e-07,1.125000e-02
1.189187e-07,2.250000e-02
1.269187e-07,-2.375000e-02
1.349187e-07,7.500000e-03
1.429187e-07,-2.500000e-02
1.509187e-07,-6.250000e-03
1.589187e-07,-6.250000e-03
1.669187e-07,6.250000e-03
1.749187e-07,-2.125000e-02
1.829187e-07,8.750000e-03
1.909187e-07,-1.250000e-03
1.989187e-07,3.750000e-03
2.069187e-07,5.000000e-03
2.149187e-07,2.500000e-03
2.229187e-07,-1.500000e-02
2.309187e-07,-7.500000e-03
2.389187e-07,-3.750000e-03
2.469187e-07,3.000000e-02
2.549187e-07,-7.500000e-03
2.629187e-07,6.250000e-03
2.709187e-07,-3.250000e-02
2.789187e-07,1.875000e-02
2.869187e-07,-3.750000e-03
2.949187e-07,1.625000e-02
3.029187e-07,-1.250000e-03
3.109187e-07,3.750000e-03
3.189187e-07,-3.000000e-02
3.269187e-07,1.750000e-02
3.349187e-07,1.125000e-02
3.429187e-07,2.125000e-02
3.509187e-07,-1.000000e-02
3.589187e-07,1.875000e-02
3.669187e-07,-1.250000e-03
3.749187e-07,1.250000e-03
3.829187e-07,-1.875000e-02
3.909187e-07,-2.500000e-03
3.989187e-07,-4.250000e-02
4.069187e-07,3.125000e-02
4.149187e-07,-3.750000e-03
4.229187e-07,1.625000e-02
4.309187e-07,-2.500000e-02
4.389187e-07,1.375000e-02
4.469187e-07,-8.750000e-03
4.549187e-07,6.250000e-03
4.629187e-07,-2.500000e-03
4.709187e-07,4.250000e-02
4.789187e-07,-5.000000e-03
4.869187e-07,-7.500000e-03
4.949187e-07,1.250000e-03
5.029187e-07,2.375000e-02
5.109187e-07,-1.875000e-02
5.189187e-07,1.250000e-03
5.269187e-07,-3.000000e-02
5.349187e-07,8.750000e-03
5.429187e-07,-7.500000e-03
5.509187e-07,-5.000000e-03
5.589187e-07,-2.250000e-02
5.669187e-07,1.250000e-03
5.749187e-07,-2.250000e-02
5.829187e-07,1.000000e-02
5.909187e-07,-1.125000e-02
5.989187e-07,-1.250000e-03
6.069187e-07,-6.250000e-03
6.149187e-07,2.250000e-02
6.229187e-07,0.000000e+00
6.309187e-07,1.000000e-02
6.389187e-07,-2.375000e-02
6.469187e-07,2.375000e-02
6.549187e-07,-2.875000e-02
6.629187e-07,2.125000e-02
6.709187e-07,0.000000e+00
6.789187e-07,6.250000e-03
6.869187e-07,-2.625000e-02
6.949187e-07,-1.250000e-03
7.029187e-07,1.250000e-03
7.109187e-07,-1.125000e-02
7.189187e-07,1.500000e-02
7.269187e-07,7.500000e-03
7.349187e-07,-1.000000e-02
7.429187e-07,1.250000e-02
7.509187e-07,-1.500000e-02
7.589187e-07,2.625000e-02
7.669187e-07,-3.750000e-03
7.749187e-07,2.250000e-02
7.829187e-07,-2.750000e-02
7.909187e-07,1.250000e-03
7.989187e-07,-1.375000e-02
8.069187e-07,1.125000e-02
