run1/run1_ch1_20210318180132069.csv

Model,MSO64
Waveform Type,ANALOG
Horizontal Units,s
Sample Interval,8.000000e-09
Record Length,1250
Zero Index,624.395000
Vertical Units,V

TIME,CH1
-4.995160e-06,2.625000e-02
-4.987160e-06,-2.250000e-02
-4.979160e-06,1.875000e-02
-4.971160e-06,-3.750000e-02
-4.963160e-06,6.250000e-03
-4.955160e-06,-8.750000e-03
-4.947160e-06,2.875000e-02
-4.939160e-06,-1.625000e-02
-4.931160e-06,1.000000e-02
-4.923160e-06,5.000000e-03
-4.915160e-06,8.750000e-03
-4.907160e-06,-1.250000e-03
-4.899160e-06,2.000000e-02
-4.891160e-06,-1.500000e-02
-4.883160e-06,2.500000e-03
-4.875160e-06,-1.250000e-02
-4.867160e-06,2.125000e-02
-4.859160e-06,-2.500000e-02
-4.851160e-06,4.375000e-02
-4.843160e-06,-6.250000e-03
-4.835160e-06,3.375000e-02
-4.827160e-06,-1.500000e-02
-4.819160e-06,1.250000e-03
-4.811160e-06,-2.875000e-02
-4.803160e-06,2.375000e-02
-4.795160e-06,0.000000e+00
-4.787160e-06,1.375000e-02
-4.779160e-06,1.000000e-02
-4.771160e-06,3.375000e-02
-4.763160e-06,-1.250000e-02
-4.755160e-06,1.500000e-02
-4.747160e-06,-1.750000e-02
-4.739160e-06,1.625000e-02
-4.731160e-06,0.000000e+00
-4.723160e-06,3.250000e-02
-4.715160e-06,0.000000e+00
-4.707160e-06,2.750000e-02
-4.699160e-06,5.000000e-03
-4.691160e-06,1.375000e-02
-4.683160e-06,-2.000000e-02
-4.675160e-06,1.500000e-02
-4.667160e-06,-3.750000e-03
-4.659160e-06,1.000000e-02
-4.651160e-06,-3.750000e-03
-4.643160e-06,3.500000e-02
-4.635160e-06,-2.375000e-02
-4.627160e-06,1.125000e-02
-4.619160e-06,-1.625000e-02
-4.611160e-06,2.250000e-02
-4.603160e-06,-6.250000e-03
-4.595160e-06,1.250000e-02
-4.587160e-06,0.000000e+00
-4.579160e-06,1.875000e-02
-4.571160e-06,-1.375000e-02
-4.563160e-06,1.875000e-02
-4.555160e-06,-4.250000e-02
-4.547160e-06,1.875000e-02
-4.539160e-06,1.750000e-02
-4.531160e-06,1.250000e-02
-4.523160e-06,-1.000000e-02
-4.515160e-06,2.500000e-02
-4.507160e-06,-5.000000e-03
-4.499160e-06,7.500000e-03
-4.491160e-06,0.000000e+00
-4.483160e-06,2.000000e-02
-4.475160e-06,1.250000e-02
-4.467160e-06,1.250000e-02
-4.459160e-06,-8.750000e-03
-4.451160e-06,-2.500000e-03
-4.443160e-06,2.500000e-03
-4.435160e-06,1.625000e-02
-4.427160e-06,-8.750000e-03
-4.419160e-06,-2.125000e-02
-4.411160e-06,-2.500000e-03
-4.403160e-06,3.250000e-02
-4.395160e-06,-6.250000e-03
-4.387160e-06,2.000000e-02
-4.379160e-06,-3.750000e-03
-4.371160e-06,2.125000e-02
-4.363160e-06,-2.000000e-02
-4.355160e-06,8.750000e-03
-4.347160e-06,-1.500000e-02
-4.339160e-06,3.750000e-03
-4.331160e-06,-3.750000e-03
-4.323160e-06,6.250000e-03
-4.315160e-06,-2.000000e-02
-4.307160e-06,2.500000e-03
-4.299160e-06,-5.000000e-03
-4.291160e-06,6.250000e-03
-4.283160e-06,-6.250000e-03
-4.275160e-06,2.000000e-02
-4.267160e-06,-5.000000e-03
-4.259160e-06,7.500000e-03
-4.251160e-06,-2.500000e-03
-4.243160e-06,3.000000e-02
-4.235160e-06,-2.125000e-02
-4.227160e-06,1.250000e-03
-4.219160e-06,-2.500000e-02
-4.211160e-06,1.625000e-02
-4.203160e-06,-1.500000e-02
-4.195160e-06,1.250000e-03
-4.187160e-06,-2.000000e-02
-4.179160e-06,8.750000e-03
-4.171160e-06,2.500000e-03
-4.163160e-06,6.250000e-03
-4.155160e-06,-6.250000e-03
-4.147160e-06,3.000000e-02
-4.139160e-06,1.750000e-02
-4.131160e-06,1.250000e-02
-4.123160e-06,-5.000000e-03
-4.115160e-06,7.500000e-03
-4.107160e-06,-1.500000e-02
-4.099160e-06,-8.750000e-03
-4.091160e-06,-2.625000e-02
-4.083160e-06,2.625000e-02
-4.075160e-06,-7.500000e-03
-4.067160e-06,8.750000e-03
-4.059160e-06,1.250000e-03
-4.051160e-06,1.875000e-02
-4.043160e-06,-1.250000e-02
-4.035160e-06,7.500000e-03
-4.027160e-06,1.250000e-03
-4.019160e-06,7.500000e-03
-4.011160e-06,-7.500000e-03
-4.003160e-06,1.875000e-02
-3.995160e-06,-8.750000e-03
-3.987160e-06,2.125000e-02
-3.979160e-06,-1.500000e-02
-3.971160e-06,5.000000e-03
-3.963160e-06,-1.125000e-02
-3.955160e-06,3.125000e-02
-3.947160e-06,-1.000000e-02
-3.939160e-06,1.375000e-02
-3.931160e-06,-1.875000e-02
-3.923160e-06,3.000000e-02
-3.915160e-06,-7.500000e-03
-3.907160e-06,1.375000e-02
-3.899160e-06,5.000000e-03
-3.891160e-06,3.500000e-02
-3.883160e-06,-6.250000e-03
-3.875160e-06,2.875000e-02
-3.867160e-06,-1.500000e-02
-3.859160e-06,2.125000e-02
-3.851160e-06,-2.875000e-02
-3.843160e-06,1.875000e-02
-3.835160e-06,-2.500000e-02
-3.827160e-06,3.125000e-02
-3.819160e-06,1.250000e-03
-3.811160e-06,-1.625000e-02
-3.803160e-06,-8.750000e-03
-3.795160e-06,7.500000e-03
-3.787160e-06,-2.500000e-02
-3.779160e-06,2.375000e-02
-3.771160e-06,-7.500000e-03
-3.763160e-06,2.625000e-02
-3.755160e-06,-1.000000e-02
-3.747160e-06,1.000000e-02
-3.739160e-06,-2.500000e-03
-3.731160e-06,3.250000e-02
-3.723160e-06,-6.250000e-03
-3.715160e-06,1.000000e-02
-3.707160e-06,-2.250000e-02
-3.699160e-06,1.125000e-02
-3.691160e-06,-6.250000e-03
-3.683160e-06,-5.000000e-03
-3.675160e-06,-1.000000e-02
-3.667160e-06,1.500000e-02
-3.659160e-06,-1.375000e-02
-3.651160e-06,1.500000e-02
-3.643160e-06,1.250000e-03
-3.635160e-06,2.500000e-03
-3.627160e-06,-7.500000e-03
-3.619160e-06,1.625000e-02
-3.611160e-06,-2.250000e-02
-3.603160e-06,1.375000e-02
-3.595160e-06,-1.875000e-02
-3.587160e-06,1.250000e-02
-3.579160e-06,-2.375000e-02
-3.571160e-06,2.875000e-02
-3.563160e-06,-2.125000e-02
-3.555160e-06,1.125000e-02
-3.547160e-06,-3.750000e-03
-3.539160e-06,3.000000e-02
-3.531160e-06,-1.625000e-02
-3.523160e-06,0.000000e+00
-3.515160e-06,-1.250000e-03
-3.507160e-06,2.750000e-02
-3.499160e-06,-8.750000e-03
-3.491160e-06,-7.500000e-03
-3.483160e-06,-2.375000e-02
-3.475160e-06,2.500000e-03
-3.467160e-06,-3.250000e-02
-3.459160e-06,2.000000e-02
-3.451160e-06,-1.625000e-02
-3.443160e-06,2.250000e-02
-3.435160e-06,-5.000000e-03
-3.427160e-06,-1.750000e-02
-3.419160e-06,-2.375000e-02
-3.411160e-06,-1.375000e-02
-3.403160e-06,5.000000e-03
-3.395160e-06,2.500000e-03
-3.387160e-06,3.750000e-03
-3.379160e-06,2.750000e-02
-3.371160e-06,-1.375000e-02
-3.363160e-06,6.250000e-03
-3.355160e-06,-1.250000e-02
-3.347160e-06,5.000000e-03
-3.339160e-06,-3.500000e-02
-3.331160e-06,2.500000e-02
-3.323160e-06,-1.250000e-03
-3.315160e-06,2.000000e-02
-3.307160e-06,-1.125000e-02
-3.299160e-06,6.250000e-03
-3.291160e-06,-2.500000e-02
-3.283160e-06,3.750000e-03
-3.275160e-06,-1.500000e-02
-3.267160e-06,1.125000e-02
-3.259160e-06,1.375000e-02
-3.251160e-06,8.750000e-03
-3.243160e-06,-5.000000e-03
-3.235160e-06,8.750000e-03
-3.227160e-06,-1.375000e-02
-3.219160e-06,2.750000e-02
-3.211160e-06,-1.250000e-02
-3.203160e-06,3.375000e-02
-3.195160e-06,-1.000000e-02
-3.187160e-06,2.375000e-02
-3.179160e-06,-1.500000e-02
-3.171160e-06,1.375000e-02
-3.163160e-06,-8.750000e-03
-3.155160e-06,6.250000e-03
-3.147160e-06,-6.250000e-03
-3.139160e-06,1.750000e-02
-3.131160e-06,5.000000e-03
-3.123160e-06,2.000000e-02
-3.115160e-06,-1.500000e-02
-3.107160e-06,1.000000e-02
-3.099160e-06,-3.125000e-02
-3.091160e-06,1.250000e-02
-3.083160e-06,-1.750000e-02
-3.075160e-06,5.000000e-03
-3.067160e-06,-2.000000e-02
-3.059160e-06,2.250000e-02
-3.051160e-06,-2.375000e-02
-3.043160e-06,1.250000e-03
-3.035160e-06,-1.500000e-02
-3.027160e-06,2.125000e-02
-3.019160e-06,-1.625000e-02
-3.011160e-06,8.750000e-03
-3.003160e-06,1.250000e-03
-2.995160e-06,1.250000e-02
-2.987160e-06,-6.250000e-03
-2.979160e-06,8.750000e-03
-2.971160e-06,-6.250000e-03
-2.963160e-06,2.000000e-02
-2.955160e-06,-3.125000e-02
-2.947160e-06,1.875000e-02
-2.939160e-06,0.000000e+00
-2.931160e-06,1.250000e-03
-2.923160e-06,-2.500000e-02
-2.915160e-06,2.500000e-02
-2.907160e-06,-6.250000e-03
-2.899160e-06,6.250000e-03
-2.891160e-06,-6.250000e-03
-2.883160e-06,-2.250000e-02
-2.875160e-06,-4.375000e-02
-2.867160e-06,3.375000e-02
-2.859160e-06,-3.750000e-03
-2.851160e-06,1.625000e-02
-2.843160e-06,-5.000000e-03
-2.835160e-06,1.625000e-02
-2.827160e-06,-2.250000e-02
-2.819160e-06,0.000000e+00
-2.811160e-06,-2.500000e-03
-2.803160e-06,1.875000e-02
-2.795160e-06,2.500000e-03
-2.787160e-06,1.750000e-02
-2.779160e-06,-1.000000e-02
-2.771160e-06,5.000000e-03
-2.763160e-06,-3.000000e-02
-2.755160e-06,1.500000e-02
-2.747160e-06,-1.250000e-02
-2.739160e-06,1.125000e-02
-2.731160e-06,-2.625000e-02
-2.723160e-06,2.625000e-02
-2.715160e-06,-1.250000e-02
-2.707160e-06,1.875000e-02
-2.699160e-06,-1.750000e-02
-2.691160e-06,1.000000e-02
-2.683160e-06,-8.750000e-03
-2.675160e-06,3.000000e-02
-2.667160e-06,-6.250000e-03
-2.659160e-06,1.750000e-02
-2.651160e-06,-6.250000e-03
-2.643160e-06,0.000000e+00
-2.635160e-06,-1.500000e-02
-2.627160e-06,1.875000e-02
-2.619160e-06,-1.750000e-02
-2.611160e-06,2.500000e-03
-2.603160e-06,5.000000e-03
-2.595160e-06,-5.000000e-03
-2.587160e-06,-5.000000e-03
-2.579160e-06,1.500000e-02
-2.571160e-06,-3.750000e-03
-2.563160e-06,3.625000e-02
-2.555160e-06,-2.500000e-02
-2.547160e-06,4.250000e-02
-2.539160e-06,-1.750000e-02
-2.531160e-06,3.750000e-03
-2.523160e-06,7.500000e-03
-2.515160e-06,3.125000e-02
-2.507160e-06,-1.375000e-02
-2.499160e-06,2.375000e-02
-2.491160e-06,3.750000e-03
-2.483160e-06,3.375000e-02
-2.475160e-06,1.250000e-03
-2.467160e-06,7.500000e-03
-2.459160e-06,-1.500000e-02
-2.451160e-06,2.750000e-02
-2.443160e-06,-3.875000e-02
-2.435160e-06,-6.250000e-03
-2.427160e-06,-3.750000e-03
-2.419160e-06,1.750000e-02
-2.411160e-06,-2.500000e-03
-2.403160e-06,1.125000e-02
-2.395160e-06,-7.500000e-03
-2.387160e-06,3.750000e-03
-2.379160e-06,-3.250000e-02
-2.371160e-06,1.125000e-02
-2.363160e-06,1.250000e-03
-2.355160e-06,2.625000e-02
-2.347160e-06,-3.750000e-03
-2.339160e-06,1.000000e-02
-2.331160e-06,-1.250000e-03
-2.323160e-06,2.125000e-02
-2.315160e-06,-1.625000e-02
-2.307160e-06,3.375000e-02
-2.299160e-06,-3.000000e-02
-2.291160e-06,1.625000e-02
-2.283160e-06,-1.250000e-03
-2.275160e-06,6.250000e-03
-2.267160e-06,-1.250000e-03
-2.259160e-06,3.375000e-02
-2.251160e-06,-2.000000e-02
-2.243160e-06,2.750000e-02
-2.235160e-06,-1.250000e-03
-2.227160e-06,3.000000e-02
-2.219160e-06,-1.250000e-03
-2.211160e-06,2.750000e-02
-2.203160e-06,-1.500000e-02
-2.195160e-06,1.625000e-02
-2.187160e-06,-2.125000e-02
-2.179160e-06,2.750000e-02
-2.171160e-06,-4.250000e-02
-2.163160e-06,2.375000e-02
-2.155160e-06,-1.750000e-02
-2.147160e-06,-3.750000e-03
-2.139160e-06,-3.125000e-02
-2.131160e-06,6.250000e-03
-2.123160e-06,-1.875000e-02
-2.115160e-06,-3.750000e-03
-2.107160e-06,3.750000e-03
-2.099160e-06,1.375000e-02
-2.091160e-06,2.500000e-03
-2.083160e-06,2.750000e-02
-2.075160e-06,-2.000000e-02
-2.067160e-06,-1.000000e-02
-2.059160e-06,-5.000000e-03
-2.051160e-06,-2.500000e-03
-2.043160e-06,-2.250000e-02
-2.035160e-06,2.375000e-02
-2.027160e-06,2.500000e-03
-2.019160e-06,2.000000e-02
-2.011160e-06,-5.000000e-03
-2.003160e-06,3.750000e-03
-1.995160e-06,-5.000000e-03
-1.987160e-06,-7.500000e-03
-1.979160e-06,1.250000e-03
-1.971160e-06,3.875000e-02
-1.963160e-06,1.625000e-02
-1.955160e-06,2.250000e-02
-1.947160e-06,-1.250000e-02
-1.939160e-06,1.250000e-03
-1.931160e-06,-2.500000e-02
-1.923160e-06,2.000000e-02
-1.915160e-06,7.500000e-03
-1.907160e-06,5.750000e-02
-1.899160e-06,-1.625000e-02
-1.891160e-06,-3.750000e-03
-1.883160e-06,-1.625000e-02
-1.875160e-06,1.750000e-02
-1.867160e-06,-1.250000e-02
-1.859160e-06,8.750000e-03
-1.851160e-06,2.000000e-02
-1.843160e-06,1.250000e-03
-1.835160e-06,3.750000e-03
-1.827160e-06,8.750000e-03
-1.819160e-06,2.500000e-03
-1.811160e-06,1.000000e-02
-1.803160e-06,-1.625000e-02
-1.795160e-06,-5.000000e-03
-1.787160e-06,-7.500000e-03
-1.779160e-06,2.625000e-02
-1.771160e-06,-8.750000e-03
-1.763160e-06,1.375000e-02
-1.755160e-06,-5.000000e-03
-1.747160e-06,6.250000e-03
-1.739160e-06,-2.625000e-02
-1.731160e-06,8.750000e-03
-1.723160e-06,-3.000000e-02
-1.715160e-06,2.875000e-02
-1.707160e-06,-1.250000e-02
-1.699160e-06,1.375000e-02
-1.691160e-06,-1.750000e-02
-1.683160e-06,1.625000e-02
-1.675160e-06,-2.625000e-02
-1.667160e-06,3.125000e-02
-1.659160e-06,-3.375000e-02
-1.651160e-06,3.250000e-02
-1.643160e-06,-3.125000e-02
-1.635160e-06,1.875000e-02
-1.627160e-06,-2.500000e-02
-1.619160e-06,1.125000e-02
-1.611160e-06,-2.500000e-02
-1.603160e-06,1.625000e-02
-1.595160e-06,0.000000e+00
-1.587160e-06,8.750000e-03
-1.579160e-06,-6.250000e-03
-1.571160e-06,2.625000e-02
-1.563160e-06,-1.750000e-02
-1.555160e-06,0.000000e+00
-1.547160e-06,-2.625000e-02
-1.539160e-06,3.250000e-02
-1.531160e-06,-2.625000e-02
-1.523160e-06,1.250000e-02
-1.515160e-06,2.500000e-03
-1.507160e-06,7.500000e-03
-1.499160e-06,-1.750000e-02
-1.491160e-06,1.625000e-02
-1.483160e-06,-1.625000e-02
-1.475160e-06,1.500000e-02
-1.467160e-06,-2.500000e-03
-1.459160e-06,2.500000e-02
-1.451160e-06,0.000000e+00
-1.443160e-06,2.125000e-02
-1.435160e-06,-2.250000e-02
-1.427160e-06,1.125000e-02
-1.419160e-06,-8.750000e-03
-1.411160e-06,3.625000e-02
-1.403160e-06,-3.750000e-03
-1.395160e-06,2.500000e-03
-1.387160e-06,-6.250000e-03
-1.379160e-06,-7.500000e-03
-1.371160e-06,-2.000000e-02
-1.363160e-06,1.250000e-03
-1.355160e-06,2.500000e-03
-1.347160e-06,-2.500000e-03
-1.339160e-06,-6.250000e-03
-1.331160e-06,2.250000e-02
-1.323160e-06,1.250000e-03
-1.315160e-06,8.750000e-03
-1.307160e-06,-2.500000e-02
-1.299160e-06,2.625000e-02
-1.291160e-06,-2.250000e-02
-1.283160e-06,1.750000e-02
-1.275160e-06,-2.125000e-02
-1.267160e-06,1.750000e-02
-1.259160e-06,-1.375000e-02
-1.251160e-06,5.000000e-03
-1.243160e-06,-1.375000e-02
-1.235160e-06,1.375000e-02
-1.227160e-06,8.750000e-03
-1.219160e-06,1.250000e-03
-1.211160e-06,2.250000e-02
-1.203160e-06,1.250000e-02
-1.195160e-06,0.000000e+00
-1.187160e-06,2.625000e-02
-1.179160e-06,-6.250000e-03
-1.171160e-06,2.500000e-02
-1.163160e-06,-1.875000e-02
-1.155160e-06,3.375000e-02
-1.147160e-06,-2.500000e-02
-1.139160e-06,2.625000e-02
-1.131160e-06,-1.625000e-02
-1.123160e-06,1.125000e-02
-1.115160e-06,-1.250000e-02
-1.107160e-06,2.625000e-02
-1.099160e-06,7.500000e-03
-1.091160e-06,1.125000e-02
-1.083160e-06,1.000000e-02
-1.075160e-06,2.875000e-02
-1.067160e-06,-1.000000e-02
-1.059160e-06,1.250000e-02
-1.051160e-06,-7.500000e-03
-1.043160e-06,2.500000e-02
-1.035160e-06,-2.750000e-02
-1.027160e-06,1.375000e-02
-1.019160e-06,-1.750000e-02
-1.011160e-06,1.500000e-02
-1.003160e-06,-6.250000e-03
-9.951600e-07,7.500000e-03
-9.871600e-07,-1.375000e-02
-9.791600e-07,2.125000e-02
-9.711600e-07,-2.125000e-02
-9.631600e-07,1.250000e-03
-9.551600e-07,-1.625000e-02
-9.471600e-07,3.625000e-02
-9.391600e-07,7.500000e-03
-9.311600e-07,2.625000e-02
-9.231600e-07,1.250000e-03
-9.151600e-07,1.125000e-02
-9.071600e-07,-2.000000e-02
-8.991600e-07,1.750000e-02
-8.911600e-07,-2.000000e-02
-8.831600e-07,2.125000e-02
-8.751600e-07,-2.250000e-02
-8.671600e-07,2.625000e-02
-8.591600e-07,-2.500000e-02
-8.511600e-07,2.000000e-02
-8.431600e-07,-1.500000e-02
-8.351600e-07,2.125000e-02
-8.271600e-07,-1.000000e-02
-8.191600e-07,2.000000e-02
-8.111600e-07,1.125000e-02
-8.031600e-07,3.000000e-02
-7.951600e-07,-1.250000e-02
-7.871600e-07,3.750000e-03
-7.791600e-07,-2.750000e-02
-7.711600e-07,3.375000e-02
-7.631600e-07,-1.750000e-02
-7.551600e-07,1.750000e-02
-7.471600e-07,-5.000000e-03
-7.391600e-07,5.000000e-03
-7.311600e-07,-1.375000e-02
-7.231600e-07,1.000000e-02
-7.151600e-07,-2.125000e-02
-7.071600e-07,-1.250000e-02
-6.991600e-07,-1.750000e-02
-6.911600e-07,2.125000e-02
-6.831600e-07,-2.250000e-02
-6.751600e-07,2.250000e-02
-6.671600e-07,-1.500000e-02
-6.591600e-07,1.750000e-02
-6.511600e-07,-1.125000e-02
-6.431600e-07,2.500000e-03
-6.351600e-07,-3.250000e-02
-6.271600e-07,1.875000e-02
-6.191600e-07,-1.000000e-02
-6.111600e-07,7.500000e-03
-6.031600e-07,-1.000000e-02
-5.951600e-07,2.000000e-02
-5.871600e-07,2.500000e-03
-5.791600e-07,1.250000e-03
-5.711600e-07,2.500000e-03
-5.631600e-07,1.750000e-02
-5.551600e-07,-2.125000e-02
-5.471600e-07,1.000000e-02
-5.391600e-07,-1.875000e-02
-5.311600e-07,3.625000e-02
-5.231600e-07,-2.375000e-02
-5.151600e-07,2.625000e-02
-5.071600e-07,-5.000000e-03
-4.991600e-07,2.750000e-02
-4.911600e-07,-1.500000e-02
-4.831600e-07,1.125000e-02
-4.751600e-07,-3.500000e-02
-4.671600e-07,-6.250000e-03
-4.591600e-07,-2.625000e-02
-4.511600e-07,5.000000e-03
-4.431600e-07,-1.375000e-02
-4.351600e-07,3.750000e-03
-4.271600e-07,3.750000e-03
-4.191600e-07,1.000000e-02
-4.111600e-07,-2.250000e-02
-4.031600e-07,-3.750000e-03
-3.951600e-07,-3.375000e-02
-3.871600e-07,1.625000e-02
-3.791600e-07,-1.125000e-02
-3.711600e-07,2.250000e-02
-3.631600e-07,-1.000000e-02
-3.551600e-07,5.000000e-03
-3.471600e-07,-2.625000e-02
-3.391600e-07,1.750000e-02
-3.311600e-07,-3.750000e-03
-3.231600e-07,5.000000e-03
-3.151600e-07,-1.375000e-02
-3.071600e-07,2.250000e-02
-2.991600e-07,5.000000e-03
-2.911600e-07,2.875000e-02
-2.831600e-07,-1.875000e-02
-2.751600e-07,6.250000e-03
-2.671600e-07,-1.000000e-02
-2.591600e-07,1.250000e-03
-2.511600e-07,8.750000e-03
-2.431600e-07,2.875000e-02
-2.351600e-07,-1.250000e-02
-2.271600e-07,2.500000e-02
-2.191600e-07,-7.500000e-03
-2.111600e-07,2.375000e-02
-2.031600e-07,-3.000000e-02
-1.951600e-07,8.750000e-03
-1.871600e-07,-1.375000e-02
-1.791600e-07,2.375000e-02
-1.711600e-07,-1.000000e-02
-1.631600e-07,3.250000e-02
-1.551600e-07,-7.500000e-03
-1.471600e-07,1.625000e-02
-1.391600e-07,-3.000000e-02
-1.311600e-07,2.875000e-02
-1.231600e-07,-3.000000e-02
-1.151600e-07,7.500000e-03
-1.071600e-07,-2.000000e-02
-9.916000e-08,6.250000e-03
-9.116000e-08,2.500000e-03
-8.316000e-08,1.750000e-02
-7.516000e-08,-1.625000e-02
-6.716000e-08,2.375000e-02
-5.916000e-08,-1.500000e-02
-5.116000e-08,2.250000e-02
-4.316000e-08,-2.500000e-02
-3.516000e-08,-1.400000e+00
-2.716000e-08,-1.432500e+00
-1.916000e-08,-1.388750e+00
-1.116000e-08,-4.250000e-01
-3.160000e-09,-2.750000e-02
4.840000e-09,-1.000000e-02
1.284000e-08,5.125000e-02
2.084000e-08,3.750000e-03
2.884000e-08,1.375000e-02
3.684000e-08,-1.500000e-02
4.484000e-08,2.000000e-02
5.284000e-08,-1.125000e-02
6.084000e-08,1.250000e-02
6.884000e-08,8.750000e-03
7.684000e-08,6.250000e-03
8.484000e-08,-7.500000e-03
9.284000e-08,2.500000e-02
1.008400e-07,-1.500000e-02
1.088400e-07,3.000000e-02
1.168400e-07,-7.500000e-03
1.248400e-07,3.250000e-02
1.328400e-07,2.500000e-03
1.408400e-07,2.375000e-02
1.488400e-07,3.750000e-03
1.568400e-07,1.000000e-02
1.648400e-07,-5.000000e-03
1.728400e-07,0.000000e+00
1.808400e-07,-3.750000e-03
1.888400e-07,1.000000e-02
1.968400e-07,6.250000e-03
2.048400e-07,1.625000e-02
2.128400e-07,1.125000e-02
2.208400e-07,1.250000e-02
2.288400e-07,-1.250000e-02
2.368400e-07,2.500000e-02
2.448400e-07,-1.625000e-02
2.528400e-07,3.000000e-02
2.608400e-07,-1.750000e-02
2.688400e-07,3.000000e-02
2.768400e-07,-6.250000e-03
2.848400e-07,0.000000e+00
2.928400e-07,-2.875000e-02
3.008400e-07,1.375000e-02
3.088400e-07,-2.000000e-02
3.168400e-07,8.750000e-03
3.248400e-07,-1.250000e-03
3.328400e-07,1.250000e-02
3.408400e-07,3.750000e-03
3.488400e-07,3.250000e-02
3.568400e-07,-5.000000e-03
3.648400e-07,2.500000e-03
3.728400e-07,-3.625000e-02
3.808400e-07,3.750000e-03
3.888400e-07,-4.625000e-02
3.968400e-07,1.250000e-02
4.048400e-07,1.125000e-02
4.128400e-07,1.750000e-02
4.208400e-07,-1.125000e-02
4.288400e-07,1.000000e-02
4.368400e-07,-1.250000e-02
4.448400e-07,2.500000e-02
4.528400e-07,5.000000e-03
4.608400e-07,6.250000e-03
4.688400e-07,-2.750000e-02
4.768400e-07,1.000000e-02
4.848400e-07,-6.250000e-03
4.928400e-07,2.000000e-02
5.008400e-07,-1.750000e-02
5.088400e-07,2.125000e-02
5.168400e-07,-1.375000e-02
5.248400e-07,2.000000e-02
5.328400e-07,-1.250000e-02
5.408400e-07,8.750000e-03
5.488400e-07,-1.500000e-02
5.568400e-07,-1.250000e-03
5.648400e-07,-1.875000e-02
5.728400e-07,3.750000e-03
5.808400e-07,-1.250000e-03
5.888400e-07,3.250000e-02
5.968400e-07,-1.250000e-03
6.048400e-07,1.625000e-02
6.128400e-07,-1.500000e-02
6.208400e-07,1.000000e-02
6.288400e-07,-3.125000e-02
6.368400e-07,8.750000e-03
6.448400e-07,-2.625000e-02
6.528400e-07,2.750000e-02
6.608400e-07,-2.750000e-02
6.688400e-07,7.500000e-03
6.768400e-07,-2.500000e-02
6.848400e-07,-7.500000e-03
6.928400e-07,-1.750000e-02
7.008400e-07,1.250000e-03
7.088400e-07,-5.000000e-03
7.168400e-07,4.000000e-02
7.248400e-07,1.125000e-02
7.328400e-07,2.125000e-02
7.408400e-07,-1.375000e-02
7.488400e-07,2.750000e-02
7.568400e-07,-1.125000e-02
7.648400e-07,1.250000e-02
7.728400e-07,-3.375000e-02
7.808400e-07,2.750000e-02
7.888400e-07,-1.750000e-02
7.968400e-07,0.000000e+00
8.048400e-07,-6.250000e-03
8.128400e-07,1.625000e-02
