run1/run1_ch1_20210318180226302.csv

Model,MSO64
Waveform Type,ANALOG
Horizontal Units,s
Sample Interval,8.000000e-09
Record Length,1250
Zero Index,624.995000
Vertical Units,V

TIME,CH1
-4.999960e-06,-8.750000e-03
-4.991960e-06,-6.250000e-03
-4.983960e-06,-5.000000e-03
-4.975960e-06,2.375000e-02
-4.967960e-06,-1.875000e-02
-4.959960e-06,2.000000e-02
-4.951960e-06,-6.250000e-03
-4.943960e-06,3.000000e-02
-4.935960e-06,-5.000000e-03
-4.927960e-06,1.125000e-02
-4.919960e-06,-2.750000e-02
-4.911960e-06,3.750000e-03
-4.903960e-06,-2.250000e-02
-4.895960e-06,2.750000e-02
-4.887960e-06,-1.250000e-03
-4.879960e-06,2.000000e-02
-4.871960e-06,-1.125000e-02
-4.863960e-06,1.250000e-03
-4.855960e-06,-1.500000e-02
-4.847960e-06,2.500000e-03
-4.839960e-06,-1.250000e-02
-4.831960e-06,5.000000e-03
-4.823960e-06,-6.250000e-03
-4.815960e-06,2.125000e-02
-4.807960e-06,1.500000e-02
-4.799960e-06,2.000000e-02
-4.791960e-06,-3.250000e-02
-4.783960e-06,0.000000e+00
-4.775960e-06,-2.000000e-02
-4.767960e-06,3.125000e-02
-4.759960e-06,-3.125000e-02
-4.751960e-06,2.625000e-02
-4.743960e-06,-1.250000e-03
-4.735960e-06,-1.000000e-02
-4.727960e-06,-5.000000e-03
-4.719960e-06,1.500000e-02
-4.711960e-06,-2.125000e-02
-4.703960e-06,1.750000e-02
-4.695960e-06,8.750000e-03
-4.687960e-06,1.625000e-02
-4.679960e-06,-3.750000e-03
-4.671960e-06,1.125000e-02
-4.663960e-06,-1.250000e-02
-4.655960e-06,1.125000e-02
-4.647960e-06,-2.375000e-02
-4.639960e-06,5.000000e-03
-4.631960e-06,-1.250000e-02
-4.623960e-06,2.125000e-02
-4.615960e-06,-1.000000e-02
-4.607960e-06,1.750000e-02
-4.599960e-06,0.000000e+00
-4.591960e-06,1.750000e-02
-4.583960e-06,1.375000e-02
-4.575960e-06,0.000000e+00
-4.567960e-06,-3.750000e-03
-4.559960e-06,2.000000e-02
-4.551960e-06,-1.125000e-02
-4.543960e-06,7.500000e-03
-4.535960e-06,-2.875000e-02
-4.527960e-06,2.625000e-02
-4.519960e-06,-3.375000e-02
-4.511960e-06,3.125000e-02
-4.503960e-06,-4.375000e-02
-4.495960e-06,3.000000e-02
-4.487960e-06,-1.125000e-02
-4.479960e-06,7.500000e-03
-4.471960e-06,-1.250000e-03
-4.463960e-06,-1.375000e-02
-4.455960e-06,-1.000000e-02
-4.447960e-06,6.250000e-03
-4.439960e-06,-2.500000e-03
-4.431960e-06,2.375000e-02
-4.423960e-06,-5.000000e-03
-4.415960e-06,1.750000e-02
-4.407960e-06,-1.500000e-02
-4.399960e-06,0.000000e+00
-4.391960e-06,-3.000000e-02
-4.383960e-06,1.375000e-02
-4.375960e-06,-3.250000e-02
-4.367960e-06,1.250000e-03
-4.359960e-06,3.750000e-03
-4.351960e-06,1.500000e-02
-4.343960e-06,-2.375000e-02
-4.335960e-06,1.000000e-02
-4.327960e-06,-2.875000e-02
-4.319960e-06,2.500000e-03
-4.311960e-06,-5.000000e-03
-4.303960e-06,2.250000e-02
-4.295960e-06,-8.750000e-03
-4.287960e-06,1.625000e-02
-4.279960e-06,-1.750000e-02
-4.271960e-06,0.000000e+00
-4.263960e-06,-2.625000e-02
-4.255960e-06,1.500000e-02
-4.247960e-06,-1.125000e-02
-4.239960e-06,2.500000e-03
-4.231960e-06,-2.000000e-02
-4.223960e-06,6.250000e-03
-4.215960e-06,-8.750000e-03
-4.207960e-06,-3.750000e-03
-4.199960e-06,-2.000000e-02
-4.191960e-06,1.250000e-03
-4.183960e-06,-1.500000e-02
-4.175960e-06,4.875000e-02
-4.167960e-06,-2.250000e-02
-4.159960e-06,3.375000e-02
-4.151960e-06,-3.000000e-02
-4.143960e-06,1.000000e-02
-4.135960e-06,-2.875000e-02
-4.127960e-06,1.625000e-02
-4.119960e-06,-2.375000e-02
-4.111960e-06,1.250000e-02
-4.103960e-06,-7.500000e-03
-4.095960e-06,2.000000e-02
-4.087960e-06,-1.125000e-02
-4.079960e-06,1.375000e-02
-4.071960e-06,-1.250000e-02
-4.063960e-06,1.250000e-02
-4.055960e-06,-2.250000e-02
-4.047960e-06,5.000000e-03
-4.039960e-06,-2.500000e-03
-4.031960e-06,1.125000e-02
-4.023960e-06,-1.000000e-02
-4.015960e-06,2.500000e-03
-4.007960e-06,-3.500000e-02
-3.999960e-06,1.500000e-02
-3.991960e-06,-1.500000e-02
-3.983960e-06,3.625000e-02
-3.975960e-06,1.375000e-02
-3.967960e-06,0.000000e+00
-3.959960e-06,-2.250000e-02
-3.951960e-06,3.750000e-03
-3.943960e-06,-3.500000e-02
-3.935960e-06,0.000000e+00
-3.927960e-06,-2.375000e-02
-3.919960e-06,1.125000e-02
-3.911960e-06,7.500000e-03
-3.903960e-06,1.625000e-02
-3.895960e-06,-1.875000e-02
-3.887960e-06,1.500000e-02
-3.879960e-06,-1.125000e-02
-3.871960e-06,2.000000e-02
-3.863960e-06,-2.375000e-02
-3.855960e-06,2.625000e-02
-3.847960e-06,-1.125000e-02
-3.839960e-06,-1.375000e-02
-3.831960e-06,-1.500000e-02
-3.823960e-06,-3.750000e-03
-3.815960e-06,-2.125000e-02
-3.807960e-06,2.375000e-02
-3.799960e-06,-2.000000e-02
-3.791960e-06,2.625000e-02
-3.783960e-06,-1.875000e-02
-3.775960e-06,7.500000e-03
-3.767960e-06,-8.750000e-03
-3.759960e-06,3.125000e-02
-3.751960e-06,-1.750000e-02
-3.743960e-06,2.750000e-02
-3.735960e-06,-4.625000e-02
-3.727960e-06,2.500000e-02
-3.719960e-06,6.250000e-03
-3.711960e-06,1.625000e-02
-3.703960e-06,-2.500000e-02
-3.695960e-06,5.000000e-03
-3.687960e-06,-2.125000e-02
-3.679960e-06,1.625000e-02
-3.671960e-06,1.125000e-02
-3.663960e-06,2.500000e-03
-3.655960e-06,1.000000e-02
-3.647960e-06,2.375000e-02
-3.639960e-06,-5.000000e-03
-3.631960e-06,1.500000e-02
-3.623960e-06,-1.875000e-02
-3.615960e-06,2.125000e-02
-3.607960e-06,-3.750000e-03
-3.599960e-06,2.000000e-02
-3.591960e-06,1.250000e-03
-3.583960e-06,1.875000e-02
-3.575960e-06,-2.250000e-02
-3.567960e-06,1.250000e-02
-3.559960e-06,-7.500000e-03
-3.551960e-06,2.375000e-02
-3.543960e-06,7.500000e-03
-3.535960e-06,2.000000e-02
-3.527960e-06,6.250000e-03
-3.519960e-06,1.875000e-02
-3.511960e-06,-1.875000e-02
-3.503960e-06,2.250000e-02
-3.495960e-06,-4.250000e-02
-3.487960e-06,0.000000e+00
-3.479960e-06,-8.750000e-03
-3.471960e-06,1.250000e-02
-3.463960e-06,-1.625000e-02
-3.455960e-06,2.000000e-02
-3.447960e-06,-2.875000e-02
-3.439960e-06,8.750000e-03
-3.431960e-06,-2.500000e-02
-3.423960e-06,2.750000e-02
-3.415960e-06,-1.000000e-02
-3.407960e-06,3.125000e-02
-3.399960e-06,-2.500000e-03
-3.391960e-06,6.250000e-03
-3.383960e-06,-2.125000e-02
-3.375960e-06,-8.750000e-03
-3.367960e-06,-2.625000e-02
-3.359960e-06,-2.500000e-03
-3.351960e-06,-2.375000e-02
-3.343960e-06,1.125000e-02
-3.335960e-06,-1.875000e-02
-3.327960e-06,1.500000e-02
-3.319960e-06,-1.250000e-02
-3.311960e-06,1.875000e-02
-3.303960e-06,-1.250000e-03
-3.295960e-06,-5.000000e-03
-3.287960e-06,0.000000e+00
-3.279960e-06,4.125000e-02
-3.271960e-06,2.500000e-03
-3.263960e-06,1.375000e-02
-3.255960e-06,-5.000000e-03
-3.247960e-06,2.500000e-03
-3.239960e-06,-3.000000e-02
-3.231960e-06,5.000000e-03
-3.223960e-06,-3.250000e-02
-3.215960e-06,1.250000e-02
-3.207960e-06,-1.875000e-02
-3.199960e-06,-1.250000e-03
-3.191960e-06,-8.750000e-03
-3.183960e-06,2.000000e-02
-3.175960e-06,-2.500000e-03
-3.167960e-06,8.750000e-03
-3.159960e-06,-1.000000e-02
-3.151960e-06,3.375000e-02
-3.143960e-06,1.250000e-02
-3.135960e-06,1.250000e-03
-3.127960e-06,-2.625000e-02
-3.119960e-06,1.000000e-02
-3.111960e-06,-3.250000e-02
-3.103960e-06,2.375000e-02
-3.095960e-06,-2.250000e-02
-3.087960e-06,1.000000e-02
-3.079960e-06,-2.500000e-02
-3.071960e-06,1.000000e-02
-3.063960e-06,-2.875000e-02
-3.055960e-06,1.125000e-02
-3.047960e-06,-6.250000e-03
-3.039960e-06,-2.500000e-03
-3.031960e-06,0.000000e+00
-3.023960e-06,2.500000e-02
-3.015960e-06,-2.000000e-02
-3.007960e-06,2.250000e-02
-2.999960e-06,-8.750000e-03
-2.991960e-06,1.000000e-02
-2.983960e-06,-1.625000e-02
-2.975960e-06,1.250000e-03
-2.967960e-06,-8.750000e-03
-2.959960e-06,4.000000e-02
-2.951960e-06,-2.500000e-02
-2.943960e-06,-7.500000e-03
-2.935960e-06,-2.750000e-02
-2.927960e-06,1.750000e-02
-2.919960e-06,-1.375000e-02
-2.911960e-06,1.500000e-02
-2.903960e-06,-1.625000e-02
-2.895960e-06,2.000000e-02
-2.887960e-06,-3.750000e-03
-2.879960e-06,2.750000e-02
-2.871960e-06,-3.000000e-02
-2.863960e-06,1.000000e-02
-2.855960e-06,1.250000e-03
-2.847960e-06,2.125000e-02
-2.839960e-06,-1.250000e-02
-2.831960e-06,3.875000e-02
-2.823960e-06,-2.625000e-02
-2.815960e-06,1.000000e-02
-2.807960e-06,-1.750000e-02
-2.799960e-06,2.000000e-02
-2.791960e-06,-1.750000e-02
-2.783960e-06,2.750000e-02
-2.775960e-06,-1.250000e-03
-2.767960e-06,6.250000e-03
-2.759960e-06,-1.500000e-02
-2.751960e-06,2.125000e-02
-2.743960e-06,-2.000000e-02
-2.735960e-06,2.250000e-02
-2.727960e-06,-3.000000e-02
-2.719960e-06,2.250000e-02
-2.711960e-06,-1.125000e-02
-2.703960e-06,2.375000e-02
-2.695960e-06,-2.625000e-02
-2.687960e-06,5.000000e-03
-2.679960e-06,-1.500000e-02
-2.671960e-06,1.250000e-02
-2.663960e-06,-2.500000e-03
-2.655960e-06,3.750000e-03
-2.647960e-06,-1.625000e-02
-2.639960e-06,2.000000e-02
-2.631960e-06,-1.500000e-02
-2.623960e-06,-1.375000e-02
-2.615960e-06,-7.500000e-03
-2.607960e-06,2.000000e-02
-2.599960e-06,-1.500000e-02
-2.591960e-06,5.000000e-03
-2.583960e-06,-2.625000e-02
-2.575960e-06,1.500000e-02
-2.567960e-06,-1.375000e-02
-2.559960e-06,1.750000e-02
-2.551960e-06,-4.875000e-02
-2.543960e-06,5.000000e-03
-2.535960e-06,-1.250000e-03
-2.527960e-06,1.125000e-02
-2.519960e-06,-2.375000e-02
-2.511960e-06,5.000000e-03
-2.503960e-06,-1.000000e-02
-2.495960e-06,2.125000e-02
-2.487960e-06,-1.875000e-02
-2.479960e-06,1.000000e-02
-2.471960e-06,-3.500000e-02
-2.463960e-06,1.625000e-02
-2.455960e-06,-6.250000e-03
-2.447960e-06,2.250000e-02
-2.439960e-06,0.000000e+00
-2.431960e-06,5.000000e-03
-2.423960e-06,-2.750000e-02
-2.415960e-06,7.500000e-03
-2.407960e-06,-2.125000e-02
-2.399960e-06,6.250000e-03
-2.391960e-06,-1.250000e-02
-2.383960e-06,1.125000e-02
-2.375960e-06,3.750000e-03
-2.367960e-06,1.625000e-02
-2.359960e-06,5.000000e-03
-2.351960e-06,5.000000e-03
-2.343960e-06,-3.875000e-02
-2.335960e-06,2.375000e-02
-2.327960e-06,-2.375000e-02
-2.319960e-06,2.875000e-02
-2.311960e-06,-1.125000e-02
-2.303960e-06,1.500000e-02
-2.295960e-06,-5.000000e-03
-2.287960e-06,1.250000e-02
-2.279960e-06,-2.750000e-02
-2.271960e-06,2.375000e-02
-2.263960e-06,8.750000e-03
-2.255960e-06,3.000000e-02
-2.247960e-06,-5.000000e-03
-2.239960e-06,3.625000e-02
-2.231960e-06,-1.125000e-02
-2.223960e-06,1.500000e-02
-2.215960e-06,-2.500000e-02
-2.207960e-06,1.750000e-02
-2.199960e-06,-2.875000e-02
-2.191960e-06,1.250000e-02
-2.183960e-06,-1.125000e-02
-2.175960e-06,2.125000e-02
-2.167960e-06,-3.750000e-03
-2.159960e-06,3.125000e-02
-2.151960e-06,-3.750000e-03
-2.143960e-06,2.500000e-03
-2.135960e-06,-1.625000e-02
-2.127960e-06,2.750000e-02
-2.119960e-06,-6.250000e-03
-2.111960e-06,1.250000e-02
-2.103960e-06,-3.000000e-02
-2.095960e-06,1.875000e-02
-2.087960e-06,-1.500000e-02
-2.079960e-06,1.875000e-02
-2.071960e-06,-2.125000e-02
-2.063960e-06,3.000000e-02
-2.055960e-06,-2.625000e-02
-2.047960e-06,1.250000e-02
-2.039960e-06,-2.125000e-02
-2.031960e-06,-1.250000e-02
-2.023960e-06,-3.625000e-02
-2.015960e-06,1.000000e-02
-2.007960e-06,1.000000e-02
-1.999960e-06,3.625000e-02
-1.991960e-06,-1.250000e-02
-1.983960e-06,1.625000e-02
-1.975960e-06,-2.000000e-02
-1.967960e-06,8.750000e-03
-1.959960e-06,-8.750000e-03
-1.951960e-06,2.500000e-02
-1.943960e-06,-1.750000e-02
-1.935960e-06,2.625000e-02
-1.927960e-06,-1.500000e-02
-1.919960e-06,1.125000e-02
-1.911960e-06,-1.750000e-02
-1.903960e-06,3.500000e-02
-1.895960e-06,-1.625000e-02
-1.887960e-06,1.125000e-02
-1.879960e-06,0.000000e+00
-1.871960e-06,2.375000e-02
-1.863960e-06,-2.500000e-03
-1.855960e-06,1.500000e-02
-1.847960e-06,-1.125000e-02
-1.839960e-06,3.375000e-02
-1.831960e-06,-4.875000e-02
-1.823960e-06,-1.250000e-03
-1.815960e-06,-1.250000e-03
-1.807960e-06,2.125000e-02
-1.799960e-06,1.000000e-02
-1.791960e-06,-5.000000e-03
-1.783960e-06,-1.625000e-02
-1.775960e-06,1.625000e-02
-1.767960e-06,8.750000e-03
-1.759960e-06,7.500000e-03
-1.751960e-06,-2.000000e-02
-1.743960e-06,3.250000e-02
-1.735960e-06,7.500000e-03
-1.727960e-06,1.250000e-02
-1.719960e-06,-1.125000e-02
-1.711960e-06,1.125000e-02
-1.703960e-06,-1.125000e-02
-1.695960e-06,1.875000e-02
-1.687960e-06,-7.500000e-03
-1.679960e-06,2.500000e-02
-1.671960e-06,-1.375000e-02
-1.663960e-06,-2.500000e-03
-1.655960e-06,1.500000e-02
-1.647960e-06,1.250000e-02
-1.639960e-06,-1.000000e-02
-1.631960e-06,1.500000e-02
-1.623960e-06,5.000000e-03
-1.615960e-06,1.125000e-02
-1.607960e-06,-1.000000e-02
-1.599960e-06,2.250000e-02
-1.591960e-06,-1.750000e-02
-1.583960e-06,2.500000e-02
-1.575960e-06,-4.250000e-02
-1.567960e-06,1.375000e-02
-1.559960e-06,-1.250000e-02
-1.551960e-06,2.625000e-02
-1.543960e-06,-3.750000e-03
-1.535960e-06,1.375000e-02
-1.527960e-06,0.000000e+00
-1.519960e-06,3.750000e-03
-1.511960e-06,-6.125000e-02
-1.503960e-06,8.750000e-03
-1.495960e-06,1.250000e-02
-1.487960e-06,2.000000e-02
-1.479960e-06,-7.500000e-03
-1.471960e-06,7.500000e-03
-1.463960e-06,-2.250000e-02
-1.455960e-06,2.375000e-02
-1.447960e-06,-2.000000e-02
-1.439960e-06,2.750000e-02
-1.431960e-06,2.500000e-03
-1.423960e-06,3.625000e-02
-1.415960e-06,-1.750000e-02
-1.407960e-06,2.125000e-02
-1.399960e-06,-8.750000e-03
-1.391960e-06,8.750000e-03
-1.383960e-06,-2.250000e-02
-1.375960e-06,2.500000e-03
-1.367960e-06,-1.375000e-02
-1.359960e-06,1.375000e-02
-1.351960e-06,-1.750000e-02
-1.343960e-06,2.500000e-03
-1.335960e-06,-1.500000e-02
-1.327960e-06,1.125000e-02
-1.319960e-06,-3.250000e-02
-1.311960e-06,2.875000e-02
-1.303960e-06,-8.750000e-03
-1.295960e-06,2.375000e-02
-1.287960e-06,-2.000000e-02
-1.279960e-06,7.500000e-03
-1.271960e-06,-2.750000e-02
-1.263960e-06,1.625000e-02
-1.255960e-06,-3.375000e-02
-1.247960e-06,1.000000e-02
-1.239960e-06,3.750000e-03
-1.231960e-06,2.875000e-02
-1.223960e-06,1.750000e-02
-1.215960e-06,2.000000e-02
-1.207960e-06,-2.250000e-02
-1.199960e-06,1.375000e-02
-1.191960e-06,3.750000e-03
-1.183960e-06,1.125000e-02
-1.175960e-06,0.000000e+00
-1.167960e-06,3.375000e-02
-1.159960e-06,-1.875000e-02
-1.151960e-06,2.000000e-02
-1.143960e-06,-2.000000e-02
-1.135960e-06,5.000000e-03
-1.127960e-06,2.500000e-03
-1.119960e-06,-5.000000e-03
-1.111960e-06,-3.750000e-03
-1.103960e-06,2.125000e-02
-1.095960e-06,2.500000e-03
-1.087960e-06,2.500000e-02
-1.079960e-06,-4.500000e-02
-1.071960e-06,1.250000e-03
-1.063960e-06,-2.625000e-02
-1.055960e-06,2.125000e-02
-1.047960e-06,-2.875000e-02
-1.039960e-06,3.000000e-02
-1.031960e-06,2.500000e-03
-1.023960e-06,3.375000e-02
-1.015960e-06,-2.125000e-02
-1.007960e-06,1.250000e-02
-9.999600e-07,-2.750000e-02
-9.919600e-07,-5.000000e-03
-9.839600e-07,-1.375000e-02
-9.759600e-07,2.375000e-02
-9.679600e-07,-6.250000e-03
-9.599600e-07,-2.500000e-03
-9.519600e-07,-5.000000e-03
-9.439600e-07,1.250000e-03
-9.359600e-07,-1.000000e-02
-9.279600e-07,1.750000e-02
-9.199600e-07,-2.250000e-02
-9.119600e-07,-6.250000e-03
-9.039600e-07,-3.750000e-03
-8.959600e-07,1.500000e-02
-8.879600e-07,-7.500000e-03
-8.799600e-07,2.250000e-02
-8.719600e-07,-2.125000e-02
-8.639600e-07,1.375000e-02
-8.559600e-07,-2.000000e-02
-8.479600e-07,8.750000e-03
-8.399600e-07,-7.500000e-03
-8.319600e-07,3.750000e-02
-8.239600e-07,1.000000e-02
-8.159600e-07,7.500000e-03
-8.079600e-07,-2.375000e-02
-7.999600e-07,3.000000e-02
-7.919600e-07,-7.500000e-03
-7.839600e-07,5.000000e-02
-7.759600e-07,0.000000e+00
-7.679600e-07,2.125000e-02
-7.599600e-07,0.000000e+00
-7.519600e-07,1.500000e-02
-7.439600e-07,-1.000000e-02
-7.359600e-07,-1.250000e-03
-7.279600e-07,1.875000e-02
-7.199600e-07,1.750000e-02
-7.119600e-07,1.375000e-02
-7.039600e-07,1.125000e-02
-6.959600e-07,-1.125000e-02
-6.879600e-07,0.000000e+00
-6.799600e-07,-5.000000e-03
-6.719600e-07,3.250000e-02
-6.639600e-07,-1.500000e-02
-6.559600e-07,1.625000e-02
-6.479600e-07,-2.500000e-03
-6.399600e-07,2.625000e-02
-6.319600e-07,7.500000e-03
-6.239600e-07,2.125000e-02
-6.159600e-07,-1.625000e-02
-6.079600e-07,1.875000e-02
-5.999600e-07,-2.000000e-02
-5.919600e-07,1.875000e-02
-5.839600e-07,0.000000e+00
-5.759600e-07,2.625000e-02
-5.679600e-07,-7.500000e-03
-5.599600e-07,3.750000e-03
-5.519600e-07,-2.750000e-02
-5.439600e-07,1.250000e-02
-5.359600e-07,-2.500000e-03
-5.279600e-07,2.625000e-02
-5.199600e-07,-1.500000e-02
-5.119600e-07,1.125000e-02
-5.039600e-07,-3.000000e-02
-4.959600e-07,3.750000e-03
-4.879600e-07,1.250000e-03
-4.799600e-07,2.125000e-02
-4.719600e-07,1.000000e-02
-4.639600e-07,2.625000e-02
-4.559600e-07,1.250000e-03
-4.479600e-07,1.625000e-02
-4.399600e-07,-3.125000e-02
-4.319600e-07,8.750000e-03
-4.239600e-07,-3.625000e-02
-4.159600e-07,1.250000e-02
-4.079600e-07,-1.250000e-02
-3.999600e-07,2.750000e-02
-3.919600e-07,-4.375000e-02
-3.839600e-07,-1.125000e-02
-3.759600e-07,-1.875000e-02
-3.679600e-07,2.875000e-02
-3.599600e-07,-4.875000e-02
-3.519600e-07,1.375000e-02
-3.439600e-07,1.250000e-03
-3.359600e-07,3.125000e-02
-3.279600e-07,-1.875000e-02
-3.199600e-07,3.750000e-02
-3.119600e-07,-2.875000e-02
-3.039600e-07,2.375000e-02
-2.959600e-07,-3.000000e-02
-2.879600e-07,2.500000e-03
-2.799600e-07,-1.500000e-02
-2.719600e-07,7.500000e-03
-2.639600e-07,2.500000e-03
-2.559600e-07,8.750000e-03
-2.479600e-07,-2.500000e-02
-2.399600e-07,1.750000e-02
-2.319600e-07,-2.000000e-02
-2.239600e-07,1.250000e-02
-2.159600e-07,-1.000000e-02
-2.079600e-07,3.750000e-03
-1.999600e-07,3.750000e-03
-1.919600e-07,0.000000e+00
-1.839600e-07,-1.250000e-02
-1.759600e-07,2.625000e-02
-1.679600e-07,-3.125000e-02
-1.599600e-07,3.750000e-03
-1.519600e-07,-1.000000e-02
-1.439600e-07,3.625000e-02
-1.359600e-07,-2.750000e-02
-1.279600e-07,1.125000e-02
-1.199600e-07,-1.250000e-03
-1.119600e-07,5.000000e-03
-1.039600e-07,-2.500000e-02
-9.596000e-08,1.875000e-02
-8.796000e-08,-1.625000e-02
-7.996000e-08,2.500000e-02
-7.196000e-08,-1.250000e-03
-6.396000e-08,1.375000e-02
-5.596000e-08,-3.750000e-03
-4.796000e-08,3.125000e-02
-3.996000e-08,-1.401250e+00
-3.196000e-08,-1.417500e+00
-2.396000e-08,-1.431250e+00
-1.596000e-08,-1.367500e+00
-7.960000e-09,-5.000000e-02
4.000000e-11,2.625000e-02
8.040000e-09,-1.250000e-02
1.604000e-08,1.375000e-02
2.404000e-08,-1.250000e-02
3.204000e-08,1.875000e-02
4.004000e-08,3.750000e-03
4.804000e-08,-3.750000e-03
5.604000e-08,-2.125000e-02
6.404000e-08,8.750000e-03
7.204000e-08,-1.000000e-02
8.004000e-08,2.125000e-02
8.804000e-08,-2.500000e-03
9.604000e-08,1.750000e-02
1.040400e-07,-1.750000e-02
1.120400e-07,2.875000e-02
1.200400e-07,1.000000e-02
1.280400e-07,3.250000e-02
1.360400e-07,7.500000e-03
1.440400e-07,0.000000e+00
1.520400e-07,-1.625000e-02
1.600400e-07,3.625000e-02
1.680400e-07,-2.000000e-02
1.760400e-07,1.250000e-02
1.840400e-07,1.000000e-02
1.920400e-07,1.625000e-02
2.000400e-07,-2.500000e-03
2.080400e-07,-1.250000e-02
2.160400e-07,-3.125000e-02
2.240400e-07,1.000000e-02
2.320400e-07,-4.125000e-02
2.400400e-07,2.875000e-02
2.480400e-07,1.000000e-02
2.560400e-07,3.750000e-03
2.640400e-07,-1.250000e-02
2.720400e-07,8.750000e-03
2.800400e-07,-2.000000e-02
2.880400e-07,2.750000e-02
2.960400e-07,-7.500000e-03
3.040400e-07,3.500000e-02
3.120400e-07,-5.000000e-03
3.200400e-07,2.000000e-02
3.280400e-07,-2.500000e-02
3.360400e-07,1.250000e-02
3.440400e-07,-4.750000e-02
3.520400e-07,8.750000e-03
3.600400e-07,-2.250000e-02
3.680400e-07,2.000000e-02
3.760400e-07,-1.875000e-02
3.840400e-07,8.750000e-03
3.920400e-07,-1.625000e-02
4.000400e-07,1.500000e-02
4.080400e-07,-2.625000e-02
4.160400e-07,-2.500000e-03
4.240400e-07,7.500000e-03
4.320400e-07,8.750000e-03
4.400400e-07,-2.375000e-02
4.480400e-07,1.375000e-02
4.560400e-07,-3.000000e-02
4.640400e-07,1.500000e-02
4.720400e-07,-3.125000e-02
4.800400e-07,2.750000e-02
4.880400e-07,-3.625000e-02
4.960400e-07,1.875000e-02
5.040400e-07,-2.625000e-02
5.120400e-07,8.750000e-03
5.200400e-07,-6.250000e-03
5.280400e-07,0.000000e+00
5.360400e-07,-1.000000e-02
5.440400e-07,2.000000e-02
5.520400e-07,-1.500000e-02
5.600400e-07,2.750000e-02
5.680400e-07,-1.500000e-02
5.760400e-07,3.000000e-02
5.840400e-07,1.250000e-03
5.920400e-07,-1.250000e-03
6.000400e-07,-5.125000e-02
6.080400e-07,2.500000e-02
6.160400e-07,-4.125000e-02
6.240400e-07,2.625000e-02
6.320400e-07,-8.750000e-03
6.400400e-07,3.750000e-03
6.480400e-07,-1.750000e-02
6.560400e-07,1.375000e-02
6.640400e-07,-3.250000e-02
6.720400e-07,2.125000e-02
6.800400e-07,7.500000e-03
6.880400e-07,1.250000e-03
6.960400e-07,-5.000000e-03
7.040400e-07,3.000000e-02
7.120400e-07,-3.000000e-02
7.200400e-07,1.875000e-02
7.280400e-07,-1.750000e-02
7.360400e-07,-2.500000e-03
7.440400e-07,-2.125000e-02
7.520400e-07,1.875000e-02
7.600400e-07,-3.000000e-02
7.680400e-07,1.500000e-02
7.760400e-07,-3.750000e-03
7.840400e-07,-3.750000e-03
7.920400e-07,-2.875000e-02
8.000400e-07,2.500000e-03
