run1/run1_ch1_20210318180134591.csv

Model,MSO64
Waveform Type,ANALOG
Horizontal Units,s
Sample Interval,8.000000e-09
Record Length,1250
Zero Index,624.767656
Vertical Units,V

TIME,CH1
-4.998141e-06,-2.500000e-03
-4.990141e-06,-1.250000e-03
-4.982141e-06,-2.125000e-02
-4.974141e-06,1.375000e-02
-4.966141e-06,-2.500000e-02
-4.958141e-06,2.500000e-02
-4.950141e-06,-2.500000e-02
-4.942141e-06,1.500000e-02
-4.934141e-06,-3.625000e-02
-4.926141e-06,1.250000e-02
-4.918141e-06,-1.250000e-02
-4.910141e-06,1.875000e-02
-4.902141e-06,-6.250000e-03
-4.894141e-06,1.000000e-02
-4.886141e-06,-1.500000e-02
-4.878141e-06,-7.500000e-03
-4.870141e-06,-1.750000e-02
-4.862141e-06,2.500000e-02
-4.854141e-06,-2.625000e-02
-4.846141e-06,1.625000e-02
-4.838141e-06,-8.750000e-03
-4.830141e-06,1.875000e-02
-4.822141e-06,-3.250000e-02
-4.814141e-06,1.250000e-02
-4.806141e-06,-8.750000e-03
-4.798141e-06,3.125000e-02
-4.790141e-06,-2.500000e-03
-4.782141e-06,2.500000e-03
-4.774141e-06,-4.000000e-02
-4.766141e-06,3.375000e-02
-4.758141e-06,-2.250000e-02
-4.750141e-06,2.750000e-02
-4.742141e-06,-1.750000e-02
-4.734141e-06,1.000000e-02
-4.726141e-06,3.750000e-03
-4.718141e-06,1.250000e-02
-4.710141e-06,-4.625000e-02
-4.702141e-06,2.250000e-02
-4.694141e-06,-2.250000e-02
-4.686141e-06,1.375000e-02
-4.678141e-06,-1.000000e-02
-4.670141e-06,2.500000e-02
-4.662141e-06,5.000000e-03
-4.654141e-06,1.250000e-02
-4.646141e-06,-1.625000e-02
-4.638141e-06,-1.250000e-03
-4.630141e-06,-3.750000e-03
-4.622141e-06,1.250000e-02
-4.614141e-06,1.125000e-02
-4.606141e-06,3.250000e-02
-4.598141e-06,-1.750000e-02
-4.590141e-06,3.875000e-02
-4.582141e-06,-4.125000e-02
-4.574141e-06,3.125000e-02
-4.566141e-06,-3.250000e-02
-4.558141e-06,2.250000e-02
-4.550141e-06,-2.125000e-02
-4.542141e-06,2.000000e-02
-4.534141e-06,-1.750000e-02
-4.526141e-06,1.500000e-02
-4.518141e-06,-2.750000e-02
-4.510141e-06,3.000000e-02
-4.502141e-06,-8.750000e-03
-4.494141e-06,-1.250000e-03
-4.486141e-06,-7.500000e-03
-4.478141e-06,4.250000e-02
-4.470141e-06,5.000000e-03
-4.462141e-06,1.125000e-02
-4.454141e-06,-2.250000e-02
-4.446141e-06,2.625000e-02
-4.438141e-06,-2.500000e-03
-4.430141e-06,1.250000e-02
-4.422141e-06,-1.250000e-02
-4.414141e-06,2.000000e-02
-4.406141e-06,8.750000e-03
-4.398141e-06,3.250000e-02
-4.390141e-06,-1.000000e-02
-4.382141e-06,1.500000e-02
-4.374141e-06,-4.000000e-02
-4.366141e-06,-1.250000e-03
-4.358141e-06,0.000000e+00
-4.350141e-06,3.750000e-03
-4.342141e-06,8.750000e-03
-4.334141e-06,1.000000e-02
-4.326141e-06,-1.500000e-02
-4.318141e-06,3.000000e-02
-4.310141e-06,-2.000000e-02
-4.302141e-06,1.500000e-02
-4.294141e-06,-6.250000e-03
-4.286141e-06,3.750000e-03
-4.278141e-06,-2.375000e-02
-4.270141e-06,-1.250000e-03
-4.262141e-06,-1.625000e-02
-4.254141e-06,2.500000e-02
-4.246141e-06,-1.750000e-02
-4.238141e-06,2.250000e-02
-4.230141e-06,8.750000e-03
-4.222141e-06,1.125000e-02
-4.214141e-06,8.750000e-03
-4.206141e-06,2.250000e-02
-4.198141e-06,-1.000000e-02
-4.190141e-06,1.125000e-02
-4.182141e-06,-2.625000e-02
-4.174141e-06,1.500000e-02
-4.166141e-06,-2.375000e-02
-4.158141e-06,2.125000e-02
-4.150141e-06,-2.875000e-02
-4.142141e-06,1.625000e-02
-4.134141e-06,-3.625000e-02
-4.126141e-06,0.000000e+00
-4.118141e-06,-1.875000e-02
-4.110141e-06,1.500000e-02
-4.102141e-06,-1.250000e-02
-4.094141e-06,3.500000e-02
-4.086141e-06,8.750000e-03
-4.078141e-06,7.500000e-03
-4.070141e-06,-2.250000e-02
-4.062141e-06,2.750000e-02
-4.054141e-06,-1.750000e-02
-4.046141e-06,-3.750000e-03
-4.038141e-06,-8.750000e-03
-4.030141e-06,5.000000e-03
-4.022141e-06,-2.375000e-02
-4.014141e-06,1.250000e-02
-4.006141e-06,-3.250000e-02
-3.998141e-06,1.250000e-03
-3.990141e-06,-2.375000e-02
-3.982141e-06,1.500000e-02
-3.974141e-06,-8.750000e-03
-3.966141e-06,3.750000e-02
-3.958141e-06,1.250000e-03
-3.950141e-06,1.375000e-02
-3.942141e-06,-2.500000e-03
-3.934141e-06,1.750000e-02
-3.926141e-06,-2.500000e-02
-3.918141e-06,2.375000e-02
-3.910141e-06,-2.625000e-02
-3.902141e-06,2.750000e-02
-3.894141e-06,-7.500000e-03
-3.886141e-06,7.500000e-03
-3.878141e-06,-1.000000e-02
-3.870141e-06,8.750000e-03
-3.862141e-06,0.000000e+00
-3.854141e-06,1.375000e-02
-3.846141e-06,8.750000e-03
-3.838141e-06,2.500000e-03
-3.830141e-06,-7.500000e-03
-3.822141e-06,2.500000e-02
-3.814141e-06,-2.375000e-02
-3.806141e-06,2.500000e-02
-3.798141e-06,3.750000e-03
-3.790141e-06,7.500000e-03
-3.782141e-06,-1.375000e-02
-3.774141e-06,2.250000e-02
-3.766141e-06,-5.000000e-03
-3.758141e-06,6.250000e-03
-3.750141e-06,-2.375000e-02
-3.742141e-06,6.250000e-03
-3.734141e-06,-1.250000e-03
-3.726141e-06,-1.250000e-02
-3.718141e-06,-1.125000e-02
-3.710141e-06,2.875000e-02
-3.702141e-06,-5.000000e-03
-3.694141e-06,-5.000000e-03
-3.686141e-06,-8.750000e-03
-3.678141e-06,-3.750000e-03
-3.670141e-06,-1.125000e-02
-3.662141e-06,1.125000e-02
-3.654141e-06,-2.625000e-02
-3.646141e-06,3.625000e-02
-3.638141e-06,-2.000000e-02
-3.630141e-06,1.125000e-02
-3.622141e-06,-1.125000e-02
-3.614141e-06,2.500000e-02
-3.606141e-06,-4.250000e-02
-3.598141e-06,1.250000e-02
-3.590141e-06,-6.250000e-03
-3.582141e-06,8.750000e-03
-3.574141e-06,-7.500000e-03
-3.566141e-06,5.000000e-03
-3.558141e-06,-2.500000e-03
-3.550141e-06,8.750000e-03
-3.542141e-06,-3.750000e-02
-3.534141e-06,8.750000e-03
-3.526141e-06,-3.125000e-02
-3.518141e-06,2.375000e-02
-3.510141e-06,-5.000000e-03
-3.502141e-06,1.250000e-02
-3.494141e-06,-1.000000e-02
-3.486141e-06,2.375000e-02
-3.478141e-06,-1.500000e-02
-3.470141e-06,-1.250000e-02
-3.462141e-06,-7.500000e-03
-3.454141e-06,4.125000e-02
-3.446141e-06,-1.125000e-02
-3.438141e-06,2.000000e-02
-3.430141e-06,-7.500000e-03
-3.422141e-06,2.500000e-03
-3.414141e-06,-1.500000e-02
-3.406141e-06,1.750000e-02
-3.398141e-06,1.000000e-02
-3.390141e-06,2.125000e-02
-3.382141e-06,-2.250000e-02
-3.374141e-06,3.625000e-02
-3.366141e-06,-3.750000e-03
-3.358141e-06,3.750000e-03
-3.350141e-06,-1.000000e-02
-3.342141e-06,2.625000e-02
-3.334141e-06,-8.750000e-03
-3.326141e-06,4.875000e-02
-3.318141e-06,5.000000e-03
-3.310141e-06,2.000000e-02
-3.302141e-06,-2.375000e-02
-3.294141e-06,8.750000e-03
-3.286141e-06,-2.375000e-02
-3.278141e-06,2.125000e-02
-3.270141e-06,-1.250000e-03
-3.262141e-06,3.000000e-02
-3.254141e-06,-2.000000e-02
-3.246141e-06,1.125000e-02
-3.238141e-06,-2.375000e-02
-3.230141e-06,1.750000e-02
-3.222141e-06,-1.000000e-02
-3.214141e-06,2.375000e-02
-3.206141e-06,8.750000e-03
-3.198141e-06,2.000000e-02
-3.190141e-06,0.000000e+00
-3.182141e-06,1.500000e-02
-3.174141e-06,-8.750000e-03
-3.166141e-06,2.500000e-02
-3.158141e-06,-4.000000e-02
-3.150141e-06,1.625000e-02
-3.142141e-06,-7.500000e-03
-3.134141e-06,2.375000e-02
-3.126141e-06,1.125000e-02
-3.118141e-06,1.000000e-02
-3.110141e-06,-5.000000e-03
-3.102141e-06,2.125000e-02
-3.094141e-06,-1.375000e-02
-3.086141e-06,7.500000e-03
-3.078141e-06,-8.750000e-03
-3.070141e-06,2.875000e-02
-3.062141e-06,-2.000000e-02
-3.054141e-06,1.250000e-03
-3.046141e-06,-5.000000e-03
-3.038141e-06,3.000000e-02
-3.030141e-06,-2.125000e-02
-3.022141e-06,5.000000e-03
-3.014141e-06,-1.125000e-02
-3.006141e-06,3.250000e-02
-2.998141e-06,-3.750000e-03
-2.990141e-06,-1.000000e-02
-2.982141e-06,-1.125000e-02
-2.974141e-06,1.000000e-02
-2.966141e-06,-1.750000e-02
-2.958141e-06,0.000000e+00
-2.950141e-06,-1.375000e-02
-2.942141e-06,2.125000e-02
-2.934141e-06,-1.250000e-03
-2.926141e-06,1.625000e-02
-2.918141e-06,-1.000000e-02
-2.910141e-06,8.750000e-03
-2.902141e-06,-3.625000e-02
-2.894141e-06,2.875000e-02
-2.886141e-06,-8.750000e-03
-2.878141e-06,3.875000e-02
-2.870141e-06,-2.125000e-02
-2.862141e-06,2.500000e-03
-2.854141e-06,-2.000000e-02
-2.846141e-06,1.125000e-02
-2.838141e-06,-1.000000e-02
-2.830141e-06,2.625000e-02
-2.822141e-06,-3.750000e-03
-2.814141e-06,2.500000e-02
-2.806141e-06,-6.250000e-03
-2.798141e-06,3.750000e-03
-2.790141e-06,2.500000e-03
-2.782141e-06,1.750000e-02
-2.774141e-06,2.500000e-03
-2.766141e-06,4.250000e-02
-2.758141e-06,-3.750000e-03
-2.750141e-06,2.625000e-02
-2.742141e-06,-7.500000e-03
-2.734141e-06,-7.500000e-03
-2.726141e-06,-2.500000e-03
-2.718141e-06,0.000000e+00
-2.710141e-06,-3.125000e-02
-2.702141e-06,2.500000e-02
-2.694141e-06,2.500000e-03
-2.686141e-06,1.750000e-02
-2.678141e-06,7.500000e-03
-2.670141e-06,3.125000e-02
-2.662141e-06,-1.000000e-02
-2.654141e-06,2.500000e-02
-2.646141e-06,-2.250000e-02
-2.638141e-06,2.125000e-02
-2.630141e-06,-1.250000e-03
-2.622141e-06,2.875000e-02
-2.614141e-06,-2.250000e-02
-2.606141e-06,-2.500000e-03
-2.598141e-06,-1.375000e-02
-2.590141e-06,2.750000e-02
-2.582141e-06,-1.125000e-02
-2.574141e-06,1.625000e-02
-2.566141e-06,-7.500000e-03
-2.558141e-06,2.250000e-02
-2.550141e-06,-2.500000e-03
-2.542141e-06,6.250000e-03
-2.534141e-06,-7.500000e-03
-2.526141e-06,1.875000e-02
-2.518141e-06,-3.875000e-02
-2.510141e-06,2.625000e-02
-2.502141e-06,-6.250000e-03
-2.494141e-06,1.875000e-02
-2.486141e-06,3.750000e-03
-2.478141e-06,1.375000e-02
-2.470141e-06,-2.000000e-02
-2.462141e-06,1.500000e-02
-2.454141e-06,-1.750000e-02
-2.446141e-06,2.250000e-02
-2.438141e-06,0.000000e+00
-2.430141e-06,2.125000e-02
-2.422141e-06,-2.125000e-02
-2.414141e-06,1.500000e-02
-2.406141e-06,-1.875000e-02
-2.398141e-06,3.500000e-02
-2.390141e-06,-2.250000e-02
-2.382141e-06,1.750000e-02
-2.374141e-06,8.750000e-03
-2.366141e-06,5.000000e-03
-2.358141e-06,-2.500000e-02
-2.350141e-06,4.000000e-02
-2.342141e-06,-2.250000e-02
-2.334141e-06,3.750000e-02
-2.326141e-06,-2.000000e-02
-2.318141e-06,1.750000e-02
-2.310141e-06,-1.000000e-02
-2.302141e-06,2.500000e-03
-2.294141e-06,-1.625000e-02
-2.286141e-06,-8.750000e-03
-2.278141e-06,-1.000000e-02
-2.270141e-06,3.250000e-02
-2.262141e-06,-3.250000e-02
-2.254141e-06,2.625000e-02
-2.246141e-06,-1.875000e-02
-2.238141e-06,8.750000e-03
-2.230141e-06,1.250000e-03
-2.222141e-06,2.875000e-02
-2.214141e-06,-1.375000e-02
-2.206141e-06,1.250000e-02
-2.198141e-06,-1.250000e-02
-2.190141e-06,2.250000e-02
-2.182141e-06,1.000000e-02
-2.174141e-06,3.250000e-02
-2.166141e-06,-1.625000e-02
-2.158141e-06,2.375000e-02
-2.150141e-06,-7.500000e-03
-2.142141e-06,3.625000e-02
-2.134141e-06,-3.625000e-02
-2.126141e-06,2.500000e-03
-2.118141e-06,-8.750000e-03
-2.110141e-06,3.625000e-02
-2.102141e-06,-1.000000e-02
-2.094141e-06,1.875000e-02
-2.086141e-06,-1.500000e-02
-2.078141e-06,-6.250000e-03
-2.070141e-06,-2.125000e-02
-2.062141e-06,1.625000e-02
-2.054141e-06,-1.375000e-02
-2.046141e-06,2.375000e-02
-2.038141e-06,-6.250000e-03
-2.030141e-06,-6.250000e-03
-2.022141e-06,-2.000000e-02
-2.014141e-06,0.000000e+00
-2.006141e-06,-2.875000e-02
-1.998141e-06,5.000000e-03
-1.990141e-06,-2.625000e-02
-1.982141e-06,1.375000e-02
-1.974141e-06,-8.750000e-03
-1.966141e-06,6.250000e-03
-1.958141e-06,-1.250000e-02
-1.950141e-06,-5.000000e-03
-1.942141e-06,-1.250000e-03
-1.934141e-06,1.375000e-02
-1.926141e-06,-1.500000e-02
-1.918141e-06,1.000000e-02
-1.910141e-06,-1.125000e-02
-1.902141e-06,1.375000e-02
-1.894141e-06,-1.625000e-02
-1.886141e-06,-6.250000e-03
-1.878141e-06,-1.375000e-02
-1.870141e-06,1.875000e-02
-1.862141e-06,-1.875000e-02
-1.854141e-06,3.750000e-03
-1.846141e-06,-2.625000e-02
-1.838141e-06,2.250000e-02
-1.830141e-06,-3.500000e-02
-1.822141e-06,2.750000e-02
-1.814141e-06,-2.250000e-02
-1.806141e-06,2.125000e-02
-1.798141e-06,-7.500000e-03
-1.790141e-06,2.500000e-02
-1.782141e-06,-2.375000e-02
-1.774141e-06,1.125000e-02
-1.766141e-06,-1.000000e-02
-1.758141e-06,6.250000e-03
-1.750141e-06,-1.375000e-02
-1.742141e-06,1.375000e-02
-1.734141e-06,-1.625000e-02
-1.726141e-06,1.750000e-02
-1.718141e-06,-7.500000e-03
-1.710141e-06,2.125000e-02
-1.702141e-06,-2.750000e-02
-1.694141e-06,1.750000e-02
-1.686141e-06,-1.625000e-02
-1.678141e-06,1.125000e-02
-1.670141e-06,-5.000000e-03
-1.662141e-06,5.000000e-03
-1.654141e-06,-3.375000e-02
-1.646141e-06,1.625000e-02
-1.638141e-06,-1.500000e-02
-1.630141e-06,7.500000e-03
-1.622141e-06,-3.875000e-02
-1.614141e-06,1.375000e-02
-1.606141e-06,-1.375000e-02
-1.598141e-06,3.750000e-02
-1.590141e-06,-2.500000e-03
-1.582141e-06,5.000000e-03
-1.574141e-06,-2.125000e-02
-1.566141e-06,1.500000e-02
-1.558141e-06,-8.750000e-03
-1.550141e-06,1.375000e-02
-1.542141e-06,-1.125000e-02
-1.534141e-06,1.500000e-02
-1.526141e-06,-1.500000e-02
-1.518141e-06,3.000000e-02
-1.510141e-06,-1.875000e-02
-1.502141e-06,1.250000e-03
-1.494141e-06,-2.500000e-02
-1.486141e-06,1.500000e-02
-1.478141e-06,-2.625000e-02
-1.470141e-06,1.625000e-02
-1.462141e-06,-1.625000e-02
-1.454141e-06,2.375000e-02
-1.446141e-06,-2.000000e-02
-1.438141e-06,1.375000e-02
-1.430141e-06,-3.125000e-02
-1.422141e-06,1.250000e-02
-1.414141e-06,-1.250000e-02
-1.406141e-06,2.500000e-03
-1.398141e-06,-2.875000e-02
-1.390141e-06,2.875000e-02
-1.382141e-06,-2.250000e-02
-1.374141e-06,1.250000e-02
-1.366141e-06,-2.875000e-02
-1.358141e-06,2.500000e-02
-1.350141e-06,-2.375000e-02
-1.342141e-06,4.250000e-02
-1.334141e-06,1.250000e-03
-1.326141e-06,8.750000e-03
-1.318141e-06,-1.875000e-02
-1.310141e-06,1.125000e-02
-1.302141e-06,-1.875000e-02
-1.294141e-06,2.000000e-02
-1.286141e-06,-2.375000e-02
-1.278141e-06,1.375000e-02
-1.270141e-06,-8.750000e-03
-1.262141e-06,1.500000e-02
-1.254141e-06,-8.750000e-03
-1.246141e-06,1.875000e-02
-1.238141e-06,-2.125000e-02
-1.230141e-06,2.125000e-02
-1.222141e-06,-2.000000e-02
-1.214141e-06,2.375000e-02
-1.206141e-06,-2.500000e-03
-1.198141e-06,-5.000000e-03
-1.190141e-06,-2.500000e-02
-1.182141e-06,3.750000e-03
-1.174141e-06,-1.125000e-02
-1.166141e-06,8.750000e-03
-1.158141e-06,1.250000e-02
-1.150141e-06,1.625000e-02
-1.142141e-06,-5.000000e-03
-1.134141e-06,3.250000e-02
-1.126141e-06,6.250000e-03
-1.118141e-06,-6.250000e-03
-1.110141e-06,-1.125000e-02
-1.102141e-06,-3.750000e-03
-1.094141e-06,-1.500000e-02
-1.086141e-06,3.375000e-02
-1.078141e-06,-1.000000e-02
-1.070141e-06,2.250000e-02
-1.062141e-06,-7.500000e-03
-1.054141e-06,5.000000e-03
-1.046141e-06,-2.750000e-02
-1.038141e-06,1.500000e-02
-1.030141e-06,-3.500000e-02
-1.022141e-06,2.000000e-02
-1.014141e-06,-1.125000e-02
-1.006141e-06,1.625000e-02
-9.981412e-07,-2.625000e-02
-9.901412e-07,2.500000e-03
-9.821412e-07,-1.750000e-02
-9.741412e-07,1.375000e-02
-9.661412e-07,-2.000000e-02
-9.581412e-07,2.750000e-02
-9.501412e-07,-2.375000e-02
-9.421412e-07,2.000000e-02
-9.341412e-07,-8.750000e-03
-9.261412e-07,3.750000e-03
-9.181412e-07,-1.625000e-02
-9.101412e-07,1.125000e-02
-9.021412e-07,1.375000e-02
-8.941412e-07,3.000000e-02
-8.861412e-07,-1.125000e-02
-8.781412e-07,7.500000e-03
-8.701412e-07,-1.625000e-02
-8.621412e-07,3.500000e-02
-8.541412e-07,-2.125000e-02
-8.461412e-07,2.875000e-02
-8.381412e-07,-1.625000e-02
-8.301412e-07,1.375000e-02
-8.221412e-07,1.000000e-02
-8.141412e-07,1.250000e-02
-8.061412e-07,-1.250000e-02
-7.981412e-07,3.625000e-02
-7.901412e-07,-3.750000e-02
-7.821412e-07,1.625000e-02
-7.741412e-07,-1.250000e-02
-7.661412e-07,3.375000e-02
-7.581412e-07,-2.500000e-02
-7.501412e-07,1.375000e-02
-7.421412e-07,-2.125000e-02
-7.341412e-07,3.750000e-03
-7.261412e-07,-3.500000e-02
-7.181412e-07,2.000000e-02
-7.101412e-07,0.000000e+00
-7.021412e-07,2.625000e-02
-6.941412e-07,-1.500000e-02
-6.861412e-07,3.125000e-02
-6.781412e-07,-3.750000e-03
-6.701412e-07,2.500000e-02
-6.621412e-07,-1.125000e-02
-6.541412e-07,3.750000e-03
-6.461412e-07,-2.625000e-02
-6.381412e-07,1.125000e-02
-6.301412e-07,-2.250000e-02
-6.221412e-07,1.250000e-02
-6.141412e-07,-1.500000e-02
-6.061412e-07,-1.125000e-02
-5.981412e-07,-4.625000e-02
-5.901412e-07,5.000000e-03
-5.821412e-07,-2.625000e-02
-5.741412e-07,4.000000e-02
-5.661412e-07,-1.500000e-02
-5.581412e-07,2.625000e-02
-5.501412e-07,-1.500000e-02
-5.421412e-07,2.250000e-02
-5.341412e-07,-1.375000e-02
-5.261412e-07,-1.125000e-02
-5.181412e-07,1.250000e-03
-5.101412e-07,1.625000e-02
-5.021412e-07,-6.250000e-03
-4.941412e-07,1.250000e-02
-4.861412e-07,-2.000000e-02
-4.781412e-07,7.500000e-03
-4.701412e-07,-4.375000e-02
-4.621412e-07,2.000000e-02
-4.541412e-07,2.500000e-03
-4.461412e-07,1.875000e-02
-4.381412e-07,-3.625000e-02
-4.301412e-07,1.125000e-02
-4.221412e-07,-2.125000e-02
-4.141412e-07,7.500000e-03
-4.061412e-07,-3.375000e-02
-3.981412e-07,-1.375000e-02
-3.901412e-07,-1.125000e-02
-3.821412e-07,1.625000e-02
-3.741412e-07,-1.875000e-02
-3.661412e-07,3.750000e-03
-3.581412e-07,-3.000000e-02
-3.501412e-07,2.375000e-02
-3.421412e-07,-3.000000e-02
-3.341412e-07,0.000000e+00
-3.261412e-07,-1.375000e-02
-3.181412e-07,2.625000e-02
-3.101412e-07,-2.500000e-03
-3.021412e-07,2.500000e-03
-2.941412e-07,-2.750000e-02
-2.861412e-07,1.500000e-02
-2.781412e-07,-1.000000e-02
-2.701412e-07,8.750000e-03
-2.621412e-07,-5.000000e-03
-2.541412e-07,2.125000e-02
-2.461412e-07,-1.125000e-02
-2.381412e-07,1.250000e-03
-2.301412e-07,-1.750000e-02
-2.221412e-07,1.250000e-02
-2.141412e-07,-1.375000e-02
-2.061412e-07,1.375000e-02
-1.981412e-07,-2.125000e-02
-1.901412e-07,3.375000e-02
-1.821412e-07,-5.000000e-03
-1.741412e-07,1.875000e-02
-1.661412e-07,-7.500000e-03
-1.581412e-07,3.250000e-02
-1.501412e-07,-1.375000e-02
-1.421412e-07,1.625000e-02
-1.341412e-07,-1.000000e-02
-1.261412e-07,2.875000e-02
-1.181412e-07,-1.250000e-02
-1.101412e-07,-1.250000e-03
-1.021412e-07,-2.625000e-02
-9.414125e-08,-2.500000e-03
-8.614125e-08,3.750000e-03
-7.814125e-08,1.000000e-02
-7.014125e-08,-1.000000e-02
-6.214125e-08,1.625000e-02
-5.414125e-08,-3.500000e-02
-4.614125e-08,1.000000e-02
-3.814125e-08,-2.500000e-02
-3.014125e-08,-1.372500e+00
-2.214125e-08,-1.428750e+00
-1.414125e-08,-1.406250e+00
-6.141250e-09,-1.385000e+00
1.858750e-09,0.000000e+00
9.858750e-09,-3.500000e-02
1.785875e-08,2.375000e-02
2.585875e-08,-3.750000e-03
3.385875e-08,3.000000e-02
4.185875e-08,-8.000000e-02
4.985875e-08,2.000000e-02
5.785875e-08,-1.125000e-02
6.585875e-08,1.500000e-02
7.385875e-08,-4.000000e-02
8.185875e-08,1.625000e-02
8.985875e-08,-5.000000e-03
9.785875e-08,2.750000e-02
1.058588e-07,-2.375000e-02
1.138588e-07,2.000000e-02
1.218588e-07,-1.875000e-02
1.298588e-07,3.625000e-02
1.378588e-07,5.000000e-03
1.458588e-07,6.250000e-03
1.538588e-07,-6.250000e-03
1.618588e-07,2.125000e-02
1.698588e-07,-2.000000e-02
1.778588e-07,7.500000e-03
1.858588e-07,-2.250000e-02
1.938588e-07,2.125000e-02
2.018588e-07,0.000000e+00
2.098588e-07,1.250000e-03
2.178588e-07,-2.500000e-02
2.258588e-07,7.500000e-03
2.338588e-07,-6.250000e-03
2.418588e-07,1.500000e-02
2.498588e-07,1.500000e-02
2.578588e-07,1.500000e-02
2.658588e-07,1.000000e-02
2.738588e-07,2.375000e-02
2.818588e-07,-1.625000e-02
2.898588e-07,3.125000e-02
2.978588e-07,-1.000000e-02
3.058588e-07,2.250000e-02
3.138588e-07,-2.125000e-02
3.218588e-07,1.250000e-02
3.298588e-07,-1.750000e-02
3.378588e-07,2.125000e-02
3.458588e-07,-1.500000e-02
3.538588e-07,2.000000e-02
3.618588e-07,-3.125000e-02
3.698588e-07,5.000000e-03
3.778588e-07,3.750000e-03
3.858588e-07,2.500000e-02
3.938588e-07,-1.875000e-02
4.018588e-07,2.000000e-02
4.098588e-07,-7.500000e-03
4.178588e-07,2.500000e-03
4.258588e-07,-1.250000e-02
4.338588e-07,5.000000e-03
4.418588e-07,-3.500000e-02
4.498588e-07,2.500000e-02
4.578588e-07,-1.250000e-02
4.658588e-07,7.500000e-03
4.738588e-07,-7.500000e-03
4.818588e-07,1.250000e-02
4.898588e-07,-1.500000e-02
4.978588e-07,1.250000e-02
5.058588e-07,-1.875000e-02
5.138588e-07,2.375000e-02
5.218588e-07,0.000000e+00
5.298588e-07,2.500000e-02
5.378588e-07,-2.625000e-02
5.458588e-07,2.250000e-02
5.538588e-07,-2.250000e-02
5.618588e-07,0.000000e+00
5.698588e-07,-2.250000e-02
5.778588e-07,1.500000e-02
5.858588e-07,-1.375000e-02
5.938588e-07,5.000000e-03
6.018588e-07,-1.125000e-02
6.098588e-07,3.250000e-02
6.178588e-07,-6.250000e-03
6.258588e-07,7.500000e-03
6.338588e-07,2.500000e-03
6.418588e-07,2.375000e-02
6.498588e-07,-3.750000e-03
6.578588e-07,1.250000e-02
6.658588e-07,-2.875000e-02
6.738588e-07,6.250000e-03
6.818588e-07,-2.750000e-02
6.898588e-07,2.750000e-02
6.978588e-07,-2.500000e-03
7.058588e-07,3.750000e-02
7.138588e-07,-2.375000e-02
7.218588e-07,7.500000e-03
7.298588e-07,-2.625000e-02
7.378588e-07,7.500000e-03
7.458588e-07,-5.000000e-03
7.538588e-07,1.250000e-03
7.618588e-07,6.250000e-03
7.698588e-07,2.625000e-02
7.778588e-07,-3.375000e-02
7.858588e-07,2.625000e-02
7.938588e-07,0.000000e+00
8.018588e-07,8.750000e-03
