run1/run1_ch1_20210318180325844.csv

Model,MSO64
Waveform Type,ANALOG
Horizontal Units,s
Sample Interval,8.000000e-09
Record Length,1250
Zero Index,624.510156
Vertical Units,V

TIME,CH1
-4.996081e-06,7.500000e-03
-4.988081e-06,1.250000e-03
-4.980081e-06,-1.250000e-02
-4.972081e-06,1.875000e-02
-4.964081e-06,-1.250000e-03
-4.956081e-06,-1.250000e-03
-4.948081e-06,-2.000000e-02
-4.940081e-06,2.250000e-02
-4.932081e-06,-6.250000e-03
-4.924081e-06,1.875000e-02
-4.916081e-06,-2.125000e-02
-4.908081e-06,6.250000e-03
-4.900081e-06,-4.625000e-02
-4.892081e-06,2.750000e-02
-4.884081e-06,-1.625000e-02
-4.876081e-06,8.750000e-03
-4.868081e-06,-1.125000e-02
-4.860081e-06,2.000000e-02
-4.852081e-06,-3.000000e-02
-4.844081e-06,5.000000e-03
-4.836081e-06,-1.000000e-02
-4.828081e-06,7.500000e-03
-4.820081e-06,-8.750000e-03
-4.812081e-06,4.125000e-02
-4.804081e-06,-8.750000e-03
-4.796081e-06,1.125000e-02
-4.788081e-06,-1.250000e-03
-4.780081e-06,6.250000e-03
-4.772081e-06,-2.250000e-02
-4.764081e-06,3.750000e-03
-4.756081e-06,-4.500000e-02
-4.748081e-06,2.875000e-02
-4.740081e-06,1.250000e-02
-4.732081e-06,1.375000e-02
-4.724081e-06,7.500000e-03
-4.716081e-06,8.750000e-03
-4.708081e-06,-2.875000e-02
-4.700081e-06,1.125000e-02
-4.692081e-06,-2.625000e-02
-4.684081e-06,2.500000e-02
-4.676081e-06,-5.000000e-03
-4.668081e-06,1.500000e-02
-4.660081e-06,-2.500000e-02
-4.652081e-06,8.750000e-03
-4.644081e-06,-1.625000e-02
-4.636081e-06,1.000000e-02
-4.628081e-06,-1.750000e-02
-4.620081e-06,2.625000e-02
-4.612081e-06,-2.375000e-02
-4.604081e-06,1.375000e-02
-4.596081e-06,8.750000e-03
-4.588081e-06,2.125000e-02
-4.580081e-06,-1.000000e-02
-4.572081e-06,1.500000e-02
-4.564081e-06,-3.750000e-03
-4.556081e-06,2.750000e-02
-4.548081e-06,-3.125000e-02
-4.540081e-06,1.625000e-02
-4.532081e-06,-3.750000e-03
-4.524081e-06,2.875000e-02
-4.516081e-06,-2.250000e-02
-4.508081e-06,7.500000e-03
-4.500081e-06,-2.500000e-03
-4.492081e-06,2.000000e-02
-4.484081e-06,-6.250000e-03
-4.476081e-06,-1.250000e-03
-4.468081e-06,-2.500000e-02
-4.460081e-06,6.250000e-03
-4.452081e-06,-2.375000e-02
-4.444081e-06,2.000000e-02
-4.436081e-06,0.000000e+00
-4.428081e-06,3.250000e-02
-4.420081e-06,-1.250000e-03
-4.412081e-06,1.250000e-03
-4.404081e-06,-1.750000e-02
-4.396081e-06,-2.500000e-03
-4.388081e-06,-1.375000e-02
-4.380081e-06,2.875000e-02
-4.372081e-06,-2.625000e-02
-4.364081e-06,1.375000e-02
-4.356081e-06,-7.500000e-03
-4.348081e-06,2.500000e-03
-4.340081e-06,-1.625000e-02
-4.332081e-06,3.750000e-03
-4.324081e-06,-2.625000e-02
-4.316081e-06,3.000000e-02
-4.308081e-06,5.000000e-03
-4.300081e-06,2.125000e-02
-4.292081e-06,-1.125000e-02
-4.284081e-06,3.625000e-02
-4.276081e-06,-1.375000e-02
-4.268081e-06,1.375000e-02
-4.260081e-06,-2.375000e-02
-4.252081e-06,1.625000e-02
-4.244081e-06,-1.750000e-02
-4.236081e-06,1.125000e-02
-4.228081e-06,-2.500000e-03
-4.220081e-06,1.875000e-02
-4.212081e-06,-1.000000e-02
-4.204081e-06,1.250000e-02
-4.196081e-06,-3.500000e-02
-4.188081e-06,5.000000e-03
-4.180081e-06,-3.750000e-03
-4.172081e-06,2.375000e-02
-4.164081e-06,6.250000e-03
-4.156081e-06,1.750000e-02
-4.148081e-06,-8.750000e-03
-4.140081e-06,2.750000e-02
-4.132081e-06,-1.625000e-02
-4.124081e-06,2.625000e-02
-4.116081e-06,-1.875000e-02
-4.108081e-06,2.375000e-02
-4.100081e-06,-1.500000e-02
-4.092081e-06,1.500000e-02
-4.084081e-06,-1.125000e-02
-4.076081e-06,3.750000e-03
-4.068081e-06,-3.000000e-02
-4.060081e-06,2.375000e-02
-4.052081e-06,-1.250000e-03
-4.044081e-06,1.500000e-02
-4.036081e-06,-1.125000e-02
-4.028081e-06,1.625000e-02
-4.020081e-06,-1.625000e-02
-4.012081e-06,3.625000e-02
-4.004081e-06,-3.875000e-02
-3.996081e-06,1.000000e-02
-3.988081e-06,-1.750000e-02
-3.980081e-06,1.500000e-02
-3.972081e-06,-1.000000e-02
-3.964081e-06,-1.375000e-02
-3.956081e-06,-1.250000e-02
-3.948081e-06,1.875000e-02
-3.940081e-06,-1.125000e-02
-3.932081e-06,1.375000e-02
-3.924081e-06,-1.875000e-02
-3.916081e-06,1.625000e-02
-3.908081e-06,-6.250000e-03
-3.900081e-06,1.250000e-02
-3.892081e-06,2.500000e-03
-3.884081e-06,2.375000e-02
-3.876081e-06,-2.500000e-02
-3.868081e-06,6.250000e-03
-3.860081e-06,-3.000000e-02
-3.852081e-06,3.000000e-02
-3.844081e-06,-1.500000e-02
-3.836081e-06,2.500000e-02
-3.828081e-06,-1.625000e-02
-3.820081e-06,-2.500000e-03
-3.812081e-06,-1.125000e-02
-3.804081e-06,1.750000e-02
-3.796081e-06,-1.250000e-02
-3.788081e-06,7.500000e-03
-3.780081e-06,-1.875000e-02
-3.772081e-06,3.125000e-02
-3.764081e-06,-1.625000e-02
-3.756081e-06,-6.250000e-03
-3.748081e-06,-2.375000e-02
-3.740081e-06,2.000000e-02
-3.732081e-06,-1.750000e-02
-3.724081e-06,2.250000e-02
-3.716081e-06,0.000000e+00
-3.708081e-06,2.000000e-02
-3.700081e-06,-8.750000e-03
-3.692081e-06,1.500000e-02
-3.684081e-06,-2.625000e-02
-3.676081e-06,5.000000e-03
-3.668081e-06,-2.250000e-02
-3.660081e-06,3.750000e-02
-3.652081e-06,1.625000e-02
-3.644081e-06,6.250000e-03
-3.636081e-06,-2.375000e-02
-3.628081e-06,2.000000e-02
-3.620081e-06,-3.125000e-02
-3.612081e-06,2.375000e-02
-3.604081e-06,-3.875000e-02
-3.596081e-06,1.000000e-02
-3.588081e-06,-1.125000e-02
-3.580081e-06,2.125000e-02
-3.572081e-06,-8.750000e-03
-3.564081e-06,1.125000e-02
-3.556081e-06,-1.375000e-02
-3.548081e-06,2.750000e-02
-3.540081e-06,-7.500000e-03
-3.532081e-06,1.500000e-02
-3.524081e-06,-1.625000e-02
-3.516081e-06,8.750000e-03
-3.508081e-06,-1.000000e-02
-3.500081e-06,8.750000e-03
-3.492081e-06,-6.250000e-03
-3.484081e-06,1.375000e-02
-3.476081e-06,-1.125000e-02
-3.468081e-06,2.875000e-02
-3.460081e-06,-5.000000e-03
-3.452081e-06,-2.500000e-03
-3.444081e-06,3.750000e-03
-3.436081e-06,1.250000e-02
-3.428081e-06,-2.625000e-02
-3.420081e-06,1.875000e-02
-3.412081e-06,-7.500000e-03
-3.404081e-06,-1.125000e-02
-3.396081e-06,-5.000000e-03
-3.388081e-06,-1.250000e-03
-3.380081e-06,-1.625000e-02
-3.372081e-06,8.750000e-03
-3.364081e-06,-1.000000e-02
-3.356081e-06,-1.000000e-02
-3.348081e-06,-4.125000e-02
-3.340081e-06,2.750000e-02
-3.332081e-06,-3.500000e-02
-3.324081e-06,2.750000e-02
-3.316081e-06,-8.750000e-03
-3.308081e-06,8.750000e-03
-3.300081e-06,-1.500000e-02
-3.292081e-06,2.000000e-02
-3.284081e-06,7.500000e-03
-3.276081e-06,1.000000e-02
-3.268081e-06,-1.250000e-02
-3.260081e-06,1.250000e-02
-3.252081e-06,0.000000e+00
-3.244081e-06,1.250000e-02
-3.236081e-06,-1.750000e-02
-3.228081e-06,1.625000e-02
-3.220081e-06,-1.375000e-02
-3.212081e-06,2.125000e-02
-3.204081e-06,2.500000e-03
-3.196081e-06,3.125000e-02
-3.188081e-06,-3.375000e-02
-3.180081e-06,-1.250000e-02
-3.172081e-06,-6.250000e-03
-3.164081e-06,3.125000e-02
-3.156081e-06,-3.750000e-03
-3.148081e-06,2.125000e-02
-3.140081e-06,-1.000000e-02
-3.132081e-06,2.250000e-02
-3.124081e-06,-1.125000e-02
-3.116081e-06,2.000000e-02
-3.108081e-06,-2.000000e-02
-3.100081e-06,1.625000e-02
-3.092081e-06,-5.000000e-03
-3.084081e-06,4.125000e-02
-3.076081e-06,-2.250000e-02
-3.068081e-06,2.250000e-02
-3.060081e-06,-1.625000e-02
-3.052081e-06,6.250000e-03
-3.044081e-06,-1.375000e-02
-3.036081e-06,1.250000e-02
-3.028081e-06,-1.500000e-02
-3.020081e-06,1.250000e-03
-3.012081e-06,-1.375000e-02
-3.004081e-06,2.875000e-02
-2.996081e-06,-7.500000e-03
-2.988081e-06,1.375000e-02
-2.980081e-06,-1.500000e-02
-2.972081e-06,5.000000e-03
-2.964081e-06,-8.750000e-03
-2.956081e-06,1.625000e-02
-2.948081e-06,-1.500000e-02
-2.940081e-06,2.500000e-02
-2.932081e-06,-5.000000e-03
-2.924081e-06,1.500000e-02
-2.916081e-06,-3.250000e-02
-2.908081e-06,1.625000e-02
-2.900081e-06,-5.000000e-03
-2.892081e-06,2.000000e-02
-2.884081e-06,-1.000000e-02
-2.876081e-06,2.375000e-02
-2.868081e-06,3.750000e-03
-2.860081e-06,2.000000e-02
-2.852081e-06,-3.625000e-02
-2.844081e-06,4.000000e-02
-2.836081e-06,-1.125000e-02
-2.828081e-06,2.250000e-02
-2.820081e-06,-2.875000e-02
-2.812081e-06,1.000000e-02
-2.804081e-06,-1.625000e-02
-2.796081e-06,8.750000e-03
-2.788081e-06,-3.500000e-02
-2.780081e-06,7.500000e-03
-2.772081e-06,-2.000000e-02
-2.764081e-06,8.750000e-03
-2.756081e-06,-1.250000e-03
-2.748081e-06,8.750000e-03
-2.740081e-06,-2.500000e-03
-2.732081e-06,2.500000e-03
-2.724081e-06,-3.375000e-02
-2.716081e-06,1.000000e-02
-2.708081e-06,-2.875000e-02
-2.700081e-06,2.125000e-02
-2.692081e-06,-1.250000e-03
-2.684081e-06,2.125000e-02
-2.676081e-06,-6.250000e-03
-2.668081e-06,2.750000e-02
-2.660081e-06,-1.125000e-02
-2.652081e-06,7.500000e-03
-2.644081e-06,2.125000e-02
-2.636081e-06,-6.250000e-03
-2.628081e-06,-5.000000e-03
-2.620081e-06,1.625000e-02
-2.612081e-06,-2.125000e-02
-2.604081e-06,1.625000e-02
-2.596081e-06,-2.625000e-02
-2.588081e-06,1.000000e-02
-2.580081e-06,-3.125000e-02
-2.572081e-06,2.875000e-02
-2.564081e-06,-3.375000e-02
-2.556081e-06,1.500000e-02
-2.548081e-06,8.750000e-03
-2.540081e-06,1.750000e-02
-2.532081e-06,-3.750000e-03
-2.524081e-06,-1.875000e-02
-2.516081e-06,-1.875000e-02
-2.508081e-06,2.375000e-02
-2.500081e-06,-7.500000e-03
-2.492081e-06,-3.750000e-03
-2.484081e-06,-1.375000e-02
-2.476081e-06,1.125000e-02
-2.468081e-06,-1.375000e-02
-2.460081e-06,2.000000e-02
-2.452081e-06,-1.375000e-02
-2.444081e-06,1.500000e-02
-2.436081e-06,-1.250000e-02
-2.428081e-06,3.625000e-02
-2.420081e-06,6.250000e-03
-2.412081e-06,1.750000e-02
-2.404081e-06,-2.250000e-02
-2.396081e-06,1.125000e-02
-2.388081e-06,3.750000e-03
-2.380081e-06,3.125000e-02
-2.372081e-06,-1.250000e-03
-2.364081e-06,1.375000e-02
-2.356081e-06,-3.750000e-03
-2.348081e-06,1.625000e-02
-2.340081e-06,-3.625000e-02
-2.332081e-06,2.750000e-02
-2.324081e-06,-3.750000e-02
-2.316081e-06,3.875000e-02
-2.308081e-06,-1.625000e-02
-2.300081e-06,-6.250000e-03
-2.292081e-06,-1.375000e-02
-2.284081e-06,1.250000e-02
-2.276081e-06,-1.250000e-02
-2.268081e-06,1.125000e-02
-2.260081e-06,-5.000000e-03
-2.252081e-06,1.625000e-02
-2.244081e-06,0.000000e+00
-2.236081e-06,2.125000e-02
-2.228081e-06,-3.125000e-02
-2.220081e-06,2.375000e-02
-2.212081e-06,-1.250000e-02
-2.204081e-06,1.875000e-02
-2.196081e-06,-6.250000e-03
-2.188081e-06,3.750000e-03
-2.180081e-06,2.125000e-02
-2.172081e-06,2.125000e-02
-2.164081e-06,0.000000e+00
-2.156081e-06,7.500000e-03
-2.148081e-06,-1.125000e-02
-2.140081e-06,2.000000e-02
-2.132081e-06,-2.000000e-02
-2.124081e-06,2.125000e-02
-2.116081e-06,2.500000e-03
-2.108081e-06,2.500000e-03
-2.100081e-06,-1.625000e-02
-2.092081e-06,2.125000e-02
-2.084081e-06,-1.000000e-02
-2.076081e-06,3.750000e-02
-2.068081e-06,-1.875000e-02
-2.060081e-06,1.750000e-02
-2.052081e-06,-1.875000e-02
-2.044081e-06,3.375000e-02
-2.036081e-06,-1.875000e-02
-2.028081e-06,1.125000e-02
-2.020081e-06,-7.500000e-03
-2.012081e-06,-6.250000e-03
-2.004081e-06,1.250000e-02
-1.996081e-06,6.250000e-03
-1.988081e-06,-6.250000e-03
-1.980081e-06,1.000000e-02
-1.972081e-06,-5.000000e-03
-1.964081e-06,2.375000e-02
-1.956081e-06,-1.875000e-02
-1.948081e-06,8.750000e-03
-1.940081e-06,-6.250000e-03
-1.932081e-06,7.500000e-03
-1.924081e-06,-1.375000e-02
-1.916081e-06,1.125000e-02
-1.908081e-06,2.500000e-03
-1.900081e-06,2.375000e-02
-1.892081e-06,-1.750000e-02
-1.884081e-06,2.500000e-02
-1.876081e-06,6.250000e-03
-1.868081e-06,0.000000e+00
-1.860081e-06,-1.250000e-02
-1.852081e-06,3.750000e-03
-1.844081e-06,0.000000e+00
-1.836081e-06,7.500000e-03
-1.828081e-06,-7.500000e-03
-1.820081e-06,6.250000e-03
-1.812081e-06,-2.500000e-02
-1.804081e-06,2.125000e-02
-1.796081e-06,-2.250000e-02
-1.788081e-06,2.500000e-03
-1.780081e-06,-1.250000e-03
-1.772081e-06,-5.000000e-03
-1.764081e-06,-1.125000e-02
-1.756081e-06,-2.500000e-03
-1.748081e-06,-2.500000e-03
-1.740081e-06,6.250000e-03
-1.732081e-06,7.500000e-03
-1.724081e-06,1.625000e-02
-1.716081e-06,-1.750000e-02
-1.708081e-06,3.000000e-02
-1.700081e-06,-3.875000e-02
-1.692081e-06,5.000000e-03
-1.684081e-06,-3.000000e-02
-1.676081e-06,2.375000e-02
-1.668081e-06,-1.625000e-02
-1.660081e-06,-1.125000e-02
-1.652081e-06,-3.875000e-02
-1.644081e-06,3.750000e-03
-1.636081e-06,-1.750000e-02
-1.628081e-06,2.875000e-02
-1.620081e-06,2.500000e-02
-1.612081e-06,2.375000e-02
-1.604081e-06,1.250000e-03
-1.596081e-06,1.375000e-02
-1.588081e-06,-3.250000e-02
-1.580081e-06,2.500000e-03
-1.572081e-06,-3.250000e-02
-1.564081e-06,2.250000e-02
-1.556081e-06,-3.000000e-02
-1.548081e-06,6.250000e-03
-1.540081e-06,-1.000000e-02
-1.532081e-06,6.250000e-03
-1.524081e-06,-2.375000e-02
-1.516081e-06,1.125000e-02
-1.508081e-06,1.250000e-03
-1.500081e-06,2.375000e-02
-1.492081e-06,5.000000e-03
-1.484081e-06,-2.500000e-03
-1.476081e-06,-1.125000e-02
-1.468081e-06,1.500000e-02
-1.460081e-06,-2.750000e-02
-1.452081e-06,-2.500000e-03
-1.444081e-06,-8.750000e-03
-1.436081e-06,3.000000e-02
-1.428081e-06,-1.375000e-02
-1.420081e-06,2.750000e-02
-1.412081e-06,-8.750000e-03
-1.404081e-06,7.500000e-03
-1.396081e-06,3.750000e-03
-1.388081e-06,3.625000e-02
-1.380081e-06,3.750000e-03
-1.372081e-06,2.125000e-02
-1.364081e-06,-3.750000e-03
-1.356081e-06,2.625000e-02
-1.348081e-06,-7.500000e-03
-1.340081e-06,1.000000e-02
-1.332081e-06,-2.500000e-03
-1.324081e-06,-2.500000e-03
-1.316081e-06,-5.000000e-03
-1.308081e-06,7.500000e-03
-1.300081e-06,-8.750000e-03
-1.292081e-06,6.250000e-03
-1.284081e-06,-6.250000e-03
-1.276081e-06,1.625000e-02
-1.268081e-06,-8.750000e-03
-1.260081e-06,-2.500000e-03
-1.252081e-06,-1.500000e-02
-1.244081e-06,1.750000e-02
-1.236081e-06,-1.250000e-03
-1.228081e-06,3.000000e-02
-1.220081e-06,-7.500000e-03
-1.212081e-06,2.000000e-02
-1.204081e-06,-1.375000e-02
-1.196081e-06,8.750000e-03
-1.188081e-06,-3.125000e-02
-1.180081e-06,-1.250000e-03
-1.172081e-06,-2.250000e-02
-1.164081e-06,2.375000e-02
-1.156081e-06,-8.750000e-03
-1.148081e-06,2.500000e-02
-1.140081e-06,-2.375000e-02
-1.132081e-06,2.500000e-03
-1.124081e-06,-1.125000e-02
-1.116081e-06,2.125000e-02
-1.108081e-06,-7.500000e-03
-1.100081e-06,2.250000e-02
-1.092081e-06,-1.000000e-02
-1.084081e-06,3.000000e-02
-1.076081e-06,-2.500000e-03
-1.068081e-06,1.125000e-02
-1.060081e-06,-3.625000e-02
-1.052081e-06,-8.750000e-03
-1.044081e-06,8.750000e-03
-1.036081e-06,1.125000e-02
-1.028081e-06,-1.250000e-02
-1.020081e-06,-5.000000e-03
-1.012081e-06,-2.375000e-02
-1.004081e-06,1.000000e-02
-9.960813e-07,-3.375000e-02
-9.880813e-07,3.750000e-03
-9.800813e-07,0.000000e+00
-9.720813e-07,1.000000e-02
-9.640813e-07,-1.125000e-02
-9.560813e-07,2.375000e-02
-9.480813e-07,-1.625000e-02
-9.400813e-07,1.500000e-02
-9.320813e-07,-2.500000e-03
-9.240813e-07,1.625000e-02
-9.160813e-07,-1.625000e-02
-9.080813e-07,2.125000e-02
-9.000813e-07,0.000000e+00
-8.920813e-07,1.250000e-02
-8.840813e-07,-8.750000e-03
-8.760813e-07,2.000000e-02
-8.680813e-07,-2.000000e-02
-8.600813e-07,7.500000e-03
-8.520813e-07,-1.375000e-02
-8.440813e-07,8.750000e-03
-8.360813e-07,1.500000e-02
-8.280813e-07,3.000000e-02
-8.200813e-07,-2.125000e-02
-8.120813e-07,1.125000e-02
-8.040813e-07,-1.125000e-02
-7.960813e-07,1.500000e-02
-7.880813e-07,-2.000000e-02
-7.800813e-07,3.375000e-02
-7.720813e-07,-2.375000e-02
-7.640813e-07,-1.250000e-03
-7.560813e-07,-3.750000e-03
-7.480813e-07,2.500000e-03
-7.400813e-07,-1.625000e-02
-7.320813e-07,1.750000e-02
-7.240813e-07,-7.500000e-03
-7.160813e-07,2.375000e-02
-7.080813e-07,-1.500000e-02
-7.000813e-07,-1.625000e-02
-6.920813e-07,-1.000000e-02
-6.840813e-07,2.125000e-02
-6.760813e-07,-4.750000e-02
-6.680813e-07,1.625000e-02
-6.600813e-07,8.750000e-03
-6.520813e-07,4.250000e-02
-6.440813e-07,-2.125000e-02
-6.360813e-07,1.750000e-02
-6.280813e-07,-1.375000e-02
-6.200813e-07,8.750000e-03
-6.120813e-07,-1.625000e-02
-6.040813e-07,1.000000e-02
-5.960813e-07,2.500000e-03
-5.880813e-07,6.250000e-03
-5.800813e-07,1.250000e-03
-5.720813e-07,2.000000e-02
-5.640813e-07,2.500000e-03
-5.560813e-07,6.250000e-03
-5.480813e-07,-2.625000e-02
-5.400813e-07,6.250000e-03
-5.320813e-07,-5.000000e-03
-5.240813e-07,2.500000e-03
-5.160813e-07,7.500000e-03
-5.080813e-07,1.875000e-02
-5.000813e-07,-1.375000e-02
-4.920813e-07,1.125000e-02
-4.840813e-07,-1.625000e-02
-4.760813e-07,6.250000e-03
-4.680813e-07,-1.500000e-02
-4.600813e-07,2.125000e-02
-4.520813e-07,-7.500000e-03
-4.440813e-07,1.000000e-02
-4.360813e-07,-1.625000e-02
-4.280813e-07,1.750000e-02
-4.200813e-07,-1.500000e-02
-4.120813e-07,8.750000e-03
-4.040813e-07,-1.875000e-02
-3.960813e-07,3.250000e-02
-3.880813e-07,-2.875000e-02
-3.800813e-07,1.750000e-02
-3.720813e-07,-8.750000e-03
-3.640813e-07,2.625000e-02
-3.560813e-07,1.625000e-02
-3.480813e-07,1.625000e-02
-3.400813e-07,-8.750000e-03
-3.320813e-07,-5.000000e-03
-3.240813e-07,-2.375000e-02
-3.160813e-07,2.125000e-02
-3.080813e-07,0.000000e+00
-3.000813e-07,3.000000e-02
-2.920813e-07,-5.000000e-03
-2.840813e-07,1.500000e-02
-2.760813e-07,-3.625000e-02
-2.680813e-07,2.000000e-02
-2.600813e-07,-2.250000e-02
-2.520813e-07,7.500000e-03
-2.440813e-07,-5.000000e-03
-2.360813e-07,2.750000e-02
-2.280813e-07,-2.750000e-02
-2.200813e-07,1.125000e-02
-2.120813e-07,-1.500000e-02
-2.040813e-07,1.625000e-02
-1.960813e-07,2.500000e-03
-1.880813e-07,6.250000e-03
-1.800813e-07,2.500000e-03
-1.720813e-07,2.250000e-02
-1.640813e-07,-1.125000e-02
-1.560813e-07,3.750000e-03
-1.480813e-07,-1.500000e-02
-1.400813e-07,1.875000e-02
-1.320813e-07,-3.750000e-03
-1.240813e-07,2.250000e-02
-1.160813e-07,-3.750000e-03
-1.080813e-07,2.000000e-02
-1.000813e-07,-1.375000e-02
-9.208125e-08,2.500000e-03
-8.408125e-08,-1.875000e-02
-7.608125e-08,1.625000e-02
-6.808125e-08,-2.500000e-03
-6.008125e-08,5.000000e-03
-5.208125e-08,1.250000e-03
-4.408125e-08,1.375000e-02
-3.608125e-08,-1.000000e-02
-2.808125e-08,2.000000e-02
-2.008125e-08,-2.250000e-02
-1.208125e-08,6.250000e-03
-4.081250e-09,2.250000e-02
3.918750e-09,-1.396250e+00
1.191875e-08,-1.426250e+00
1.991875e-08,-1.405000e+00
2.791875e-08,-1.345000e+00
3.591875e-08,-1.250000e-02
4.391875e-08,1.000000e-02
5.191875e-08,2.375000e-02
5.991875e-08,1.125000e-02
6.791875e-08,3.750000e-03
7.591875e-08,1.250000e-03
8.391875e-08,1.750000e-02
9.191875e-08,-2.625000e-02
9.991875e-08,8.750000e-03
1.079187e-07,-3.125000e-02
1.159187e-07,1.750000e-02
1.239187e-07,-2.000000e-02
1.319187e-07,1.375000e-02
1.399187e-07,-2.500000e-03
1.479187e-07,2.500000e-02
1.559187e-07,-2.000000e-02
1.639187e-07,6.250000e-03
1.719187e-07,-1.750000e-02
1.799187e-07,1.500000e-02
1.879187e-07,-2.000000e-02
1.959187e-07,3.625000e-02
2.039187e-07,-7.500000e-03
2.119187e-07,2.750000e-02
2.199187e-07,-2.125000e-02
2.279187e-07,1.000000e-02
2.359187e-07,-1.625000e-02
2.439187e-07,3.125000e-02
2.519187e-07,1.875000e-02
2.599187e-07,2.500000e-02
2.679187e-07,5.000000e-03
2.759187e-07,2.000000e-02
2.839187e-07,-8.750000e-03
2.919187e-07,1.250000e-02
2.999187e-07,-8.750000e-03
3.079187e-07,1.125000e-02
3.159187e-07,6.250000e-03
3.239187e-07,2.375000e-02
3.319187e-07,-1.250000e-02
3.399187e-07,3.375000e-02
3.479187e-07,5.000000e-03
3.559187e-07,2.625000e-02
3.639187e-07,-1.625000e-02
3.719187e-07,3.375000e-02
3.799187e-07,-1.875000e-02
3.879187e-07,8.750000e-03
3.959187e-07,1.000000e-02
4.039187e-07,3.750000e-03
4.119187e-07,-3.125000e-02
4.199187e-07,2.250000e-02
4.279187e-07,-3.125000e-02
4.359187e-07,6.250000e-03
4.439187e-07,-5.000000e-03
4.519187e-07,-1.250000e-02
4.599187e-07,-1.000000e-02
4.679187e-07,1.125000e-02
4.759187e-07,-3.000000e-02
4.839187e-07,1.750000e-02
4.919187e-07,-8.750000e-03
4.999187e-07,-6.250000e-03
5.079187e-07,-2.875000e-02
5.159187e-07,1.750000e-02
5.239187e-07,-8.750000e-03
5.319187e-07,-2.500000e-03
5.399187e-07,-1.500000e-02
5.479187e-07,2.500000e-02
5.559187e-07,-1.250000e-03
5.639187e-07,2.500000e-02
5.719187e-07,-3.750000e-03
5.799187e-07,5.000000e-03
5.879187e-07,-5.000000e-03
5.959187e-07,1.625000e-02
6.039187e-07,-5.000000e-02
6.119187e-07,3.375000e-02
6.199187e-07,-2.875000e-02
6.279187e-07,1.250000e-02
6.359187e-07,-1.125000e-02
6.439187e-07,6.250000e-03
6.519187e-07,-1.750000e-02
6.599187e-07,1.750000e-02
6.679187e-07,-1.375000e-02
6.759187e-07,2.250000e-02
6.839187e-07,-2.500000e-02
6.919187e-07,2.500000e-02
6.999187e-07,8.750000e-03
7.079187e-07,1.875000e-02
7.159187e-07,-2.500000e-03
7.239187e-07,3.750000e-03
7.319187e-07,-1.750000e-02
7.399187e-07,3.375000e-02
7.479187e-07,-7.500000e-03
7.559187e-07,2.000000e-02
7.639187e-07,-2.375000e-02
7.719187e-07,8.750000e-03
7.799187e-07,-1.375000e-02
7.879187e-07,-5.000000e-03
7.959187e-07,-1.625000e-02
8.039187e-07,2.500000e-02
