run1/run1_ch1_20210318180321648.csv

Model,MSO64
Waveform Type,ANALOG
Horizontal Units,s
Sample Interval,8.000000e-09
Record Length,1250
Zero Index,624.960156
Vertical Units,V

TIME,CH1
-4.999681e-06,-2.500000e-03
-4.991681e-06,3.125000e-02
-4.983681e-06,-2.000000e-02
-4.975681e-06,1.875000e-02
-4.967681e-06,-1.500000e-02
-4.959681e-06,7.500000e-03
-4.951681e-06,-1.000000e-02
-4.943681e-06,1.625000e-02
-4.935681e-06,5.000000e-03
-4.927681e-06,-1.250000e-03
-4.919681e-06,-4.375000e-02
-4.911681e-06,2.250000e-02
-4.903681e-06,-2.875000e-02
-4.895681e-06,1.875000e-02
-4.887681e-06,-8.750000e-03
-4.879681e-06,1.125000e-02
-4.871681e-06,-1.250000e-02
-4.863681e-06,8.750000e-03
-4.855681e-06,-2.125000e-02
-4.847681e-06,1.625000e-02
-4.839681e-06,-7.500000e-03
-4.831681e-06,2.500000e-02
-4.823681e-06,7.500000e-03
-4.815681e-06,1.000000e-02
-4.807681e-06,-1.750000e-02
-4.799681e-06,3.750000e-02
-4.791681e-06,-2.625000e-02
-4.783681e-06,6.250000e-03
-4.775681e-06,-2.375000e-02
-4.767681e-06,8.750000e-03
-4.759681e-06,7.500000e-03
-4.751681e-06,-1.250000e-03
-4.743681e-06,-5.000000e-03
-4.735681e-06,1.750000e-02
-4.727681e-06,-2.000000e-02
-4.719681e-06,8.750000e-03
-4.711681e-06,-1.000000e-02
-4.703681e-06,3.250000e-02
-4.695681e-06,-1.750000e-02
-4.687681e-06,1.125000e-02
-4.679681e-06,-3.500000e-02
-4.671681e-06,2.000000e-02
-4.663681e-06,-1.000000e-02
-4.655681e-06,1.875000e-02
-4.647681e-06,-2.375000e-02
-4.639681e-06,1.500000e-02
-4.631681e-06,-3.750000e-03
-4.623681e-06,1.875000e-02
-4.615681e-06,-2.125000e-02
-4.607681e-06,5.000000e-03
-4.599681e-06,-1.250000e-03
-4.591681e-06,1.625000e-02
-4.583681e-06,-1.250000e-03
-4.575681e-06,7.500000e-03
-4.567681e-06,-7.500000e-03
-4.559681e-06,1.375000e-02
-4.551681e-06,-3.375000e-02
-4.543681e-06,1.625000e-02
-4.535681e-06,-6.250000e-03
-4.527681e-06,2.375000e-02
-4.519681e-06,-8.750000e-03
-4.511681e-06,2.250000e-02
-4.503681e-06,6.250000e-03
-4.495681e-06,1.125000e-02
-4.487681e-06,-1.625000e-02
-4.479681e-06,5.000000e-03
-4.471681e-06,-2.125000e-02
-4.463681e-06,7.500000e-03
-4.455681e-06,3.750000e-03
-4.447681e-06,3.750000e-03
-4.439681e-06,-1.375000e-02
-4.431681e-06,1.625000e-02
-4.423681e-06,-2.750000e-02
-4.415681e-06,6.250000e-03
-4.407681e-06,-3.625000e-02
-4.399681e-06,8.750000e-03
-4.391681e-06,-2.375000e-02
-4.383681e-06,3.500000e-02
-4.375681e-06,-2.000000e-02
-4.367681e-06,1.125000e-02
-4.359681e-06,-1.625000e-02
-4.351681e-06,0.000000e+00
-4.343681e-06,-2.375000e-02
-4.335681e-06,3.000000e-02
-4.327681e-06,-1.250000e-02
-4.319681e-06,2.500000e-02
-4.311681e-06,2.500000e-02
-4.303681e-06,7.500000e-03
-4.295681e-06,-3.000000e-02
-4.287681e-06,2.125000e-02
-4.279681e-06,-3.750000e-02
-4.271681e-06,1.125000e-02
-4.263681e-06,-1.375000e-02
-4.255681e-06,0.000000e+00
-4.247681e-06,3.750000e-03
-4.239681e-06,3.125000e-02
-4.231681e-06,2.500000e-03
-4.223681e-06,1.875000e-02
-4.215681e-06,-2.625000e-02
-4.207681e-06,1.500000e-02
-4.199681e-06,-2.125000e-02
-4.191681e-06,4.000000e-02
-4.183681e-06,-1.000000e-02
-4.175681e-06,2.500000e-02
-4.167681e-06,-3.125000e-02
-4.159681e-06,3.750000e-02
-4.151681e-06,-3.375000e-02
-4.143681e-06,8.750000e-03
-4.135681e-06,-4.250000e-02
-4.127681e-06,5.000000e-03
-4.119681e-06,-2.625000e-02
-4.111681e-06,2.500000e-03
-4.103681e-06,-1.500000e-02
-4.095681e-06,3.750000e-03
-4.087681e-06,-5.000000e-03
-4.079681e-06,-2.500000e-03
-4.071681e-06,-1.000000e-02
-4.063681e-06,2.500000e-03
-4.055681e-06,-1.250000e-03
-4.047681e-06,2.875000e-02
-4.039681e-06,-1.875000e-02
-4.031681e-06,3.625000e-02
-4.023681e-06,-1.875000e-02
-4.015681e-06,2.250000e-02
-4.007681e-06,-2.625000e-02
-3.999681e-06,5.750000e-02
-3.991681e-06,-2.125000e-02
-3.983681e-06,1.500000e-02
-3.975681e-06,-1.625000e-02
-3.967681e-06,3.125000e-02
-3.959681e-06,-2.750000e-02
-3.951681e-06,1.500000e-02
-3.943681e-06,7.500000e-03
-3.935681e-06,2.375000e-02
-3.927681e-06,-1.500000e-02
-3.919681e-06,1.000000e-02
-3.911681e-06,-2.500000e-02
-3.903681e-06,2.500000e-02
-3.895681e-06,-1.375000e-02
-3.887681e-06,1.250000e-03
-3.879681e-06,-1.875000e-02
-3.871681e-06,1.875000e-02
-3.863681e-06,-2.875000e-02
-3.855681e-06,2.500000e-03
-3.847681e-06,-2.625000e-02
-3.839681e-06,1.375000e-02
-3.831681e-06,-1.875000e-02
-3.823681e-06,2.500000e-02
-3.815681e-06,1.250000e-03
-3.807681e-06,2.625000e-02
-3.799681e-06,8.750000e-03
-3.791681e-06,5.000000e-03
-3.783681e-06,-2.875000e-02
-3.775681e-06,1.000000e-02
-3.767681e-06,-3.375000e-02
-3.759681e-06,1.375000e-02
-3.751681e-06,-2.250000e-02
-3.743681e-06,2.625000e-02
-3.735681e-06,-1.125000e-02
-3.727681e-06,3.750000e-03
-3.719681e-06,-4.000000e-02
-3.711681e-06,2.625000e-02
-3.703681e-06,-3.125000e-02
-3.695681e-06,0.000000e+00
-3.687681e-06,1.250000e-03
-3.679681e-06,-1.250000e-03
-3.671681e-06,-1.625000e-02
-3.663681e-06,1.000000e-02
-3.655681e-06,-7.500000e-03
-3.647681e-06,-6.250000e-03
-3.639681e-06,-1.500000e-02
-3.631681e-06,3.125000e-02
-3.623681e-06,-1.500000e-02
-3.615681e-06,5.000000e-03
-3.607681e-06,2.500000e-03
-3.599681e-06,1.000000e-02
-3.591681e-06,1.250000e-03
-3.583681e-06,2.500000e-02
-3.575681e-06,-6.250000e-03
-3.567681e-06,2.375000e-02
-3.559681e-06,0.000000e+00
-3.551681e-06,1.625000e-02
-3.543681e-06,2.500000e-03
-3.535681e-06,2.500000e-03
-3.527681e-06,6.250000e-03
-3.519681e-06,2.500000e-02
-3.511681e-06,-1.500000e-02
-3.503681e-06,1.250000e-03
-3.495681e-06,-2.875000e-02
-3.487681e-06,1.875000e-02
-3.479681e-06,0.000000e+00
-3.471681e-06,-7.500000e-03
-3.463681e-06,-3.875000e-02
-3.455681e-06,1.250000e-03
-3.447681e-06,-1.625000e-02
-3.439681e-06,2.500000e-02
-3.431681e-06,1.125000e-02
-3.423681e-06,1.250000e-02
-3.415681e-06,-8.750000e-03
-3.407681e-06,1.625000e-02
-3.399681e-06,-2.500000e-02
-3.391681e-06,1.000000e-02
-3.383681e-06,-1.000000e-02
-3.375681e-06,1.875000e-02
-3.367681e-06,-2.500000e-02
-3.359681e-06,2.375000e-02
-3.351681e-06,-1.125000e-02
-3.343681e-06,2.375000e-02
-3.335681e-06,-3.500000e-02
-3.327681e-06,0.000000e+00
-3.319681e-06,-1.375000e-02
-3.311681e-06,0.000000e+00
-3.303681e-06,-1.375000e-02
-3.295681e-06,2.375000e-02
-3.287681e-06,-6.250000e-03
-3.279681e-06,1.625000e-02
-3.271681e-06,-2.250000e-02
-3.263681e-06,1.500000e-02
-3.255681e-06,-2.000000e-02
-3.247681e-06,2.500000e-03
-3.239681e-06,-3.125000e-02
-3.231681e-06,0.000000e+00
-3.223681e-06,-6.250000e-03
-3.215681e-06,-8.750000e-03
-3.207681e-06,-1.750000e-02
-3.199681e-06,7.500000e-03
-3.191681e-06,-5.000000e-03
-3.183681e-06,2.500000e-02
-3.175681e-06,-1.125000e-02
-3.167681e-06,1.125000e-02
-3.159681e-06,-1.750000e-02
-3.151681e-06,2.500000e-02
-3.143681e-06,5.000000e-03
-3.135681e-06,2.000000e-02
-3.127681e-06,-3.500000e-02
-3.119681e-06,0.000000e+00
-3.111681e-06,-2.500000e-02
-3.103681e-06,1.625000e-02
-3.095681e-06,-3.625000e-02
-3.087681e-06,2.250000e-02
-3.079681e-06,-2.500000e-03
-3.071681e-06,3.750000e-03
-3.063681e-06,-2.750000e-02
-3.055681e-06,1.000000e-02
-3.047681e-06,-1.250000e-03
-3.039681e-06,2.500000e-02
-3.031681e-06,-7.500000e-03
-3.023681e-06,1.750000e-02
-3.015681e-06,-1.500000e-02
-3.007681e-06,7.500000e-03
-2.999681e-06,-1.750000e-02
-2.991681e-06,1.500000e-02
-2.983681e-06,-1.500000e-02
-2.975681e-06,1.625000e-02
-2.967681e-06,-8.750000e-03
-2.959681e-06,-3.750000e-03
-2.951681e-06,-1.000000e-02
-2.943681e-06,1.375000e-02
-2.935681e-06,1.250000e-03
-2.927681e-06,7.500000e-03
-2.919681e-06,-2.250000e-02
-2.911681e-06,8.750000e-03
-2.903681e-06,-1.750000e-02
-2.895681e-06,-1.625000e-02
-2.887681e-06,-7.500000e-03
-2.879681e-06,3.750000e-03
-2.871681e-06,-1.375000e-02
-2.863681e-06,6.250000e-03
-2.855681e-06,-2.000000e-02
-2.847681e-06,3.625000e-02
-2.839681e-06,-3.375000e-02
-2.831681e-06,-3.750000e-03
-2.823681e-06,-6.250000e-03
-2.815681e-06,2.500000e-03
-2.807681e-06,-1.375000e-02
-2.799681e-06,1.750000e-02
-2.791681e-06,-1.125000e-02
-2.783681e-06,1.250000e-03
-2.775681e-06,1.375000e-02
-2.767681e-06,2.000000e-02
-2.759681e-06,-1.000000e-02
-2.751681e-06,1.125000e-02
-2.743681e-06,-1.375000e-02
-2.735681e-06,1.250000e-03
-2.727681e-06,-3.750000e-02
-2.719681e-06,2.625000e-02
-2.711681e-06,-1.500000e-02
-2.703681e-06,1.000000e-02
-2.695681e-06,-1.875000e-02
-2.687681e-06,7.500000e-03
-2.679681e-06,-2.125000e-02
-2.671681e-06,5.000000e-03
-2.663681e-06,5.000000e-03
-2.655681e-06,2.750000e-02
-2.647681e-06,-1.500000e-02
-2.639681e-06,4.125000e-02
-2.631681e-06,-2.125000e-02
-2.623681e-06,4.125000e-02
-2.615681e-06,-3.000000e-02
-2.607681e-06,-8.750000e-03
-2.599681e-06,-2.500000e-02
-2.591681e-06,1.250000e-02
-2.583681e-06,-1.500000e-02
-2.575681e-06,3.750000e-03
-2.567681e-06,-2.500000e-02
-2.559681e-06,-1.000000e-02
-2.551681e-06,-1.250000e-03
-2.543681e-06,1.250000e-02
-2.535681e-06,-1.750000e-02
-2.527681e-06,1.250000e-02
-2.519681e-06,-1.375000e-02
-2.511681e-06,2.250000e-02
-2.503681e-06,-3.750000e-03
-2.495681e-06,3.000000e-02
-2.487681e-06,-2.750000e-02
-2.479681e-06,1.500000e-02
-2.471681e-06,-1.875000e-02
-2.463681e-06,2.000000e-02
-2.455681e-06,-3.000000e-02
-2.447681e-06,3.750000e-03
-2.439681e-06,0.000000e+00
-2.431681e-06,7.500000e-03
-2.423681e-06,-3.375000e-02
-2.415681e-06,1.750000e-02
-2.407681e-06,-1.000000e-02
-2.399681e-06,7.500000e-03
-2.391681e-06,-5.000000e-03
-2.383681e-06,2.125000e-02
-2.375681e-06,-1.000000e-02
-2.367681e-06,5.000000e-03
-2.359681e-06,-2.125000e-02
-2.351681e-06,1.000000e-02
-2.343681e-06,-5.000000e-03
-2.335681e-06,2.000000e-02
-2.327681e-06,-4.375000e-02
-2.319681e-06,1.375000e-02
-2.311681e-06,-1.125000e-02
-2.303681e-06,2.500000e-03
-2.295681e-06,-4.875000e-02
-2.287681e-06,8.750000e-03
-2.279681e-06,2.500000e-03
-2.271681e-06,8.750000e-03
-2.263681e-06,-8.750000e-03
-2.255681e-06,1.500000e-02
-2.247681e-06,-1.125000e-02
-2.239681e-06,1.375000e-02
-2.231681e-06,7.500000e-03
-2.223681e-06,1.250000e-03
-2.215681e-06,-5.000000e-03
-2.207681e-06,3.375000e-02
-2.199681e-06,-3.000000e-02
-2.191681e-06,1.625000e-02
-2.183681e-06,-2.125000e-02
-2.175681e-06,0.000000e+00
-2.167681e-06,-2.750000e-02
-2.159681e-06,3.000000e-02
-2.151681e-06,-1.375000e-02
-2.143681e-06,1.250000e-02
-2.135681e-06,3.750000e-03
-2.127681e-06,1.125000e-02
-2.119681e-06,2.500000e-03
-2.111681e-06,8.750000e-03
-2.103681e-06,-1.000000e-02
-2.095681e-06,6.250000e-03
-2.087681e-06,-2.375000e-02
-2.079681e-06,2.125000e-02
-2.071681e-06,-1.250000e-02
-2.063681e-06,2.500000e-02
-2.055681e-06,-2.500000e-03
-2.047681e-06,3.750000e-03
-2.039681e-06,-1.250000e-02
-2.031681e-06,-2.750000e-02
-2.023681e-06,-2.000000e-02
-2.015681e-06,1.375000e-02
-2.007681e-06,-8.750000e-03
-1.999681e-06,1.750000e-02
-1.991681e-06,-2.000000e-02
-1.983681e-06,-3.750000e-03
-1.975681e-06,-4.250000e-02
-1.967681e-06,1.625000e-02
-1.959681e-06,-2.500000e-02
-1.951681e-06,2.875000e-02
-1.943681e-06,1.250000e-03
-1.935681e-06,1.500000e-02
-1.927681e-06,-2.750000e-02
-1.919681e-06,1.000000e-02
-1.911681e-06,-1.125000e-02
-1.903681e-06,1.375000e-02
-1.895681e-06,6.250000e-03
-1.887681e-06,-6.250000e-03
-1.879681e-06,-5.000000e-03
-1.871681e-06,1.250000e-02
-1.863681e-06,-2.000000e-02
-1.855681e-06,1.250000e-02
-1.847681e-06,-2.125000e-02
-1.839681e-06,3.750000e-03
-1.831681e-06,-1.750000e-02
-1.823681e-06,2.000000e-02
-1.815681e-06,-2.000000e-02
-1.807681e-06,1.750000e-02
-1.799681e-06,-3.125000e-02
-1.791681e-06,3.750000e-03
-1.783681e-06,-1.750000e-02
-1.775681e-06,1.375000e-02
-1.767681e-06,-8.750000e-03
-1.759681e-06,1.250000e-02
-1.751681e-06,-1.625000e-02
-1.743681e-06,-3.750000e-03
-1.735681e-06,1.125000e-02
-1.727681e-06,0.000000e+00
-1.719681e-06,-1.750000e-02
-1.711681e-06,1.500000e-02
-1.703681e-06,-3.750000e-03
-1.695681e-06,3.375000e-02
-1.687681e-06,-2.875000e-02
-1.679681e-06,0.000000e+00
-1.671681e-06,-8.750000e-03
-1.663681e-06,-5.000000e-03
-1.655681e-06,-1.750000e-02
-1.647681e-06,1.625000e-02
-1.639681e-06,-1.375000e-02
-1.631681e-06,6.250000e-03
-1.623681e-06,6.250000e-03
-1.615681e-06,1.625000e-02
-1.607681e-06,-1.500000e-02
-1.599681e-06,5.000000e-03
-1.591681e-06,-4.250000e-02
-1.583681e-06,4.875000e-02
-1.575681e-06,-3.750000e-02
-1.567681e-06,2.000000e-02
-1.559681e-06,-7.500000e-03
-1.551681e-06,2.250000e-02
-1.543681e-06,-6.250000e-03
-1.535681e-06,-3.750000e-03
-1.527681e-06,-2.625000e-02
-1.519681e-06,-7.500000e-03
-1.511681e-06,2.500000e-03
-1.503681e-06,6.250000e-03
-1.495681e-06,-1.750000e-02
-1.487681e-06,2.750000e-02
-1.479681e-06,-3.250000e-02
-1.471681e-06,1.125000e-02
-1.463681e-06,-4.250000e-02
-1.455681e-06,2.250000e-02
-1.447681e-06,-2.250000e-02
-1.439681e-06,2.500000e-03
-1.431681e-06,-2.125000e-02
-1.423681e-06,3.750000e-03
-1.415681e-06,-2.500000e-02
-1.407681e-06,6.250000e-03
-1.399681e-06,-5.000000e-02
-1.391681e-06,8.750000e-03
-1.383681e-06,-5.000000e-03
-1.375681e-06,1.625000e-02
-1.367681e-06,2.500000e-03
-1.359681e-06,1.000000e-02
-1.351681e-06,2.500000e-03
-1.343681e-06,2.375000e-02
-1.335681e-06,-1.875000e-02
-1.327681e-06,2.125000e-02
-1.319681e-06,-3.375000e-02
-1.311681e-06,1.250000e-02
-1.303681e-06,-3.250000e-02
-1.295681e-06,0.000000e+00
-1.287681e-06,-1.125000e-02
-1.279681e-06,7.500000e-03
-1.271681e-06,-1.125000e-02
-1.263681e-06,1.000000e-02
-1.255681e-06,0.000000e+00
-1.247681e-06,1.750000e-02
-1.239681e-06,1.375000e-02
-1.231681e-06,-2.500000e-03
-1.223681e-06,-1.375000e-02
-1.215681e-06,2.625000e-02
-1.207681e-06,-2.125000e-02
-1.199681e-06,1.000000e-02
-1.191681e-06,-3.375000e-02
-1.183681e-06,1.625000e-02
-1.175681e-06,-1.250000e-02
-1.167681e-06,3.750000e-03
-1.159681e-06,-1.875000e-02
-1.151681e-06,-1.250000e-03
-1.143681e-06,-1.000000e-02
-1.135681e-06,8.750000e-03
-1.127681e-06,-1.875000e-02
-1.119681e-06,4.250000e-02
-1.111681e-06,3.750000e-03
-1.103681e-06,1.500000e-02
-1.095681e-06,-2.375000e-02
-1.087681e-06,2.000000e-02
-1.079681e-06,-2.000000e-02
-1.071681e-06,2.500000e-02
-1.063681e-06,-2.250000e-02
-1.055681e-06,-1.250000e-03
-1.047681e-06,-1.250000e-02
-1.039681e-06,1.625000e-02
-1.031681e-06,-1.750000e-02
-1.023681e-06,-2.500000e-03
-1.015681e-06,-3.750000e-03
-1.007681e-06,1.000000e-02
-9.996812e-07,-1.375000e-02
-9.916812e-07,1.125000e-02
-9.836812e-07,0.000000e+00
-9.756812e-07,1.000000e-02
-9.676812e-07,-2.000000e-02
-9.596812e-07,2.500000e-03
-9.516812e-07,-2.125000e-02
-9.436812e-07,-2.500000e-03
-9.356812e-07,-3.125000e-02
-9.276812e-07,2.125000e-02
-9.196812e-07,-6.250000e-03
-9.116812e-07,5.000000e-03
-9.036812e-07,5.000000e-03
-8.956812e-07,8.750000e-03
-8.876812e-07,-1.750000e-02
-8.796812e-07,1.625000e-02
-8.716812e-07,-1.750000e-02
-8.636812e-07,1.500000e-02
-8.556812e-07,-3.375000e-02
-8.476812e-07,1.000000e-02
-8.396812e-07,-3.750000e-03
-8.316812e-07,1.625000e-02
-8.236812e-07,-2.625000e-02
-8.156812e-07,1.750000e-02
-8.076812e-07,-1.625000e-02
-7.996812e-07,2.125000e-02
-7.916812e-07,-3.000000e-02
-7.836812e-07,6.250000e-03
-7.756812e-07,-3.750000e-03
-7.676812e-07,3.750000e-03
-7.596812e-07,-1.375000e-02
-7.516812e-07,1.500000e-02
-7.436812e-07,-2.500000e-03
-7.356812e-07,3.750000e-03
-7.276812e-07,2.500000e-03
-7.196812e-07,3.750000e-03
-7.116812e-07,-1.000000e-02
-7.036812e-07,1.750000e-02
-6.956812e-07,-2.875000e-02
-6.876812e-07,2.500000e-02
-6.796812e-07,-7.500000e-03
-6.716812e-07,2.375000e-02
-6.636812e-07,-3.750000e-03
-6.556812e-07,1.375000e-02
-6.476812e-07,-3.750000e-03
-6.396812e-07,3.750000e-02
-6.316812e-07,-1.625000e-02
-6.236812e-07,5.000000e-03
-6.156812e-07,-6.250000e-03
-6.076812e-07,3.250000e-02
-5.996812e-07,3.750000e-03
-5.916812e-07,1.000000e-02
-5.836812e-07,-1.000000e-02
-5.756812e-07,2.000000e-02
-5.676812e-07,-6.250000e-03
-5.596812e-07,1.500000e-02
-5.516812e-07,-2.750000e-02
-5.436812e-07,2.500000e-02
-5.356812e-07,-1.375000e-02
-5.276812e-07,8.750000e-03
-5.196812e-07,-1.250000e-02
-5.116812e-07,1.250000e-03
-5.036812e-07,-1.250000e-02
-4.956812e-07,1.625000e-02
-4.876812e-07,-1.250000e-03
-4.796812e-07,1.500000e-02
-4.716812e-07,-1.500000e-02
-4.636812e-07,1.250000e-02
-4.556812e-07,-1.375000e-02
-4.476812e-07,1.250000e-02
-4.396812e-07,-2.375000e-02
-4.316812e-07,-5.000000e-03
-4.236812e-07,-2.500000e-02
-4.156812e-07,3.625000e-02
-4.076812e-07,-1.250000e-02
-3.996812e-07,0.000000e+00
-3.916812e-07,-2.125000e-02
-3.836812e-07,1.250000e-02
-3.756812e-07,-1.875000e-02
-3.676812e-07,-3.750000e-03
-3.596812e-07,-3.750000e-03
-3.516812e-07,2.125000e-02
-3.436812e-07,-3.750000e-03
-3.356812e-07,2.750000e-02
-3.276812e-07,-1.000000e-02
-3.196812e-07,1.000000e-02
-3.116812e-07,-1.250000e-03
-3.036812e-07,7.500000e-03
-2.956812e-07,-2.750000e-02
-2.876812e-07,1.750000e-02
-2.796812e-07,-2.000000e-02
-2.716812e-07,3.125000e-02
-2.636812e-07,-2.250000e-02
-2.556812e-07,3.750000e-03
-2.476812e-07,-1.750000e-02
-2.396812e-07,1.250000e-02
-2.316812e-07,-8.750000e-03
-2.236812e-07,1.250000e-02
-2.156812e-07,-8.750000e-03
-2.076812e-07,-1.750000e-02
-1.996812e-07,-6.250000e-03
-1.916812e-07,1.375000e-02
-1.836812e-07,-1.750000e-02
-1.756812e-07,2.750000e-02
-1.676812e-07,-6.250000e-03
-1.596812e-07,3.500000e-02
-1.516812e-07,-3.750000e-03
-1.436812e-07,1.625000e-02
-1.356812e-07,-8.750000e-03
-1.276812e-07,2.500000e-03
-1.196812e-07,-3.250000e-02
-1.116812e-07,1.625000e-02
-1.036812e-07,-1.625000e-02
-9.568125e-08,3.375000e-02
-8.768125e-08,-1.375000e-02
-7.968125e-08,-5.000000e-03
-7.168125e-08,-1.375000e-02
-6.368125e-08,-1.250000e-03
-5.568125e-08,-2.750000e-02
-4.768125e-08,1.750000e-02
-3.968125e-08,1.250000e-03
-3.168125e-08,1.250000e-02
-2.368125e-08,-1.250000e-02
-1.568125e-08,1.375000e-02
-7.681250e-09,-2.250000e-02
3.187500e-10,-3.225000e-01
8.318750e-09,-1.433750e+00
1.631875e-08,-1.391250e+00
2.431875e-08,-1.418750e+00
3.231875e-08,-3.500000e-02
4.031875e-08,-2.875000e-02
4.831875e-08,2.750000e-02
5.631875e-08,-3.250000e-02
6.431875e-08,8.750000e-03
7.231875e-08,-2.875000e-02
8.031875e-08,-5.000000e-03
8.831875e-08,-1.000000e-02
9.631875e-08,5.000000e-03
1.043188e-07,-2.500000e-02
1.123188e-07,-1.125000e-02
1.203188e-07,-1.875000e-02
1.283188e-07,-2.500000e-03
1.363188e-07,-1.250000e-02
1.443188e-07,1.500000e-02
1.523188e-07,1.250000e-03
1.603188e-07,5.000000e-03
1.683188e-07,-2.000000e-02
1.763188e-07,1.750000e-02
1.843188e-07,-2.375000e-02
1.923188e-07,-7.500000e-03
2.003188e-07,-1.625000e-02
2.083188e-07,-1.250000e-03
2.163188e-07,-4.500000e-02
2.243188e-07,2.750000e-02
2.323188e-07,-1.375000e-02
2.403188e-07,8.750000e-03
2.483188e-07,-7.500000e-03
2.563188e-07,1.375000e-02
2.643188e-07,-2.000000e-02
2.723188e-07,2.375000e-02
2.803188e-07,-1.000000e-02
2.883188e-07,2.625000e-02
2.963188e-07,-1.000000e-02
3.043188e-07,6.250000e-03
3.123188e-07,-1.875000e-02
3.203188e-07,0.000000e+00
3.283188e-07,-4.250000e-02
3.363188e-07,5.000000e-03
3.443188e-07,-2.875000e-02
3.523188e-07,2.000000e-02
3.603188e-07,-3.625000e-02
3.683188e-07,1.125000e-02
3.763188e-07,-2.250000e-02
3.843188e-07,2.125000e-02
3.923188e-07,-3.125000e-02
4.003188e-07,2.625000e-02
4.083188e-07,-7.500000e-03
4.163188e-07,6.250000e-03
4.243188e-07,-1.375000e-02
4.323188e-07,1.875000e-02
4.403188e-07,-1.875000e-02
4.483188e-07,2.250000e-02
4.563188e-07,-3.375000e-02
4.643188e-07,1.875000e-02
4.723188e-07,-2.875000e-02
4.803188e-07,-8.750000e-03
4.883188e-07,-8.750000e-03
4.963188e-07,1.250000e-02
5.043188e-07,-2.125000e-02
5.123188e-07,1.875000e-02
5.203188e-07,-4.750000e-02
5.283188e-07,-1.250000e-03
5.363188e-07,0.000000e+00
5.443188e-07,-8.750000e-03
5.523188e-07,-7.500000e-03
5.603188e-07,2.625000e-02
5.683188e-07,-1.000000e-02
5.763188e-07,-1.250000e-03
5.843188e-07,-2.375000e-02
5.923188e-07,2.250000e-02
6.003188e-07,-1.750000e-02
6.083188e-07,2.500000e-02
6.163188e-07,-1.625000e-02
6.243188e-07,-2.500000e-03
6.323188e-07,-3.250000e-02
6.403188e-07,1.500000e-02
6.483188e-07,-3.875000e-02
6.563188e-07,1.875000e-02
6.643188e-07,-5.000000e-03
6.723188e-07,2.250000e-02
6.803188e-07,1.250000e-02
6.883188e-07,2.875000e-02
6.963188e-07,-1.750000e-02
7.043188e-07,1.750000e-02
7.123188e-07,-3.000000e-02
7.203188e-07,1.500000e-02
7.283188e-07,-1.750000e-02
7.363188e-07,1.500000e-02
7.443188e-07,-1.125000e-02
7.523188e-07,1.375000e-02
7.603188e-07,-1.750000e-02
7.683188e-07,1.125000e-02
7.763188e-07,-2.250000e-02
7.843188e-07,1.625000e-02
7.923188e-07,-8.750000e-03
