run1/run1_ch1_20210318180359685.csv

Model,MSO64
Waveform Type,ANALOG
Horizontal Units,s
Sample Interval,8.000000e-09
Record Length,1250
Zero Index,624.630000
Vertical Units,V

TIME,CH1
-4.997040e-06,-1.250000e-03
-4.989040e-06,1.250000e-02
-4.981040e-06,-1.500000e-02
-4.973040e-06,1.125000e-02
-4.965040e-06,-1.125000e-02
-4.957040e-06,4.125000e-02
-4.949040e-06,-7.500000e-03
-4.941040e-06,2.375000e-02
-4.933040e-06,-1.750000e-02
-4.925040e-06,2.500000e-02
-4.917040e-06,-2.500000e-02
-4.909040e-06,3.500000e-02
-4.901040e-06,-3.000000e-02
-4.893040e-06,1.250000e-03
-4.885040e-06,-1.375000e-02
-4.877040e-06,6.250000e-03
-4.869040e-06,-2.500000e-03
-4.861040e-06,5.000000e-03
-4.853040e-06,-1.000000e-02
-4.845040e-06,1.625000e-02
-4.837040e-06,-3.500000e-02
-4.829040e-06,2.125000e-02
-4.821040e-06,-2.125000e-02
-4.813040e-06,3.250000e-02
-4.805040e-06,-8.750000e-03
-4.797040e-06,2.375000e-02
-4.789040e-06,-2.875000e-02
-4.781040e-06,1.125000e-02
-4.773040e-06,-8.750000e-03
-4.765040e-06,8.750000e-03
-4.757040e-06,-2.250000e-02
-4.749040e-06,2.375000e-02
-4.741040e-06,8.750000e-03
-4.733040e-06,1.250000e-02
-4.725040e-06,-1.375000e-02
-4.717040e-06,2.625000e-02
-4.709040e-06,-1.125000e-02
-4.701040e-06,3.750000e-02
-4.693040e-06,-4.250000e-02
-4.685040e-06,2.000000e-02
-4.677040e-06,-1.000000e-02
-4.669040e-06,8.750000e-03
-4.661040e-06,6.250000e-03
-4.653040e-06,2.250000e-02
-4.645040e-06,-1.500000e-02
-4.637040e-06,2.250000e-02
-4.629040e-06,0.000000e+00
-4.621040e-06,3.375000e-02
-4.613040e-06,-1.500000e-02
-4.605040e-06,2.125000e-02
-4.597040e-06,-5.000000e-03
-4.589040e-06,8.750000e-03
-4.581040e-06,-3.000000e-02
-4.573040e-06,2.125000e-02
-4.565040e-06,-2.000000e-02
-4.557040e-06,3.500000e-02
-4.549040e-06,8.750000e-03
-4.541040e-06,2.375000e-02
-4.533040e-06,-1.625000e-02
-4.525040e-06,6.250000e-03
-4.517040e-06,0.000000e+00
-4.509040e-06,7.500000e-03
-4.501040e-06,1.125000e-02
-4.493040e-06,4.500000e-02
-4.485040e-06,-1.000000e-02
-4.477040e-06,1.125000e-02
-4.469040e-06,-1.375000e-02
-4.461040e-06,1.000000e-02
-4.453040e-06,-4.750000e-02
-4.445040e-06,1.750000e-02
-4.437040e-06,-2.000000e-02
-4.429040e-06,1.875000e-02
-4.421040e-06,-1.375000e-02
-4.413040e-06,1.625000e-02
-4.405040e-06,-8.750000e-03
-4.397040e-06,1.875000e-02
-4.389040e-06,-1.375000e-02
-4.381040e-06,2.375000e-02
-4.373040e-06,0.000000e+00
-4.365040e-06,3.125000e-02
-4.357040e-06,-6.250000e-03
-4.349040e-06,2.500000e-02
-4.341040e-06,1.875000e-02
-4.333040e-06,1.375000e-02
-4.325040e-06,-1.625000e-02
-4.317040e-06,2.500000e-03
-4.309040e-06,-2.500000e-03
-4.301040e-06,1.375000e-02
-4.293040e-06,0.000000e+00
-4.285040e-06,0.000000e+00
-4.277040e-06,5.000000e-03
-4.269040e-06,5.000000e-03
-4.261040e-06,-3.750000e-02
-4.253040e-06,1.250000e-02
-4.245040e-06,-2.250000e-02
-4.237040e-06,1.250000e-02
-4.229040e-06,-1.875000e-02
-4.221040e-06,-1.250000e-03
-4.213040e-06,-5.000000e-03
-4.205040e-06,3.750000e-03
-4.197040e-06,-2.500000e-02
-4.189040e-06,2.375000e-02
-4.181040e-06,-1.125000e-02
-4.173040e-06,3.250000e-02
-4.165040e-06,-2.250000e-02
-4.157040e-06,2.250000e-02
-4.149040e-06,0.000000e+00
-4.141040e-06,2.125000e-02
-4.133040e-06,-2.625000e-02
-4.125040e-06,1.500000e-02
-4.117040e-06,-1.125000e-02
-4.109040e-06,-1.000000e-02
-4.101040e-06,-2.500000e-03
-4.093040e-06,2.000000e-02
-4.085040e-06,-8.750000e-03
-4.077040e-06,1.250000e-03
-4.069040e-06,-1.750000e-02
-4.061040e-06,2.500000e-02
-4.053040e-06,-1.500000e-02
-4.045040e-06,2.750000e-02
-4.037040e-06,-1.500000e-02
-4.029040e-06,2.250000e-02
-4.021040e-06,-1.000000e-02
-4.013040e-06,6.250000e-03
-4.005040e-06,-1.125000e-02
-3.997040e-06,3.000000e-02
-3.989040e-06,1.500000e-02
-3.981040e-06,4.125000e-02
-3.973040e-06,-2.000000e-02
-3.965040e-06,5.000000e-03
-3.957040e-06,-3.000000e-02
-3.949040e-06,1.250000e-02
-3.941040e-06,-3.500000e-02
-3.933040e-06,3.500000e-02
-3.925040e-06,-1.250000e-03
-3.917040e-06,3.125000e-02
-3.909040e-06,-1.250000e-02
-3.901040e-06,-1.375000e-02
-3.893040e-06,0.000000e+00
-3.885040e-06,1.250000e-02
-3.877040e-06,-5.000000e-03
-3.869040e-06,2.125000e-02
-3.861040e-06,-3.125000e-02
-3.853040e-06,7.500000e-03
-3.845040e-06,-7.500000e-03
-3.837040e-06,2.250000e-02
-3.829040e-06,-1.750000e-02
-3.821040e-06,2.750000e-02
-3.813040e-06,-1.500000e-02
-3.805040e-06,3.125000e-02
-3.797040e-06,-5.000000e-03
-3.789040e-06,3.625000e-02
-3.781040e-06,-2.875000e-02
-3.773040e-06,7.500000e-03
-3.765040e-06,-2.625000e-02
-3.757040e-06,2.500000e-03
-3.749040e-06,-7.500000e-03
-3.741040e-06,1.125000e-02
-3.733040e-06,7.500000e-03
-3.725040e-06,1.000000e-02
-3.717040e-06,-1.375000e-02
-3.709040e-06,1.500000e-02
-3.701040e-06,8.750000e-03
-3.693040e-06,2.250000e-02
-3.685040e-06,-1.375000e-02
-3.677040e-06,2.000000e-02
-3.669040e-06,-2.750000e-02
-3.661040e-06,3.000000e-02
-3.653040e-06,-7.500000e-03
-3.645040e-06,1.750000e-02
-3.637040e-06,-2.750000e-02
-3.629040e-06,2.875000e-02
-3.621040e-06,-3.250000e-02
-3.613040e-06,8.750000e-03
-3.605040e-06,-3.750000e-03
-3.597040e-06,2.250000e-02
-3.589040e-06,0.000000e+00
-3.581040e-06,0.000000e+00
-3.573040e-06,2.500000e-03
-3.565040e-06,2.500000e-03
-3.557040e-06,-2.250000e-02
-3.549040e-06,2.250000e-02
-3.541040e-06,6.250000e-03
-3.533040e-06,2.125000e-02
-3.525040e-06,1.250000e-03
-3.517040e-06,6.250000e-03
-3.509040e-06,-7.500000e-03
-3.501040e-06,3.750000e-03
-3.493040e-06,3.750000e-03
-3.485040e-06,8.750000e-03
-3.477040e-06,-6.250000e-03
-3.469040e-06,1.000000e-02
-3.461040e-06,-1.125000e-02
-3.453040e-06,2.500000e-02
-3.445040e-06,-1.250000e-03
-3.437040e-06,0.000000e+00
-3.429040e-06,-3.250000e-02
-3.421040e-06,3.750000e-03
-3.413040e-06,-2.875000e-02
-3.405040e-06,7.500000e-03
-3.397040e-06,-7.500000e-03
-3.389040e-06,2.500000e-02
-3.381040e-06,-1.500000e-02
-3.373040e-06,-7.500000e-03
-3.365040e-06,-2.250000e-02
-3.357040e-06,2.750000e-02
-3.349040e-06,3.750000e-03
-3.341040e-06,1.375000e-02
-3.333040e-06,3.750000e-03
-3.325040e-06,1.875000e-02
-3.317040e-06,-1.250000e-03
-3.309040e-06,1.250000e-02
-3.301040e-06,-3.500000e-02
-3.293040e-06,1.000000e-02
-3.285040e-06,-1.875000e-02
-3.277040e-06,4.750000e-02
-3.269040e-06,1.250000e-03
-3.261040e-06,1.250000e-03
-3.253040e-06,-1.875000e-02
-3.245040e-06,5.000000e-03
-3.237040e-06,1.250000e-03
-3.229040e-06,1.250000e-03
-3.221040e-06,-1.000000e-02
-3.213040e-06,3.250000e-02
-3.205040e-06,-2.500000e-03
-3.197040e-06,2.000000e-02
-3.189040e-06,-1.125000e-02
-3.181040e-06,3.375000e-02
-3.173040e-06,-8.750000e-03
-3.165040e-06,5.000000e-03
-3.157040e-06,-4.250000e-02
-3.149040e-06,3.250000e-02
-3.141040e-06,-2.125000e-02
-3.133040e-06,2.250000e-02
-3.125040e-06,-1.000000e-02
-3.117040e-06,1.250000e-02
-3.109040e-06,1.250000e-03
-3.101040e-06,0.000000e+00
-3.093040e-06,-1.375000e-02
-3.085040e-06,2.500000e-02
-3.077040e-06,2.500000e-03
-3.069040e-06,2.125000e-02
-3.061040e-06,-3.875000e-02
-3.053040e-06,-3.750000e-03
-3.045040e-06,-3.250000e-02
-3.037040e-06,2.750000e-02
-3.029040e-06,-2.500000e-02
-3.021040e-06,2.000000e-02
-3.013040e-06,-2.500000e-03
-3.005040e-06,1.250000e-03
-2.997040e-06,-8.750000e-03
-2.989040e-06,2.500000e-03
-2.981040e-06,-3.500000e-02
-2.973040e-06,2.000000e-02
-2.965040e-06,-2.500000e-03
-2.957040e-06,2.375000e-02
-2.949040e-06,1.375000e-02
-2.941040e-06,1.625000e-02
-2.933040e-06,-2.875000e-02
-2.925040e-06,1.500000e-02
-2.917040e-06,-4.375000e-02
-2.909040e-06,1.375000e-02
-2.901040e-06,-1.375000e-02
-2.893040e-06,1.875000e-02
-2.885040e-06,-1.625000e-02
-2.877040e-06,0.000000e+00
-2.869040e-06,-1.250000e-03
-2.861040e-06,1.125000e-02
-2.853040e-06,-1.125000e-02
-2.845040e-06,-3.750000e-03
-2.837040e-06,3.750000e-03
-2.829040e-06,7.500000e-03
-2.821040e-06,-6.250000e-03
-2.813040e-06,4.125000e-02
-2.805040e-06,3.750000e-03
-2.797040e-06,3.750000e-03
-2.789040e-06,-2.875000e-02
-2.781040e-06,2.125000e-02
-2.773040e-06,-5.000000e-03
-2.765040e-06,2.625000e-02
-2.757040e-06,-7.500000e-03
-2.749040e-06,0.000000e+00
-2.741040e-06,-3.250000e-02
-2.733040e-06,3.000000e-02
-2.725040e-06,-2.500000e-02
-2.717040e-06,7.500000e-03
-2.709040e-06,3.750000e-03
-2.701040e-06,2.500000e-02
-2.693040e-06,-1.375000e-02
-2.685040e-06,1.250000e-02
-2.677040e-06,0.000000e+00
-2.669040e-06,1.125000e-02
-2.661040e-06,-2.500000e-02
-2.653040e-06,1.500000e-02
-2.645040e-06,-2.250000e-02
-2.637040e-06,3.375000e-02
-2.629040e-06,-2.250000e-02
-2.621040e-06,1.875000e-02
-2.613040e-06,-6.250000e-03
-2.605040e-06,2.750000e-02
-2.597040e-06,-3.000000e-02
-2.589040e-06,3.000000e-02
-2.581040e-06,-8.750000e-03
-2.573040e-06,7.500000e-03
-2.565040e-06,-6.250000e-03
-2.557040e-06,1.625000e-02
-2.549040e-06,-3.125000e-02
-2.541040e-06,1.750000e-02
-2.533040e-06,-3.375000e-02
-2.525040e-06,1.125000e-02
-2.517040e-06,0.000000e+00
-2.509040e-06,3.875000e-02
-2.501040e-06,-6.250000e-03
-2.493040e-06,1.750000e-02
-2.485040e-06,-2.500000e-02
-2.477040e-06,1.000000e-02
-2.469040e-06,-5.125000e-02
-2.461040e-06,2.250000e-02
-2.453040e-06,-6.250000e-03
-2.445040e-06,3.125000e-02
-2.437040e-06,-2.125000e-02
-2.429040e-06,5.000000e-03
-2.421040e-06,-1.500000e-02
-2.413040e-06,8.750000e-03
-2.405040e-06,-2.500000e-03
-2.397040e-06,1.125000e-02
-2.389040e-06,-7.500000e-03
-2.381040e-06,4.250000e-02
-2.373040e-06,-1.125000e-02
-2.365040e-06,-1.250000e-03
-2.357040e-06,-1.250000e-03
-2.349040e-06,1.250000e-02
-2.341040e-06,-2.250000e-02
-2.333040e-06,2.000000e-02
-2.325040e-06,-1.375000e-02
-2.317040e-06,1.500000e-02
-2.309040e-06,-7.500000e-03
-2.301040e-06,3.750000e-03
-2.293040e-06,-3.750000e-02
-2.285040e-06,1.125000e-02
-2.277040e-06,-3.375000e-02
-2.269040e-06,3.750000e-03
-2.261040e-06,-2.000000e-02
-2.253040e-06,2.500000e-03
-2.245040e-06,-1.875000e-02
-2.237040e-06,2.000000e-02
-2.229040e-06,1.000000e-02
-2.221040e-06,2.125000e-02
-2.213040e-06,-1.875000e-02
-2.205040e-06,-1.125000e-02
-2.197040e-06,-1.250000e-03
-2.189040e-06,2.000000e-02
-2.181040e-06,3.750000e-03
-2.173040e-06,3.500000e-02
-2.165040e-06,0.000000e+00
-2.157040e-06,3.500000e-02
-2.149040e-06,-2.125000e-02
-2.141040e-06,-2.500000e-03
-2.133040e-06,-1.125000e-02
-2.125040e-06,1.000000e-02
-2.117040e-06,-7.500000e-03
-2.109040e-06,2.250000e-02
-2.101040e-06,-2.875000e-02
-2.093040e-06,3.375000e-02
-2.085040e-06,-7.500000e-03
-2.077040e-06,1.750000e-02
-2.069040e-06,0.000000e+00
-2.061040e-06,2.875000e-02
-2.053040e-06,6.250000e-03
-2.045040e-06,2.750000e-02
-2.037040e-06,-3.750000e-03
-2.029040e-06,1.125000e-02
-2.021040e-06,-7.500000e-03
-2.013040e-06,-7.500000e-03
-2.005040e-06,-1.625000e-02
-1.997040e-06,1.750000e-02
-1.989040e-06,-1.875000e-02
-1.981040e-06,1.625000e-02
-1.973040e-06,-2.000000e-02
-1.965040e-06,1.625000e-02
-1.957040e-06,-3.500000e-02
-1.949040e-06,8.750000e-03
-1.941040e-06,1.250000e-03
-1.933040e-06,3.750000e-03
-1.925040e-06,1.250000e-03
-1.917040e-06,4.000000e-02
-1.909040e-06,-1.625000e-02
-1.901040e-06,2.625000e-02
-1.893040e-06,-2.875000e-02
-1.885040e-06,3.250000e-02
-1.877040e-06,-1.625000e-02
-1.869040e-06,7.500000e-03
-1.861040e-06,-1.250000e-03
-1.853040e-06,8.750000e-03
-1.845040e-06,-2.625000e-02
-1.837040e-06,1.125000e-02
-1.829040e-06,-1.000000e-02
-1.821040e-06,6.250000e-03
-1.813040e-06,8.750000e-03
-1.805040e-06,7.500000e-03
-1.797040e-06,7.500000e-03
-1.789040e-06,2.125000e-02
-1.781040e-06,-2.125000e-02
-1.773040e-06,-6.250000e-03
-1.765040e-06,-3.500000e-02
-1.757040e-06,2.125000e-02
-1.749040e-06,-1.625000e-02
-1.741040e-06,1.875000e-02
-1.733040e-06,-3.125000e-02
-1.725040e-06,0.000000e+00
-1.717040e-06,-1.625000e-02
-1.709040e-06,3.750000e-03
-1.701040e-06,-2.500000e-02
-1.693040e-06,-5.000000e-03
-1.685040e-06,-1.625000e-02
-1.677040e-06,1.500000e-02
-1.669040e-06,0.000000e+00
-1.661040e-06,1.250000e-02
-1.653040e-06,-6.250000e-03
-1.645040e-06,2.375000e-02
-1.637040e-06,-4.000000e-02
-1.629040e-06,1.250000e-03
-1.621040e-06,-3.750000e-03
-1.613040e-06,4.875000e-02
-1.605040e-06,-1.250000e-03
-1.597040e-06,2.500000e-03
-1.589040e-06,0.000000e+00
-1.581040e-06,-8.750000e-03
-1.573040e-06,-2.500000e-02
-1.565040e-06,1.250000e-02
-1.557040e-06,-2.125000e-02
-1.549040e-06,1.125000e-02
-1.541040e-06,1.250000e-02
-1.533040e-06,1.625000e-02
-1.525040e-06,-2.250000e-02
-1.517040e-06,6.250000e-03
-1.509040e-06,-1.875000e-02
-1.501040e-06,3.125000e-02
-1.493040e-06,-1.375000e-02
-1.485040e-06,3.125000e-02
-1.477040e-06,3.750000e-03
-1.469040e-06,7.500000e-03
-1.461040e-06,-1.000000e-02
-1.453040e-06,2.000000e-02
-1.445040e-06,-1.250000e-02
-1.437040e-06,2.500000e-02
-1.429040e-06,-1.250000e-02
-1.421040e-06,1.500000e-02
-1.413040e-06,2.375000e-02
-1.405040e-06,2.000000e-02
-1.397040e-06,-2.000000e-02
-1.389040e-06,2.125000e-02
-1.381040e-06,-4.125000e-02
-1.373040e-06,1.250000e-02
-1.365040e-06,-2.000000e-02
-1.357040e-06,3.000000e-02
-1.349040e-06,-3.125000e-02
-1.341040e-06,1.625000e-02
-1.333040e-06,-6.250000e-03
-1.325040e-06,2.250000e-02
-1.317040e-06,-1.625000e-02
-1.309040e-06,2.375000e-02
-1.301040e-06,-6.250000e-03
-1.293040e-06,2.375000e-02
-1.285040e-06,8.750000e-03
-1.277040e-06,1.750000e-02
-1.269040e-06,-1.250000e-03
-1.261040e-06,3.750000e-03
-1.253040e-06,-1.625000e-02
-1.245040e-06,3.625000e-02
-1.237040e-06,2.500000e-03
-1.229040e-06,1.750000e-02
-1.221040e-06,1.000000e-02
-1.213040e-06,-6.250000e-03
-1.205040e-06,-2.500000e-03
-1.197040e-06,1.750000e-02
-1.189040e-06,-1.125000e-02
-1.181040e-06,-5.000000e-03
-1.173040e-06,5.000000e-03
-1.165040e-06,3.875000e-02
-1.157040e-06,-7.500000e-03
-1.149040e-06,1.125000e-02
-1.141040e-06,-2.125000e-02
-1.133040e-06,-5.000000e-03
-1.125040e-06,-3.125000e-02
-1.117040e-06,1.750000e-02
-1.109040e-06,-3.750000e-02
-1.101040e-06,3.125000e-02
-1.093040e-06,2.500000e-03
-1.085040e-06,1.750000e-02
-1.077040e-06,-2.500000e-02
-1.069040e-06,1.375000e-02
-1.061040e-06,-8.750000e-03
-1.053040e-06,1.375000e-02
-1.045040e-06,-1.000000e-02
-1.037040e-06,2.500000e-02
-1.029040e-06,-1.000000e-02
-1.021040e-06,1.250000e-02
-1.013040e-06,-1.250000e-02
-1.005040e-06,-8.750000e-03
-9.970400e-07,-1.875000e-02
-9.890400e-07,2.000000e-02
-9.810400e-07,-2.125000e-02
-9.730400e-07,1.125000e-02
-9.650400e-07,-1.250000e-02
-9.570400e-07,-1.375000e-02
-9.490400e-07,-2.000000e-02
-9.410400e-07,1.875000e-02
-9.330400e-07,-2.000000e-02
-9.250400e-07,1.500000e-02
-9.170400e-07,1.250000e-03
-9.090400e-07,2.875000e-02
-9.010400e-07,1.750000e-02
-8.930400e-07,-2.500000e-03
-8.850400e-07,-3.750000e-02
-8.770400e-07,3.750000e-03
-8.690400e-07,-3.125000e-02
-8.610400e-07,2.500000e-03
-8.530400e-07,-2.750000e-02
-8.450400e-07,3.500000e-02
-8.370400e-07,-1.125000e-02
-8.290400e-07,1.625000e-02
-8.210400e-07,-8.750000e-03
-8.130400e-07,3.250000e-02
-8.050400e-07,-2.375000e-02
-7.970400e-07,2.500000e-03
-7.890400e-07,2.500000e-03
-7.810400e-07,-2.500000e-03
-7.730400e-07,-7.500000e-03
-7.650400e-07,1.625000e-02
-7.570400e-07,-1.375000e-02
-7.490400e-07,4.250000e-02
-7.410400e-07,-1.750000e-02
-7.330400e-07,2.500000e-02
-7.250400e-07,-2.250000e-02
-7.170400e-07,4.500000e-02
-7.090400e-07,-1.250000e-03
-7.010400e-07,6.250000e-03
-6.930400e-07,-1.500000e-02
-6.850400e-07,1.500000e-02
-6.770400e-07,-2.500000e-03
-6.690400e-07,1.625000e-02
-6.610400e-07,-4.000000e-02
-6.530400e-07,5.000000e-03
-6.450400e-07,1.000000e-02
-6.370400e-07,2.125000e-02
-6.290400e-07,5.000000e-03
-6.210400e-07,8.750000e-03
-6.130400e-07,-3.500000e-02
-6.050400e-07,1.875000e-02
-5.970400e-07,2.500000e-03
-5.890400e-07,2.000000e-02
-5.810400e-07,3.750000e-03
-5.730400e-07,-1.250000e-03
-5.650400e-07,-1.125000e-02
-5.570400e-07,1.625000e-02
-5.490400e-07,1.250000e-03
-5.410400e-07,2.500000e-02
-5.330400e-07,-1.000000e-02
-5.250400e-07,2.125000e-02
-5.170400e-07,-1.375000e-02
-5.090400e-07,4.250000e-02
-5.010400e-07,-2.500000e-03
-4.930400e-07,2.875000e-02
-4.850400e-07,-3.500000e-02
-4.770400e-07,2.750000e-02
-4.690400e-07,-2.500000e-02
-4.610400e-07,2.500000e-02
-4.530400e-07,-6.250000e-03
-4.450400e-07,2.000000e-02
-4.370400e-07,-1.375000e-02
-4.290400e-07,-8.750000e-03
-4.210400e-07,-7.500000e-03
-4.130400e-07,2.375000e-02
-4.050400e-07,2.125000e-02
-3.970400e-07,7.500000e-03
-3.890400e-07,2.250000e-02
-3.810400e-07,1.625000e-02
-3.730400e-07,-2.000000e-02
-3.650400e-07,1.250000e-02
-3.570400e-07,-1.875000e-02
-3.490400e-07,2.250000e-02
-3.410400e-07,-1.875000e-02
-3.330400e-07,2.000000e-02
-3.250400e-07,-1.000000e-02
-3.170400e-07,1.125000e-02
-3.090400e-07,-2.500000e-03
-3.010400e-07,3.000000e-02
-2.930400e-07,-5.000000e-03
-2.850400e-07,1.625000e-02
-2.770400e-07,2.500000e-03
-2.690400e-07,8.750000e-03
-2.610400e-07,-2.500000e-02
-2.530400e-07,-3.750000e-03
-2.450400e-07,-2.125000e-02
-2.370400e-07,4.250000e-02
-2.290400e-07,-3.875000e-02
-2.210400e-07,2.500000e-03
-2.130400e-07,-2.500000e-03
-2.050400e-07,1.125000e-02
-1.970400e-07,-8.750000e-03
-1.890400e-07,4.875000e-02
-1.810400e-07,-8.750000e-03
-1.730400e-07,3.750000e-02
-1.650400e-07,-2.375000e-02
-1.570400e-07,4.125000e-02
-1.490400e-07,-1.500000e-02
-1.410400e-07,3.500000e-02
-1.330400e-07,8.750000e-03
-1.250400e-07,-1.375000e-02
-1.170400e-07,-1.250000e-02
-1.090400e-07,0.000000e+00
-1.010400e-07,-1.500000e-02
-9.304000e-08,3.000000e-02
-8.504000e-08,0.000000e+00
-7.704000e-08,3.750000e-03
-6.904000e-08,1.250000e-03
-6.104000e-08,-1.250000e-03
-5.304000e-08,1.625000e-02
-4.504000e-08,3.000000e-02
-3.704000e-08,-1.375000e-02
-2.904000e-08,1.250000e-02
-2.104000e-08,-8.750000e-03
-1.304000e-08,2.375000e-02
-5.040000e-09,0.000000e+00
2.960000e-09,-1.352500e+00
1.096000e-08,-1.433750e+00
1.896000e-08,-1.395000e+00
2.696000e-08,-1.415000e+00
3.496000e-08,1.250000e-02
4.296000e-08,-2.375000e-02
5.096000e-08,3.375000e-02
5.896000e-08,-1.000000e-02
6.696000e-08,-5.000000e-03
7.496000e-08,5.000000e-03
8.296000e-08,2.250000e-02
9.096000e-08,-2.125000e-02
9.896000e-08,1.125000e-02
1.069600e-07,-1.250000e-02
1.149600e-07,8.750000e-03
1.229600e-07,-2.250000e-02
1.309600e-07,1.000000e-02
1.389600e-07,-6.250000e-03
1.469600e-07,6.250000e-03
1.549600e-07,-3.750000e-02
1.629600e-07,8.750000e-03
1.709600e-07,-5.000000e-03
1.789600e-07,4.000000e-02
1.869600e-07,-2.500000e-03
1.949600e-07,1.375000e-02
2.029600e-07,-3.625000e-02
2.109600e-07,1.375000e-02
2.189600e-07,-6.250000e-03
2.269600e-07,1.875000e-02
2.349600e-07,-2.500000e-03
2.429600e-07,2.375000e-02
2.509600e-07,-1.625000e-02
2.589600e-07,1.625000e-02
2.669600e-07,-3.750000e-02
2.749600e-07,1.500000e-02
2.829600e-07,-2.375000e-02
2.909600e-07,8.750000e-03
2.989600e-07,-3.375000e-02
3.069600e-07,2.000000e-02
3.149600e-07,2.500000e-03
3.229600e-07,-3.750000e-03
3.309600e-07,1.250000e-03
3.389600e-07,1.375000e-02
3.469600e-07,-2.500000e-02
3.549600e-07,3.625000e-02
3.629600e-07,6.250000e-03
3.709600e-07,1.500000e-02
3.789600e-07,-8.750000e-03
3.869600e-07,2.250000e-02
3.949600e-07,-1.375000e-02
4.029600e-07,2.125000e-02
4.109600e-07,-4.375000e-02
4.189600e-07,1.375000e-02
4.269600e-07,-7.500000e-03
4.349600e-07,1.625000e-02
4.429600e-07,-2.500000e-03
4.509600e-07,2.875000e-02
4.589600e-07,-2.000000e-02
4.669600e-07,1.000000e-02
4.749600e-07,-1.500000e-02
4.829600e-07,1.500000e-02
4.909600e-07,-3.000000e-02
4.989600e-07,2.500000e-03
5.069600e-07,-1.500000e-02
5.149600e-07,1.625000e-02
5.229600e-07,-2.125000e-02
5.309600e-07,2.625000e-02
5.389600e-07,-2.500000e-02
5.469600e-07,6.250000e-03
5.549600e-07,-2.250000e-02
5.629600e-07,2.625000e-02
5.709600e-07,-3.750000e-03
5.789600e-07,2.500000e-02
5.869600e-07,-1.375000e-02
5.949600e-07,5.000000e-03
6.029600e-07,-1.625000e-02
6.109600e-07,-1.250000e-03
6.189600e-07,-1.750000e-02
6.269600e-07,1.875000e-02
6.349600e-07,-5.000000e-03
6.429600e-07,2.375000e-02
6.509600e-07,-8.750000e-03
6.589600e-07,1.250000e-02
6.669600e-07,-3.250000e-02
6.749600e-07,2.375000e-02
6.829600e-07,3.750000e-03
6.909600e-07,2.500000e-02
6.989600e-07,-1.000000e-02
7.069600e-07,1.375000e-02
7.149600e-07,-2.000000e-02
7.229600e-07,7.500000e-03
7.309600e-07,-5.125000e-02
7.389600e-07,1.625000e-02
7.469600e-07,-1.250000e-02
7.549600e-07,3.500000e-02
7.629600e-07,6.250000e-03
7.709600e-07,1.125000e-02
7.789600e-07,-2.500000e-03
7.869600e-07,3.750000e-02
7.949600e-07,-3.250000e-02
8.029600e-07,1.375000e-02
8.109600e-07,-2.500000e-02
