run1/run1_ch1_20210318180239360.csv

Model,MSO64
Waveform Type,ANALOG
Horizontal Units,s
Sample Interval,8.000000e-09
Record Length,1250
Zero Index,624.960000
Vertical Units,V

TIME,CH1
-4.999680e-06,1.625000e-02
-4.991680e-06,-6.250000e-03
-4.983680e-06,-8.750000e-03
-4.975680e-06,1.000000e-02
-4.967680e-06,2.500000e-02
-4.959680e-06,-2.500000e-02
-4.951680e-06,-7.500000e-03
-4.943680e-06,-1.375000e-02
-4.935680e-06,2.500000e-02
-4.927680e-06,-7.500000e-03
-4.919680e-06,5.000000e-03
-4.911680e-06,-6.250000e-03
-4.903680e-06,-1.000000e-02
-4.895680e-06,-2.125000e-02
-4.887680e-06,2.500000e-03
-4.879680e-06,-3.125000e-02
-4.871680e-06,3.000000e-02
-4.863680e-06,-1.750000e-02
-4.855680e-06,2.250000e-02
-4.847680e-06,-3.750000e-03
-4.839680e-06,-1.500000e-02
-4.831680e-06,-2.375000e-02
-4.823680e-06,1.750000e-02
-4.815680e-06,-1.750000e-02
-4.807680e-06,3.000000e-02
-4.799680e-06,-7.500000e-03
-4.791680e-06,2.750000e-02
-4.783680e-06,-3.750000e-02
-4.775680e-06,1.750000e-02
-4.767680e-06,-1.250000e-02
-4.759680e-06,2.125000e-02
-4.751680e-06,8.750000e-03
-4.743680e-06,1.875000e-02
-4.735680e-06,-2.500000e-03
-4.727680e-06,4.125000e-02
-4.719680e-06,-3.000000e-02
-4.711680e-06,8.750000e-03
-4.703680e-06,-1.125000e-02
-4.695680e-06,7.500000e-03
-4.687680e-06,3.750000e-03
-4.679680e-06,5.000000e-03
-4.671680e-06,-2.125000e-02
-4.663680e-06,1.375000e-02
-4.655680e-06,-2.500000e-02
-4.647680e-06,5.000000e-03
-4.639680e-06,-2.250000e-02
-4.631680e-06,3.750000e-03
-4.623680e-06,-2.500000e-03
-4.615680e-06,-2.500000e-03
-4.607680e-06,-5.000000e-03
-4.599680e-06,1.125000e-02
-4.591680e-06,-1.125000e-02
-4.583680e-06,3.750000e-03
-4.575680e-06,-3.625000e-02
-4.567680e-06,0.000000e+00
-4.559680e-06,-8.750000e-03
-4.551680e-06,1.500000e-02
-4.543680e-06,-2.125000e-02
-4.535680e-06,-8.750000e-03
-4.527680e-06,-2.125000e-02
-4.519680e-06,1.375000e-02
-4.511680e-06,7.500000e-03
-4.503680e-06,1.875000e-02
-4.495680e-06,-7.500000e-03
-4.487680e-06,3.750000e-03
-4.479680e-06,-2.750000e-02
-4.471680e-06,1.625000e-02
-4.463680e-06,-1.000000e-02
-4.455680e-06,1.250000e-02
-4.447680e-06,-2.375000e-02
-4.439680e-06,2.125000e-02
-4.431680e-06,-2.000000e-02
-4.423680e-06,2.750000e-02
-4.415680e-06,-1.125000e-02
-4.407680e-06,0.000000e+00
-4.399680e-06,-7.500000e-03
-4.391680e-06,2.750000e-02
-4.383680e-06,8.750000e-03
-4.375680e-06,1.125000e-02
-4.367680e-06,-2.500000e-03
-4.359680e-06,2.250000e-02
-4.351680e-06,0.000000e+00
-4.343680e-06,1.375000e-02
-4.335680e-06,-1.250000e-02
-4.327680e-06,-5.000000e-03
-4.319680e-06,-1.250000e-02
-4.311680e-06,2.000000e-02
-4.303680e-06,-2.125000e-02
-4.295680e-06,3.750000e-02
-4.287680e-06,-1.125000e-02
-4.279680e-06,1.000000e-02
-4.271680e-06,-2.750000e-02
-4.263680e-06,3.625000e-02
-4.255680e-06,-1.375000e-02
-4.247680e-06,6.250000e-03
-4.239680e-06,-5.000000e-03
-4.231680e-06,3.000000e-02
-4.223680e-06,-1.750000e-02
-4.215680e-06,2.875000e-02
-4.207680e-06,-2.250000e-02
-4.199680e-06,1.625000e-02
-4.191680e-06,-4.125000e-02
-4.183680e-06,-7.500000e-03
-4.175680e-06,-3.750000e-03
-4.167680e-06,1.125000e-02
-4.159680e-06,-1.625000e-02
-4.151680e-06,1.875000e-02
-4.143680e-06,-1.625000e-02
-4.135680e-06,1.000000e-02
-4.127680e-06,-2.375000e-02
-4.119680e-06,1.000000e-02
-4.111680e-06,3.750000e-03
-4.103680e-06,1.625000e-02
-4.095680e-06,-1.750000e-02
-4.087680e-06,3.000000e-02
-4.079680e-06,6.250000e-03
-4.071680e-06,1.750000e-02
-4.063680e-06,-1.000000e-02
-4.055680e-06,-2.500000e-03
-4.047680e-06,-2.125000e-02
-4.039680e-06,1.500000e-02
-4.031680e-06,-2.250000e-02
-4.023680e-06,6.250000e-03
-4.015680e-06,-2.500000e-02
-4.007680e-06,5.500000e-02
-3.999680e-06,-1.250000e-02
-3.991680e-06,0.000000e+00
-3.983680e-06,-1.625000e-02
-3.975680e-06,6.250000e-03
-3.967680e-06,-2.375000e-02
-3.959680e-06,1.375000e-02
-3.951680e-06,-3.750000e-03
-3.943680e-06,1.375000e-02
-3.935680e-06,-2.625000e-02
-3.927680e-06,1.625000e-02
-3.919680e-06,-2.000000e-02
-3.911680e-06,2.875000e-02
-3.903680e-06,1.250000e-03
-3.895680e-06,1.250000e-03
-3.887680e-06,0.000000e+00
-3.879680e-06,1.250000e-02
-3.871680e-06,-7.500000e-03
-3.863680e-06,2.500000e-03
-3.855680e-06,-6.250000e-03
-3.847680e-06,1.250000e-02
-3.839680e-06,-1.250000e-02
-3.831680e-06,2.625000e-02
-3.823680e-06,-2.750000e-02
-3.815680e-06,1.750000e-02
-3.807680e-06,-3.250000e-02
-3.799680e-06,1.250000e-02
-3.791680e-06,-1.625000e-02
-3.783680e-06,2.000000e-02
-3.775680e-06,-1.625000e-02
-3.767680e-06,-1.250000e-02
-3.759680e-06,-1.125000e-02
-3.751680e-06,1.625000e-02
-3.743680e-06,-3.375000e-02
-3.735680e-06,2.250000e-02
-3.727680e-06,-3.750000e-03
-3.719680e-06,6.250000e-03
-3.711680e-06,-7.500000e-03
-3.703680e-06,1.750000e-02
-3.695680e-06,-5.000000e-03
-3.687680e-06,3.250000e-02
-3.679680e-06,-2.500000e-02
-3.671680e-06,-1.250000e-03
-3.663680e-06,-3.250000e-02
-3.655680e-06,3.000000e-02
-3.647680e-06,-2.250000e-02
-3.639680e-06,3.750000e-03
-3.631680e-06,-3.625000e-02
-3.623680e-06,3.750000e-03
-3.615680e-06,-6.250000e-03
-3.607680e-06,0.000000e+00
-3.599680e-06,-2.625000e-02
-3.591680e-06,7.500000e-03
-3.583680e-06,-1.250000e-02
-3.575680e-06,1.375000e-02
-3.567680e-06,-2.125000e-02
-3.559680e-06,1.250000e-02
-3.551680e-06,-2.875000e-02
-3.543680e-06,3.500000e-02
-3.535680e-06,-1.375000e-02
-3.527680e-06,1.500000e-02
-3.519680e-06,-1.125000e-02
-3.511680e-06,7.500000e-03
-3.503680e-06,-1.125000e-02
-3.495680e-06,1.750000e-02
-3.487680e-06,-8.750000e-03
-3.479680e-06,5.000000e-03
-3.471680e-06,-7.500000e-03
-3.463680e-06,2.625000e-02
-3.455680e-06,-3.750000e-02
-3.447680e-06,1.250000e-03
-3.439680e-06,-1.625000e-02
-3.431680e-06,1.500000e-02
-3.423680e-06,-2.125000e-02
-3.415680e-06,1.750000e-02
-3.407680e-06,-2.125000e-02
-3.399680e-06,3.750000e-03
-3.391680e-06,-1.625000e-02
-3.383680e-06,2.625000e-02
-3.375680e-06,1.500000e-02
-3.367680e-06,7.500000e-03
-3.359680e-06,-8.750000e-03
-3.351680e-06,-5.000000e-03
-3.343680e-06,1.250000e-03
-3.335680e-06,-1.000000e-02
-3.327680e-06,-3.750000e-03
-3.319680e-06,-6.250000e-03
-3.311680e-06,-1.875000e-02
-3.303680e-06,1.125000e-02
-3.295680e-06,-2.875000e-02
-3.287680e-06,2.000000e-02
-3.279680e-06,-1.750000e-02
-3.271680e-06,5.000000e-03
-3.263680e-06,1.250000e-02
-3.255680e-06,6.250000e-03
-3.247680e-06,-2.500000e-02
-3.239680e-06,-5.000000e-03
-3.231680e-06,-5.000000e-03
-3.223680e-06,-5.000000e-03
-3.215680e-06,-2.000000e-02
-3.207680e-06,1.750000e-02
-3.199680e-06,-1.250000e-02
-3.191680e-06,-1.000000e-02
-3.183680e-06,-1.375000e-02
-3.175680e-06,2.375000e-02
-3.167680e-06,-5.750000e-02
-3.159680e-06,1.000000e-02
-3.151680e-06,-1.500000e-02
-3.143680e-06,1.750000e-02
-3.135680e-06,-1.625000e-02
-3.127680e-06,-3.750000e-03
-3.119680e-06,-1.000000e-02
-3.111680e-06,-8.750000e-03
-3.103680e-06,-5.000000e-03
-3.095680e-06,1.000000e-02
-3.087680e-06,-1.000000e-02
-3.079680e-06,5.000000e-03
-3.071680e-06,-5.000000e-03
-3.063680e-06,3.750000e-02
-3.055680e-06,-2.375000e-02
-3.047680e-06,2.500000e-02
-3.039680e-06,-4.000000e-02
-3.031680e-06,-1.125000e-02
-3.023680e-06,-2.500000e-02
-3.015680e-06,1.375000e-02
-3.007680e-06,6.250000e-03
-2.999680e-06,2.000000e-02
-2.991680e-06,-1.375000e-02
-2.983680e-06,7.500000e-03
-2.975680e-06,1.625000e-02
-2.967680e-06,3.375000e-02
-2.959680e-06,-1.250000e-02
-2.951680e-06,2.250000e-02
-2.943680e-06,-2.375000e-02
-2.935680e-06,1.625000e-02
-2.927680e-06,-8.750000e-03
-2.919680e-06,1.875000e-02
-2.911680e-06,-1.250000e-02
-2.903680e-06,2.250000e-02
-2.895680e-06,-2.500000e-02
-2.887680e-06,1.375000e-02
-2.879680e-06,-1.250000e-02
-2.871680e-06,7.500000e-03
-2.863680e-06,5.000000e-03
-2.855680e-06,2.000000e-02
-2.847680e-06,-8.750000e-03
-2.839680e-06,2.500000e-03
-2.831680e-06,-2.500000e-03
-2.823680e-06,5.000000e-03
-2.815680e-06,-7.500000e-03
-2.807680e-06,2.500000e-02
-2.799680e-06,-2.500000e-02
-2.791680e-06,-2.500000e-03
-2.783680e-06,-4.000000e-02
-2.775680e-06,7.500000e-03
-2.767680e-06,-1.625000e-02
-2.759680e-06,2.750000e-02
-2.751680e-06,-2.375000e-02
-2.743680e-06,-2.500000e-03
-2.735680e-06,-3.000000e-02
-2.727680e-06,1.375000e-02
-2.719680e-06,-1.500000e-02
-2.711680e-06,2.125000e-02
-2.703680e-06,-1.875000e-02
-2.695680e-06,2.375000e-02
-2.687680e-06,1.375000e-02
-2.679680e-06,8.750000e-03
-2.671680e-06,-1.375000e-02
-2.663680e-06,2.500000e-03
-2.655680e-06,-2.375000e-02
-2.647680e-06,1.250000e-03
-2.639680e-06,-2.750000e-02
-2.631680e-06,3.250000e-02
-2.623680e-06,-8.750000e-03
-2.615680e-06,-5.000000e-03
-2.607680e-06,-1.125000e-02
-2.599680e-06,5.000000e-03
-2.591680e-06,-2.375000e-02
-2.583680e-06,7.500000e-03
-2.575680e-06,-2.375000e-02
-2.567680e-06,1.625000e-02
-2.559680e-06,2.500000e-03
-2.551680e-06,1.375000e-02
-2.543680e-06,-5.000000e-02
-2.535680e-06,7.500000e-03
-2.527680e-06,-3.750000e-03
-2.519680e-06,1.125000e-02
-2.511680e-06,-3.250000e-02
-2.503680e-06,1.500000e-02
-2.495680e-06,-1.000000e-02
-2.487680e-06,2.500000e-03
-2.479680e-06,-6.250000e-03
-2.471680e-06,3.750000e-03
-2.463680e-06,1.250000e-03
-2.455680e-06,1.375000e-02
-2.447680e-06,-1.625000e-02
-2.439680e-06,3.000000e-02
-2.431680e-06,6.250000e-03
-2.423680e-06,1.125000e-02
-2.415680e-06,-5.000000e-03
-2.407680e-06,1.250000e-03
-2.399680e-06,-3.875000e-02
-2.391680e-06,-8.750000e-03
-2.383680e-06,-2.875000e-02
-2.375680e-06,2.625000e-02
-2.367680e-06,-1.250000e-03
-2.359680e-06,1.375000e-02
-2.351680e-06,-7.500000e-03
-2.343680e-06,5.000000e-03
-2.335680e-06,-1.375000e-02
-2.327680e-06,3.625000e-02
-2.319680e-06,-7.500000e-03
-2.311680e-06,1.250000e-03
-2.303680e-06,-3.750000e-03
-2.295680e-06,8.750000e-03
-2.287680e-06,-1.125000e-02
-2.279680e-06,1.750000e-02
-2.271680e-06,-1.000000e-02
-2.263680e-06,1.125000e-02
-2.255680e-06,-1.250000e-03
-2.247680e-06,2.250000e-02
-2.239680e-06,-1.125000e-02
-2.231680e-06,2.500000e-02
-2.223680e-06,-3.000000e-02
-2.215680e-06,1.750000e-02
-2.207680e-06,-2.000000e-02
-2.199680e-06,1.250000e-02
-2.191680e-06,-1.250000e-03
-2.183680e-06,1.750000e-02
-2.175680e-06,-1.000000e-02
-2.167680e-06,8.750000e-03
-2.159680e-06,-5.000000e-03
-2.151680e-06,1.375000e-02
-2.143680e-06,-1.375000e-02
-2.135680e-06,1.125000e-02
-2.127680e-06,-5.750000e-02
-2.119680e-06,8.750000e-03
-2.111680e-06,-1.625000e-02
-2.103680e-06,0.000000e+00
-2.095680e-06,-2.000000e-02
-2.087680e-06,5.000000e-03
-2.079680e-06,-1.250000e-02
-2.071680e-06,2.375000e-02
-2.063680e-06,-1.000000e-02
-2.055680e-06,2.000000e-02
-2.047680e-06,-1.250000e-03
-2.039680e-06,1.125000e-02
-2.031680e-06,-2.500000e-03
-2.023680e-06,1.250000e-02
-2.015680e-06,-2.000000e-02
-2.007680e-06,8.750000e-03
-1.999680e-06,-1.500000e-02
-1.991680e-06,-3.750000e-03
-1.983680e-06,-3.375000e-02
-1.975680e-06,1.250000e-03
-1.967680e-06,-1.625000e-02
-1.959680e-06,1.000000e-02
-1.951680e-06,-1.250000e-02
-1.943680e-06,1.125000e-02
-1.935680e-06,1.250000e-03
-1.927680e-06,1.375000e-02
-1.919680e-06,-2.750000e-02
-1.911680e-06,5.000000e-03
-1.903680e-06,-1.000000e-02
-1.895680e-06,1.500000e-02
-1.887680e-06,-3.125000e-02
-1.879680e-06,3.125000e-02
-1.871680e-06,-2.125000e-02
-1.863680e-06,1.500000e-02
-1.855680e-06,-5.000000e-03
-1.847680e-06,2.875000e-02
-1.839680e-06,-1.375000e-02
-1.831680e-06,-1.500000e-02
-1.823680e-06,-1.250000e-02
-1.815680e-06,2.500000e-03
-1.807680e-06,-1.500000e-02
-1.799680e-06,1.375000e-02
-1.791680e-06,-6.250000e-03
-1.783680e-06,1.375000e-02
-1.775680e-06,-3.750000e-03
-1.767680e-06,2.375000e-02
-1.759680e-06,-4.000000e-02
-1.751680e-06,1.750000e-02
-1.743680e-06,-2.750000e-02
-1.735680e-06,1.000000e-02
-1.727680e-06,-1.500000e-02
-1.719680e-06,1.250000e-03
-1.711680e-06,-2.250000e-02
-1.703680e-06,1.250000e-02
-1.695680e-06,-2.375000e-02
-1.687680e-06,0.000000e+00
-1.679680e-06,-1.500000e-02
-1.671680e-06,2.500000e-02
-1.663680e-06,-8.750000e-03
-1.655680e-06,3.750000e-03
-1.647680e-06,0.000000e+00
-1.639680e-06,1.000000e-02
-1.631680e-06,-3.500000e-02
-1.623680e-06,-1.250000e-03
-1.615680e-06,0.000000e+00
-1.607680e-06,2.875000e-02
-1.599680e-06,-1.625000e-02
-1.591680e-06,2.250000e-02
-1.583680e-06,-7.500000e-03
-1.575680e-06,1.375000e-02
-1.567680e-06,-2.500000e-03
-1.559680e-06,2.625000e-02
-1.551680e-06,5.000000e-03
-1.543680e-06,3.375000e-02
-1.535680e-06,-1.125000e-02
-1.527680e-06,5.000000e-03
-1.519680e-06,-6.250000e-03
-1.511680e-06,1.375000e-02
-1.503680e-06,-3.750000e-03
-1.495680e-06,-1.250000e-03
-1.487680e-06,-1.375000e-02
-1.479680e-06,3.500000e-02
-1.471680e-06,-1.000000e-02
-1.463680e-06,2.500000e-03
-1.455680e-06,-1.625000e-02
-1.447680e-06,1.125000e-02
-1.439680e-06,-3.250000e-02
-1.431680e-06,1.875000e-02
-1.423680e-06,-1.250000e-02
-1.415680e-06,1.000000e-02
-1.407680e-06,-7.500000e-03
-1.399680e-06,1.000000e-02
-1.391680e-06,-5.000000e-03
-1.383680e-06,2.500000e-02
-1.375680e-06,-1.000000e-02
-1.367680e-06,-1.250000e-03
-1.359680e-06,-2.125000e-02
-1.351680e-06,2.125000e-02
-1.343680e-06,-1.375000e-02
-1.335680e-06,0.000000e+00
-1.327680e-06,-1.250000e-02
-1.319680e-06,2.500000e-03
-1.311680e-06,-2.375000e-02
-1.303680e-06,7.500000e-03
-1.295680e-06,1.125000e-02
-1.287680e-06,6.250000e-03
-1.279680e-06,-5.000000e-03
-1.271680e-06,2.500000e-02
-1.263680e-06,-1.500000e-02
-1.255680e-06,1.250000e-03
-1.247680e-06,-1.250000e-02
-1.239680e-06,1.000000e-02
-1.231680e-06,-6.250000e-03
-1.223680e-06,2.000000e-02
-1.215680e-06,1.500000e-02
-1.207680e-06,2.500000e-03
-1.199680e-06,2.500000e-03
-1.191680e-06,-1.250000e-03
-1.183680e-06,2.500000e-03
-1.175680e-06,2.500000e-03
-1.167680e-06,-3.750000e-03
-1.159680e-06,2.000000e-02
-1.151680e-06,-2.750000e-02
-1.143680e-06,1.375000e-02
-1.135680e-06,-2.250000e-02
-1.127680e-06,2.500000e-03
-1.119680e-06,-3.125000e-02
-1.111680e-06,2.500000e-02
-1.103680e-06,-2.375000e-02
-1.095680e-06,1.875000e-02
-1.087680e-06,-1.000000e-02
-1.079680e-06,-3.750000e-03
-1.071680e-06,8.750000e-03
-1.063680e-06,1.875000e-02
-1.055680e-06,-7.500000e-03
-1.047680e-06,1.000000e-02
-1.039680e-06,-2.000000e-02
-1.031680e-06,8.750000e-03
-1.023680e-06,-8.750000e-03
-1.015680e-06,2.375000e-02
-1.007680e-06,-1.625000e-02
-9.996800e-07,5.000000e-03
-9.916800e-07,-5.000000e-03
-9.836800e-07,1.375000e-02
-9.756800e-07,-3.250000e-02
-9.676800e-07,1.875000e-02
-9.596800e-07,-3.000000e-02
-9.516800e-07,-1.250000e-03
-9.436800e-07,-3.750000e-03
-9.356800e-07,1.750000e-02
-9.276800e-07,-3.750000e-02
-9.196800e-07,2.125000e-02
-9.116800e-07,8.750000e-03
-9.036800e-07,-1.875000e-02
-8.956800e-07,-1.125000e-02
-8.876800e-07,1.125000e-02
-8.796800e-07,-2.750000e-02
-8.716800e-07,-7.500000e-03
-8.636800e-07,-2.125000e-02
-8.556800e-07,5.000000e-03
-8.476800e-07,-2.125000e-02
-8.396800e-07,1.625000e-02
-8.316800e-07,-1.875000e-02
-8.236800e-07,1.375000e-02
-8.156800e-07,-1.625000e-02
-8.076800e-07,1.750000e-02
-7.996800e-07,-2.250000e-02
-7.916800e-07,6.250000e-03
-7.836800e-07,3.750000e-03
-7.756800e-07,-7.500000e-03
-7.676800e-07,-1.375000e-02
-7.596800e-07,4.000000e-02
-7.516800e-07,-1.625000e-02
-7.436800e-07,3.125000e-02
-7.356800e-07,-3.250000e-02
-7.276800e-07,1.375000e-02
-7.196800e-07,-2.750000e-02
-7.116800e-07,1.375000e-02
-7.036800e-07,-1.125000e-02
-6.956800e-07,1.750000e-02
-6.876800e-07,-5.000000e-03
-6.796800e-07,1.750000e-02
-6.716800e-07,0.000000e+00
-6.636800e-07,1.625000e-02
-6.556800e-07,1.375000e-02
-6.476800e-07,1.875000e-02
-6.396800e-07,-1.250000e-03
-6.316800e-07,1.750000e-02
-6.236800e-07,-1.625000e-02
-6.156800e-07,2.000000e-02
-6.076800e-07,-1.375000e-02
-5.996800e-07,1.625000e-02
-5.916800e-07,-1.750000e-02
-5.836800e-07,1.875000e-02
-5.756800e-07,2.500000e-03
-5.676800e-07,1.500000e-02
-5.596800e-07,-2.000000e-02
-5.516800e-07,6.250000e-03
-5.436800e-07,-1.250000e-03
-5.356800e-07,3.625000e-02
-5.276800e-07,-1.625000e-02
-5.196800e-07,1.750000e-02
-5.116800e-07,1.250000e-03
-5.036800e-07,-8.750000e-03
-4.956800e-07,-1.000000e-02
-4.876800e-07,2.625000e-02
-4.796800e-07,-1.250000e-02
-4.716800e-07,1.875000e-02
-4.636800e-07,-2.250000e-02
-4.556800e-07,4.875000e-02
-4.476800e-07,0.000000e+00
-4.396800e-07,1.875000e-02
-4.316800e-07,-1.625000e-02
-4.236800e-07,7.500000e-03
-4.156800e-07,-1.750000e-02
-4.076800e-07,1.625000e-02
-3.996800e-07,1.625000e-02
-3.916800e-07,-1.000000e-02
-3.836800e-07,-1.875000e-02
-3.756800e-07,1.500000e-02
-3.676800e-07,7.500000e-03
-3.596800e-07,1.000000e-02
-3.516800e-07,-3.750000e-03
-3.436800e-07,1.250000e-02
-3.356800e-07,-1.375000e-02
-3.276800e-07,2.250000e-02
-3.196800e-07,-3.750000e-03
-3.116800e-07,6.250000e-03
-3.036800e-07,-1.250000e-02
-2.956800e-07,1.250000e-02
-2.876800e-07,0.000000e+00
-2.796800e-07,1.000000e-02
-2.716800e-07,3.750000e-03
-2.636800e-07,1.500000e-02
-2.556800e-07,-1.250000e-02
-2.476800e-07,1.875000e-02
-2.396800e-07,1.250000e-02
-2.316800e-07,1.250000e-03
-2.236800e-07,-3.750000e-03
-2.156800e-07,1.875000e-02
-2.076800e-07,-2.500000e-03
-1.996800e-07,1.250000e-02
-1.916800e-07,-1.375000e-02
-1.836800e-07,1.750000e-02
-1.756800e-07,-2.500000e-03
-1.676800e-07,1.625000e-02
-1.596800e-07,-6.250000e-03
-1.516800e-07,-1.000000e-02
-1.436800e-07,-7.500000e-03
-1.356800e-07,1.125000e-02
-1.276800e-07,-1.500000e-02
-1.196800e-07,3.375000e-02
-1.116800e-07,-1.875000e-02
-1.036800e-07,2.500000e-03
-9.568000e-08,-2.125000e-02
-8.768000e-08,-1.250000e-03
-7.968000e-08,-2.750000e-02
-7.168000e-08,2.625000e-02
-6.368000e-08,-2.000000e-02
-5.568000e-08,3.250000e-02
-4.768000e-08,-3.500000e-02
-3.968000e-08,-1.397500e+00
-3.168000e-08,-1.441250e+00
-2.368000e-08,-1.391250e+00
-1.568000e-08,-7.025000e-01
-7.680000e-09,7.500000e-03
3.200000e-10,0.000000e+00
8.320000e-09,1.250000e-02
1.632000e-08,-2.875000e-02
2.432000e-08,3.250000e-02
3.232000e-08,-4.875000e-02
4.032000e-08,2.750000e-02
4.832000e-08,-2.500000e-02
5.632000e-08,1.500000e-02
6.432000e-08,-2.500000e-03
7.232000e-08,3.750000e-03
8.032000e-08,-3.125000e-02
8.832000e-08,1.250000e-03
9.632000e-08,-2.375000e-02
1.043200e-07,-2.125000e-02
1.123200e-07,-7.500000e-03
1.203200e-07,1.625000e-02
1.283200e-07,-3.000000e-02
1.363200e-07,2.125000e-02
1.443200e-07,-1.250000e-03
1.523200e-07,2.875000e-02
1.603200e-07,-5.000000e-03
1.683200e-07,2.250000e-02
1.763200e-07,-2.375000e-02
1.843200e-07,2.875000e-02
1.923200e-07,-2.000000e-02
2.003200e-07,2.375000e-02
2.083200e-07,-1.875000e-02
2.163200e-07,1.500000e-02
2.243200e-07,2.500000e-03
2.323200e-07,2.750000e-02
2.403200e-07,2.500000e-03
2.483200e-07,2.125000e-02
2.563200e-07,6.250000e-03
2.643200e-07,1.125000e-02
2.723200e-07,2.500000e-03
2.803200e-07,8.750000e-03
2.883200e-07,-2.000000e-02
2.963200e-07,1.625000e-02
3.043200e-07,-2.500000e-02
3.123200e-07,1.000000e-02
3.203200e-07,-6.250000e-03
3.283200e-07,1.875000e-02
3.363200e-07,-1.875000e-02
3.443200e-07,1.375000e-02
3.523200e-07,-2.000000e-02
3.603200e-07,-8.750000e-03
3.683200e-07,-1.125000e-02
3.763200e-07,1.625000e-02
3.843200e-07,-2.250000e-02
3.923200e-07,3.750000e-03
4.003200e-07,-3.375000e-02
4.083200e-07,1.375000e-02
4.163200e-07,1.250000e-03
4.243200e-07,3.250000e-02
4.323200e-07,-1.375000e-02
4.403200e-07,2.750000e-02
4.483200e-07,-2.000000e-02
4.563200e-07,2.250000e-02
4.643200e-07,-3.750000e-03
4.723200e-07,1.125000e-02
4.803200e-07,-1.250000e-03
4.883200e-07,2.625000e-02
4.963200e-07,1.250000e-03
5.043200e-07,6.250000e-03
5.123200e-07,7.500000e-03
5.203200e-07,1.750000e-02
5.283200e-07,1.250000e-03
5.363200e-07,2.750000e-02
5.443200e-07,-3.625000e-02
5.523200e-07,0.000000e+00
5.603200e-07,-3.750000e-03
5.683200e-07,1.250000e-02
5.763200e-07,-1.875000e-02
5.843200e-07,3.750000e-03
5.923200e-07,-2.500000e-02
6.003200e-07,-3.750000e-03
6.083200e-07,2.500000e-03
6.163200e-07,-5.000000e-03
6.243200e-07,1.500000e-02
6.323200e-07,2.375000e-02
6.403200e-07,-1.875000e-02
6.483200e-07,1.625000e-02
6.563200e-07,-8.750000e-03
6.643200e-07,3.750000e-03
6.723200e-07,-4.125000e-02
6.803200e-07,1.250000e-02
6.883200e-07,-2.000000e-02
6.963200e-07,-1.250000e-03
7.043200e-07,3.750000e-03
7.123200e-07,1.750000e-02
7.203200e-07,0.000000e+00
7.283200e-07,1.500000e-02
7.363200e-07,-3.750000e-03
7.443200e-07,4.375000e-02
7.523200e-07,-5.000000e-03
7.603200e-07,3.875000e-02
7.683200e-07,-1.500000e-02
7.763200e-07,1.125000e-02
7.843200e-07,-1.375000e-02
7.923200e-07,3.750000e-03
