run1/run1_ch1_20210318180215445.csv

Model,MSO64
Waveform Type,ANALOG
Horizontal Units,s
Sample Interval,8.000000e-09
Record Length,1250
Zero Index,624.045000
Vertical Units,V

TIME,CH1
-4.992360e-06,-1.250000e-02
-4.984360e-06,2.125000e-02
-4.976360e-06,5.000000e-03
-4.968360e-06,-5.000000e-03
-4.960360e-06,1.250000e-03
-4.952360e-06,2.500000e-02
-4.944360e-06,-4.000000e-02
-4.936360e-06,1.750000e-02
-4.928360e-06,-1.250000e-03
-4.920360e-06,1.000000e-02
-4.912360e-06,-2.500000e-02
-4.904360e-06,0.000000e+00
-4.896360e-06,-1.500000e-02
-4.888360e-06,1.500000e-02
-4.880360e-06,-2.500000e-02
-4.872360e-06,2.625000e-02
-4.864360e-06,1.250000e-03
-4.856360e-06,-3.750000e-03
-4.848360e-06,1.625000e-02
-4.840360e-06,8.750000e-03
-4.832360e-06,-7.500000e-03
-4.824360e-06,4.000000e-02
-4.816360e-06,-1.000000e-02
-4.808360e-06,1.625000e-02
-4.800360e-06,-4.375000e-02
-4.792360e-06,3.375000e-02
-4.784360e-06,-7.500000e-03
-4.776360e-06,2.000000e-02
-4.768360e-06,-1.750000e-02
-4.760360e-06,-1.250000e-02
-4.752360e-06,-3.250000e-02
-4.744360e-06,7.500000e-03
-4.736360e-06,-8.750000e-03
-4.728360e-06,1.625000e-02
-4.720360e-06,-5.000000e-03
-4.712360e-06,1.750000e-02
-4.704360e-06,0.000000e+00
-4.696360e-06,2.375000e-02
-4.688360e-06,-1.875000e-02
-4.680360e-06,0.000000e+00
-4.672360e-06,-8.750000e-03
-4.664360e-06,8.750000e-03
-4.656360e-06,-7.500000e-03
-4.648360e-06,7.500000e-03
-4.640360e-06,-1.500000e-02
-4.632360e-06,3.625000e-02
-4.624360e-06,-3.750000e-03
-4.616360e-06,-1.000000e-02
-4.608360e-06,1.750000e-02
-4.600360e-06,1.375000e-02
-4.592360e-06,-1.250000e-03
-4.584360e-06,1.750000e-02
-4.576360e-06,-1.500000e-02
-4.568360e-06,1.625000e-02
-4.560360e-06,-3.125000e-02
-4.552360e-06,1.125000e-02
-4.544360e-06,-5.750000e-02
-4.536360e-06,2.375000e-02
-4.528360e-06,-1.250000e-03
-4.520360e-06,2.500000e-03
-4.512360e-06,-5.000000e-03
-4.504360e-06,2.250000e-02
-4.496360e-06,-2.125000e-02
-4.488360e-06,2.500000e-03
-4.480360e-06,-1.375000e-02
-4.472360e-06,2.125000e-02
-4.464360e-06,5.000000e-03
-4.456360e-06,3.750000e-03
-4.448360e-06,1.000000e-02
-4.440360e-06,2.500000e-02
-4.432360e-06,-4.750000e-02
-4.424360e-06,-6.250000e-03
-4.416360e-06,-1.625000e-02
-4.408360e-06,2.375000e-02
-4.400360e-06,0.000000e+00
-4.392360e-06,5.000000e-03
-4.384360e-06,-1.000000e-02
-4.376360e-06,-1.250000e-03
-4.368360e-06,-2.250000e-02
-4.360360e-06,2.125000e-02
-4.352360e-06,-1.625000e-02
-4.344360e-06,1.875000e-02
-4.336360e-06,-1.625000e-02
-4.328360e-06,1.125000e-02
-4.320360e-06,-1.000000e-02
-4.312360e-06,1.125000e-02
-4.304360e-06,-2.625000e-02
-4.296360e-06,1.000000e-02
-4.288360e-06,-3.750000e-03
-4.280360e-06,1.125000e-02
-4.272360e-06,1.250000e-02
-4.264360e-06,1.250000e-02
-4.256360e-06,2.500000e-03
-4.248360e-06,0.000000e+00
-4.240360e-06,-2.000000e-02
-4.232360e-06,1.750000e-02
-4.224360e-06,8.750000e-03
-4.216360e-06,1.250000e-03
-4.208360e-06,-1.125000e-02
-4.200360e-06,7.500000e-03
-4.192360e-06,-1.250000e-02
-4.184360e-06,1.000000e-02
-4.176360e-06,-3.125000e-02
-4.168360e-06,2.500000e-02
-4.160360e-06,-1.500000e-02
-4.152360e-06,2.625000e-02
-4.144360e-06,1.250000e-03
-4.136360e-06,3.750000e-03
-4.128360e-06,-1.625000e-02
-4.120360e-06,-5.000000e-03
-4.112360e-06,3.750000e-03
-4.104360e-06,1.875000e-02
-4.096360e-06,-2.875000e-02
-4.088360e-06,4.250000e-02
-4.080360e-06,-5.000000e-03
-4.072360e-06,1.500000e-02
-4.064360e-06,5.000000e-03
-4.056360e-06,2.500000e-02
-4.048360e-06,-2.625000e-02
-4.040360e-06,1.250000e-02
-4.032360e-06,-1.750000e-02
-4.024360e-06,2.500000e-02
-4.016360e-06,-1.000000e-02
-4.008360e-06,1.625000e-02
-4.000360e-06,-2.500000e-03
-3.992360e-06,5.000000e-03
-3.984360e-06,-3.000000e-02
-3.976360e-06,2.625000e-02
-3.968360e-06,-1.250000e-02
-3.960360e-06,1.750000e-02
-3.952360e-06,1.375000e-02
-3.944360e-06,7.500000e-03
-3.936360e-06,-3.125000e-02
-3.928360e-06,6.250000e-03
-3.920360e-06,-2.500000e-02
-3.912360e-06,1.750000e-02
-3.904360e-06,-2.250000e-02
-3.896360e-06,2.375000e-02
-3.888360e-06,-1.500000e-02
-3.880360e-06,-3.750000e-03
-3.872360e-06,3.750000e-03
-3.864360e-06,1.375000e-02
-3.856360e-06,-1.875000e-02
-3.848360e-06,-2.500000e-03
-3.840360e-06,5.000000e-03
-3.832360e-06,2.875000e-02
-3.824360e-06,-3.750000e-03
-3.816360e-06,1.500000e-02
-3.808360e-06,-1.375000e-02
-3.800360e-06,2.000000e-02
-3.792360e-06,-2.375000e-02
-3.784360e-06,2.500000e-03
-3.776360e-06,-3.750000e-03
-3.768360e-06,2.375000e-02
-3.760360e-06,-2.000000e-02
-3.752360e-06,1.375000e-02
-3.744360e-06,-2.875000e-02
-3.736360e-06,2.250000e-02
-3.728360e-06,-1.500000e-02
-3.720360e-06,1.250000e-02
-3.712360e-06,-1.375000e-02
-3.704360e-06,6.250000e-03
-3.696360e-06,-1.250000e-02
-3.688360e-06,2.250000e-02
-3.680360e-06,1.500000e-02
-3.672360e-06,5.000000e-03
-3.664360e-06,-1.750000e-02
-3.656360e-06,5.000000e-03
-3.648360e-06,-2.875000e-02
-3.640360e-06,2.625000e-02
-3.632360e-06,-3.750000e-03
-3.624360e-06,1.375000e-02
-3.616360e-06,-1.750000e-02
-3.608360e-06,2.000000e-02
-3.600360e-06,-1.000000e-02
-3.592360e-06,5.000000e-03
-3.584360e-06,-6.250000e-03
-3.576360e-06,-1.000000e-02
-3.568360e-06,-2.500000e-03
-3.560360e-06,1.500000e-02
-3.552360e-06,-2.500000e-03
-3.544360e-06,-1.250000e-03
-3.536360e-06,-4.250000e-02
-3.528360e-06,3.250000e-02
-3.520360e-06,-1.375000e-02
-3.512360e-06,2.625000e-02
-3.504360e-06,-8.750000e-03
-3.496360e-06,1.625000e-02
-3.488360e-06,-7.500000e-03
-3.480360e-06,1.750000e-02
-3.472360e-06,-4.500000e-02
-3.464360e-06,1.375000e-02
-3.456360e-06,-1.125000e-02
-3.448360e-06,2.500000e-02
-3.440360e-06,-2.500000e-03
-3.432360e-06,1.000000e-02
-3.424360e-06,-2.500000e-02
-3.416360e-06,5.000000e-03
-3.408360e-06,-4.000000e-02
-3.400360e-06,3.375000e-02
-3.392360e-06,-5.000000e-03
-3.384360e-06,3.250000e-02
-3.376360e-06,1.000000e-02
-3.368360e-06,1.125000e-02
-3.360360e-06,-3.750000e-03
-3.352360e-06,5.000000e-03
-3.344360e-06,-2.750000e-02
-3.336360e-06,1.125000e-02
-3.328360e-06,-2.500000e-03
-3.320360e-06,2.500000e-02
-3.312360e-06,-1.125000e-02
-3.304360e-06,1.250000e-02
-3.296360e-06,-1.750000e-02
-3.288360e-06,2.125000e-02
-3.280360e-06,-1.375000e-02
-3.272360e-06,1.125000e-02
-3.264360e-06,-2.375000e-02
-3.256360e-06,2.500000e-02
-3.248360e-06,6.250000e-03
-3.240360e-06,2.375000e-02
-3.232360e-06,5.000000e-03
-3.224360e-06,2.500000e-03
-3.216360e-06,-2.750000e-02
-3.208360e-06,3.750000e-03
-3.200360e-06,-2.500000e-03
-3.192360e-06,2.000000e-02
-3.184360e-06,-3.375000e-02
-3.176360e-06,1.125000e-02
-3.168360e-06,-2.750000e-02
-3.160360e-06,1.000000e-02
-3.152360e-06,-2.500000e-02
-3.144360e-06,7.500000e-03
-3.136360e-06,-1.000000e-02
-3.128360e-06,4.250000e-02
-3.120360e-06,-1.125000e-02
-3.112360e-06,5.000000e-03
-3.104360e-06,-8.750000e-03
-3.096360e-06,7.500000e-03
-3.088360e-06,-2.125000e-02
-3.080360e-06,1.375000e-02
-3.072360e-06,-7.500000e-03
-3.064360e-06,6.250000e-03
-3.056360e-06,1.250000e-03
-3.048360e-06,1.250000e-03
-3.040360e-06,-1.500000e-02
-3.032360e-06,3.250000e-02
-3.024360e-06,-2.000000e-02
-3.016360e-06,2.250000e-02
-3.008360e-06,-1.125000e-02
-3.000360e-06,4.375000e-02
-2.992360e-06,-7.500000e-03
-2.984360e-06,-1.375000e-02
-2.976360e-06,-1.375000e-02
-2.968360e-06,6.250000e-03
-2.960360e-06,-1.625000e-02
-2.952360e-06,1.625000e-02
-2.944360e-06,5.000000e-03
-2.936360e-06,-5.000000e-03
-2.928360e-06,-2.500000e-03
-2.920360e-06,2.500000e-02
-2.912360e-06,-3.125000e-02
-2.904360e-06,2.125000e-02
-2.896360e-06,-2.375000e-02
-2.888360e-06,3.375000e-02
-2.880360e-06,-2.250000e-02
-2.872360e-06,2.625000e-02
-2.864360e-06,-1.375000e-02
-2.856360e-06,-1.250000e-02
-2.848360e-06,-3.750000e-03
-2.840360e-06,5.000000e-03
-2.832360e-06,-1.500000e-02
-2.824360e-06,6.250000e-03
-2.816360e-06,8.750000e-03
-2.808360e-06,1.875000e-02
-2.800360e-06,1.500000e-02
-2.792360e-06,-8.750000e-03
-2.784360e-06,5.000000e-03
-2.776360e-06,1.500000e-02
-2.768360e-06,-3.625000e-02
-2.760360e-06,8.750000e-03
-2.752360e-06,-2.500000e-03
-2.744360e-06,3.875000e-02
-2.736360e-06,-2.125000e-02
-2.728360e-06,2.000000e-02
-2.720360e-06,-7.500000e-03
-2.712360e-06,0.000000e+00
-2.704360e-06,-6.250000e-03
-2.696360e-06,2.875000e-02
-2.688360e-06,-1.500000e-02
-2.680360e-06,1.500000e-02
-2.672360e-06,2.500000e-03
-2.664360e-06,2.500000e-03
-2.656360e-06,3.750000e-03
-2.648360e-06,2.000000e-02
-2.640360e-06,-2.500000e-02
-2.632360e-06,-3.750000e-03
-2.624360e-06,-2.000000e-02
-2.616360e-06,4.000000e-02
-2.608360e-06,-1.125000e-02
-2.600360e-06,1.750000e-02
-2.592360e-06,-1.500000e-02
-2.584360e-06,7.500000e-03
-2.576360e-06,-2.250000e-02
-2.568360e-06,2.500000e-02
-2.560360e-06,1.000000e-02
-2.552360e-06,2.875000e-02
-2.544360e-06,-2.500000e-02
-2.536360e-06,1.500000e-02
-2.528360e-06,5.000000e-03
-2.520360e-06,1.625000e-02
-2.512360e-06,-1.125000e-02
-2.504360e-06,1.875000e-02
-2.496360e-06,-1.000000e-02
-2.488360e-06,3.750000e-02
-2.480360e-06,-1.250000e-02
-2.472360e-06,1.625000e-02
-2.464360e-06,-6.250000e-03
-2.456360e-06,-1.250000e-03
-2.448360e-06,-2.625000e-02
-2.440360e-06,2.500000e-03
-2.432360e-06,1.000000e-02
-2.424360e-06,2.250000e-02
-2.416360e-06,-6.250000e-03
-2.408360e-06,-3.750000e-03
-2.400360e-06,-8.750000e-03
-2.392360e-06,2.375000e-02
-2.384360e-06,-2.000000e-02
-2.376360e-06,1.750000e-02
-2.368360e-06,-1.625000e-02
-2.360360e-06,3.375000e-02
-2.352360e-06,-6.250000e-03
-2.344360e-06,1.250000e-02
-2.336360e-06,5.000000e-03
-2.328360e-06,1.750000e-02
-2.320360e-06,-2.125000e-02
-2.312360e-06,3.750000e-03
-2.304360e-06,2.250000e-02
-2.296360e-06,2.875000e-02
-2.288360e-06,-1.375000e-02
-2.280360e-06,1.250000e-02
-2.272360e-06,-2.750000e-02
-2.264360e-06,2.125000e-02
-2.256360e-06,-2.500000e-02
-2.248360e-06,0.000000e+00
-2.240360e-06,-3.500000e-02
-2.232360e-06,2.500000e-03
-2.224360e-06,-6.250000e-03
-2.216360e-06,2.000000e-02
-2.208360e-06,-1.250000e-02
-2.200360e-06,6.250000e-03
-2.192360e-06,-4.000000e-02
-2.184360e-06,1.500000e-02
-2.176360e-06,-3.500000e-02
-2.168360e-06,1.500000e-02
-2.160360e-06,1.875000e-02
-2.152360e-06,1.625000e-02
-2.144360e-06,1.250000e-03
-2.136360e-06,2.875000e-02
-2.128360e-06,-3.875000e-02
-2.120360e-06,1.250000e-02
-2.112360e-06,-1.375000e-02
-2.104360e-06,2.875000e-02
-2.096360e-06,1.250000e-03
-2.088360e-06,2.000000e-02
-2.080360e-06,-1.375000e-02
-2.072360e-06,1.875000e-02
-2.064360e-06,-1.875000e-02
-2.056360e-06,1.250000e-02
-2.048360e-06,1.250000e-03
-2.040360e-06,2.000000e-02
-2.032360e-06,-1.500000e-02
-2.024360e-06,2.000000e-02
-2.016360e-06,-8.750000e-03
-2.008360e-06,2.250000e-02
-2.000360e-06,-2.250000e-02
-1.992360e-06,2.000000e-02
-1.984360e-06,-1.500000e-02
-1.976360e-06,3.500000e-02
-1.968360e-06,-2.000000e-02
-1.960360e-06,-7.500000e-03
-1.952360e-06,6.250000e-03
-1.944360e-06,1.625000e-02
-1.936360e-06,-1.250000e-02
-1.928360e-06,1.125000e-02
-1.920360e-06,-8.750000e-03
-1.912360e-06,2.750000e-02
-1.904360e-06,-6.250000e-03
-1.896360e-06,1.000000e-02
-1.888360e-06,3.750000e-03
-1.880360e-06,1.000000e-02
-1.872360e-06,-2.875000e-02
-1.864360e-06,2.250000e-02
-1.856360e-06,-7.500000e-03
-1.848360e-06,2.375000e-02
-1.840360e-06,-6.250000e-03
-1.832360e-06,2.125000e-02
-1.824360e-06,-2.625000e-02
-1.816360e-06,-6.250000e-03
-1.808360e-06,-2.000000e-02
-1.800360e-06,5.000000e-03
-1.792360e-06,-5.000000e-03
-1.784360e-06,-1.250000e-03
-1.776360e-06,-1.500000e-02
-1.768360e-06,1.750000e-02
-1.760360e-06,-6.250000e-03
-1.752360e-06,2.375000e-02
-1.744360e-06,-3.000000e-02
-1.736360e-06,1.375000e-02
-1.728360e-06,-1.875000e-02
-1.720360e-06,3.250000e-02
-1.712360e-06,-1.500000e-02
-1.704360e-06,0.000000e+00
-1.696360e-06,-2.000000e-02
-1.688360e-06,-1.375000e-02
-1.680360e-06,-2.125000e-02
-1.672360e-06,3.750000e-02
-1.664360e-06,0.000000e+00
-1.656360e-06,2.875000e-02
-1.648360e-06,1.625000e-02
-1.640360e-06,3.750000e-03
-1.632360e-06,-4.500000e-02
-1.624360e-06,2.125000e-02
-1.616360e-06,-1.625000e-02
-1.608360e-06,5.000000e-03
-1.600360e-06,-3.250000e-02
-1.592360e-06,1.000000e-02
-1.584360e-06,-2.750000e-02
-1.576360e-06,2.125000e-02
-1.568360e-06,5.000000e-03
-1.560360e-06,1.250000e-03
-1.552360e-06,-2.125000e-02
-1.544360e-06,8.750000e-03
-1.536360e-06,-3.500000e-02
-1.528360e-06,2.375000e-02
-1.520360e-06,-8.750000e-03
-1.512360e-06,2.500000e-03
-1.504360e-06,-3.375000e-02
-1.496360e-06,1.375000e-02
-1.488360e-06,-2.500000e-03
-1.480360e-06,2.625000e-02
-1.472360e-06,-2.875000e-02
-1.464360e-06,2.500000e-02
-1.456360e-06,-1.875000e-02
-1.448360e-06,-6.250000e-03
-1.440360e-06,-2.500000e-02
-1.432360e-06,1.375000e-02
-1.424360e-06,-1.750000e-02
-1.416360e-06,1.875000e-02
-1.408360e-06,0.000000e+00
-1.400360e-06,1.000000e-02
-1.392360e-06,-2.000000e-02
-1.384360e-06,6.250000e-03
-1.376360e-06,-8.750000e-03
-1.368360e-06,2.500000e-03
-1.360360e-06,-1.875000e-02
-1.352360e-06,2.250000e-02
-1.344360e-06,-2.750000e-02
-1.336360e-06,2.750000e-02
-1.328360e-06,-1.375000e-02
-1.320360e-06,2.125000e-02
-1.312360e-06,-1.375000e-02
-1.304360e-06,5.000000e-03
-1.296360e-06,-2.500000e-03
-1.288360e-06,8.750000e-03
-1.280360e-06,-1.125000e-02
-1.272360e-06,3.750000e-03
-1.264360e-06,2.500000e-03
-1.256360e-06,1.750000e-02
-1.248360e-06,-6.250000e-03
-1.240360e-06,6.250000e-03
-1.232360e-06,-1.750000e-02
-1.224360e-06,2.875000e-02
-1.216360e-06,-1.500000e-02
-1.208360e-06,1.250000e-03
-1.200360e-06,-1.750000e-02
-1.192360e-06,1.250000e-02
-1.184360e-06,-6.250000e-03
-1.176360e-06,1.000000e-02
-1.168360e-06,1.000000e-02
-1.160360e-06,8.750000e-03
-1.152360e-06,-2.250000e-02
-1.144360e-06,2.500000e-02
-1.136360e-06,-1.750000e-02
-1.128360e-06,3.000000e-02
-1.120360e-06,-5.000000e-03
-1.112360e-06,1.250000e-02
-1.104360e-06,-2.500000e-02
-1.096360e-06,1.250000e-02
-1.088360e-06,-2.875000e-02
-1.080360e-06,3.625000e-02
-1.072360e-06,-1.500000e-02
-1.064360e-06,1.000000e-02
-1.056360e-06,-1.000000e-02
-1.048360e-06,2.500000e-03
-1.040360e-06,-3.375000e-02
-1.032360e-06,1.500000e-02
-1.024360e-06,-1.500000e-02
-1.016360e-06,3.000000e-02
-1.008360e-06,-2.500000e-03
-1.000360e-06,2.750000e-02
-9.923600e-07,-7.500000e-03
-9.843600e-07,2.125000e-02
-9.763600e-07,-1.375000e-02
-9.683600e-07,6.250000e-03
-9.603600e-07,-1.750000e-02
-9.523600e-07,5.000000e-03
-9.443600e-07,-2.500000e-02
-9.363600e-07,6.250000e-03
-9.283600e-07,-2.875000e-02
-9.203600e-07,-5.000000e-03
-9.123600e-07,-1.625000e-02
-9.043600e-07,1.500000e-02
-8.963600e-07,-3.750000e-03
-8.883600e-07,1.250000e-02
-8.803600e-07,1.000000e-02
-8.723600e-07,2.125000e-02
-8.643600e-07,-2.375000e-02
-8.563600e-07,5.000000e-03
-8.483600e-07,-3.125000e-02
-8.403600e-07,1.750000e-02
-8.323600e-07,-1.625000e-02
-8.243600e-07,2.500000e-03
-8.163600e-07,-1.750000e-02
-8.083600e-07,0.000000e+00
-8.003600e-07,-1.000000e-02
-7.923600e-07,7.500000e-03
-7.843600e-07,-2.625000e-02
-7.763600e-07,3.375000e-02
-7.683600e-07,-2.125000e-02
-7.603600e-07,2.750000e-02
-7.523600e-07,7.500000e-03
-7.443600e-07,3.750000e-03
-7.363600e-07,-1.250000e-02
-7.283600e-07,2.500000e-02
-7.203600e-07,-4.625000e-02
-7.123600e-07,1.125000e-02
-7.043600e-07,-1.250000e-02
-6.963600e-07,2.500000e-02
-6.883600e-07,-1.250000e-03
-6.803600e-07,2.250000e-02
-6.723600e-07,-7.500000e-03
-6.643600e-07,5.000000e-03
-6.563600e-07,-3.750000e-03
-6.483600e-07,2.375000e-02
-6.403600e-07,-2.000000e-02
-6.323600e-07,4.375000e-02
-6.243600e-07,-8.750000e-03
-6.163600e-07,8.750000e-03
-6.083600e-07,-1.125000e-02
-6.003600e-07,6.250000e-03
-5.923600e-07,-2.125000e-02
-5.843600e-07,3.125000e-02
-5.763600e-07,-1.625000e-02
-5.683600e-07,1.750000e-02
-5.603600e-07,-2.000000e-02
-5.523600e-07,2.500000e-03
-5.443600e-07,0.000000e+00
-5.363600e-07,1.250000e-02
-5.283600e-07,-5.375000e-02
-5.203600e-07,3.375000e-02
-5.123600e-07,-7.500000e-03
-5.043600e-07,2.250000e-02
-4.963600e-07,-8.750000e-03
-4.883600e-07,2.500000e-02
-4.803600e-07,-3.750000e-03
-4.723600e-07,1.250000e-02
-4.643600e-07,-1.750000e-02
-4.563600e-07,2.625000e-02
-4.483600e-07,0.000000e+00
-4.403600e-07,3.000000e-02
-4.323600e-07,-1.375000e-02
-4.243600e-07,7.500000e-03
-4.163600e-07,-1.125000e-02
-4.083600e-07,6.250000e-03
-4.003600e-07,-7.500000e-03
-3.923600e-07,2.750000e-02
-3.843600e-07,5.000000e-03
-3.763600e-07,2.750000e-02
-3.683600e-07,-1.875000e-02
-3.603600e-07,8.750000e-03
-3.523600e-07,-1.375000e-02
-3.443600e-07,3.750000e-03
-3.363600e-07,-4.000000e-02
-3.283600e-07,1.750000e-02
-3.203600e-07,-3.125000e-02
-3.123600e-07,1.625000e-02
-3.043600e-07,-3.750000e-03
-2.963600e-07,2.250000e-02
-2.883600e-07,-3.250000e-02
-2.803600e-07,1.375000e-02
-2.723600e-07,-8.750000e-03
-2.643600e-07,1.125000e-02
-2.563600e-07,-6.250000e-03
-2.483600e-07,2.500000e-03
-2.403600e-07,1.250000e-03
-2.323600e-07,8.750000e-03
-2.243600e-07,-1.000000e-02
-2.163600e-07,2.000000e-02
-2.083600e-07,-8.750000e-03
-2.003600e-07,2.250000e-02
-1.923600e-07,5.000000e-03
-1.843600e-07,2.875000e-02
-1.763600e-07,-3.750000e-03
-1.683600e-07,-2.500000e-03
-1.603600e-07,-1.000000e-02
-1.523600e-07,0.000000e+00
-1.443600e-07,-6.250000e-03
-1.363600e-07,1.125000e-02
-1.283600e-07,1.000000e-02
-1.203600e-07,8.750000e-03
-1.123600e-07,-1.875000e-02
-1.043600e-07,2.500000e-02
-9.636000e-08,-1.500000e-02
-8.836000e-08,2.125000e-02
-8.036000e-08,-3.500000e-02
-7.236000e-08,3.250000e-02
-6.436000e-08,-2.625000e-02
-5.636000e-08,3.000000e-02
-4.836000e-08,-1.000000e-02
-4.036000e-08,-1.250000e-03
-3.236000e-08,-1.288750e+00
-2.436000e-08,-1.436250e+00
-1.636000e-08,-1.412500e+00
-8.360000e-09,-1.401250e+00
-3.600000e-10,-3.000000e-02
7.640000e-09,5.000000e-03
1.564000e-08,2.250000e-02
2.364000e-08,2.000000e-02
3.164000e-08,2.500000e-03
3.964000e-08,1.250000e-03
4.764000e-08,-3.750000e-02
5.564000e-08,1.500000e-02
6.364000e-08,-1.875000e-02
7.164000e-08,3.750000e-03
7.964000e-08,0.000000e+00
8.764000e-08,1.875000e-02
9.564000e-08,-1.625000e-02
1.036400e-07,1.875000e-02
1.116400e-07,-1.625000e-02
1.196400e-07,3.750000e-03
1.276400e-07,0.000000e+00
1.356400e-07,7.500000e-03
1.436400e-07,-8.750000e-03
1.516400e-07,1.875000e-02
1.596400e-07,0.000000e+00
1.676400e-07,1.000000e-02
1.756400e-07,-2.375000e-02
1.836400e-07,1.875000e-02
1.916400e-07,-8.750000e-03
1.996400e-07,1.000000e-02
2.076400e-07,-1.875000e-02
2.156400e-07,1.000000e-02
2.236400e-07,-1.375000e-02
2.316400e-07,0.000000e+00
2.396400e-07,-1.625000e-02
2.476400e-07,2.500000e-02
2.556400e-07,-8.750000e-03
2.636400e-07,-3.750000e-03
2.716400e-07,-1.625000e-02
2.796400e-07,3.375000e-02
2.876400e-07,-1.125000e-02
2.956400e-07,3.750000e-03
3.036400e-07,-3.875000e-02
3.116400e-07,1.750000e-02
3.196400e-07,-1.875000e-02
3.276400e-07,2.250000e-02
3.356400e-07,-1.125000e-02
3.436400e-07,1.625000e-02
3.516400e-07,2.500000e-03
3.596400e-07,1.750000e-02
3.676400e-07,-3.750000e-02
3.756400e-07,3.750000e-03
3.836400e-07,5.000000e-03
3.916400e-07,8.750000e-03
3.996400e-07,-2.500000e-03
4.076400e-07,1.500000e-02
4.156400e-07,-1.875000e-02
4.236400e-07,-7.500000e-03
4.316400e-07,-2.000000e-02
4.396400e-07,1.250000e-02
4.476400e-07,-2.375000e-02
4.556400e-07,2.875000e-02
4.636400e-07,-1.875000e-02
4.716400e-07,-7.500000e-03
4.796400e-07,-1.750000e-02
4.876400e-07,1.750000e-02
4.956400e-07,-2.000000e-02
5.036400e-07,0.000000e+00
5.116400e-07,2.500000e-03
5.196400e-07,1.250000e-03
5.276400e-07,-1.250000e-03
5.356400e-07,2.125000e-02
5.436400e-07,-2.375000e-02
5.516400e-07,2.250000e-02
5.596400e-07,-1.875000e-02
5.676400e-07,3.875000e-02
5.756400e-07,-3.750000e-03
5.836400e-07,5.000000e-02
5.916400e-07,8.750000e-03
5.996400e-07,-6.250000e-03
6.076400e-07,-7.500000e-03
6.156400e-07,6.250000e-03
6.236400e-07,-1.750000e-02
6.316400e-07,2.250000e-02
6.396400e-07,-2.375000e-02
6.476400e-07,3.000000e-02
6.556400e-07,2.500000e-03
6.636400e-07,-6.250000e-03
6.716400e-07,-1.500000e-02
6.796400e-07,2.625000e-02
6.876400e-07,-3.000000e-02
6.956400e-07,1.375000e-02
7.036400e-07,-8.750000e-03
7.116400e-07,2.375000e-02
7.196400e-07,-2.000000e-02
7.276400e-07,1.375000e-02
7.356400e-07,-2.875000e-02
7.436400e-07,1.250000e-02
7.516400e-07,-3.000000e-02
7.596400e-07,2.625000e-02
7.676400e-07,-8.750000e-03
7.756400e-07,1.500000e-02
7.836400e-07,2.500000e-03
7.916400e-07,2.000000e-02
7.996400e-07,-1.250000e-02
8.076400e-07,1.875000e-02
