run1/run1_ch1_20210318180130358.csv

Model,MSO64
Waveform Type,ANALOG
Horizontal Units,s
Sample Interval,8.000000e-09
Record Length,1250
Zero Index,624.720000
Vertical Units,V

TIME,CH1
-4.997760e-06,4.000000e-02
-4.989760e-06,-1.000000e-02
-4.981760e-06,7.500000e-03
-4.973760e-06,-1.125000e-02
-4.965760e-06,1.500000e-02
-4.957760e-06,-1.500000e-02
-4.949760e-06,2.375000e-02
-4.941760e-06,-5.000000e-03
-4.933760e-06,3.125000e-02
-4.925760e-06,-2.000000e-02
-4.917760e-06,-8.750000e-03
-4.909760e-06,-3.000000e-02
-4.901760e-06,1.375000e-02
-4.893760e-06,-1.375000e-02
-4.885760e-06,3.750000e-02
-4.877760e-06,-2.500000e-03
-4.869760e-06,1.625000e-02
-4.861760e-06,1.125000e-02
-4.853760e-06,1.750000e-02
-4.845760e-06,-2.000000e-02
-4.837760e-06,2.125000e-02
-4.829760e-06,-8.750000e-03
-4.821760e-06,7.500000e-03
-4.813760e-06,-2.000000e-02
-4.805760e-06,3.250000e-02
-4.797760e-06,-1.750000e-02
-4.789760e-06,1.375000e-02
-4.781760e-06,-1.375000e-02
-4.773760e-06,3.000000e-02
-4.765760e-06,-2.375000e-02
-4.757760e-06,-3.750000e-03
-4.749760e-06,3.750000e-03
-4.741760e-06,1.000000e-02
-4.733760e-06,2.500000e-03
-4.725760e-06,2.000000e-02
-4.717760e-06,-7.500000e-03
-4.709760e-06,2.750000e-02
-4.701760e-06,-2.750000e-02
-4.693760e-06,2.000000e-02
-4.685760e-06,-3.750000e-03
-4.677760e-06,3.375000e-02
-4.669760e-06,2.500000e-03
-4.661760e-06,7.500000e-03
-4.653760e-06,-1.125000e-02
-4.645760e-06,1.375000e-02
-4.637760e-06,-1.625000e-02
-4.629760e-06,4.000000e-02
-4.621760e-06,6.250000e-03
-4.613760e-06,3.750000e-03
-4.605760e-06,1.375000e-02
-4.597760e-06,1.500000e-02
-4.589760e-06,-2.500000e-02
-4.581760e-06,1.375000e-02
-4.573760e-06,-2.750000e-02
-4.565760e-06,2.625000e-02
-4.557760e-06,-2.000000e-02
-4.549760e-06,-2.500000e-03
-4.541760e-06,-2.125000e-02
-4.533760e-06,8.750000e-03
-4.525760e-06,2.500000e-03
-4.517760e-06,0.000000e+00
-4.509760e-06,-3.750000e-03
-4.501760e-06,1.625000e-02
-4.493760e-06,-1.000000e-02
-4.485760e-06,3.375000e-02
-4.477760e-06,-8.750000e-03
-4.469760e-06,1.375000e-02
-4.461760e-06,-2.875000e-02
-4.453760e-06,2.875000e-02
-4.445760e-06,-1.000000e-02
-4.437760e-06,1.125000e-02
-4.429760e-06,-2.750000e-02
-4.421760e-06,3.250000e-02
-4.413760e-06,-2.375000e-02
-4.405760e-06,-1.250000e-03
-4.397760e-06,-5.000000e-03
-4.389760e-06,2.625000e-02
-4.381760e-06,-7.500000e-03
-4.373760e-06,5.000000e-03
-4.365760e-06,-8.750000e-03
-4.357760e-06,4.125000e-02
-4.349760e-06,-6.250000e-03
-4.341760e-06,1.625000e-02
-4.333760e-06,-2.625000e-02
-4.325760e-06,-2.500000e-03
-4.317760e-06,-1.875000e-02
-4.309760e-06,1.500000e-02
-4.301760e-06,7.500000e-03
-4.293760e-06,2.125000e-02
-4.285760e-06,-1.625000e-02
-4.277760e-06,5.000000e-03
-4.269760e-06,-2.000000e-02
-4.261760e-06,8.750000e-03
-4.253760e-06,-2.250000e-02
-4.245760e-06,1.500000e-02
-4.237760e-06,1.250000e-03
-4.229760e-06,4.625000e-02
-4.221760e-06,1.250000e-03
-4.213760e-06,3.125000e-02
-4.205760e-06,-1.750000e-02
-4.197760e-06,2.375000e-02
-4.189760e-06,-1.875000e-02
-4.181760e-06,-2.500000e-03
-4.173760e-06,-3.750000e-02
-4.165760e-06,2.625000e-02
-4.157760e-06,-1.000000e-02
-4.149760e-06,6.250000e-03
-4.141760e-06,-3.125000e-02
-4.133760e-06,1.875000e-02
-4.125760e-06,-2.500000e-02
-4.117760e-06,2.125000e-02
-4.109760e-06,-1.250000e-02
-4.101760e-06,3.125000e-02
-4.093760e-06,1.625000e-02
-4.085760e-06,2.875000e-02
-4.077760e-06,-2.625000e-02
-4.069760e-06,-2.500000e-03
-4.061760e-06,-2.000000e-02
-4.053760e-06,8.750000e-03
-4.045760e-06,-2.375000e-02
-4.037760e-06,2.375000e-02
-4.029760e-06,-1.250000e-03
-4.021760e-06,2.750000e-02
-4.013760e-06,-1.625000e-02
-4.005760e-06,2.500000e-02
-3.997760e-06,-1.625000e-02
-3.989760e-06,1.250000e-02
-3.981760e-06,-6.250000e-03
-3.973760e-06,2.500000e-02
-3.965760e-06,-1.750000e-02
-3.957760e-06,3.125000e-02
-3.949760e-06,-2.000000e-02
-3.941760e-06,1.250000e-03
-3.933760e-06,-4.750000e-02
-3.925760e-06,2.750000e-02
-3.917760e-06,-1.875000e-02
-3.909760e-06,8.750000e-03
-3.901760e-06,-2.875000e-02
-3.893760e-06,1.625000e-02
-3.885760e-06,0.000000e+00
-3.877760e-06,6.250000e-03
-3.869760e-06,-1.500000e-02
-3.861760e-06,6.250000e-03
-3.853760e-06,-1.625000e-02
-3.845760e-06,4.250000e-02
-3.837760e-06,-8.750000e-03
-3.829760e-06,1.500000e-02
-3.821760e-06,-1.625000e-02
-3.813760e-06,3.125000e-02
-3.805760e-06,-3.250000e-02
-3.797760e-06,2.500000e-03
-3.789760e-06,-2.500000e-02
-3.781760e-06,1.625000e-02
-3.773760e-06,-1.375000e-02
-3.765760e-06,3.750000e-03
-3.757760e-06,-2.500000e-03
-3.749760e-06,2.500000e-02
-3.741760e-06,-7.500000e-03
-3.733760e-06,2.125000e-02
-3.725760e-06,-1.500000e-02
-3.717760e-06,1.375000e-02
-3.709760e-06,-6.250000e-03
-3.701760e-06,7.500000e-03
-3.693760e-06,-2.000000e-02
-3.685760e-06,-7.500000e-03
-3.677760e-06,-2.250000e-02
-3.669760e-06,1.750000e-02
-3.661760e-06,-1.500000e-02
-3.653760e-06,2.250000e-02
-3.645760e-06,6.250000e-03
-3.637760e-06,1.625000e-02
-3.629760e-06,-8.750000e-03
-3.621760e-06,2.625000e-02
-3.613760e-06,-3.500000e-02
-3.605760e-06,2.500000e-02
-3.597760e-06,3.750000e-03
-3.589760e-06,2.875000e-02
-3.581760e-06,-6.250000e-03
-3.573760e-06,2.375000e-02
-3.565760e-06,-2.375000e-02
-3.557760e-06,2.000000e-02
-3.549760e-06,-1.875000e-02
-3.541760e-06,5.000000e-03
-3.533760e-06,-1.125000e-02
-3.525760e-06,5.000000e-03
-3.517760e-06,-2.375000e-02
-3.509760e-06,2.500000e-02
-3.501760e-06,-8.750000e-03
-3.493760e-06,5.000000e-03
-3.485760e-06,-1.000000e-02
-3.477760e-06,3.500000e-02
-3.469760e-06,-7.500000e-03
-3.461760e-06,1.750000e-02
-3.453760e-06,-2.500000e-03
-3.445760e-06,7.500000e-03
-3.437760e-06,-1.500000e-02
-3.429760e-06,1.750000e-02
-3.421760e-06,-3.500000e-02
-3.413760e-06,1.875000e-02
-3.405760e-06,-8.750000e-03
-3.397760e-06,3.375000e-02
-3.389760e-06,-1.875000e-02
-3.381760e-06,1.375000e-02
-3.373760e-06,-2.250000e-02
-3.365760e-06,-1.500000e-02
-3.357760e-06,-3.375000e-02
-3.349760e-06,1.375000e-02
-3.341760e-06,-1.125000e-02
-3.333760e-06,1.500000e-02
-3.325760e-06,-1.375000e-02
-3.317760e-06,1.750000e-02
-3.309760e-06,-5.000000e-03
-3.301760e-06,1.250000e-03
-3.293760e-06,-1.500000e-02
-3.285760e-06,2.125000e-02
-3.277760e-06,-3.000000e-02
-3.269760e-06,2.375000e-02
-3.261760e-06,-1.875000e-02
-3.253760e-06,1.625000e-02
-3.245760e-06,-1.375000e-02
-3.237760e-06,2.000000e-02
-3.229760e-06,-1.625000e-02
-3.221760e-06,1.125000e-02
-3.213760e-06,-1.000000e-02
-3.205760e-06,1.125000e-02
-3.197760e-06,-5.000000e-03
-3.189760e-06,1.875000e-02
-3.181760e-06,1.250000e-03
-3.173760e-06,7.500000e-03
-3.165760e-06,-2.500000e-02
-3.157760e-06,3.250000e-02
-3.149760e-06,-2.500000e-03
-3.141760e-06,2.125000e-02
-3.133760e-06,-3.500000e-02
-3.125760e-06,3.750000e-03
-3.117760e-06,-1.500000e-02
-3.109760e-06,3.250000e-02
-3.101760e-06,-3.750000e-03
-3.093760e-06,2.375000e-02
-3.085760e-06,2.250000e-02
-3.077760e-06,1.375000e-02
-3.069760e-06,-6.250000e-03
-3.061760e-06,2.125000e-02
-3.053760e-06,-3.875000e-02
-3.045760e-06,1.875000e-02
-3.037760e-06,-8.750000e-03
-3.029760e-06,2.875000e-02
-3.021760e-06,-1.375000e-02
-3.013760e-06,3.375000e-02
-3.005760e-06,-1.000000e-02
-2.997760e-06,2.500000e-02
-2.989760e-06,-7.500000e-03
-2.981760e-06,-1.250000e-03
-2.973760e-06,-3.000000e-02
-2.965760e-06,1.625000e-02
-2.957760e-06,-3.750000e-03
-2.949760e-06,0.000000e+00
-2.941760e-06,-1.500000e-02
-2.933760e-06,5.000000e-03
-2.925760e-06,-3.750000e-03
-2.917760e-06,3.750000e-02
-2.909760e-06,-3.875000e-02
-2.901760e-06,2.750000e-02
-2.893760e-06,-3.875000e-02
-2.885760e-06,1.125000e-02
-2.877760e-06,-1.250000e-03
-2.869760e-06,-2.500000e-03
-2.861760e-06,7.500000e-03
-2.853760e-06,1.375000e-02
-2.845760e-06,-5.000000e-03
-2.837760e-06,-1.250000e-03
-2.829760e-06,1.125000e-02
-2.821760e-06,6.250000e-03
-2.813760e-06,3.750000e-03
-2.805760e-06,1.125000e-02
-2.797760e-06,-2.000000e-02
-2.789760e-06,2.500000e-03
-2.781760e-06,-2.500000e-02
-2.773760e-06,8.750000e-03
-2.765760e-06,-1.375000e-02
-2.757760e-06,3.000000e-02
-2.749760e-06,-7.500000e-03
-2.741760e-06,-1.250000e-03
-2.733760e-06,-2.125000e-02
-2.725760e-06,-6.250000e-03
-2.717760e-06,-1.500000e-02
-2.709760e-06,2.250000e-02
-2.701760e-06,-8.750000e-03
-2.693760e-06,2.500000e-02
-2.685760e-06,-5.000000e-03
-2.677760e-06,2.875000e-02
-2.669760e-06,-3.125000e-02
-2.661760e-06,8.750000e-03
-2.653760e-06,-2.500000e-02
-2.645760e-06,3.750000e-03
-2.637760e-06,-2.000000e-02
-2.629760e-06,1.500000e-02
-2.621760e-06,-2.750000e-02
-2.613760e-06,1.000000e-02
-2.605760e-06,-1.750000e-02
-2.597760e-06,3.750000e-03
-2.589760e-06,-3.750000e-03
-2.581760e-06,6.250000e-03
-2.573760e-06,1.500000e-02
-2.565760e-06,1.250000e-02
-2.557760e-06,3.750000e-03
-2.549760e-06,1.250000e-02
-2.541760e-06,8.750000e-03
-2.533760e-06,1.750000e-02
-2.525760e-06,5.000000e-03
-2.517760e-06,3.125000e-02
-2.509760e-06,-1.750000e-02
-2.501760e-06,2.625000e-02
-2.493760e-06,-8.750000e-03
-2.485760e-06,4.000000e-02
-2.477760e-06,2.500000e-03
-2.469760e-06,1.000000e-02
-2.461760e-06,-1.375000e-02
-2.453760e-06,2.500000e-02
-2.445760e-06,-1.250000e-02
-2.437760e-06,3.500000e-02
-2.429760e-06,-6.250000e-03
-2.421760e-06,7.500000e-03
-2.413760e-06,-1.250000e-03
-2.405760e-06,3.125000e-02
-2.397760e-06,-6.500000e-02
-2.389760e-06,7.500000e-03
-2.381760e-06,-3.375000e-02
-2.373760e-06,5.625000e-02
-2.365760e-06,-8.750000e-03
-2.357760e-06,0.000000e+00
-2.349760e-06,-2.750000e-02
-2.341760e-06,1.000000e-02
-2.333760e-06,-1.125000e-02
-2.325760e-06,1.875000e-02
-2.317760e-06,-1.125000e-02
-2.309760e-06,1.750000e-02
-2.301760e-06,-1.625000e-02
-2.293760e-06,1.875000e-02
-2.285760e-06,-1.125000e-02
-2.277760e-06,3.500000e-02
-2.269760e-06,-5.000000e-03
-2.261760e-06,1.500000e-02
-2.253760e-06,-3.375000e-02
-2.245760e-06,3.875000e-02
-2.237760e-06,1.375000e-02
-2.229760e-06,1.125000e-02
-2.221760e-06,7.500000e-03
-2.213760e-06,1.625000e-02
-2.205760e-06,-2.500000e-02
-2.197760e-06,1.750000e-02
-2.189760e-06,-3.125000e-02
-2.181760e-06,6.250000e-03
-2.173760e-06,-1.250000e-03
-2.165760e-06,1.125000e-02
-2.157760e-06,-1.250000e-02
-2.149760e-06,2.125000e-02
-2.141760e-06,-2.875000e-02
-2.133760e-06,-7.500000e-03
-2.125760e-06,-1.875000e-02
-2.117760e-06,3.000000e-02
-2.109760e-06,2.500000e-03
-2.101760e-06,3.750000e-02
-2.093760e-06,-3.750000e-03
-2.085760e-06,2.250000e-02
-2.077760e-06,-1.500000e-02
-2.069760e-06,3.750000e-03
-2.061760e-06,-6.250000e-03
-2.053760e-06,2.125000e-02
-2.045760e-06,-1.875000e-02
-2.037760e-06,7.500000e-03
-2.029760e-06,-1.250000e-03
-2.021760e-06,1.875000e-02
-2.013760e-06,-3.750000e-02
-2.005760e-06,2.500000e-02
-1.997760e-06,-1.250000e-02
-1.989760e-06,3.625000e-02
-1.981760e-06,-2.125000e-02
-1.973760e-06,1.000000e-02
-1.965760e-06,-3.000000e-02
-1.957760e-06,2.750000e-02
-1.949760e-06,-6.250000e-03
-1.941760e-06,3.375000e-02
-1.933760e-06,5.000000e-03
-1.925760e-06,3.625000e-02
-1.917760e-06,8.750000e-03
-1.909760e-06,2.125000e-02
-1.901760e-06,-5.000000e-03
-1.893760e-06,1.375000e-02
-1.885760e-06,-1.500000e-02
-1.877760e-06,2.750000e-02
-1.869760e-06,-2.000000e-02
-1.861760e-06,2.875000e-02
-1.853760e-06,-1.375000e-02
-1.845760e-06,1.125000e-02
-1.837760e-06,-1.000000e-02
-1.829760e-06,2.625000e-02
-1.821760e-06,-3.625000e-02
-1.813760e-06,-1.250000e-03
-1.805760e-06,-2.500000e-03
-1.797760e-06,2.250000e-02
-1.789760e-06,1.500000e-02
-1.781760e-06,4.000000e-02
-1.773760e-06,-2.875000e-02
-1.765760e-06,3.000000e-02
-1.757760e-06,-1.500000e-02
-1.749760e-06,1.375000e-02
-1.741760e-06,-1.875000e-02
-1.733760e-06,-1.875000e-02
-1.725760e-06,-2.375000e-02
-1.717760e-06,2.875000e-02
-1.709760e-06,-1.250000e-02
-1.701760e-06,2.750000e-02
-1.693760e-06,-1.250000e-02
-1.685760e-06,1.375000e-02
-1.677760e-06,-1.250000e-03
-1.669760e-06,3.250000e-02
-1.661760e-06,-1.750000e-02
-1.653760e-06,2.750000e-02
-1.645760e-06,-1.875000e-02
-1.637760e-06,1.750000e-02
-1.629760e-06,-2.750000e-02
-1.621760e-06,1.500000e-02
-1.613760e-06,-2.750000e-02
-1.605760e-06,1.250000e-03
-1.597760e-06,-1.625000e-02
-1.589760e-06,2.500000e-03
-1.581760e-06,-1.250000e-02
-1.573760e-06,3.250000e-02
-1.565760e-06,-2.375000e-02
-1.557760e-06,8.750000e-03
-1.549760e-06,2.500000e-03
-1.541760e-06,1.375000e-02
-1.533760e-06,6.250000e-03
-1.525760e-06,3.375000e-02
-1.517760e-06,-1.250000e-02
-1.509760e-06,1.875000e-02
-1.501760e-06,-2.875000e-02
-1.493760e-06,2.000000e-02
-1.485760e-06,8.750000e-03
-1.477760e-06,1.250000e-02
-1.469760e-06,-2.625000e-02
-1.461760e-06,3.750000e-03
-1.453760e-06,-2.000000e-02
-1.445760e-06,2.000000e-02
-1.437760e-06,-3.125000e-02
-1.429760e-06,8.750000e-03
-1.421760e-06,-1.250000e-03
-1.413760e-06,2.250000e-02
-1.405760e-06,-5.000000e-03
-1.397760e-06,2.625000e-02
-1.389760e-06,-3.750000e-02
-1.381760e-06,1.250000e-03
-1.373760e-06,5.000000e-03
-1.365760e-06,2.500000e-02
-1.357760e-06,-1.250000e-02
-1.349760e-06,3.125000e-02
-1.341760e-06,8.750000e-03
-1.333760e-06,-2.500000e-03
-1.325760e-06,-6.250000e-03
-1.317760e-06,2.250000e-02
-1.309760e-06,-2.375000e-02
-1.301760e-06,1.375000e-02
-1.293760e-06,-8.750000e-03
-1.285760e-06,2.000000e-02
-1.277760e-06,-6.250000e-03
-1.269760e-06,2.625000e-02
-1.261760e-06,-1.125000e-02
-1.253760e-06,6.250000e-03
-1.245760e-06,-4.125000e-02
-1.237760e-06,1.875000e-02
-1.229760e-06,-1.375000e-02
-1.221760e-06,3.125000e-02
-1.213760e-06,-2.875000e-02
-1.205760e-06,1.750000e-02
-1.197760e-06,2.375000e-02
-1.189760e-06,-1.250000e-03
-1.181760e-06,-2.500000e-02
-1.173760e-06,2.125000e-02
-1.165760e-06,1.000000e-02
-1.157760e-06,-5.000000e-03
-1.149760e-06,-1.250000e-02
-1.141760e-06,1.250000e-02
-1.133760e-06,-1.750000e-02
-1.125760e-06,1.500000e-02
-1.117760e-06,-1.375000e-02
-1.109760e-06,1.625000e-02
-1.101760e-06,-8.750000e-03
-1.093760e-06,1.875000e-02
-1.085760e-06,-1.875000e-02
-1.077760e-06,1.250000e-02
-1.069760e-06,-7.500000e-03
-1.061760e-06,6.250000e-03
-1.053760e-06,-1.250000e-03
-1.045760e-06,1.125000e-02
-1.037760e-06,-8.750000e-03
-1.029760e-06,2.250000e-02
-1.021760e-06,1.250000e-03
-1.013760e-06,2.500000e-03
-1.005760e-06,-1.250000e-02
-9.977600e-07,6.250000e-03
-9.897600e-07,3.750000e-03
-9.817600e-07,3.000000e-02
-9.737600e-07,-2.500000e-02
-9.657600e-07,1.625000e-02
-9.577600e-07,-2.125000e-02
-9.497600e-07,1.500000e-02
-9.417600e-07,-8.750000e-03
-9.337600e-07,1.500000e-02
-9.257600e-07,-1.750000e-02
-9.177600e-07,2.000000e-02
-9.097600e-07,-1.250000e-02
-9.017600e-07,3.625000e-02
-8.937600e-07,-6.250000e-03
-8.857600e-07,3.500000e-02
-8.777600e-07,-3.000000e-02
-8.697600e-07,-7.500000e-03
-8.617600e-07,-1.375000e-02
-8.537600e-07,2.000000e-02
-8.457600e-07,-1.875000e-02
-8.377600e-07,2.625000e-02
-8.297600e-07,-1.500000e-02
-8.217600e-07,2.500000e-03
-8.137600e-07,-1.125000e-02
-8.057600e-07,1.000000e-02
-7.977600e-07,-8.750000e-03
-7.897600e-07,1.125000e-02
-7.817600e-07,-1.875000e-02
-7.737600e-07,2.625000e-02
-7.657600e-07,-6.250000e-03
-7.577600e-07,1.500000e-02
-7.497600e-07,-5.000000e-03
-7.417600e-07,1.125000e-02
-7.337600e-07,-1.000000e-02
-7.257600e-07,2.500000e-02
-7.177600e-07,-2.000000e-02
-7.097600e-07,1.625000e-02
-7.017600e-07,0.000000e+00
-6.937600e-07,7.500000e-03
-6.857600e-07,-2.500000e-03
-6.777600e-07,1.625000e-02
-6.697600e-07,-2.500000e-02
-6.617600e-07,1.750000e-02
-6.537600e-07,-1.125000e-02
-6.457600e-07,3.000000e-02
-6.377600e-07,-7.500000e-03
-6.297600e-07,6.250000e-03
-6.217600e-07,-1.625000e-02
-6.137600e-07,1.375000e-02
-6.057600e-07,-1.875000e-02
-5.977600e-07,5.000000e-03
-5.897600e-07,-2.750000e-02
-5.817600e-07,2.750000e-02
-5.737600e-07,-2.875000e-02
-5.657600e-07,1.500000e-02
-5.577600e-07,-2.125000e-02
-5.497600e-07,3.125000e-02
-5.417600e-07,-1.000000e-02
-5.337600e-07,2.375000e-02
-5.257600e-07,-1.000000e-02
-5.177600e-07,3.000000e-02
-5.097600e-07,-1.750000e-02
-5.017600e-07,3.750000e-03
-4.937600e-07,-3.250000e-02
-4.857600e-07,-1.250000e-03
-4.777600e-07,-5.250000e-02
-4.697600e-07,1.375000e-02
-4.617600e-07,-3.125000e-02
-4.537600e-07,1.875000e-02
-4.457600e-07,-1.000000e-02
-4.377600e-07,2.875000e-02
-4.297600e-07,-3.750000e-03
-4.217600e-07,8.750000e-03
-4.137600e-07,2.500000e-03
-4.057600e-07,3.875000e-02
-3.977600e-07,2.500000e-03
-3.897600e-07,8.750000e-03
-3.817600e-07,-2.875000e-02
-3.737600e-07,6.250000e-03
-3.657600e-07,-3.750000e-03
-3.577600e-07,3.375000e-02
-3.497600e-07,-7.500000e-03
-3.417600e-07,1.750000e-02
-3.337600e-07,-1.000000e-02
-3.257600e-07,2.500000e-02
-3.177600e-07,-7.500000e-03
-3.097600e-07,1.125000e-02
-3.017600e-07,-1.000000e-02
-2.937600e-07,1.250000e-03
-2.857600e-07,-5.000000e-03
-2.777600e-07,1.750000e-02
-2.697600e-07,-2.500000e-03
-2.617600e-07,1.375000e-02
-2.537600e-07,-3.750000e-03
-2.457600e-07,7.500000e-03
-2.377600e-07,-2.000000e-02
-2.297600e-07,-6.250000e-03
-2.217600e-07,-3.625000e-02
-2.137600e-07,2.250000e-02
-2.057600e-07,-1.375000e-02
-1.977600e-07,1.500000e-02
-1.897600e-07,-1.250000e-03
-1.817600e-07,5.000000e-03
-1.737600e-07,0.000000e+00
-1.657600e-07,2.750000e-02
-1.577600e-07,-1.750000e-02
-1.497600e-07,2.000000e-02
-1.417600e-07,-1.500000e-02
-1.337600e-07,2.375000e-02
-1.257600e-07,-2.500000e-03
-1.177600e-07,1.875000e-02
-1.097600e-07,-1.000000e-02
-1.017600e-07,-3.750000e-03
-9.376000e-08,-2.375000e-02
-8.576000e-08,2.250000e-02
-7.776000e-08,-5.000000e-03
-6.976000e-08,2.625000e-02
-6.176000e-08,-1.125000e-02
-5.376000e-08,1.500000e-02
-4.576000e-08,-3.750000e-03
-3.776000e-08,2.250000e-02
-2.976000e-08,-1.418750e+00
-2.176000e-08,-1.402500e+00
-1.376000e-08,-1.411250e+00
-5.760000e-09,-2.850000e-01
2.240000e-09,-1.625000e-02
1.024000e-08,3.750000e-02
1.824000e-08,-1.250000e-03
2.624000e-08,1.750000e-02
3.424000e-08,-2.500000e-03
4.224000e-08,7.500000e-03
5.024000e-08,-1.500000e-02
5.824000e-08,2.625000e-02
6.624000e-08,0.000000e+00
7.424000e-08,1.250000e-02
8.224000e-08,-1.750000e-02
9.024000e-08,1.125000e-02
9.824000e-08,-6.250000e-03
1.062400e-07,1.375000e-02
1.142400e-07,1.000000e-02
1.222400e-07,3.125000e-02
1.302400e-07,-6.250000e-03
1.382400e-07,2.500000e-03
1.462400e-07,-3.250000e-02
1.542400e-07,0.000000e+00
1.622400e-07,2.500000e-03
1.702400e-07,1.750000e-02
1.782400e-07,-1.375000e-02
1.862400e-07,2.875000e-02
1.942400e-07,-1.000000e-02
2.022400e-07,7.500000e-03
2.102400e-07,1.250000e-03
2.182400e-07,8.750000e-03
2.262400e-07,-1.000000e-02
2.342400e-07,1.500000e-02
2.422400e-07,-1.250000e-02
2.502400e-07,1.125000e-02
2.582400e-07,2.500000e-03
2.662400e-07,4.250000e-02
2.742400e-07,-2.500000e-02
2.822400e-07,2.250000e-02
2.902400e-07,-1.375000e-02
2.982400e-07,1.375000e-02
3.062400e-07,-3.750000e-02
3.142400e-07,1.875000e-02
3.222400e-07,1.250000e-03
3.302400e-07,2.375000e-02
3.382400e-07,-1.250000e-03
3.462400e-07,2.500000e-03
3.542400e-07,-3.750000e-03
3.622400e-07,1.875000e-02
3.702400e-07,1.125000e-02
3.782400e-07,4.125000e-02
3.862400e-07,-2.500000e-02
3.942400e-07,1.125000e-02
4.022400e-07,-2.750000e-02
4.102400e-07,3.125000e-02
4.182400e-07,-3.500000e-02
4.262400e-07,1.375000e-02
4.342400e-07,-3.000000e-02
4.422400e-07,2.500000e-02
4.502400e-07,-6.250000e-03
4.582400e-07,1.500000e-02
4.662400e-07,-1.000000e-02
4.742400e-07,1.250000e-02
4.822400e-07,1.250000e-03
4.902400e-07,1.375000e-02
4.982400e-07,1.000000e-02
5.062400e-07,1.125000e-02
5.142400e-07,-2.125000e-02
5.222400e-07,-7.500000e-03
5.302400e-07,-1.000000e-02
5.382400e-07,8.750000e-03
5.462400e-07,-2.625000e-02
5.542400e-07,1.750000e-02
5.622400e-07,-1.500000e-02
5.702400e-07,3.875000e-02
5.782400e-07,-3.375000e-02
5.862400e-07,8.750000e-03
5.942400e-07,-7.500000e-03
6.022400e-07,-1.375000e-02
6.102400e-07,-2.875000e-02
6.182400e-07,0.000000e+00
6.262400e-07,-1.625000e-02
6.342400e-07,2.125000e-02
6.422400e-07,7.500000e-03
6.502400e-07,3.875000e-02
6.582400e-07,-2.875000e-02
6.662400e-07,1.750000e-02
6.742400e-07,-2.625000e-02
6.822400e-07,8.750000e-03
6.902400e-07,-7.500000e-03
6.982400e-07,3.625000e-02
7.062400e-07,0.000000e+00
7.142400e-07,2.750000e-02
7.222400e-07,-2.875000e-02
7.302400e-07,3.750000e-03
7.382400e-07,-4.750000e-02
7.462400e-07,5.000000e-03
7.542400e-07,-1.125000e-02
7.622400e-07,2.875000e-02
7.702400e-07,-6.250000e-03
7.782400e-07,4.000000e-02
7.862400e-07,-1.375000e-02
7.942400e-07,4.500000e-02
8.022400e-07,-3.000000e-02
