run1/run1_ch1_20210318180248542.csv

Model,MSO64
Waveform Type,ANALOG
Horizontal Units,s
Sample Interval,8.000000e-09
Record Length,1250
Zero Index,624.900156
Vertical Units,V

TIME,CH1
-4.999201e-06,1.625000e-02
-4.991201e-06,-8.750000e-03
-4.983201e-06,-1.750000e-02
-4.975201e-06,-8.750000e-03
-4.967201e-06,2.625000e-02
-4.959201e-06,-2.250000e-02
-4.951201e-06,2.125000e-02
-4.943201e-06,-4.250000e-02
-4.935201e-06,3.750000e-03
-4.927201e-06,-1.125000e-02
-4.919201e-06,3.500000e-02
-4.911201e-06,1.125000e-02
-4.903201e-06,8.750000e-03
-4.895201e-06,-6.250000e-03
-4.887201e-06,1.125000e-02
-4.879201e-06,-8.750000e-03
-4.871201e-06,2.500000e-03
-4.863201e-06,2.500000e-03
-4.855201e-06,3.375000e-02
-4.847201e-06,-1.125000e-02
-4.839201e-06,1.875000e-02
-4.831201e-06,-2.625000e-02
-4.823201e-06,2.000000e-02
-4.815201e-06,-1.125000e-02
-4.807201e-06,1.250000e-02
-4.799201e-06,-1.375000e-02
-4.791201e-06,1.750000e-02
-4.783201e-06,-3.750000e-03
-4.775201e-06,7.500000e-03
-4.767201e-06,-2.250000e-02
-4.759201e-06,1.875000e-02
-4.751201e-06,-2.375000e-02
-4.743201e-06,2.625000e-02
-4.735201e-06,-1.250000e-03
-4.727201e-06,1.000000e-02
-4.719201e-06,-1.000000e-02
-4.711201e-06,3.750000e-03
-4.703201e-06,-1.375000e-02
-4.695201e-06,2.750000e-02
-4.687201e-06,-2.125000e-02
-4.679201e-06,7.500000e-03
-4.671201e-06,-2.500000e-02
-4.663201e-06,2.375000e-02
-4.655201e-06,-2.750000e-02
-4.647201e-06,0.000000e+00
-4.639201e-06,5.000000e-03
-4.631201e-06,2.250000e-02
-4.623201e-06,-1.000000e-02
-4.615201e-06,1.125000e-02
-4.607201e-06,-7.500000e-03
-4.599201e-06,2.625000e-02
-4.591201e-06,2.125000e-02
-4.583201e-06,1.375000e-02
-4.575201e-06,3.750000e-03
-4.567201e-06,1.000000e-02
-4.559201e-06,-1.875000e-02
-4.551201e-06,1.875000e-02
-4.543201e-06,-5.000000e-03
-4.535201e-06,2.375000e-02
-4.527201e-06,2.500000e-03
-4.519201e-06,2.500000e-02
-4.511201e-06,-2.875000e-02
-4.503201e-06,1.875000e-02
-4.495201e-06,-1.375000e-02
-4.487201e-06,1.250000e-03
-4.479201e-06,-5.000000e-03
-4.471201e-06,3.000000e-02
-4.463201e-06,-3.125000e-02
-4.455201e-06,1.375000e-02
-4.447201e-06,-1.500000e-02
-4.439201e-06,1.875000e-02
-4.431201e-06,-4.375000e-02
-4.423201e-06,1.250000e-02
-4.415201e-06,-2.250000e-02
-4.407201e-06,2.500000e-02
-4.399201e-06,0.000000e+00
-4.391201e-06,2.625000e-02
-4.383201e-06,-2.500000e-03
-4.375201e-06,3.000000e-02
-4.367201e-06,-1.500000e-02
-4.359201e-06,2.875000e-02
-4.351201e-06,3.750000e-03
-4.343201e-06,2.750000e-02
-4.335201e-06,2.500000e-03
-4.327201e-06,2.250000e-02
-4.319201e-06,-2.000000e-02
-4.311201e-06,1.875000e-02
-4.303201e-06,-2.500000e-02
-4.295201e-06,2.000000e-02
-4.287201e-06,-2.125000e-02
-4.279201e-06,-1.250000e-03
-4.271201e-06,-1.875000e-02
-4.263201e-06,1.875000e-02
-4.255201e-06,-2.000000e-02
-4.247201e-06,1.500000e-02
-4.239201e-06,-2.375000e-02
-4.231201e-06,2.375000e-02
-4.223201e-06,-1.000000e-02
-4.215201e-06,8.750000e-03
-4.207201e-06,-1.750000e-02
-4.199201e-06,6.250000e-03
-4.191201e-06,-1.375000e-02
-4.183201e-06,2.125000e-02
-4.175201e-06,-1.125000e-02
-4.167201e-06,1.250000e-02
-4.159201e-06,-2.875000e-02
-4.151201e-06,3.000000e-02
-4.143201e-06,-2.250000e-02
-4.135201e-06,1.375000e-02
-4.127201e-06,2.500000e-03
-4.119201e-06,2.125000e-02
-4.111201e-06,-7.500000e-03
-4.103201e-06,1.500000e-02
-4.095201e-06,-6.250000e-03
-4.087201e-06,2.625000e-02
-4.079201e-06,3.750000e-03
-4.071201e-06,-2.500000e-03
-4.063201e-06,-1.125000e-02
-4.055201e-06,2.750000e-02
-4.047201e-06,-3.250000e-02
-4.039201e-06,-2.500000e-03
-4.031201e-06,-4.250000e-02
-4.023201e-06,1.125000e-02
-4.015201e-06,-4.375000e-02
-4.007201e-06,1.375000e-02
-3.999201e-06,2.500000e-03
-3.991201e-06,1.125000e-02
-3.983201e-06,-1.625000e-02
-3.975201e-06,2.500000e-02
-3.967201e-06,-1.375000e-02
-3.959201e-06,1.250000e-02
-3.951201e-06,-1.500000e-02
-3.943201e-06,2.000000e-02
-3.935201e-06,-1.250000e-03
-3.927201e-06,6.250000e-03
-3.919201e-06,-2.125000e-02
-3.911201e-06,1.750000e-02
-3.903201e-06,-2.250000e-02
-3.895201e-06,7.500000e-03
-3.887201e-06,-1.500000e-02
-3.879201e-06,8.750000e-03
-3.871201e-06,-1.000000e-02
-3.863201e-06,1.375000e-02
-3.855201e-06,-2.500000e-02
-3.847201e-06,1.750000e-02
-3.839201e-06,0.000000e+00
-3.831201e-06,2.125000e-02
-3.823201e-06,-8.750000e-03
-3.815201e-06,2.000000e-02
-3.807201e-06,-2.500000e-03
-3.799201e-06,1.000000e-02
-3.791201e-06,-3.750000e-02
-3.783201e-06,2.000000e-02
-3.775201e-06,-3.000000e-02
-3.767201e-06,2.375000e-02
-3.759201e-06,-2.500000e-02
-3.751201e-06,1.375000e-02
-3.743201e-06,-1.250000e-03
-3.735201e-06,1.250000e-02
-3.727201e-06,2.500000e-03
-3.719201e-06,1.750000e-02
-3.711201e-06,7.500000e-03
-3.703201e-06,1.375000e-02
-3.695201e-06,6.250000e-03
-3.687201e-06,1.250000e-02
-3.679201e-06,-1.250000e-02
-3.671201e-06,6.250000e-03
-3.663201e-06,-1.500000e-02
-3.655201e-06,4.375000e-02
-3.647201e-06,-3.000000e-02
-3.639201e-06,2.250000e-02
-3.631201e-06,-2.000000e-02
-3.623201e-06,-1.250000e-03
-3.615201e-06,7.500000e-03
-3.607201e-06,-1.250000e-03
-3.599201e-06,-2.500000e-02
-3.591201e-06,7.500000e-03
-3.583201e-06,-3.750000e-03
-3.575201e-06,2.125000e-02
-3.567201e-06,-3.750000e-02
-3.559201e-06,2.125000e-02
-3.551201e-06,-3.750000e-03
-3.543201e-06,2.500000e-02
-3.535201e-06,-1.125000e-02
-3.527201e-06,4.250000e-02
-3.519201e-06,-1.625000e-02
-3.511201e-06,2.000000e-02
-3.503201e-06,-2.250000e-02
-3.495201e-06,2.000000e-02
-3.487201e-06,-1.250000e-03
-3.479201e-06,2.875000e-02
-3.471201e-06,-1.125000e-02
-3.463201e-06,-3.750000e-03
-3.455201e-06,7.500000e-03
-3.447201e-06,1.000000e-02
-3.439201e-06,7.500000e-03
-3.431201e-06,-8.750000e-03
-3.423201e-06,2.500000e-03
-3.415201e-06,-1.000000e-02
-3.407201e-06,6.250000e-03
-3.399201e-06,2.250000e-02
-3.391201e-06,-2.125000e-02
-3.383201e-06,2.250000e-02
-3.375201e-06,-2.250000e-02
-3.367201e-06,2.750000e-02
-3.359201e-06,-2.500000e-02
-3.351201e-06,3.750000e-02
-3.343201e-06,0.000000e+00
-3.335201e-06,2.125000e-02
-3.327201e-06,-3.750000e-03
-3.319201e-06,2.500000e-02
-3.311201e-06,-2.000000e-02
-3.303201e-06,1.250000e-03
-3.295201e-06,-5.000000e-03
-3.287201e-06,5.000000e-03
-3.279201e-06,-2.125000e-02
-3.271201e-06,3.750000e-03
-3.263201e-06,-1.375000e-02
-3.255201e-06,2.125000e-02
-3.247201e-06,6.250000e-03
-3.239201e-06,2.625000e-02
-3.231201e-06,-1.750000e-02
-3.223201e-06,1.625000e-02
-3.215201e-06,-1.750000e-02
-3.207201e-06,1.625000e-02
-3.199201e-06,-3.750000e-03
-3.191201e-06,3.375000e-02
-3.183201e-06,-2.000000e-02
-3.175201e-06,1.250000e-02
-3.167201e-06,-6.250000e-03
-3.159201e-06,3.375000e-02
-3.151201e-06,-1.000000e-02
-3.143201e-06,1.375000e-02
-3.135201e-06,-1.250000e-02
-3.127201e-06,2.125000e-02
-3.119201e-06,-2.625000e-02
-3.111201e-06,-5.000000e-03
-3.103201e-06,-2.625000e-02
-3.095201e-06,1.875000e-02
-3.087201e-06,-2.375000e-02
-3.079201e-06,1.000000e-02
-3.071201e-06,-1.125000e-02
-3.063201e-06,2.125000e-02
-3.055201e-06,-1.750000e-02
-3.047201e-06,1.250000e-03
-3.039201e-06,-8.750000e-03
-3.031201e-06,1.000000e-02
-3.023201e-06,0.000000e+00
-3.015201e-06,3.250000e-02
-3.007201e-06,-1.625000e-02
-2.999201e-06,-5.000000e-03
-2.991201e-06,-3.750000e-03
-2.983201e-06,2.625000e-02
-2.975201e-06,-1.875000e-02
-2.967201e-06,3.750000e-03
-2.959201e-06,-1.375000e-02
-2.951201e-06,1.000000e-02
-2.943201e-06,-6.250000e-03
-2.935201e-06,5.000000e-03
-2.927201e-06,-3.000000e-02
-2.919201e-06,-2.500000e-03
-2.911201e-06,-8.750000e-03
-2.903201e-06,1.125000e-02
-2.895201e-06,-3.875000e-02
-2.887201e-06,2.375000e-02
-2.879201e-06,-4.250000e-02
-2.871201e-06,6.250000e-03
-2.863201e-06,-8.750000e-03
-2.855201e-06,6.250000e-03
-2.847201e-06,-8.750000e-03
-2.839201e-06,0.000000e+00
-2.831201e-06,-1.750000e-02
-2.823201e-06,3.750000e-03
-2.815201e-06,7.500000e-03
-2.807201e-06,2.375000e-02
-2.799201e-06,-2.250000e-02
-2.791201e-06,1.000000e-02
-2.783201e-06,-2.000000e-02
-2.775201e-06,1.250000e-02
-2.767201e-06,-2.625000e-02
-2.759201e-06,1.375000e-02
-2.751201e-06,-3.625000e-02
-2.743201e-06,1.375000e-02
-2.735201e-06,-3.250000e-02
-2.727201e-06,3.875000e-02
-2.719201e-06,-3.125000e-02
-2.711201e-06,2.750000e-02
-2.703201e-06,-3.750000e-03
-2.695201e-06,1.375000e-02
-2.687201e-06,-2.500000e-03
-2.679201e-06,3.375000e-02
-2.671201e-06,-8.750000e-03
-2.663201e-06,1.875000e-02
-2.655201e-06,-1.875000e-02
-2.647201e-06,-1.000000e-02
-2.639201e-06,-1.125000e-02
-2.631201e-06,-2.000000e-02
-2.623201e-06,-1.250000e-02
-2.615201e-06,8.750000e-03
-2.607201e-06,-1.125000e-02
-2.599201e-06,1.875000e-02
-2.591201e-06,-8.750000e-03
-2.583201e-06,2.125000e-02
-2.575201e-06,-1.625000e-02
-2.567201e-06,1.000000e-02
-2.559201e-06,6.250000e-03
-2.551201e-06,1.375000e-02
-2.543201e-06,-2.750000e-02
-2.535201e-06,1.750000e-02
-2.527201e-06,-1.250000e-02
-2.519201e-06,1.000000e-02
-2.511201e-06,-2.125000e-02
-2.503201e-06,2.000000e-02
-2.495201e-06,-6.250000e-03
-2.487201e-06,1.750000e-02
-2.479201e-06,-1.500000e-02
-2.471201e-06,2.250000e-02
-2.463201e-06,1.125000e-02
-2.455201e-06,3.500000e-02
-2.447201e-06,-1.250000e-02
-2.439201e-06,0.000000e+00
-2.431201e-06,-1.625000e-02
-2.423201e-06,8.750000e-03
-2.415201e-06,-1.375000e-02
-2.407201e-06,3.250000e-02
-2.399201e-06,-6.250000e-03
-2.391201e-06,1.250000e-02
-2.383201e-06,1.625000e-02
-2.375201e-06,-1.250000e-03
-2.367201e-06,-2.750000e-02
-2.359201e-06,2.500000e-02
-2.351201e-06,-8.750000e-03
-2.343201e-06,-7.500000e-03
-2.335201e-06,-2.625000e-02
-2.327201e-06,2.750000e-02
-2.319201e-06,-3.125000e-02
-2.311201e-06,8.750000e-03
-2.303201e-06,5.000000e-03
-2.295201e-06,2.500000e-03
-2.287201e-06,1.375000e-02
-2.279201e-06,1.125000e-02
-2.271201e-06,6.250000e-03
-2.263201e-06,1.750000e-02
-2.255201e-06,-1.750000e-02
-2.247201e-06,1.375000e-02
-2.239201e-06,-4.375000e-02
-2.231201e-06,2.875000e-02
-2.223201e-06,1.250000e-03
-2.215201e-06,7.500000e-03
-2.207201e-06,3.750000e-03
-2.199201e-06,3.000000e-02
-2.191201e-06,1.250000e-03
-2.183201e-06,8.750000e-03
-2.175201e-06,-1.000000e-02
-2.167201e-06,6.250000e-03
-2.159201e-06,-2.000000e-02
-2.151201e-06,3.750000e-03
-2.143201e-06,-2.500000e-03
-2.135201e-06,-2.500000e-03
-2.127201e-06,-1.125000e-02
-2.119201e-06,1.000000e-02
-2.111201e-06,-3.000000e-02
-2.103201e-06,2.500000e-02
-2.095201e-06,-2.375000e-02
-2.087201e-06,1.000000e-02
-2.079201e-06,3.750000e-03
-2.071201e-06,1.125000e-02
-2.063201e-06,-1.375000e-02
-2.055201e-06,-3.750000e-03
-2.047201e-06,1.250000e-03
-2.039201e-06,2.000000e-02
-2.031201e-06,-1.375000e-02
-2.023201e-06,3.750000e-03
-2.015201e-06,7.500000e-03
-2.007201e-06,3.750000e-03
-1.999201e-06,-1.000000e-02
-1.991201e-06,-1.250000e-02
-1.983201e-06,-3.500000e-02
-1.975201e-06,1.375000e-02
-1.967201e-06,-6.250000e-03
-1.959201e-06,1.250000e-02
-1.951201e-06,8.750000e-03
-1.943201e-06,2.000000e-02
-1.935201e-06,-4.125000e-02
-1.927201e-06,7.500000e-03
-1.919201e-06,-1.125000e-02
-1.911201e-06,3.750000e-03
-1.903201e-06,-2.250000e-02
-1.895201e-06,2.875000e-02
-1.887201e-06,-3.625000e-02
-1.879201e-06,8.750000e-03
-1.871201e-06,-1.375000e-02
-1.863201e-06,2.625000e-02
-1.855201e-06,-2.000000e-02
-1.847201e-06,1.875000e-02
-1.839201e-06,-2.125000e-02
-1.831201e-06,3.750000e-03
-1.823201e-06,-2.500000e-02
-1.815201e-06,0.000000e+00
-1.807201e-06,-2.000000e-02
-1.799201e-06,1.000000e-02
-1.791201e-06,-1.500000e-02
-1.783201e-06,2.500000e-03
-1.775201e-06,-1.250000e-02
-1.767201e-06,2.250000e-02
-1.759201e-06,-4.500000e-02
-1.751201e-06,2.750000e-02
-1.743201e-06,-2.750000e-02
-1.735201e-06,1.500000e-02
-1.727201e-06,-3.750000e-03
-1.719201e-06,1.750000e-02
-1.711201e-06,-8.750000e-03
-1.703201e-06,6.250000e-03
-1.695201e-06,-7.500000e-03
-1.687201e-06,2.625000e-02
-1.679201e-06,-1.625000e-02
-1.671201e-06,-7.500000e-03
-1.663201e-06,7.500000e-03
-1.655201e-06,5.000000e-03
-1.647201e-06,-3.750000e-03
-1.639201e-06,1.375000e-02
-1.631201e-06,-1.125000e-02
-1.623201e-06,2.125000e-02
-1.615201e-06,-2.625000e-02
-1.607201e-06,1.375000e-02
-1.599201e-06,-1.000000e-02
-1.591201e-06,7.500000e-03
-1.583201e-06,-2.750000e-02
-1.575201e-06,2.375000e-02
-1.567201e-06,-2.500000e-03
-1.559201e-06,-1.250000e-03
-1.551201e-06,1.000000e-02
-1.543201e-06,6.250000e-03
-1.535201e-06,-1.625000e-02
-1.527201e-06,1.875000e-02
-1.519201e-06,-1.125000e-02
-1.511201e-06,3.250000e-02
-1.503201e-06,-8.750000e-03
-1.495201e-06,0.000000e+00
-1.487201e-06,-4.250000e-02
-1.479201e-06,8.750000e-03
-1.471201e-06,-2.000000e-02
-1.463201e-06,8.750000e-03
-1.455201e-06,-6.250000e-03
-1.447201e-06,1.000000e-02
-1.439201e-06,-2.125000e-02
-1.431201e-06,2.500000e-03
-1.423201e-06,3.750000e-03
-1.415201e-06,4.375000e-02
-1.407201e-06,1.250000e-02
-1.399201e-06,2.625000e-02
-1.391201e-06,-6.250000e-03
-1.383201e-06,2.000000e-02
-1.375201e-06,-3.000000e-02
-1.367201e-06,-1.125000e-02
-1.359201e-06,-3.125000e-02
-1.351201e-06,1.875000e-02
-1.343201e-06,-3.000000e-02
-1.335201e-06,4.375000e-02
-1.327201e-06,-1.125000e-02
-1.319201e-06,5.000000e-03
-1.311201e-06,-2.000000e-02
-1.303201e-06,7.500000e-03
-1.295201e-06,-2.250000e-02
-1.287201e-06,-1.375000e-02
-1.279201e-06,-5.000000e-03
-1.271201e-06,1.750000e-02
-1.263201e-06,-2.375000e-02
-1.255201e-06,6.250000e-03
-1.247201e-06,-2.250000e-02
-1.239201e-06,1.375000e-02
-1.231201e-06,-2.125000e-02
-1.223201e-06,1.750000e-02
-1.215201e-06,-3.750000e-02
-1.207201e-06,2.500000e-03
-1.199201e-06,-3.500000e-02
-1.191201e-06,-8.750000e-03
-1.183201e-06,1.125000e-02
-1.175201e-06,2.000000e-02
-1.167201e-06,-3.000000e-02
-1.159201e-06,1.750000e-02
-1.151201e-06,-1.250000e-02
-1.143201e-06,2.375000e-02
-1.135201e-06,-2.000000e-02
-1.127201e-06,1.000000e-02
-1.119201e-06,-1.250000e-03
-1.111201e-06,2.500000e-03
-1.103201e-06,-1.875000e-02
-1.095201e-06,6.250000e-03
-1.087201e-06,-2.250000e-02
-1.079201e-06,1.500000e-02
-1.071201e-06,-1.625000e-02
-1.063201e-06,2.625000e-02
-1.055201e-06,-1.750000e-02
-1.047201e-06,1.000000e-02
-1.039201e-06,-1.000000e-02
-1.031201e-06,8.750000e-03
-1.023201e-06,3.750000e-03
-1.015201e-06,2.875000e-02
-1.007201e-06,-2.500000e-03
-9.992013e-07,1.250000e-02
-9.912013e-07,-2.125000e-02
-9.832013e-07,1.375000e-02
-9.752013e-07,-3.375000e-02
-9.672013e-07,1.375000e-02
-9.592013e-07,-5.000000e-03
-9.512013e-07,2.875000e-02
-9.432013e-07,-2.000000e-02
-9.352013e-07,-3.750000e-03
-9.272013e-07,-1.875000e-02
-9.192013e-07,3.000000e-02
-9.112013e-07,-1.500000e-02
-9.032013e-07,1.000000e-02
-8.952013e-07,1.125000e-02
-8.872013e-07,3.000000e-02
-8.792013e-07,-7.500000e-03
-8.712013e-07,8.750000e-03
-8.632013e-07,-5.000000e-03
-8.552013e-07,8.750000e-03
-8.472013e-07,-1.000000e-02
-8.392013e-07,1.250000e-02
-8.312013e-07,-2.375000e-02
-8.232013e-07,2.125000e-02
-8.152013e-07,-1.625000e-02
-8.072013e-07,2.625000e-02
-7.992013e-07,-1.125000e-02
-7.912013e-07,1.500000e-02
-7.832013e-07,-4.375000e-02
-7.752013e-07,-7.500000e-03
-7.672013e-07,-1.125000e-02
-7.592013e-07,3.000000e-02
-7.512013e-07,2.500000e-03
-7.432013e-07,-5.000000e-03
-7.352013e-07,-3.750000e-03
-7.272013e-07,1.125000e-02
-7.192013e-07,5.000000e-03
-7.112013e-07,2.375000e-02
-7.032013e-07,-2.750000e-02
-6.952013e-07,1.750000e-02
-6.872013e-07,1.250000e-03
-6.792013e-07,-1.250000e-03
-6.712013e-07,-2.125000e-02
-6.632013e-07,2.375000e-02
-6.552013e-07,-2.000000e-02
-6.472013e-07,1.625000e-02
-6.392013e-07,7.500000e-03
-6.312013e-07,2.500000e-03
-6.232013e-07,-2.000000e-02
-6.152013e-07,2.125000e-02
-6.072013e-07,-2.500000e-02
-5.992013e-07,-1.250000e-03
-5.912013e-07,-1.625000e-02
-5.832013e-07,3.125000e-02
-5.752013e-07,-3.000000e-02
-5.672013e-07,7.500000e-03
-5.592013e-07,-7.500000e-03
-5.512013e-07,1.250000e-03
-5.432013e-07,-2.375000e-02
-5.352013e-07,2.125000e-02
-5.272013e-07,-3.250000e-02
-5.192013e-07,1.750000e-02
-5.112013e-07,-2.375000e-02
-5.032013e-07,2.000000e-02
-4.952013e-07,-1.375000e-02
-4.872013e-07,1.250000e-02
-4.792013e-07,-1.625000e-02
-4.712013e-07,1.375000e-02
-4.632013e-07,-1.875000e-02
-4.552013e-07,1.625000e-02
-4.472013e-07,-1.875000e-02
-4.392013e-07,3.375000e-02
-4.312013e-07,6.250000e-03
-4.232013e-07,5.000000e-03
-4.152013e-07,-1.125000e-02
-4.072013e-07,1.875000e-02
-3.992013e-07,-1.125000e-02
-3.912013e-07,-1.250000e-03
-3.832013e-07,-1.625000e-02
-3.752013e-07,2.500000e-02
-3.672013e-07,-2.500000e-02
-3.592013e-07,1.375000e-02
-3.512013e-07,-1.750000e-02
-3.432013e-07,2.375000e-02
-3.352013e-07,-3.000000e-02
-3.272013e-07,-1.250000e-03
-3.192013e-07,-1.250000e-02
-3.112013e-07,1.125000e-02
-3.032013e-07,-2.125000e-02
-2.952013e-07,1.875000e-02
-2.872013e-07,3.750000e-03
-2.792013e-07,1.875000e-02
-2.712013e-07,-1.375000e-02
-2.632013e-07,1.625000e-02
-2.552013e-07,-1.000000e-02
-2.472013e-07,1.625000e-02
-2.392013e-07,-1.250000e-03
-2.312013e-07,-2.500000e-03
-2.232013e-07,-1.750000e-02
-2.152013e-07,2.375000e-02
-2.072013e-07,-6.250000e-03
-1.992013e-07,2.875000e-02
-1.912013e-07,-2.750000e-02
-1.832013e-07,8.750000e-03
-1.752013e-07,-2.250000e-02
-1.672013e-07,6.250000e-03
-1.592013e-07,-1.625000e-02
-1.512013e-07,1.750000e-02
-1.432013e-07,3.750000e-03
-1.352013e-07,1.875000e-02
-1.272013e-07,2.125000e-02
-1.192013e-07,7.500000e-03
-1.112013e-07,-1.750000e-02
-1.032013e-07,2.500000e-03
-9.520125e-08,-8.750000e-03
-8.720125e-08,2.500000e-03
-7.920125e-08,-4.625000e-02
-7.120125e-08,1.625000e-02
-6.320125e-08,-2.250000e-02
-5.520125e-08,2.250000e-02
-4.720125e-08,-1.000000e-02
-3.920125e-08,1.125000e-02
-3.120125e-08,-1.625000e-02
-2.320125e-08,3.750000e-03
-1.520125e-08,-2.375000e-02
-7.201250e-09,2.500000e-03
7.987500e-10,-6.062500e-01
8.798750e-09,-1.385000e+00
1.679875e-08,-1.413750e+00
2.479875e-08,-1.392500e+00
3.279875e-08,-3.750000e-02
4.079875e-08,0.000000e+00
4.879875e-08,-1.250000e-03
5.679875e-08,3.500000e-02
6.479875e-08,-2.625000e-02
7.279875e-08,0.000000e+00
8.079875e-08,-2.500000e-02
8.879875e-08,7.500000e-03
9.679875e-08,2.500000e-03
1.047987e-07,-5.000000e-03
1.127987e-07,-2.500000e-02
1.207987e-07,6.250000e-03
1.287987e-07,-6.250000e-03
1.367987e-07,6.250000e-03
1.447987e-07,-1.000000e-02
1.527987e-07,5.000000e-03
1.607987e-07,-2.500000e-02
1.687987e-07,-3.750000e-03
1.767987e-07,-3.250000e-02
1.847987e-07,1.500000e-02
1.927987e-07,-5.000000e-03
2.007987e-07,1.500000e-02
2.087987e-07,1.250000e-03
2.167987e-07,8.750000e-03
2.247987e-07,1.250000e-03
2.327987e-07,2.250000e-02
2.407987e-07,-1.000000e-02
2.487987e-07,2.250000e-02
2.567987e-07,8.750000e-03
2.647987e-07,3.875000e-02
2.727987e-07,2.000000e-02
2.807987e-07,1.125000e-02
2.887987e-07,2.500000e-03
2.967987e-07,2.125000e-02
3.047987e-07,-1.875000e-02
3.127987e-07,2.750000e-02
3.207987e-07,-3.000000e-02
3.287987e-07,1.875000e-02
3.367987e-07,-3.125000e-02
3.447987e-07,2.375000e-02
3.527987e-07,6.250000e-03
3.607987e-07,4.250000e-02
3.687987e-07,-1.125000e-02
3.767987e-07,-5.000000e-03
3.847987e-07,-1.250000e-02
3.927987e-07,1.125000e-02
4.007987e-07,-2.250000e-02
4.087987e-07,2.250000e-02
4.167987e-07,-1.250000e-02
4.247987e-07,2.375000e-02
4.327987e-07,-3.625000e-02
4.407987e-07,2.375000e-02
4.487987e-07,-2.250000e-02
4.567987e-07,2.625000e-02
4.647987e-07,-1.625000e-02
4.727987e-07,2.000000e-02
4.807987e-07,1.375000e-02
4.887988e-07,3.250000e-02
4.967987e-07,-3.875000e-02
5.047987e-07,2.750000e-02
5.127988e-07,-1.625000e-02
5.207987e-07,-1.250000e-03
5.287987e-07,-8.750000e-03
5.367988e-07,6.250000e-03
5.447987e-07,-1.625000e-02
5.527987e-07,2.375000e-02
5.607988e-07,-1.250000e-02
5.687987e-07,1.375000e-02
5.767987e-07,-6.250000e-03
5.847988e-07,1.125000e-02
5.927987e-07,-6.250000e-03
6.007987e-07,2.500000e-03
6.087988e-07,-1.250000e-03
6.167987e-07,0.000000e+00
6.247987e-07,-2.250000e-02
6.327987e-07,1.375000e-02
6.407987e-07,-3.750000e-03
6.487987e-07,2.375000e-02
6.567987e-07,-1.375000e-02
6.647987e-07,1.500000e-02
6.727987e-07,-2.375000e-02
6.807987e-07,5.000000e-03
6.887987e-07,-2.250000e-02
6.967987e-07,1.000000e-02
7.047987e-07,-1.625000e-02
7.127987e-07,4.375000e-02
7.207987e-07,-1.250000e-03
7.287987e-07,1.625000e-02
7.367987e-07,-2.500000e-02
7.447987e-07,3.250000e-02
7.527987e-07,-1.375000e-02
7.607988e-07,1.500000e-02
7.687987e-07,-1.750000e-02
7.767987e-07,2.375000e-02
7.847988e-07,-6.250000e-03
7.927987e-07,2.000000e-02
8.007987e-07,-3.125000e-02
