run1/run1_ch1_20210318180221921.csv

Model,MSO64
Waveform Type,ANALOG
Horizontal Units,s
Sample Interval,8.000000e-09
Record Length,1250
Zero Index,624.322656
Vertical Units,V

TIME,CH1
-4.994581e-06,8.750000e-03
-4.986581e-06,-3.000000e-02
-4.978581e-06,1.250000e-02
-4.970581e-06,-1.750000e-02
-4.962581e-06,2.375000e-02
-4.954581e-06,-1.125000e-02
-4.946581e-06,2.500000e-03
-4.938581e-06,2.500000e-03
-4.930581e-06,1.250000e-02
-4.922581e-06,-2.125000e-02
-4.914581e-06,2.250000e-02
-4.906581e-06,-6.250000e-03
-4.898581e-06,-2.500000e-03
-4.890581e-06,1.250000e-03
-4.882581e-06,2.125000e-02
-4.874581e-06,-1.250000e-02
-4.866581e-06,1.750000e-02
-4.858581e-06,-2.000000e-02
-4.850581e-06,3.750000e-03
-4.842581e-06,-4.000000e-02
-4.834581e-06,2.000000e-02
-4.826581e-06,0.000000e+00
-4.818581e-06,2.125000e-02
-4.810581e-06,-5.000000e-03
-4.802581e-06,3.250000e-02
-4.794581e-06,8.750000e-03
-4.786581e-06,2.500000e-03
-4.778581e-06,-1.375000e-02
-4.770581e-06,2.125000e-02
-4.762581e-06,1.250000e-03
-4.754581e-06,2.000000e-02
-4.746581e-06,-2.000000e-02
-4.738581e-06,1.250000e-02
-4.730581e-06,-2.375000e-02
-4.722581e-06,8.750000e-03
-4.714581e-06,-7.500000e-03
-4.706581e-06,1.375000e-02
-4.698581e-06,-2.500000e-03
-4.690581e-06,2.000000e-02
-4.682581e-06,-1.375000e-02
-4.674581e-06,2.000000e-02
-4.666581e-06,-6.250000e-03
-4.658581e-06,1.375000e-02
-4.650581e-06,7.500000e-03
-4.642581e-06,1.625000e-02
-4.634581e-06,-1.125000e-02
-4.626581e-06,2.000000e-02
-4.618581e-06,1.000000e-02
-4.610581e-06,-3.750000e-03
-4.602581e-06,-5.000000e-03
-4.594581e-06,2.500000e-03
-4.586581e-06,-1.375000e-02
-4.578581e-06,6.250000e-03
-4.570581e-06,-2.125000e-02
-4.562581e-06,5.000000e-03
-4.554581e-06,-1.125000e-02
-4.546581e-06,1.875000e-02
-4.538581e-06,-2.000000e-02
-4.530581e-06,1.875000e-02
-4.522581e-06,-1.250000e-03
-4.514581e-06,6.250000e-03
-4.506581e-06,-3.750000e-03
-4.498581e-06,1.750000e-02
-4.490581e-06,-2.125000e-02
-4.482581e-06,1.500000e-02
-4.474581e-06,-1.000000e-02
-4.466581e-06,-3.750000e-03
-4.458581e-06,-1.875000e-02
-4.450581e-06,2.250000e-02
-4.442581e-06,-6.250000e-03
-4.434581e-06,2.250000e-02
-4.426581e-06,2.500000e-03
-4.418581e-06,1.125000e-02
-4.410581e-06,2.500000e-03
-4.402581e-06,-7.500000e-03
-4.394581e-06,2.625000e-02
-4.386581e-06,1.125000e-02
-4.378581e-06,-5.000000e-03
-4.370581e-06,1.000000e-02
-4.362581e-06,-4.000000e-02
-4.354581e-06,5.000000e-03
-4.346581e-06,-2.125000e-02
-4.338581e-06,1.500000e-02
-4.330581e-06,-8.750000e-03
-4.322581e-06,2.750000e-02
-4.314581e-06,-2.000000e-02
-4.306581e-06,2.750000e-02
-4.298581e-06,-1.750000e-02
-4.290581e-06,2.500000e-03
-4.282581e-06,-2.750000e-02
-4.274581e-06,1.625000e-02
-4.266581e-06,-7.500000e-03
-4.258581e-06,-3.750000e-03
-4.250581e-06,3.750000e-03
-4.242581e-06,2.125000e-02
-4.234581e-06,-3.125000e-02
-4.226581e-06,1.375000e-02
-4.218581e-06,-6.250000e-03
-4.210581e-06,1.000000e-02
-4.202581e-06,-3.000000e-02
-4.194581e-06,3.375000e-02
-4.186581e-06,-1.250000e-02
-4.178581e-06,1.875000e-02
-4.170581e-06,-1.500000e-02
-4.162581e-06,1.375000e-02
-4.154581e-06,-1.625000e-02
-4.146581e-06,7.500000e-03
-4.138581e-06,-1.000000e-02
-4.130581e-06,4.375000e-02
-4.122581e-06,-1.375000e-02
-4.114581e-06,1.250000e-02
-4.106581e-06,1.250000e-02
-4.098581e-06,2.375000e-02
-4.090581e-06,-2.000000e-02
-4.082581e-06,1.750000e-02
-4.074581e-06,-1.500000e-02
-4.066581e-06,3.750000e-03
-4.058581e-06,1.375000e-02
-4.050581e-06,0.000000e+00
-4.042581e-06,0.000000e+00
-4.034581e-06,2.500000e-02
-4.026581e-06,-1.375000e-02
-4.018581e-06,2.375000e-02
-4.010581e-06,0.000000e+00
-4.002581e-06,1.750000e-02
-3.994581e-06,-1.125000e-02
-3.986581e-06,1.000000e-02
-3.978581e-06,-7.500000e-03
-3.970581e-06,2.125000e-02
-3.962581e-06,-2.250000e-02
-3.954581e-06,8.750000e-03
-3.946581e-06,-2.375000e-02
-3.938581e-06,2.500000e-02
-3.930581e-06,-2.125000e-02
-3.922581e-06,-8.750000e-03
-3.914581e-06,-2.250000e-02
-3.906581e-06,3.250000e-02
-3.898581e-06,-2.250000e-02
-3.890581e-06,1.250000e-02
-3.882581e-06,-2.500000e-03
-3.874581e-06,1.625000e-02
-3.866581e-06,-2.625000e-02
-3.858581e-06,0.000000e+00
-3.850581e-06,0.000000e+00
-3.842581e-06,2.250000e-02
-3.834581e-06,-3.625000e-02
-3.826581e-06,2.250000e-02
-3.818581e-06,-6.250000e-03
-3.810581e-06,3.125000e-02
-3.802581e-06,-2.125000e-02
-3.794581e-06,2.375000e-02
-3.786581e-06,-1.750000e-02
-3.778581e-06,1.125000e-02
-3.770581e-06,-1.000000e-02
-3.762581e-06,2.625000e-02
-3.754581e-06,1.125000e-02
-3.746581e-06,1.750000e-02
-3.738581e-06,-2.625000e-02
-3.730581e-06,2.250000e-02
-3.722581e-06,-2.875000e-02
-3.714581e-06,-1.250000e-03
-3.706581e-06,-3.750000e-03
-3.698581e-06,1.625000e-02
-3.690581e-06,-3.000000e-02
-3.682581e-06,2.500000e-02
-3.674581e-06,3.750000e-03
-3.666581e-06,1.500000e-02
-3.658581e-06,-3.125000e-02
-3.650581e-06,1.375000e-02
-3.642581e-06,-1.125000e-02
-3.634581e-06,2.500000e-03
-3.626581e-06,-1.500000e-02
-3.618581e-06,2.625000e-02
-3.610581e-06,0.000000e+00
-3.602581e-06,3.750000e-03
-3.594581e-06,-1.500000e-02
-3.586581e-06,6.250000e-03
-3.578581e-06,-3.000000e-02
-3.570581e-06,2.000000e-02
-3.562581e-06,-1.750000e-02
-3.554581e-06,2.875000e-02
-3.546581e-06,-2.000000e-02
-3.538581e-06,1.375000e-02
-3.530581e-06,-1.500000e-02
-3.522581e-06,-3.750000e-03
-3.514581e-06,-1.000000e-02
-3.506581e-06,7.500000e-03
-3.498581e-06,-1.750000e-02
-3.490581e-06,1.875000e-02
-3.482581e-06,-1.375000e-02
-3.474581e-06,2.500000e-02
-3.466581e-06,1.250000e-03
-3.458581e-06,-1.000000e-02
-3.450581e-06,-3.000000e-02
-3.442581e-06,1.375000e-02
-3.434581e-06,-2.500000e-02
-3.426581e-06,2.500000e-03
-3.418581e-06,-7.500000e-03
-3.410581e-06,1.250000e-02
-3.402581e-06,-2.500000e-02
-3.394581e-06,1.875000e-02
-3.386581e-06,-1.250000e-02
-3.378581e-06,1.500000e-02
-3.370581e-06,-8.750000e-03
-3.362581e-06,8.750000e-03
-3.354581e-06,6.250000e-03
-3.346581e-06,2.500000e-02
-3.338581e-06,-1.125000e-02
-3.330581e-06,1.625000e-02
-3.322581e-06,-1.250000e-02
-3.314581e-06,7.500000e-03
-3.306581e-06,-1.125000e-02
-3.298581e-06,6.250000e-03
-3.290581e-06,2.500000e-03
-3.282581e-06,2.000000e-02
-3.274581e-06,-1.000000e-02
-3.266581e-06,3.625000e-02
-3.258581e-06,-3.375000e-02
-3.250581e-06,1.750000e-02
-3.242581e-06,7.500000e-03
-3.234581e-06,2.500000e-02
-3.226581e-06,-7.500000e-03
-3.218581e-06,1.875000e-02
-3.210581e-06,-1.625000e-02
-3.202581e-06,3.750000e-03
-3.194581e-06,-2.250000e-02
-3.186581e-06,2.000000e-02
-3.178581e-06,-3.500000e-02
-3.170581e-06,1.625000e-02
-3.162581e-06,1.125000e-02
-3.154581e-06,7.500000e-03
-3.146581e-06,-2.125000e-02
-3.138581e-06,7.500000e-03
-3.130581e-06,-2.125000e-02
-3.122581e-06,1.125000e-02
-3.114581e-06,-2.250000e-02
-3.106581e-06,2.625000e-02
-3.098581e-06,-1.250000e-02
-3.090581e-06,2.250000e-02
-3.082581e-06,-1.375000e-02
-3.074581e-06,-6.250000e-03
-3.066581e-06,-2.250000e-02
-3.058581e-06,-5.000000e-03
-3.050581e-06,-3.250000e-02
-3.042581e-06,2.125000e-02
-3.034581e-06,-1.625000e-02
-3.026581e-06,2.000000e-02
-3.018581e-06,-2.500000e-03
-3.010581e-06,1.625000e-02
-3.002581e-06,-1.625000e-02
-2.994581e-06,3.250000e-02
-2.986581e-06,-1.000000e-02
-2.978581e-06,2.625000e-02
-2.970581e-06,-1.875000e-02
-2.962581e-06,1.000000e-02
-2.954581e-06,-5.000000e-03
-2.946581e-06,1.125000e-02
-2.938581e-06,1.250000e-03
-2.930581e-06,6.250000e-03
-2.922581e-06,-2.625000e-02
-2.914581e-06,1.875000e-02
-2.906581e-06,-1.875000e-02
-2.898581e-06,-1.250000e-03
-2.890581e-06,-8.750000e-03
-2.882581e-06,1.250000e-02
-2.874581e-06,-3.000000e-02
-2.866581e-06,-2.500000e-03
-2.858581e-06,-1.750000e-02
-2.850581e-06,7.500000e-03
-2.842581e-06,-3.125000e-02
-2.834581e-06,2.125000e-02
-2.826581e-06,-1.250000e-03
-2.818581e-06,1.625000e-02
-2.810581e-06,-1.625000e-02
-2.802581e-06,2.125000e-02
-2.794581e-06,-2.875000e-02
-2.786581e-06,3.625000e-02
-2.778581e-06,-1.375000e-02
-2.770581e-06,1.250000e-02
-2.762581e-06,-2.500000e-03
-2.754581e-06,1.125000e-02
-2.746581e-06,-6.250000e-03
-2.738581e-06,-2.000000e-02
-2.730581e-06,2.125000e-02
-2.722581e-06,2.625000e-02
-2.714581e-06,-2.750000e-02
-2.706581e-06,2.000000e-02
-2.698581e-06,-6.250000e-03
-2.690581e-06,0.000000e+00
-2.682581e-06,-1.875000e-02
-2.674581e-06,2.375000e-02
-2.666581e-06,-2.375000e-02
-2.658581e-06,1.250000e-03
-2.650581e-06,-7.500000e-03
-2.642581e-06,1.625000e-02
-2.634581e-06,-6.250000e-03
-2.626581e-06,2.500000e-02
-2.618581e-06,6.250000e-03
-2.610581e-06,1.625000e-02
-2.602581e-06,1.250000e-03
-2.594581e-06,5.000000e-03
-2.586581e-06,8.750000e-03
-2.578581e-06,1.000000e-02
-2.570581e-06,-2.250000e-02
-2.562581e-06,1.500000e-02
-2.554581e-06,-7.500000e-03
-2.546581e-06,1.375000e-02
-2.538581e-06,-3.000000e-02
-2.530581e-06,1.625000e-02
-2.522581e-06,0.000000e+00
-2.514581e-06,1.375000e-02
-2.506581e-06,-2.000000e-02
-2.498581e-06,1.000000e-02
-2.490581e-06,-5.000000e-03
-2.482581e-06,2.000000e-02
-2.474581e-06,0.000000e+00
-2.466581e-06,2.625000e-02
-2.458581e-06,-2.375000e-02
-2.450581e-06,1.000000e-02
-2.442581e-06,-5.000000e-03
-2.434581e-06,1.125000e-02
-2.426581e-06,-2.125000e-02
-2.418581e-06,8.750000e-03
-2.410581e-06,-1.500000e-02
-2.402581e-06,6.250000e-03
-2.394581e-06,5.000000e-03
-2.386581e-06,1.500000e-02
-2.378581e-06,-1.500000e-02
-2.370581e-06,-2.500000e-03
-2.362581e-06,-1.875000e-02
-2.354581e-06,2.500000e-03
-2.346581e-06,-1.250000e-03
-2.338581e-06,1.000000e-02
-2.330581e-06,1.250000e-02
-2.322581e-06,2.375000e-02
-2.314581e-06,-1.875000e-02
-2.306581e-06,3.125000e-02
-2.298581e-06,-2.125000e-02
-2.290581e-06,2.250000e-02
-2.282581e-06,-3.375000e-02
-2.274581e-06,1.750000e-02
-2.266581e-06,0.000000e+00
-2.258581e-06,1.000000e-02
-2.250581e-06,5.000000e-03
-2.242581e-06,5.000000e-03
-2.234581e-06,-1.250000e-02
-2.226581e-06,7.500000e-03
-2.218581e-06,1.500000e-02
-2.210581e-06,7.500000e-03
-2.202581e-06,-1.000000e-02
-2.194581e-06,1.750000e-02
-2.186581e-06,-1.000000e-02
-2.178581e-06,1.375000e-02
-2.170581e-06,-8.750000e-03
-2.162581e-06,2.125000e-02
-2.154581e-06,-1.750000e-02
-2.146581e-06,0.000000e+00
-2.138581e-06,2.500000e-03
-2.130581e-06,-2.500000e-03
-2.122581e-06,-1.500000e-02
-2.114581e-06,-2.500000e-03
-2.106581e-06,-2.250000e-02
-2.098581e-06,2.500000e-03
-2.090581e-06,3.750000e-03
-2.082581e-06,1.250000e-02
-2.074581e-06,-3.750000e-03
-2.066581e-06,-5.000000e-03
-2.058581e-06,-6.250000e-03
-2.050581e-06,-1.375000e-02
-2.042581e-06,-1.500000e-02
-2.034581e-06,2.250000e-02
-2.026581e-06,-1.375000e-02
-2.018581e-06,7.500000e-03
-2.010581e-06,-5.000000e-03
-2.002581e-06,1.625000e-02
-1.994581e-06,-5.000000e-03
-1.986581e-06,-8.750000e-03
-1.978581e-06,3.750000e-03
-1.970581e-06,1.625000e-02
-1.962581e-06,-5.000000e-03
-1.954581e-06,3.625000e-02
-1.946581e-06,-8.750000e-03
-1.938581e-06,1.625000e-02
-1.930581e-06,-1.250000e-02
-1.922581e-06,-1.250000e-03
-1.914581e-06,-6.250000e-03
-1.906581e-06,1.375000e-02
-1.898581e-06,5.000000e-03
-1.890581e-06,6.250000e-03
-1.882581e-06,-8.750000e-03
-1.874581e-06,-1.250000e-02
-1.866581e-06,-8.750000e-03
-1.858581e-06,1.250000e-03
-1.850581e-06,-1.750000e-02
-1.842581e-06,3.750000e-03
-1.834581e-06,-3.750000e-03
-1.826581e-06,1.000000e-02
-1.818581e-06,-2.375000e-02
-1.810581e-06,7.500000e-03
-1.802581e-06,-1.250000e-03
-1.794581e-06,1.875000e-02
-1.786581e-06,-2.000000e-02
-1.778581e-06,2.500000e-03
-1.770581e-06,-2.125000e-02
-1.762581e-06,3.000000e-02
-1.754581e-06,5.000000e-03
-1.746581e-06,1.375000e-02
-1.738581e-06,1.250000e-03
-1.730581e-06,1.250000e-03
-1.722581e-06,-2.625000e-02
-1.714581e-06,1.250000e-03
-1.706581e-06,-1.000000e-02
-1.698581e-06,1.875000e-02
-1.690581e-06,-7.500000e-03
-1.682581e-06,1.250000e-02
-1.674581e-06,3.750000e-03
-1.666581e-06,1.250000e-03
-1.658581e-06,-1.750000e-02
-1.650581e-06,1.000000e-02
-1.642581e-06,-3.125000e-02
-1.634581e-06,0.000000e+00
-1.626581e-06,-1.250000e-03
-1.618581e-06,1.250000e-02
-1.610581e-06,1.000000e-02
-1.602581e-06,1.750000e-02
-1.594581e-06,-1.250000e-03
-1.586581e-06,1.375000e-02
-1.578581e-06,1.375000e-02
-1.570581e-06,1.875000e-02
-1.562581e-06,-6.250000e-03
-1.554581e-06,1.625000e-02
-1.546581e-06,-1.375000e-02
-1.538581e-06,2.500000e-03
-1.530581e-06,-8.750000e-03
-1.522581e-06,-1.250000e-03
-1.514581e-06,-3.375000e-02
-1.506581e-06,1.000000e-02
-1.498581e-06,-2.500000e-03
-1.490581e-06,1.250000e-02
-1.482581e-06,-2.750000e-02
-1.474581e-06,1.000000e-02
-1.466581e-06,-6.250000e-03
-1.458581e-06,5.000000e-03
-1.450581e-06,-1.000000e-02
-1.442581e-06,3.875000e-02
-1.434581e-06,-2.125000e-02
-1.426581e-06,2.750000e-02
-1.418581e-06,-1.125000e-02
-1.410581e-06,1.000000e-02
-1.402581e-06,1.000000e-02
-1.394581e-06,-8.750000e-03
-1.386581e-06,-2.750000e-02
-1.378581e-06,2.500000e-02
-1.370581e-06,-7.500000e-03
-1.362581e-06,6.250000e-03
-1.354581e-06,-2.125000e-02
-1.346581e-06,-5.000000e-03
-1.338581e-06,3.750000e-03
-1.330581e-06,1.000000e-02
-1.322581e-06,1.125000e-02
-1.314581e-06,5.000000e-03
-1.306581e-06,-1.750000e-02
-1.298581e-06,2.000000e-02
-1.290581e-06,8.750000e-03
-1.282581e-06,1.125000e-02
-1.274581e-06,-1.000000e-02
-1.266581e-06,3.250000e-02
-1.258581e-06,-4.625000e-02
-1.250581e-06,1.250000e-02
-1.242581e-06,0.000000e+00
-1.234581e-06,3.000000e-02
-1.226581e-06,-3.500000e-02
-1.218581e-06,1.125000e-02
-1.210581e-06,-1.500000e-02
-1.202581e-06,-1.125000e-02
-1.194581e-06,-1.750000e-02
-1.186581e-06,4.000000e-02
-1.178581e-06,-2.250000e-02
-1.170581e-06,1.750000e-02
-1.162581e-06,-1.000000e-02
-1.154581e-06,7.500000e-03
-1.146581e-06,-3.750000e-02
-1.138581e-06,2.375000e-02
-1.130581e-06,-3.750000e-03
-1.122581e-06,3.750000e-03
-1.114581e-06,-6.250000e-03
-1.106581e-06,8.750000e-03
-1.098581e-06,-1.250000e-03
-1.090581e-06,0.000000e+00
-1.082581e-06,2.500000e-03
-1.074581e-06,7.500000e-03
-1.066581e-06,1.000000e-02
-1.058581e-06,2.250000e-02
-1.050581e-06,1.250000e-02
-1.042581e-06,2.375000e-02
-1.034581e-06,3.750000e-03
-1.026581e-06,3.000000e-02
-1.018581e-06,-1.125000e-02
-1.010581e-06,1.250000e-02
-1.002581e-06,-2.125000e-02
-9.945813e-07,1.750000e-02
-9.865813e-07,-2.750000e-02
-9.785813e-07,6.250000e-03
-9.705813e-07,1.250000e-03
-9.625813e-07,1.750000e-02
-9.545813e-07,-1.625000e-02
-9.465813e-07,2.000000e-02
-9.385813e-07,-3.750000e-03
-9.305813e-07,1.750000e-02
-9.225813e-07,-1.000000e-02
-9.145813e-07,-3.750000e-03
-9.065813e-07,-1.250000e-03
-8.985813e-07,3.750000e-03
-8.905813e-07,-5.000000e-03
-8.825813e-07,3.750000e-03
-8.745813e-07,-1.125000e-02
-8.665813e-07,3.875000e-02
-8.585813e-07,-3.375000e-02
-8.505813e-07,3.750000e-03
-8.425813e-07,-2.250000e-02
-8.345813e-07,8.750000e-03
-8.265813e-07,-1.000000e-02
-8.185813e-07,1.125000e-02
-8.105813e-07,-1.750000e-02
-8.025813e-07,5.000000e-03
-7.945813e-07,-1.625000e-02
-7.865813e-07,2.500000e-02
-7.785813e-07,-1.625000e-02
-7.705813e-07,2.500000e-03
-7.625813e-07,-2.125000e-02
-7.545813e-07,1.875000e-02
-7.465813e-07,-1.000000e-02
-7.385813e-07,1.875000e-02
-7.305813e-07,-1.625000e-02
-7.225813e-07,1.375000e-02
-7.145813e-07,-1.875000e-02
-7.065813e-07,2.625000e-02
-6.985813e-07,-2.625000e-02
-6.905813e-07,3.750000e-03
-6.825813e-07,-1.250000e-02
-6.745813e-07,1.500000e-02
-6.665813e-07,-1.125000e-02
-6.585813e-07,2.000000e-02
-6.505813e-07,-2.000000e-02
-6.425813e-07,2.500000e-02
-6.345813e-07,-2.500000e-02
-6.265813e-07,1.250000e-03
-6.185813e-07,-1.625000e-02
-6.105813e-07,2.125000e-02
-6.025813e-07,-3.000000e-02
-5.945813e-07,8.750000e-03
-5.865813e-07,-2.875000e-02
-5.785813e-07,2.500000e-03
-5.705813e-07,-5.000000e-03
-5.625813e-07,5.000000e-03
-5.545813e-07,-1.125000e-02
-5.465813e-07,1.875000e-02
-5.385813e-07,-1.750000e-02
-5.305813e-07,1.375000e-02
-5.225813e-07,-1.000000e-02
-5.145813e-07,6.250000e-03
-5.065813e-07,-1.750000e-02
-4.985813e-07,1.125000e-02
-4.905813e-07,-3.250000e-02
-4.825813e-07,1.250000e-02
-4.745813e-07,7.500000e-03
-4.665813e-07,1.250000e-03
-4.585813e-07,-1.000000e-02
-4.505813e-07,2.125000e-02
-4.425813e-07,-1.625000e-02
-4.345813e-07,6.250000e-03
-4.265813e-07,-3.750000e-03
-4.185813e-07,1.000000e-02
-4.105813e-07,-1.125000e-02
-4.025813e-07,1.375000e-02
-3.945813e-07,-6.250000e-03
-3.865813e-07,6.250000e-03
-3.785813e-07,-2.875000e-02
-3.705813e-07,2.500000e-02
-3.625813e-07,-1.000000e-02
-3.545813e-07,1.125000e-02
-3.465813e-07,-3.625000e-02
-3.385813e-07,1.250000e-02
-3.305813e-07,-1.000000e-02
-3.225813e-07,-5.000000e-03
-3.145813e-07,-2.250000e-02
-3.065813e-07,1.250000e-03
-2.985813e-07,1.125000e-02
-2.905813e-07,2.125000e-02
-2.825813e-07,-2.500000e-02
-2.745813e-07,1.500000e-02
-2.665813e-07,-1.000000e-02
-2.585813e-07,-7.500000e-03
-2.505813e-07,-3.000000e-02
-2.425813e-07,2.000000e-02
-2.345813e-07,-2.500000e-02
-2.265813e-07,1.625000e-02
-2.185813e-07,2.500000e-03
-2.105813e-07,8.750000e-03
-2.025813e-07,-3.250000e-02
-1.945813e-07,-1.250000e-03
-1.865813e-07,-2.000000e-02
-1.785813e-07,1.250000e-02
-1.705813e-07,5.000000e-03
-1.625813e-07,8.750000e-03
-1.545813e-07,5.000000e-03
-1.465813e-07,1.375000e-02
-1.385813e-07,-1.250000e-03
-1.305813e-07,1.500000e-02
-1.225813e-07,-2.625000e-02
-1.145813e-07,1.000000e-02
-1.065813e-07,-1.500000e-02
-9.858125e-08,1.000000e-02
-9.058125e-08,-1.375000e-02
-8.258125e-08,-6.250000e-03
-7.458125e-08,-1.375000e-02
-6.658125e-08,1.500000e-02
-5.858125e-08,-2.500000e-02
-5.058125e-08,1.750000e-02
-4.258125e-08,-1.500000e-02
-3.458125e-08,-1.195000e+00
-2.658125e-08,-1.422500e+00
-1.858125e-08,-1.408750e+00
-1.058125e-08,-1.428750e+00
-2.581250e-09,-6.250000e-03
5.418750e-09,-1.500000e-02
1.341875e-08,3.125000e-02
2.141875e-08,-2.000000e-02
2.941875e-08,2.625000e-02
3.741875e-08,7.500000e-03
4.541875e-08,-5.000000e-03
5.341875e-08,-3.500000e-02
6.141875e-08,5.000000e-03
6.941875e-08,-1.000000e-02
7.741875e-08,1.625000e-02
8.541875e-08,1.750000e-02
9.341875e-08,6.250000e-03
1.014187e-07,-7.500000e-03
1.094187e-07,1.250000e-03
1.174187e-07,5.000000e-03
1.254187e-07,-1.375000e-02
1.334187e-07,-5.000000e-03
1.414187e-07,1.250000e-03
1.494187e-07,-2.000000e-02
1.574187e-07,3.750000e-02
1.654187e-07,5.000000e-03
1.734187e-07,7.500000e-03
1.814187e-07,-2.750000e-02
1.894187e-07,0.000000e+00
1.974187e-07,-1.125000e-02
2.054187e-07,2.250000e-02
2.134187e-07,5.000000e-03
2.214187e-07,2.375000e-02
2.294187e-07,-1.250000e-03
2.374187e-07,2.500000e-03
2.454187e-07,2.500000e-03
2.534187e-07,3.750000e-02
2.614187e-07,-1.375000e-02
2.694187e-07,2.500000e-03
2.774187e-07,-1.125000e-02
2.854187e-07,1.875000e-02
2.934187e-07,-2.500000e-02
3.014187e-07,2.500000e-02
3.094187e-07,-6.250000e-03
3.174187e-07,-5.000000e-03
3.254187e-07,-3.250000e-02
3.334187e-07,-3.750000e-03
3.414187e-07,-1.375000e-02
3.494187e-07,1.000000e-02
3.574187e-07,-2.500000e-02
3.654187e-07,1.625000e-02
3.734187e-07,-1.500000e-02
3.814187e-07,6.250000e-03
3.894187e-07,-1.625000e-02
3.974187e-07,1.750000e-02
4.054187e-07,-1.000000e-02
4.134187e-07,2.125000e-02
4.214187e-07,-1.000000e-02
4.294187e-07,8.750000e-03
4.374187e-07,-1.000000e-02
4.454187e-07,3.125000e-02
4.534187e-07,-2.125000e-02
4.614187e-07,0.000000e+00
4.694187e-07,5.000000e-03
4.774187e-07,6.250000e-03
4.854187e-07,-8.750000e-03
4.934187e-07,3.500000e-02
5.014187e-07,7.500000e-03
5.094187e-07,1.250000e-02
5.174187e-07,-3.125000e-02
5.254187e-07,2.375000e-02
5.334187e-07,-1.375000e-02
5.414187e-07,1.125000e-02
5.494187e-07,-1.250000e-02
5.574187e-07,1.750000e-02
5.654187e-07,-6.250000e-03
5.734187e-07,1.750000e-02
5.814187e-07,-1.125000e-02
5.894187e-07,1.750000e-02
5.974187e-07,-2.625000e-02
6.054187e-07,3.750000e-03
6.134187e-07,-3.750000e-03
6.214187e-07,-7.500000e-03
6.294187e-07,1.625000e-02
6.374187e-07,-5.000000e-03
6.454187e-07,-4.500000e-02
6.534187e-07,-3.750000e-03
6.614187e-07,-2.500000e-02
6.694187e-07,8.750000e-03
6.774187e-07,-2.375000e-02
6.854187e-07,3.125000e-02
6.934187e-07,-1.250000e-03
7.014187e-07,6.250000e-03
7.094187e-07,-3.125000e-02
7.174187e-07,-8.750000e-03
7.254187e-07,-6.250000e-03
7.334187e-07,1.000000e-02
7.414187e-07,-3.125000e-02
7.494187e-07,1.250000e-03
7.574187e-07,-1.375000e-02
7.654187e-07,1.000000e-02
7.734187e-07,-2.875000e-02
7.814187e-07,7.500000e-03
7.894187e-07,-2.875000e-02
7.974187e-07,2.625000e-02
8.054187e-07,-1.000000e-02
