run1/run1_ch1_20210318180213036.csv

Model,MSO64
Waveform Type,ANALOG
Horizontal Units,s
Sample Interval,8.000000e-09
Record Length,1250
Zero Index,624.300000
Vertical Units,V

TIME,CH1
-4.994400e-06,-2.625000e-02
-4.986400e-06,1.000000e-02
-4.978400e-06,-2.375000e-02
-4.970400e-06,3.750000e-02
-4.962400e-06,6.250000e-03
-4.954400e-06,2.000000e-02
-4.946400e-06,-1.125000e-02
-4.938400e-06,2.250000e-02
-4.930400e-06,-2.500000e-02
-4.922400e-06,3.875000e-02
-4.914400e-06,-1.250000e-02
-4.906400e-06,2.750000e-02
-4.898400e-06,-1.125000e-02
-4.890400e-06,1.250000e-02
-4.882400e-06,2.500000e-03
-4.874400e-06,2.375000e-02
-4.866400e-06,-2.875000e-02
-4.858400e-06,1.250000e-03
-4.850400e-06,-1.875000e-02
-4.842400e-06,1.750000e-02
-4.834400e-06,-4.000000e-02
-4.826400e-06,1.750000e-02
-4.818400e-06,-1.125000e-02
-4.810400e-06,1.875000e-02
-4.802400e-06,-3.125000e-02
-4.794400e-06,3.625000e-02
-4.786400e-06,3.750000e-03
-4.778400e-06,5.000000e-03
-4.770400e-06,-7.500000e-03
-4.762400e-06,6.250000e-03
-4.754400e-06,-2.500000e-03
-4.746400e-06,-6.250000e-03
-4.738400e-06,-2.125000e-02
-4.730400e-06,-1.000000e-02
-4.722400e-06,-8.750000e-03
-4.714400e-06,1.625000e-02
-4.706400e-06,-1.375000e-02
-4.698400e-06,-7.500000e-03
-4.690400e-06,-5.000000e-03
-4.682400e-06,-2.500000e-03
-4.674400e-06,-5.000000e-03
-4.666400e-06,2.125000e-02
-4.658400e-06,-1.375000e-02
-4.650400e-06,2.375000e-02
-4.642400e-06,-2.625000e-02
-4.634400e-06,2.125000e-02
-4.626400e-06,-1.625000e-02
-4.618400e-06,1.875000e-02
-4.610400e-06,-4.875000e-02
-4.602400e-06,1.250000e-03
-4.594400e-06,-2.750000e-02
-4.586400e-06,2.000000e-02
-4.578400e-06,6.250000e-03
-4.570400e-06,-2.500000e-03
-4.562400e-06,-1.625000e-02
-4.554400e-06,1.500000e-02
-4.546400e-06,-2.000000e-02
-4.538400e-06,6.250000e-03
-4.530400e-06,-2.500000e-03
-4.522400e-06,1.250000e-02
-4.514400e-06,-1.125000e-02
-4.506400e-06,3.250000e-02
-4.498400e-06,-1.375000e-02
-4.490400e-06,1.875000e-02
-4.482400e-06,-3.500000e-02
-4.474400e-06,0.000000e+00
-4.466400e-06,-3.375000e-02
-4.458400e-06,1.625000e-02
-4.450400e-06,-3.750000e-03
-4.442400e-06,-1.000000e-02
-4.434400e-06,7.500000e-03
-4.426400e-06,8.750000e-03
-4.418400e-06,-2.000000e-02
-4.410400e-06,1.000000e-02
-4.402400e-06,-5.000000e-03
-4.394400e-06,7.500000e-03
-4.386400e-06,1.000000e-02
-4.378400e-06,8.750000e-03
-4.370400e-06,-6.250000e-03
-4.362400e-06,-1.125000e-02
-4.354400e-06,-1.750000e-02
-4.346400e-06,2.500000e-03
-4.338400e-06,-2.250000e-02
-4.330400e-06,3.875000e-02
-4.322400e-06,0.000000e+00
-4.314400e-06,3.750000e-02
-4.306400e-06,-2.250000e-02
-4.298400e-06,6.250000e-03
-4.290400e-06,-2.125000e-02
-4.282400e-06,6.250000e-03
-4.274400e-06,2.500000e-03
-4.266400e-06,6.250000e-03
-4.258400e-06,-1.500000e-02
-4.250400e-06,7.500000e-03
-4.242400e-06,1.000000e-02
-4.234400e-06,2.000000e-02
-4.226400e-06,-3.125000e-02
-4.218400e-06,-7.500000e-03
-4.210400e-06,-1.375000e-02
-4.202400e-06,1.500000e-02
-4.194400e-06,-1.250000e-02
-4.186400e-06,2.250000e-02
-4.178400e-06,-7.500000e-03
-4.170400e-06,2.750000e-02
-4.162400e-06,1.250000e-03
-4.154400e-06,5.000000e-03
-4.146400e-06,-1.750000e-02
-4.138400e-06,1.500000e-02
-4.130400e-06,-6.250000e-03
-4.122400e-06,2.500000e-03
-4.114400e-06,-1.625000e-02
-4.106400e-06,2.500000e-02
-4.098400e-06,-3.250000e-02
-4.090400e-06,3.750000e-03
-4.082400e-06,-7.500000e-03
-4.074400e-06,1.000000e-02
-4.066400e-06,-1.250000e-02
-4.058400e-06,7.500000e-03
-4.050400e-06,-8.750000e-03
-4.042400e-06,1.000000e-02
-4.034400e-06,-2.500000e-03
-4.026400e-06,1.375000e-02
-4.018400e-06,-1.500000e-02
-4.010400e-06,2.000000e-02
-4.002400e-06,-3.250000e-02
-3.994400e-06,8.750000e-03
-3.986400e-06,-6.250000e-03
-3.978400e-06,1.375000e-02
-3.970400e-06,-1.875000e-02
-3.962400e-06,1.875000e-02
-3.954400e-06,-1.375000e-02
-3.946400e-06,7.500000e-03
-3.938400e-06,-7.500000e-03
-3.930400e-06,2.500000e-03
-3.922400e-06,-7.500000e-03
-3.914400e-06,1.750000e-02
-3.906400e-06,-1.875000e-02
-3.898400e-06,-1.250000e-03
-3.890400e-06,-1.125000e-02
-3.882400e-06,2.125000e-02
-3.874400e-06,-1.250000e-03
-3.866400e-06,1.625000e-02
-3.858400e-06,-2.125000e-02
-3.850400e-06,-1.250000e-02
-3.842400e-06,-1.125000e-02
-3.834400e-06,1.625000e-02
-3.826400e-06,-2.375000e-02
-3.818400e-06,3.125000e-02
-3.810400e-06,-4.125000e-02
-3.802400e-06,8.750000e-03
-3.794400e-06,-1.250000e-02
-3.786400e-06,1.125000e-02
-3.778400e-06,-8.750000e-03
-3.770400e-06,2.000000e-02
-3.762400e-06,-5.000000e-03
-3.754400e-06,1.000000e-02
-3.746400e-06,0.000000e+00
-3.738400e-06,8.750000e-03
-3.730400e-06,-2.875000e-02
-3.722400e-06,1.750000e-02
-3.714400e-06,-8.750000e-03
-3.706400e-06,3.000000e-02
-3.698400e-06,-4.000000e-02
-3.690400e-06,3.875000e-02
-3.682400e-06,-1.250000e-03
-3.674400e-06,2.750000e-02
-3.666400e-06,-3.750000e-03
-3.658400e-06,7.500000e-03
-3.650400e-06,-8.750000e-03
-3.642400e-06,2.500000e-02
-3.634400e-06,-1.000000e-02
-3.626400e-06,2.500000e-02
-3.618400e-06,-1.375000e-02
-3.610400e-06,1.000000e-02
-3.602400e-06,-2.375000e-02
-3.594400e-06,3.625000e-02
-3.586400e-06,-3.125000e-02
-3.578400e-06,2.500000e-03
-3.570400e-06,-3.875000e-02
-3.562400e-06,3.625000e-02
-3.554400e-06,-6.250000e-03
-3.546400e-06,1.250000e-03
-3.538400e-06,-5.000000e-03
-3.530400e-06,8.750000e-03
-3.522400e-06,-3.250000e-02
-3.514400e-06,6.250000e-03
-3.506400e-06,-1.125000e-02
-3.498400e-06,1.125000e-02
-3.490400e-06,1.250000e-03
-3.482400e-06,3.250000e-02
-3.474400e-06,5.000000e-03
-3.466400e-06,2.000000e-02
-3.458400e-06,-1.750000e-02
-3.450400e-06,3.625000e-02
-3.442400e-06,-1.875000e-02
-3.434400e-06,2.625000e-02
-3.426400e-06,7.500000e-03
-3.418400e-06,1.125000e-02
-3.410400e-06,-1.250000e-02
-3.402400e-06,4.125000e-02
-3.394400e-06,-2.125000e-02
-3.386400e-06,0.000000e+00
-3.378400e-06,-1.000000e-02
-3.370400e-06,2.250000e-02
-3.362400e-06,-8.750000e-03
-3.354400e-06,1.000000e-02
-3.346400e-06,-2.500000e-02
-3.338400e-06,1.375000e-02
-3.330400e-06,-3.250000e-02
-3.322400e-06,1.125000e-02
-3.314400e-06,-8.750000e-03
-3.306400e-06,-3.750000e-03
-3.298400e-06,-1.250000e-02
-3.290400e-06,2.500000e-03
-3.282400e-06,-2.625000e-02
-3.274400e-06,3.750000e-03
-3.266400e-06,1.250000e-03
-3.258400e-06,3.250000e-02
-3.250400e-06,-1.375000e-02
-3.242400e-06,1.375000e-02
-3.234400e-06,-1.125000e-02
-3.226400e-06,2.000000e-02
-3.218400e-06,-3.875000e-02
-3.210400e-06,1.125000e-02
-3.202400e-06,-2.375000e-02
-3.194400e-06,3.750000e-03
-3.186400e-06,-1.750000e-02
-3.178400e-06,3.000000e-02
-3.170400e-06,-2.500000e-03
-3.162400e-06,1.875000e-02
-3.154400e-06,-2.125000e-02
-3.146400e-06,-5.000000e-03
-3.138400e-06,-1.625000e-02
-3.130400e-06,2.750000e-02
-3.122400e-06,-1.875000e-02
-3.114400e-06,1.750000e-02
-3.106400e-06,-6.250000e-03
-3.098400e-06,-1.250000e-03
-3.090400e-06,-2.125000e-02
-3.082400e-06,1.500000e-02
-3.074400e-06,-1.625000e-02
-3.066400e-06,6.250000e-03
-3.058400e-06,-2.375000e-02
-3.050400e-06,2.750000e-02
-3.042400e-06,-3.000000e-02
-3.034400e-06,1.000000e-02
-3.026400e-06,-3.000000e-02
-3.018400e-06,5.000000e-03
-3.010400e-06,-3.375000e-02
-3.002400e-06,-2.500000e-03
-2.994400e-06,-1.375000e-02
-2.986400e-06,1.750000e-02
-2.978400e-06,-1.125000e-02
-2.970400e-06,1.375000e-02
-2.962400e-06,-3.375000e-02
-2.954400e-06,1.750000e-02
-2.946400e-06,-2.625000e-02
-2.938400e-06,1.625000e-02
-2.930400e-06,-3.250000e-02
-2.922400e-06,1.250000e-02
-2.914400e-06,-2.250000e-02
-2.906400e-06,-2.500000e-03
-2.898400e-06,-1.375000e-02
-2.890400e-06,-1.750000e-02
-2.882400e-06,-1.250000e-02
-2.874400e-06,2.500000e-03
-2.866400e-06,-1.375000e-02
-2.858400e-06,2.375000e-02
-2.850400e-06,-1.125000e-02
-2.842400e-06,1.250000e-02
-2.834400e-06,-8.750000e-03
-2.826400e-06,3.750000e-03
-2.818400e-06,-2.375000e-02
-2.810400e-06,8.750000e-03
-2.802400e-06,-2.750000e-02
-2.794400e-06,1.750000e-02
-2.786400e-06,-1.250000e-03
-2.778400e-06,-3.750000e-03
-2.770400e-06,-1.750000e-02
-2.762400e-06,-3.750000e-03
-2.754400e-06,-2.500000e-02
-2.746400e-06,6.250000e-03
-2.738400e-06,1.500000e-02
-2.730400e-06,1.750000e-02
-2.722400e-06,1.625000e-02
-2.714400e-06,2.375000e-02
-2.706400e-06,-1.375000e-02
-2.698400e-06,1.375000e-02
-2.690400e-06,-4.250000e-02
-2.682400e-06,-1.000000e-02
-2.674400e-06,-2.375000e-02
-2.666400e-06,1.500000e-02
-2.658400e-06,2.500000e-03
-2.650400e-06,0.000000e+00
-2.642400e-06,-8.750000e-03
-2.634400e-06,8.750000e-03
-2.626400e-06,-2.125000e-02
-2.618400e-06,2.500000e-02
-2.610400e-06,-2.500000e-02
-2.602400e-06,3.750000e-02
-2.594400e-06,-5.000000e-03
-2.586400e-06,-1.250000e-03
-2.578400e-06,-1.000000e-02
-2.570400e-06,2.875000e-02
-2.562400e-06,-2.125000e-02
-2.554400e-06,5.000000e-03
-2.546400e-06,-3.625000e-02
-2.538400e-06,3.250000e-02
-2.530400e-06,-1.125000e-02
-2.522400e-06,-2.500000e-03
-2.514400e-06,-1.375000e-02
-2.506400e-06,6.250000e-03
-2.498400e-06,-1.250000e-03
-2.490400e-06,2.500000e-02
-2.482400e-06,1.250000e-03
-2.474400e-06,1.250000e-02
-2.466400e-06,-1.875000e-02
-2.458400e-06,8.750000e-03
-2.450400e-06,-7.500000e-03
-2.442400e-06,-5.000000e-03
-2.434400e-06,-5.000000e-03
-2.426400e-06,2.125000e-02
-2.418400e-06,-1.125000e-02
-2.410400e-06,6.250000e-03
-2.402400e-06,-1.125000e-02
-2.394400e-06,3.625000e-02
-2.386400e-06,-6.250000e-03
-2.378400e-06,8.750000e-03
-2.370400e-06,3.750000e-03
-2.362400e-06,1.250000e-02
-2.354400e-06,-1.625000e-02
-2.346400e-06,2.375000e-02
-2.338400e-06,-2.125000e-02
-2.330400e-06,1.000000e-02
-2.322400e-06,-1.250000e-02
-2.314400e-06,1.875000e-02
-2.306400e-06,-2.750000e-02
-2.298400e-06,7.500000e-03
-2.290400e-06,-2.125000e-02
-2.282400e-06,2.625000e-02
-2.274400e-06,-6.250000e-03
-2.266400e-06,0.000000e+00
-2.258400e-06,-2.625000e-02
-2.250400e-06,1.250000e-02
-2.242400e-06,-1.625000e-02
-2.234400e-06,1.250000e-02
-2.226400e-06,1.250000e-02
-2.218400e-06,1.125000e-02
-2.210400e-06,-1.250000e-03
-2.202400e-06,1.750000e-02
-2.194400e-06,-2.375000e-02
-2.186400e-06,1.500000e-02
-2.178400e-06,-3.125000e-02
-2.170400e-06,1.625000e-02
-2.162400e-06,-3.000000e-02
-2.154400e-06,2.250000e-02
-2.146400e-06,-6.250000e-03
-2.138400e-06,0.000000e+00
-2.130400e-06,-8.750000e-03
-2.122400e-06,3.125000e-02
-2.114400e-06,-3.750000e-03
-2.106400e-06,2.000000e-02
-2.098400e-06,-1.000000e-02
-2.090400e-06,2.500000e-02
-2.082400e-06,-7.500000e-03
-2.074400e-06,1.625000e-02
-2.066400e-06,-2.750000e-02
-2.058400e-06,1.125000e-02
-2.050400e-06,-2.625000e-02
-2.042400e-06,7.500000e-03
-2.034400e-06,-2.875000e-02
-2.026400e-06,3.000000e-02
-2.018400e-06,-1.375000e-02
-2.010400e-06,1.375000e-02
-2.002400e-06,-1.750000e-02
-1.994400e-06,1.750000e-02
-1.986400e-06,-2.625000e-02
-1.978400e-06,1.375000e-02
-1.970400e-06,-3.750000e-03
-1.962400e-06,3.500000e-02
-1.954400e-06,-6.250000e-03
-1.946400e-06,1.125000e-02
-1.938400e-06,-1.125000e-02
-1.930400e-06,5.000000e-03
-1.922400e-06,-5.000000e-03
-1.914400e-06,3.000000e-02
-1.906400e-06,-3.125000e-02
-1.898400e-06,2.250000e-02
-1.890400e-06,-1.250000e-02
-1.882400e-06,-5.000000e-03
-1.874400e-06,-1.625000e-02
-1.866400e-06,6.250000e-03
-1.858400e-06,-3.000000e-02
-1.850400e-06,2.250000e-02
-1.842400e-06,-2.500000e-02
-1.834400e-06,-1.000000e-02
-1.826400e-06,-1.625000e-02
-1.818400e-06,1.625000e-02
-1.810400e-06,0.000000e+00
-1.802400e-06,-3.750000e-03
-1.794400e-06,-2.500000e-03
-1.786400e-06,1.625000e-02
-1.778400e-06,-2.875000e-02
-1.770400e-06,2.875000e-02
-1.762400e-06,-2.375000e-02
-1.754400e-06,6.250000e-03
-1.746400e-06,-2.000000e-02
-1.738400e-06,2.000000e-02
-1.730400e-06,-1.875000e-02
-1.722400e-06,4.375000e-02
-1.714400e-06,-1.000000e-02
-1.706400e-06,2.250000e-02
-1.698400e-06,-8.750000e-03
-1.690400e-06,1.875000e-02
-1.682400e-06,-1.375000e-02
-1.674400e-06,2.500000e-03
-1.666400e-06,-2.125000e-02
-1.658400e-06,3.750000e-03
-1.650400e-06,-3.375000e-02
-1.642400e-06,4.000000e-02
-1.634400e-06,-1.250000e-02
-1.626400e-06,-2.500000e-03
-1.618400e-06,-1.000000e-02
-1.610400e-06,2.500000e-03
-1.602400e-06,-2.750000e-02
-1.594400e-06,2.250000e-02
-1.586400e-06,-2.125000e-02
-1.578400e-06,2.125000e-02
-1.570400e-06,-8.750000e-03
-1.562400e-06,2.250000e-02
-1.554400e-06,-1.625000e-02
-1.546400e-06,3.500000e-02
-1.538400e-06,-2.500000e-02
-1.530400e-06,-6.250000e-03
-1.522400e-06,-1.875000e-02
-1.514400e-06,1.625000e-02
-1.506400e-06,-3.750000e-03
-1.498400e-06,2.125000e-02
-1.490400e-06,-1.750000e-02
-1.482400e-06,2.500000e-03
-1.474400e-06,-1.250000e-02
-1.466400e-06,2.375000e-02
-1.458400e-06,1.000000e-02
-1.450400e-06,2.875000e-02
-1.442400e-06,1.000000e-02
-1.434400e-06,7.500000e-03
-1.426400e-06,-5.000000e-03
-1.418400e-06,8.750000e-03
-1.410400e-06,-1.500000e-02
-1.402400e-06,1.250000e-02
-1.394400e-06,-1.125000e-02
-1.386400e-06,-6.250000e-03
-1.378400e-06,-6.250000e-03
-1.370400e-06,1.250000e-02
-1.362400e-06,6.250000e-03
-1.354400e-06,5.000000e-03
-1.346400e-06,1.250000e-03
-1.338400e-06,1.250000e-02
-1.330400e-06,0.000000e+00
-1.322400e-06,1.375000e-02
-1.314400e-06,1.875000e-02
-1.306400e-06,1.625000e-02
-1.298400e-06,-3.750000e-03
-1.290400e-06,-1.125000e-02
-1.282400e-06,-2.750000e-02
-1.274400e-06,1.375000e-02
-1.266400e-06,-1.500000e-02
-1.258400e-06,2.875000e-02
-1.250400e-06,-1.250000e-02
-1.242400e-06,2.000000e-02
-1.234400e-06,-8.750000e-03
-1.226400e-06,7.500000e-03
-1.218400e-06,-7.500000e-03
-1.210400e-06,2.875000e-02
-1.202400e-06,7.500000e-03
-1.194400e-06,1.125000e-02
-1.186400e-06,-2.000000e-02
-1.178400e-06,1.375000e-02
-1.170400e-06,-1.250000e-02
-1.162400e-06,6.250000e-03
-1.154400e-06,-1.250000e-03
-1.146400e-06,1.375000e-02
-1.138400e-06,-2.375000e-02
-1.130400e-06,4.000000e-02
-1.122400e-06,-1.625000e-02
-1.114400e-06,1.000000e-02
-1.106400e-06,2.500000e-03
-1.098400e-06,1.000000e-02
-1.090400e-06,-1.250000e-03
-1.082400e-06,8.750000e-03
-1.074400e-06,-5.000000e-03
-1.066400e-06,1.000000e-02
-1.058400e-06,-1.250000e-03
-1.050400e-06,2.625000e-02
-1.042400e-06,-3.750000e-03
-1.034400e-06,1.500000e-02
-1.026400e-06,-2.875000e-02
-1.018400e-06,2.625000e-02
-1.010400e-06,-2.500000e-03
-1.002400e-06,1.625000e-02
-9.944000e-07,-1.125000e-02
-9.864000e-07,8.750000e-03
-9.784000e-07,-2.375000e-02
-9.704000e-07,-1.125000e-02
-9.624000e-07,-1.125000e-02
-9.544000e-07,3.000000e-02
-9.464000e-07,-5.000000e-03
-9.384000e-07,4.000000e-02
-9.304000e-07,-1.250000e-03
-9.224000e-07,1.250000e-02
-9.144000e-07,-1.875000e-02
-9.064000e-07,2.000000e-02
-8.984000e-07,-3.500000e-02
-8.904000e-07,1.500000e-02
-8.824000e-07,-1.375000e-02
-8.744000e-07,3.750000e-03
-8.664000e-07,-1.125000e-02
-8.584000e-07,3.750000e-03
-8.504000e-07,-1.750000e-02
-8.424000e-07,-6.250000e-03
-8.344000e-07,-1.250000e-02
-8.264000e-07,0.000000e+00
-8.184000e-07,-1.000000e-02
-8.104000e-07,3.375000e-02
-8.024000e-07,2.500000e-03
-7.944000e-07,2.750000e-02
-7.864000e-07,3.750000e-03
-7.784000e-07,6.250000e-03
-7.704000e-07,6.250000e-03
-7.624000e-07,1.500000e-02
-7.544000e-07,-2.875000e-02
-7.464000e-07,3.500000e-02
-7.384000e-07,-6.250000e-03
-7.304000e-07,8.750000e-03
-7.224000e-07,-1.125000e-02
-7.144000e-07,1.125000e-02
-7.064000e-07,-1.375000e-02
-6.984000e-07,-3.750000e-03
-6.904000e-07,-2.500000e-03
-6.824000e-07,1.625000e-02
-6.744000e-07,-2.500000e-03
-6.664000e-07,1.000000e-02
-6.584000e-07,-2.000000e-02
-6.504000e-07,5.000000e-03
-6.424000e-07,-6.250000e-03
-6.344000e-07,2.000000e-02
-6.264000e-07,-2.625000e-02
-6.184000e-07,2.625000e-02
-6.104000e-07,-2.500000e-03
-6.024000e-07,1.375000e-02
-5.944000e-07,-2.125000e-02
-5.864000e-07,1.250000e-02
-5.784000e-07,-5.625000e-02
-5.704000e-07,2.000000e-02
-5.624000e-07,0.000000e+00
-5.544000e-07,1.000000e-02
-5.464000e-07,-3.125000e-02
-5.384000e-07,8.750000e-03
-5.304000e-07,-8.750000e-03
-5.224000e-07,2.500000e-03
-5.144000e-07,-2.250000e-02
-5.064000e-07,1.250000e-02
-4.984000e-07,-6.250000e-03
-4.904000e-07,2.875000e-02
-4.824000e-07,6.250000e-03
-4.744000e-07,1.750000e-02
-4.664000e-07,-2.625000e-02
-4.584000e-07,-1.250000e-03
-4.504000e-07,-3.500000e-02
-4.424000e-07,8.750000e-03
-4.344000e-07,-8.750000e-03
-4.264000e-07,3.000000e-02
-4.184000e-07,6.250000e-03
-4.104000e-07,1.500000e-02
-4.024000e-07,5.000000e-03
-3.944000e-07,2.125000e-02
-3.864000e-07,-1.750000e-02
-3.784000e-07,2.375000e-02
-3.704000e-07,-1.125000e-02
-3.624000e-07,2.000000e-02
-3.544000e-07,-1.125000e-02
-3.464000e-07,1.000000e-02
-3.384000e-07,-1.625000e-02
-3.304000e-07,8.750000e-03
-3.224000e-07,-2.250000e-02
-3.144000e-07,2.500000e-02
-3.064000e-07,2.500000e-03
-2.984000e-07,3.750000e-03
-2.904000e-07,-1.000000e-02
-2.824000e-07,1.500000e-02
-2.744000e-07,-1.750000e-02
-2.664000e-07,2.750000e-02
-2.584000e-07,-3.375000e-02
-2.504000e-07,3.375000e-02
-2.424000e-07,-3.375000e-02
-2.344000e-07,1.500000e-02
-2.264000e-07,-6.250000e-03
-2.184000e-07,2.500000e-02
-2.104000e-07,-2.125000e-02
-2.024000e-07,-6.250000e-03
-1.944000e-07,-1.250000e-03
-1.864000e-07,2.000000e-02
-1.784000e-07,-1.500000e-02
-1.704000e-07,0.000000e+00
-1.624000e-07,-7.500000e-03
-1.544000e-07,1.125000e-02
-1.464000e-07,-1.000000e-02
-1.384000e-07,2.625000e-02
-1.304000e-07,-1.750000e-02
-1.224000e-07,1.250000e-02
-1.144000e-07,-1.125000e-02
-1.064000e-07,3.000000e-02
-9.840000e-08,-1.125000e-02
-9.040000e-08,5.000000e-03
-8.240000e-08,-5.000000e-03
-7.440000e-08,-3.750000e-03
-6.640000e-08,-3.750000e-03
-5.840000e-08,2.000000e-02
-5.040000e-08,-2.625000e-02
-4.240000e-08,2.000000e-02
-3.440000e-08,1.000000e-02
-2.640000e-08,-1.390000e+00
-1.840000e-08,-1.423750e+00
-1.040000e-08,-1.411250e+00
-2.400000e-09,-1.950000e-01
5.600000e-09,-2.500000e-03
1.360000e-08,1.375000e-02
2.160000e-08,4.250000e-02
2.960000e-08,-1.000000e-02
3.760000e-08,2.875000e-02
4.560000e-08,-1.875000e-02
5.360000e-08,3.000000e-02
6.160000e-08,-1.625000e-02
6.960000e-08,1.250000e-03
7.760000e-08,-1.750000e-02
8.560000e-08,1.125000e-02
9.360000e-08,0.000000e+00
1.016000e-07,4.125000e-02
1.096000e-07,-1.250000e-02
1.176000e-07,1.750000e-02
1.256000e-07,-2.375000e-02
1.336000e-07,2.875000e-02
1.416000e-07,-3.375000e-02
1.496000e-07,3.125000e-02
1.576000e-07,1.125000e-02
1.656000e-07,0.000000e+00
1.736000e-07,1.125000e-02
1.816000e-07,1.125000e-02
1.896000e-07,-8.750000e-03
1.976000e-07,1.750000e-02
2.056000e-07,-5.000000e-03
2.136000e-07,3.250000e-02
2.216000e-07,-7.500000e-03
2.296000e-07,-3.750000e-03
2.376000e-07,-2.500000e-02
2.456000e-07,8.750000e-03
2.536000e-07,-1.500000e-02
2.616000e-07,1.500000e-02
2.696000e-07,-2.000000e-02
2.776000e-07,4.250000e-02
2.856000e-07,0.000000e+00
2.936000e-07,1.500000e-02
3.016000e-07,-1.000000e-02
3.096000e-07,-5.000000e-03
3.176000e-07,-2.750000e-02
3.256000e-07,-1.500000e-02
3.336000e-07,-1.250000e-02
3.416000e-07,2.125000e-02
3.496000e-07,-2.500000e-03
3.576000e-07,6.250000e-03
3.656000e-07,-3.500000e-02
3.736000e-07,3.875000e-02
3.816000e-07,-3.250000e-02
3.896000e-07,0.000000e+00
3.976000e-07,-1.375000e-02
4.056000e-07,3.125000e-02
4.136000e-07,-2.500000e-03
4.216000e-07,1.875000e-02
4.296000e-07,-3.375000e-02
4.376000e-07,1.250000e-02
4.456000e-07,-1.750000e-02
4.536000e-07,1.375000e-02
4.616000e-07,2.500000e-03
4.696000e-07,2.875000e-02
4.776000e-07,2.500000e-03
4.856000e-07,0.000000e+00
4.936000e-07,-1.000000e-02
5.016000e-07,-2.500000e-03
5.096000e-07,-3.125000e-02
5.176000e-07,3.125000e-02
5.256000e-07,-1.750000e-02
5.336000e-07,2.125000e-02
5.416000e-07,-2.000000e-02
5.496000e-07,1.000000e-02
5.576000e-07,-1.375000e-02
5.656000e-07,1.500000e-02
5.736000e-07,-1.875000e-02
5.816000e-07,6.250000e-03
5.896000e-07,-1.000000e-02
5.976000e-07,1.625000e-02
6.056000e-07,-3.250000e-02
6.136000e-07,7.500000e-03
6.216000e-07,-2.750000e-02
6.296000e-07,1.250000e-02
6.376000e-07,-2.250000e-02
6.456000e-07,1.500000e-02
6.536000e-07,-2.000000e-02
6.616000e-07,2.250000e-02
6.696000e-07,-2.000000e-02
6.776000e-07,1.875000e-02
6.856000e-07,-2.000000e-02
6.936000e-07,6.250000e-03
7.016000e-07,3.750000e-03
7.096000e-07,6.250000e-03
7.176000e-07,2.500000e-03
7.256000e-07,2.000000e-02
7.336000e-07,-1.500000e-02
7.416000e-07,2.500000e-02
7.496000e-07,-1.000000e-02
7.576000e-07,5.000000e-03
7.656000e-07,-1.250000e-02
7.736000e-07,2.125000e-02
7.816000e-07,-3.000000e-02
7.896000e-07,6.250000e-03
7.976000e-07,0.000000e+00
