run1/run1_ch1_20210318180133446.csv

Model,MSO64
Waveform Type,ANALOG
Horizontal Units,s
Sample Interval,8.000000e-09
Record Length,1250
Zero Index,624.087656
Vertical Units,V

TIME,CH1
-4.992701e-06,3.625000e-02
-4.984701e-06,-3.125000e-02
-4.976701e-06,2.250000e-02
-4.968701e-06,-1.125000e-02
-4.960701e-06,0.000000e+00
-4.952701e-06,-3.875000e-02
-4.944701e-06,3.750000e-03
-4.936701e-06,-1.375000e-02
-4.928701e-06,5.000000e-03
-4.920701e-06,7.500000e-03
-4.912701e-06,2.250000e-02
-4.904701e-06,-8.750000e-03
-4.896701e-06,2.125000e-02
-4.888701e-06,-3.375000e-02
-4.880701e-06,2.125000e-02
-4.872701e-06,-1.375000e-02
-4.864701e-06,1.500000e-02
-4.856701e-06,-6.250000e-03
-4.848701e-06,3.500000e-02
-4.840701e-06,-1.250000e-03
-4.832701e-06,5.000000e-02
-4.824701e-06,-6.250000e-03
-4.816701e-06,1.750000e-02
-4.808701e-06,-2.875000e-02
-4.800701e-06,5.000000e-03
-4.792701e-06,-5.000000e-03
-4.784701e-06,2.625000e-02
-4.776701e-06,3.750000e-03
-4.768701e-06,1.000000e-02
-4.760701e-06,-2.750000e-02
-4.752701e-06,4.625000e-02
-4.744701e-06,-3.625000e-02
-4.736701e-06,3.000000e-02
-4.728701e-06,-1.750000e-02
-4.720701e-06,2.000000e-02
-4.712701e-06,-2.250000e-02
-4.704701e-06,8.750000e-03
-4.696701e-06,-1.500000e-02
-4.688701e-06,-2.500000e-03
-4.680701e-06,-5.000000e-03
-4.672701e-06,2.625000e-02
-4.664701e-06,3.750000e-03
-4.656701e-06,0.000000e+00
-4.648701e-06,2.500000e-03
-4.640701e-06,8.750000e-03
-4.632701e-06,-2.875000e-02
-4.624701e-06,1.125000e-02
-4.616701e-06,-2.000000e-02
-4.608701e-06,1.625000e-02
-4.600701e-06,-1.875000e-02
-4.592701e-06,3.125000e-02
-4.584701e-06,1.250000e-03
-4.576701e-06,1.250000e-02
-4.568701e-06,-2.500000e-02
-4.560701e-06,2.500000e-03
-4.552701e-06,-2.000000e-02
-4.544701e-06,1.750000e-02
-4.536701e-06,-1.625000e-02
-4.528701e-06,3.000000e-02
-4.520701e-06,-3.125000e-02
-4.512701e-06,1.125000e-02
-4.504701e-06,-1.875000e-02
-4.496701e-06,2.000000e-02
-4.488701e-06,-1.250000e-02
-4.480701e-06,6.250000e-03
-4.472701e-06,-2.750000e-02
-4.464701e-06,1.375000e-02
-4.456701e-06,-2.375000e-02
-4.448701e-06,1.250000e-02
-4.440701e-06,0.000000e+00
-4.432701e-06,3.750000e-03
-4.424701e-06,-1.375000e-02
-4.416701e-06,7.500000e-03
-4.408701e-06,-5.000000e-03
-4.400701e-06,2.500000e-02
-4.392701e-06,-1.625000e-02
-4.384701e-06,-3.750000e-03
-4.376701e-06,-1.375000e-02
-4.368701e-06,1.500000e-02
-4.360701e-06,-2.875000e-02
-4.352701e-06,4.250000e-02
-4.344701e-06,-5.500000e-02
-4.336701e-06,3.625000e-02
-4.328701e-06,-3.250000e-02
-4.320701e-06,5.000000e-03
-4.312701e-06,-6.250000e-03
-4.304701e-06,2.250000e-02
-4.296701e-06,-2.000000e-02
-4.288701e-06,-1.250000e-03
-4.280701e-06,-3.125000e-02
-4.272701e-06,2.625000e-02
-4.264701e-06,-1.750000e-02
-4.256701e-06,3.125000e-02
-4.248701e-06,-3.375000e-02
-4.240701e-06,5.000000e-03
-4.232701e-06,-2.375000e-02
-4.224701e-06,1.125000e-02
-4.216701e-06,-2.500000e-02
-4.208701e-06,2.125000e-02
-4.200701e-06,-2.625000e-02
-4.192701e-06,1.125000e-02
-4.184701e-06,-1.625000e-02
-4.176701e-06,7.500000e-03
-4.168701e-06,-5.000000e-03
-4.160701e-06,2.375000e-02
-4.152701e-06,-3.750000e-03
-4.144701e-06,2.000000e-02
-4.136701e-06,2.500000e-03
-4.128701e-06,2.375000e-02
-4.120701e-06,-1.250000e-03
-4.112701e-06,1.625000e-02
-4.104701e-06,-3.500000e-02
-4.096701e-06,4.625000e-02
-4.088701e-06,-1.125000e-02
-4.080701e-06,3.250000e-02
-4.072701e-06,-2.875000e-02
-4.064701e-06,3.750000e-03
-4.056701e-06,-3.375000e-02
-4.048701e-06,2.250000e-02
-4.040701e-06,-1.625000e-02
-4.032701e-06,2.500000e-02
-4.024701e-06,0.000000e+00
-4.016701e-06,3.500000e-02
-4.008701e-06,-1.250000e-02
-4.000701e-06,5.000000e-03
-3.992701e-06,-2.750000e-02
-3.984701e-06,1.875000e-02
-3.976701e-06,2.500000e-03
-3.968701e-06,-5.000000e-03
-3.960701e-06,-4.000000e-02
-3.952701e-06,2.875000e-02
-3.944701e-06,2.500000e-03
-3.936701e-06,-8.750000e-03
-3.928701e-06,-5.000000e-03
-3.920701e-06,1.125000e-02
-3.912701e-06,-3.625000e-02
-3.904701e-06,2.500000e-02
-3.896701e-06,-1.625000e-02
-3.888701e-06,2.000000e-02
-3.880701e-06,-3.750000e-02
-3.872701e-06,1.250000e-02
-3.864701e-06,-1.250000e-02
-3.856701e-06,3.000000e-02
-3.848701e-06,-2.875000e-02
-3.840701e-06,1.500000e-02
-3.832701e-06,-3.125000e-02
-3.824701e-06,2.875000e-02
-3.816701e-06,-2.500000e-02
-3.808701e-06,3.750000e-03
-3.800701e-06,-1.500000e-02
-3.792701e-06,2.125000e-02
-3.784701e-06,-2.500000e-02
-3.776701e-06,7.500000e-03
-3.768701e-06,-1.000000e-02
-3.760701e-06,3.875000e-02
-3.752701e-06,-1.625000e-02
-3.744701e-06,1.500000e-02
-3.736701e-06,-2.375000e-02
-3.728701e-06,3.000000e-02
-3.720701e-06,-3.625000e-02
-3.712701e-06,2.375000e-02
-3.704701e-06,-5.000000e-03
-3.696701e-06,3.000000e-02
-3.688701e-06,-2.125000e-02
-3.680701e-06,7.500000e-03
-3.672701e-06,-2.500000e-02
-3.664701e-06,1.125000e-02
-3.656701e-06,0.000000e+00
-3.648701e-06,1.875000e-02
-3.640701e-06,-1.000000e-02
-3.632701e-06,1.125000e-02
-3.624701e-06,-2.125000e-02
-3.616701e-06,3.375000e-02
-3.608701e-06,-2.625000e-02
-3.600701e-06,1.625000e-02
-3.592701e-06,-2.375000e-02
-3.584701e-06,3.250000e-02
-3.576701e-06,-2.500000e-03
-3.568701e-06,2.000000e-02
-3.560701e-06,0.000000e+00
-3.552701e-06,1.125000e-02
-3.544701e-06,-1.625000e-02
-3.536701e-06,-2.500000e-03
-3.528701e-06,-7.500000e-03
-3.520701e-06,4.250000e-02
-3.512701e-06,-1.750000e-02
-3.504701e-06,2.750000e-02
-3.496701e-06,-1.500000e-02
-3.488701e-06,2.750000e-02
-3.480701e-06,-1.375000e-02
-3.472701e-06,3.375000e-02
-3.464701e-06,-3.000000e-02
-3.456701e-06,-1.000000e-02
-3.448701e-06,-2.250000e-02
-3.440701e-06,1.625000e-02
-3.432701e-06,0.000000e+00
-3.424701e-06,2.250000e-02
-3.416701e-06,-1.000000e-02
-3.408701e-06,5.000000e-03
-3.400701e-06,-4.625000e-02
-3.392701e-06,1.750000e-02
-3.384701e-06,-1.250000e-03
-3.376701e-06,8.750000e-03
-3.368701e-06,0.000000e+00
-3.360701e-06,1.750000e-02
-3.352701e-06,-2.375000e-02
-3.344701e-06,2.750000e-02
-3.336701e-06,-3.625000e-02
-3.328701e-06,1.000000e-02
-3.320701e-06,-2.625000e-02
-3.312701e-06,2.000000e-02
-3.304701e-06,-2.375000e-02
-3.296701e-06,2.625000e-02
-3.288701e-06,-1.125000e-02
-3.280701e-06,2.750000e-02
-3.272701e-06,-1.250000e-03
-3.264701e-06,1.875000e-02
-3.256701e-06,-8.750000e-03
-3.248701e-06,2.250000e-02
-3.240701e-06,-1.125000e-02
-3.232701e-06,2.375000e-02
-3.224701e-06,-2.000000e-02
-3.216701e-06,3.500000e-02
-3.208701e-06,-3.000000e-02
-3.200701e-06,1.375000e-02
-3.192701e-06,-2.750000e-02
-3.184701e-06,2.250000e-02
-3.176701e-06,-5.000000e-03
-3.168701e-06,7.500000e-03
-3.160701e-06,-1.750000e-02
-3.152701e-06,7.500000e-03
-3.144701e-06,-1.250000e-02
-3.136701e-06,2.625000e-02
-3.128701e-06,-1.250000e-03
-3.120701e-06,1.875000e-02
-3.112701e-06,-4.250000e-02
-3.104701e-06,-3.750000e-03
-3.096701e-06,-1.250000e-02
-3.088701e-06,-3.750000e-03
-3.080701e-06,-3.500000e-02
-3.072701e-06,2.250000e-02
-3.064701e-06,-1.375000e-02
-3.056701e-06,1.875000e-02
-3.048701e-06,-5.000000e-03
-3.040701e-06,1.750000e-02
-3.032701e-06,-1.875000e-02
-3.024701e-06,1.250000e-02
-3.016701e-06,-3.375000e-02
-3.008701e-06,5.000000e-03
-3.000701e-06,-1.125000e-02
-2.992701e-06,1.625000e-02
-2.984701e-06,-1.250000e-02
-2.976701e-06,1.875000e-02
-2.968701e-06,-6.250000e-03
-2.960701e-06,3.375000e-02
-2.952701e-06,-2.875000e-02
-2.944701e-06,1.625000e-02
-2.936701e-06,-2.750000e-02
-2.928701e-06,3.000000e-02
-2.920701e-06,-2.000000e-02
-2.912701e-06,1.750000e-02
-2.904701e-06,-2.000000e-02
-2.896701e-06,-3.750000e-03
-2.888701e-06,1.000000e-02
-2.880701e-06,8.750000e-03
-2.872701e-06,-1.250000e-02
-2.864701e-06,3.500000e-02
-2.856701e-06,2.500000e-02
-2.848701e-06,2.500000e-02
-2.840701e-06,2.500000e-03
-2.832701e-06,2.500000e-02
-2.824701e-06,-2.750000e-02
-2.816701e-06,1.000000e-02
-2.808701e-06,-2.375000e-02
-2.800701e-06,3.500000e-02
-2.792701e-06,1.250000e-03
-2.784701e-06,2.500000e-03
-2.776701e-06,-1.250000e-03
-2.768701e-06,2.250000e-02
-2.760701e-06,-1.125000e-02
-2.752701e-06,1.250000e-02
-2.744701e-06,-2.000000e-02
-2.736701e-06,1.375000e-02
-2.728701e-06,-2.250000e-02
-2.720701e-06,1.375000e-02
-2.712701e-06,1.250000e-03
-2.704701e-06,6.250000e-03
-2.696701e-06,-2.000000e-02
-2.688701e-06,-2.500000e-03
-2.680701e-06,1.250000e-03
-2.672701e-06,3.375000e-02
-2.664701e-06,-2.750000e-02
-2.656701e-06,1.250000e-02
-2.648701e-06,-3.500000e-02
-2.640701e-06,8.750000e-03
-2.632701e-06,-3.750000e-02
-2.624701e-06,-7.500000e-03
-2.616701e-06,3.750000e-03
-2.608701e-06,3.250000e-02
-2.600701e-06,-1.125000e-02
-2.592701e-06,3.625000e-02
-2.584701e-06,1.250000e-03
-2.576701e-06,2.250000e-02
-2.568701e-06,-1.875000e-02
-2.560701e-06,3.750000e-03
-2.552701e-06,-2.500000e-02
-2.544701e-06,2.625000e-02
-2.536701e-06,2.250000e-02
-2.528701e-06,1.625000e-02
-2.520701e-06,-2.750000e-02
-2.512701e-06,1.250000e-02
-2.504701e-06,-2.375000e-02
-2.496701e-06,2.250000e-02
-2.488701e-06,-1.000000e-02
-2.480701e-06,2.375000e-02
-2.472701e-06,-7.500000e-03
-2.464701e-06,2.125000e-02
-2.456701e-06,-6.250000e-03
-2.448701e-06,3.750000e-03
-2.440701e-06,-2.250000e-02
-2.432701e-06,6.250000e-03
-2.424701e-06,-3.125000e-02
-2.416701e-06,1.375000e-02
-2.408701e-06,-1.500000e-02
-2.400701e-06,1.375000e-02
-2.392701e-06,-2.625000e-02
-2.384701e-06,1.750000e-02
-2.376701e-06,-3.125000e-02
-2.368701e-06,4.125000e-02
-2.360701e-06,-6.250000e-03
-2.352701e-06,-5.000000e-03
-2.344701e-06,-2.500000e-03
-2.336701e-06,3.125000e-02
-2.328701e-06,1.125000e-02
-2.320701e-06,2.875000e-02
-2.312701e-06,-4.375000e-02
-2.304701e-06,1.750000e-02
-2.296701e-06,-1.250000e-03
-2.288701e-06,1.625000e-02
-2.280701e-06,-8.750000e-03
-2.272701e-06,1.625000e-02
-2.264701e-06,-2.125000e-02
-2.256701e-06,2.500000e-02
-2.248701e-06,-3.750000e-02
-2.240701e-06,8.750000e-03
-2.232701e-06,0.000000e+00
-2.224701e-06,2.375000e-02
-2.216701e-06,-1.250000e-03
-2.208701e-06,1.375000e-02
-2.200701e-06,-1.375000e-02
-2.192701e-06,1.500000e-02
-2.184701e-06,-3.000000e-02
-2.176701e-06,1.750000e-02
-2.168701e-06,-2.250000e-02
-2.160701e-06,1.500000e-02
-2.152701e-06,-1.625000e-02
-2.144701e-06,1.500000e-02
-2.136701e-06,-2.500000e-02
-2.128701e-06,2.000000e-02
-2.120701e-06,-5.500000e-02
-2.112701e-06,5.000000e-03
-2.104701e-06,-7.500000e-03
-2.096701e-06,1.750000e-02
-2.088701e-06,-2.500000e-03
-2.080701e-06,3.625000e-02
-2.072701e-06,-2.375000e-02
-2.064701e-06,8.750000e-03
-2.056701e-06,-2.750000e-02
-2.048701e-06,1.875000e-02
-2.040701e-06,-2.000000e-02
-2.032701e-06,1.250000e-02
-2.024701e-06,0.000000e+00
-2.016701e-06,1.375000e-02
-2.008701e-06,-1.125000e-02
-2.000701e-06,3.750000e-03
-1.992701e-06,-2.250000e-02
-1.984701e-06,2.125000e-02
-1.976701e-06,-1.875000e-02
-1.968701e-06,3.500000e-02
-1.960701e-06,-1.000000e-02
-1.952701e-06,8.750000e-03
-1.944701e-06,-3.750000e-03
-1.936701e-06,3.375000e-02
-1.928701e-06,-1.125000e-02
-1.920701e-06,-6.250000e-03
-1.912701e-06,-4.250000e-02
-1.904701e-06,5.000000e-03
-1.896701e-06,-3.625000e-02
-1.888701e-06,1.000000e-02
-1.880701e-06,-1.875000e-02
-1.872701e-06,3.750000e-03
-1.864701e-06,-2.250000e-02
-1.856701e-06,2.500000e-02
-1.848701e-06,-1.875000e-02
-1.840701e-06,1.750000e-02
-1.832701e-06,-1.375000e-02
-1.824701e-06,3.000000e-02
-1.816701e-06,-1.625000e-02
-1.808701e-06,1.875000e-02
-1.800701e-06,-2.125000e-02
-1.792701e-06,3.125000e-02
-1.784701e-06,-1.250000e-02
-1.776701e-06,3.750000e-03
-1.768701e-06,-1.000000e-02
-1.760701e-06,1.125000e-02
-1.752701e-06,-2.625000e-02
-1.744701e-06,1.625000e-02
-1.736701e-06,-1.625000e-02
-1.728701e-06,1.625000e-02
-1.720701e-06,-1.625000e-02
-1.712701e-06,8.750000e-03
-1.704701e-06,-1.500000e-02
-1.696701e-06,1.000000e-02
-1.688701e-06,8.750000e-03
-1.680701e-06,1.000000e-02
-1.672701e-06,-3.875000e-02
-1.664701e-06,2.625000e-02
-1.656701e-06,-2.000000e-02
-1.648701e-06,3.375000e-02
-1.640701e-06,2.500000e-03
-1.632701e-06,6.250000e-03
-1.624701e-06,-2.375000e-02
-1.616701e-06,-3.750000e-03
-1.608701e-06,-3.125000e-02
-1.600701e-06,5.000000e-03
-1.592701e-06,-2.625000e-02
-1.584701e-06,1.875000e-02
-1.576701e-06,7.500000e-03
-1.568701e-06,3.000000e-02
-1.560701e-06,-3.500000e-02
-1.552701e-06,2.625000e-02
-1.544701e-06,-1.875000e-02
-1.536701e-06,2.500000e-02
-1.528701e-06,-2.500000e-02
-1.520701e-06,3.500000e-02
-1.512701e-06,-1.625000e-02
-1.504701e-06,2.625000e-02
-1.496701e-06,-1.125000e-02
-1.488701e-06,1.625000e-02
-1.480701e-06,-2.625000e-02
-1.472701e-06,2.000000e-02
-1.464701e-06,-6.250000e-03
-1.456701e-06,2.625000e-02
-1.448701e-06,-1.375000e-02
-1.440701e-06,2.500000e-03
-1.432701e-06,-2.250000e-02
-1.424701e-06,2.500000e-03
-1.416701e-06,-2.375000e-02
-1.408701e-06,2.750000e-02
-1.400701e-06,-6.250000e-03
-1.392701e-06,3.625000e-02
-1.384701e-06,-3.750000e-03
-1.376701e-06,2.625000e-02
-1.368701e-06,-1.750000e-02
-1.360701e-06,1.500000e-02
-1.352701e-06,-7.500000e-03
-1.344701e-06,2.000000e-02
-1.336701e-06,-1.875000e-02
-1.328701e-06,0.000000e+00
-1.320701e-06,1.000000e-02
-1.312701e-06,1.875000e-02
-1.304701e-06,-6.250000e-03
-1.296701e-06,1.875000e-02
-1.288701e-06,-2.375000e-02
-1.280701e-06,1.750000e-02
-1.272701e-06,-3.500000e-02
-1.264701e-06,3.625000e-02
-1.256701e-06,5.000000e-03
-1.248701e-06,-3.750000e-03
-1.240701e-06,-1.000000e-02
-1.232701e-06,1.375000e-02
-1.224701e-06,-1.375000e-02
-1.216701e-06,1.375000e-02
-1.208701e-06,-2.125000e-02
-1.200701e-06,2.875000e-02
-1.192701e-06,-2.500000e-02
-1.184701e-06,1.750000e-02
-1.176701e-06,-7.500000e-03
-1.168701e-06,2.875000e-02
-1.160701e-06,-1.375000e-02
-1.152701e-06,2.500000e-02
-1.144701e-06,-2.875000e-02
-1.136701e-06,1.500000e-02
-1.128701e-06,-2.500000e-02
-1.120701e-06,4.000000e-02
-1.112701e-06,-2.500000e-02
-1.104701e-06,8.750000e-03
-1.096701e-06,-2.875000e-02
-1.088701e-06,2.625000e-02
-1.080701e-06,-3.000000e-02
-1.072701e-06,2.125000e-02
-1.064701e-06,-1.125000e-02
-1.056701e-06,2.375000e-02
-1.048701e-06,-8.750000e-03
-1.040701e-06,1.875000e-02
-1.032701e-06,-4.500000e-02
-1.024701e-06,2.375000e-02
-1.016701e-06,-3.125000e-02
-1.008701e-06,3.125000e-02
-1.000701e-06,-1.250000e-02
-9.927013e-07,3.750000e-03
-9.847013e-07,-5.000000e-03
-9.767013e-07,2.875000e-02
-9.687013e-07,-1.000000e-02
-9.607013e-07,1.125000e-02
-9.527013e-07,-1.500000e-02
-9.447013e-07,1.625000e-02
-9.367013e-07,-2.500000e-02
-9.287013e-07,2.750000e-02
-9.207013e-07,-5.000000e-02
-9.127013e-07,2.750000e-02
-9.047013e-07,-2.500000e-02
-8.967013e-07,1.750000e-02
-8.887013e-07,-2.000000e-02
-8.807013e-07,3.500000e-02
-8.727013e-07,-7.500000e-03
-8.647013e-07,7.500000e-03
-8.567013e-07,-5.000000e-03
-8.487013e-07,2.125000e-02
-8.407013e-07,-2.500000e-03
-8.327013e-07,8.750000e-03
-8.247013e-07,-1.375000e-02
-8.167013e-07,1.875000e-02
-8.087013e-07,2.500000e-03
-8.007013e-07,-1.250000e-02
-7.927013e-07,-2.500000e-02
-7.847013e-07,2.500000e-03
-7.767013e-07,-3.250000e-02
-7.687013e-07,3.875000e-02
-7.607013e-07,-1.750000e-02
-7.527013e-07,1.250000e-02
-7.447013e-07,-2.875000e-02
-7.367013e-07,1.875000e-02
-7.287013e-07,-6.250000e-03
-7.207013e-07,2.750000e-02
-7.127013e-07,-2.875000e-02
-7.047013e-07,2.000000e-02
-6.967013e-07,-1.125000e-02
-6.887013e-07,3.375000e-02
-6.807013e-07,-2.375000e-02
-6.727013e-07,2.625000e-02
-6.647013e-07,5.000000e-03
-6.567013e-07,2.375000e-02
-6.487013e-07,-4.375000e-02
-6.407013e-07,1.625000e-02
-6.327013e-07,-2.625000e-02
-6.247013e-07,3.375000e-02
-6.167013e-07,2.500000e-03
-6.087013e-07,6.250000e-03
-6.007013e-07,-1.250000e-03
-5.927013e-07,2.500000e-03
-5.847013e-07,-7.500000e-03
-5.767013e-07,1.125000e-02
-5.687013e-07,3.750000e-03
-5.607013e-07,2.375000e-02
-5.527013e-07,1.125000e-02
-5.447013e-07,2.500000e-02
-5.367013e-07,-1.875000e-02
-5.287013e-07,1.875000e-02
-5.207013e-07,-2.125000e-02
-5.127013e-07,3.625000e-02
-5.047013e-07,-3.375000e-02
-4.967013e-07,1.000000e-02
-4.887013e-07,-1.625000e-02
-4.807013e-07,6.250000e-03
-4.727013e-07,-3.250000e-02
-4.647013e-07,2.250000e-02
-4.567013e-07,-2.125000e-02
-4.487013e-07,1.625000e-02
-4.407013e-07,-2.000000e-02
-4.327013e-07,3.000000e-02
-4.247013e-07,-1.250000e-03
-4.167013e-07,1.125000e-02
-4.087013e-07,-3.625000e-02
-4.007013e-07,2.875000e-02
-3.927013e-07,-3.750000e-02
-3.847013e-07,3.750000e-03
-3.767013e-07,-2.875000e-02
-3.687013e-07,2.875000e-02
-3.607013e-07,-3.250000e-02
-3.527013e-07,2.250000e-02
-3.447013e-07,-4.125000e-02
-3.367013e-07,2.125000e-02
-3.287013e-07,-1.250000e-02
-3.207013e-07,1.875000e-02
-3.127013e-07,-1.750000e-02
-3.047013e-07,8.750000e-03
-2.967013e-07,-1.625000e-02
-2.887013e-07,2.750000e-02
-2.807013e-07,-3.750000e-03
-2.727013e-07,1.625000e-02
-2.647013e-07,-2.000000e-02
-2.567013e-07,3.250000e-02
-2.487013e-07,-1.875000e-02
-2.407013e-07,2.750000e-02
-2.327013e-07,-1.750000e-02
-2.247013e-07,7.500000e-03
-2.167013e-07,-2.875000e-02
-2.087013e-07,1.625000e-02
-2.007013e-07,-1.375000e-02
-1.927013e-07,1.000000e-02
-1.847013e-07,-1.375000e-02
-1.767013e-07,1.375000e-02
-1.687013e-07,-5.000000e-03
-1.607013e-07,1.875000e-02
-1.527013e-07,-2.500000e-03
-1.447013e-07,2.250000e-02
-1.367013e-07,-3.750000e-02
-1.287013e-07,2.500000e-02
-1.207013e-07,-3.000000e-02
-1.127013e-07,2.750000e-02
-1.047013e-07,-3.000000e-02
-9.670125e-08,1.875000e-02
-8.870125e-08,-3.250000e-02
-8.070125e-08,2.125000e-02
-7.270125e-08,-7.500000e-03
-6.470125e-08,2.750000e-02
-5.670125e-08,0.000000e+00
-4.870125e-08,5.125000e-02
-4.070125e-08,-1.500000e-02
-3.270125e-08,-1.278750e+00
-2.470125e-08,-1.418750e+00
-1.670125e-08,-1.417500e+00
-8.701250e-09,-1.453750e+00
-7.012500e-10,-6.250000e-03
7.298750e-09,-1.250000e-02
1.529875e-08,5.750000e-02
2.329875e-08,7.500000e-03
3.129875e-08,3.250000e-02
3.929875e-08,-3.750000e-03
4.729875e-08,1.375000e-02
5.529875e-08,-3.000000e-02
6.329875e-08,3.000000e-02
7.129875e-08,-8.750000e-03
7.929875e-08,5.000000e-03
8.729875e-08,8.750000e-03
9.529875e-08,1.750000e-02
1.032987e-07,-1.000000e-02
1.112987e-07,-6.250000e-03
1.192987e-07,-2.625000e-02
1.272987e-07,1.250000e-02
1.352987e-07,-2.250000e-02
1.432987e-07,1.500000e-02
1.512987e-07,-2.125000e-02
1.592987e-07,-1.250000e-03
1.672987e-07,-1.500000e-02
1.752987e-07,1.625000e-02
1.832987e-07,-1.875000e-02
1.912987e-07,6.250000e-03
1.992987e-07,5.000000e-03
2.072987e-07,1.250000e-02
2.152987e-07,-2.250000e-02
2.232987e-07,2.875000e-02
2.312987e-07,-2.125000e-02
2.392987e-07,6.250000e-03
2.472987e-07,-1.000000e-02
2.552987e-07,1.375000e-02
2.632987e-07,-2.500000e-03
2.712987e-07,1.375000e-02
2.792987e-07,-2.750000e-02
2.872987e-07,1.875000e-02
2.952987e-07,-1.625000e-02
3.032987e-07,2.500000e-03
3.112987e-07,-1.000000e-02
3.192987e-07,1.375000e-02
3.272987e-07,-2.250000e-02
3.352987e-07,1.375000e-02
3.432987e-07,-1.625000e-02
3.512987e-07,5.000000e-03
3.592987e-07,-2.500000e-03
3.672987e-07,2.250000e-02
3.752987e-07,-1.500000e-02
3.832987e-07,2.500000e-03
3.912987e-07,-1.625000e-02
3.992987e-07,2.625000e-02
4.072987e-07,-2.125000e-02
4.152987e-07,-1.625000e-02
4.232987e-07,-7.500000e-03
4.312987e-07,6.250000e-03
4.392987e-07,-1.000000e-02
4.472987e-07,2.500000e-03
4.552987e-07,-2.000000e-02
4.632987e-07,5.000000e-03
4.712987e-07,-5.000000e-03
4.792987e-07,2.750000e-02
4.872987e-07,-2.750000e-02
4.952987e-07,2.875000e-02
5.032987e-07,-3.500000e-02
5.112987e-07,8.750000e-03
5.192987e-07,-1.625000e-02
5.272987e-07,3.625000e-02
5.352988e-07,-1.875000e-02
5.432987e-07,6.250000e-03
5.512987e-07,-6.250000e-03
5.592988e-07,-3.750000e-03
5.672987e-07,-3.625000e-02
5.752987e-07,1.375000e-02
5.832988e-07,-8.750000e-03
5.912987e-07,1.500000e-02
5.992987e-07,-1.625000e-02
6.072988e-07,2.500000e-03
6.152987e-07,-1.750000e-02
6.232987e-07,-3.750000e-03
6.312988e-07,-4.250000e-02
6.392987e-07,2.625000e-02
6.472987e-07,-1.750000e-02
6.552988e-07,3.000000e-02
6.632987e-07,-1.125000e-02
6.712987e-07,-1.250000e-03
6.792988e-07,-5.000000e-03
6.872987e-07,-2.500000e-03
6.952987e-07,-1.125000e-02
7.032988e-07,1.750000e-02
7.112987e-07,-2.125000e-02
7.192987e-07,3.625000e-02
7.272987e-07,-1.625000e-02
7.352987e-07,2.375000e-02
7.432987e-07,-2.750000e-02
7.512987e-07,2.000000e-02
7.592987e-07,-4.250000e-02
7.672987e-07,6.250000e-03
7.752987e-07,-4.500000e-02
7.832987e-07,3.125000e-02
7.912987e-07,1.250000e-03
7.992987e-07,2.125000e-02
8.072988e-07,1.250000e-03
