run1/run1_ch1_20210318180400062.csv

Model,MSO64
Waveform Type,ANALOG
Horizontal Units,s
Sample Interval,8.000000e-09
Record Length,1250
Zero Index,624.710156
Vertical Units,V

TIME,CH1
-4.997681e-06,-8.750000e-03
-4.989681e-06,6.250000e-03
-4.981681e-06,-5.000000e-03
-4.973681e-06,3.750000e-03
-4.965681e-06,-1.375000e-02
-4.957681e-06,5.000000e-03
-4.949681e-06,-2.125000e-02
-4.941681e-06,2.875000e-02
-4.933681e-06,-3.500000e-02
-4.925681e-06,1.875000e-02
-4.917681e-06,-6.250000e-03
-4.909681e-06,1.375000e-02
-4.901681e-06,-5.000000e-03
-4.893681e-06,7.500000e-03
-4.885681e-06,-5.000000e-03
-4.877681e-06,1.125000e-02
-4.869681e-06,-1.000000e-02
-4.861681e-06,1.750000e-02
-4.853681e-06,-1.500000e-02
-4.845681e-06,-8.750000e-03
-4.837681e-06,-1.750000e-02
-4.829681e-06,3.250000e-02
-4.821681e-06,-1.875000e-02
-4.813681e-06,7.500000e-03
-4.805681e-06,-6.250000e-03
-4.797681e-06,1.250000e-02
-4.789681e-06,-2.500000e-03
-4.781681e-06,1.625000e-02
-4.773681e-06,-1.000000e-02
-4.765681e-06,2.000000e-02
-4.757681e-06,8.750000e-03
-4.749681e-06,2.000000e-02
-4.741681e-06,-1.250000e-02
-4.733681e-06,1.250000e-02
-4.725681e-06,-1.625000e-02
-4.717681e-06,1.000000e-02
-4.709681e-06,-3.750000e-03
-4.701681e-06,1.875000e-02
-4.693681e-06,-1.875000e-02
-4.685681e-06,1.625000e-02
-4.677681e-06,-1.750000e-02
-4.669681e-06,2.250000e-02
-4.661681e-06,-1.750000e-02
-4.653681e-06,-1.500000e-02
-4.645681e-06,-3.625000e-02
-4.637681e-06,2.000000e-02
-4.629681e-06,-2.500000e-03
-4.621681e-06,7.500000e-03
-4.613681e-06,-2.250000e-02
-4.605681e-06,-3.750000e-03
-4.597681e-06,-6.250000e-03
-4.589681e-06,3.750000e-03
-4.581681e-06,-3.250000e-02
-4.573681e-06,1.625000e-02
-4.565681e-06,-1.250000e-03
-4.557681e-06,1.375000e-02
-4.549681e-06,-5.000000e-03
-4.541681e-06,2.875000e-02
-4.533681e-06,-3.125000e-02
-4.525681e-06,2.625000e-02
-4.517681e-06,-1.750000e-02
-4.509681e-06,2.500000e-02
-4.501681e-06,-5.000000e-03
-4.493681e-06,2.000000e-02
-4.485681e-06,-3.750000e-03
-4.477681e-06,1.625000e-02
-4.469681e-06,-5.000000e-03
-4.461681e-06,6.250000e-03
-4.453681e-06,-2.875000e-02
-4.445681e-06,2.000000e-02
-4.437681e-06,-1.250000e-02
-4.429681e-06,3.375000e-02
-4.421681e-06,1.250000e-03
-4.413681e-06,1.750000e-02
-4.405681e-06,7.500000e-03
-4.397681e-06,-1.250000e-03
-4.389681e-06,-1.000000e-02
-4.381681e-06,1.750000e-02
-4.373681e-06,-1.250000e-02
-4.365681e-06,7.500000e-03
-4.357681e-06,-1.125000e-02
-4.349681e-06,-1.250000e-03
-4.341681e-06,1.000000e-02
-4.333681e-06,3.500000e-02
-4.325681e-06,-3.000000e-02
-4.317681e-06,1.500000e-02
-4.309681e-06,-3.750000e-03
-4.301681e-06,2.625000e-02
-4.293681e-06,2.375000e-02
-4.285681e-06,1.250000e-02
-4.277681e-06,-8.750000e-03
-4.269681e-06,6.250000e-03
-4.261681e-06,-2.125000e-02
-4.253681e-06,1.000000e-02
-4.245681e-06,1.625000e-02
-4.237681e-06,3.000000e-02
-4.229681e-06,1.125000e-02
-4.221681e-06,3.375000e-02
-4.213681e-06,-1.875000e-02
-4.205681e-06,1.250000e-02
-4.197681e-06,-8.750000e-03
-4.189681e-06,1.750000e-02
-4.181681e-06,-3.500000e-02
-4.173681e-06,2.750000e-02
-4.165681e-06,-3.000000e-02
-4.157681e-06,-3.750000e-03
-4.149681e-06,0.000000e+00
-4.141681e-06,1.625000e-02
-4.133681e-06,-1.125000e-02
-4.125681e-06,-5.000000e-03
-4.117681e-06,2.125000e-02
-4.109681e-06,1.625000e-02
-4.101681e-06,-1.750000e-02
-4.093681e-06,2.375000e-02
-4.085681e-06,7.500000e-03
-4.077681e-06,4.500000e-02
-4.069681e-06,-1.375000e-02
-4.061681e-06,1.250000e-02
-4.053681e-06,6.250000e-03
-4.045681e-06,1.250000e-02
-4.037681e-06,-2.250000e-02
-4.029681e-06,5.000000e-03
-4.021681e-06,-1.875000e-02
-4.013681e-06,1.125000e-02
-4.005681e-06,-1.750000e-02
-3.997681e-06,-6.250000e-03
-3.989681e-06,-1.250000e-03
-3.981681e-06,2.750000e-02
-3.973681e-06,1.250000e-03
-3.965681e-06,1.750000e-02
-3.957681e-06,-1.250000e-03
-3.949681e-06,2.375000e-02
-3.941681e-06,-2.125000e-02
-3.933681e-06,2.875000e-02
-3.925681e-06,-2.375000e-02
-3.917681e-06,2.250000e-02
-3.909681e-06,-3.750000e-03
-3.901681e-06,1.625000e-02
-3.893681e-06,-1.250000e-03
-3.885681e-06,5.000000e-03
-3.877681e-06,7.500000e-03
-3.869681e-06,1.625000e-02
-3.861681e-06,-1.250000e-03
-3.853681e-06,2.750000e-02
-3.845681e-06,-1.250000e-02
-3.837681e-06,1.625000e-02
-3.829681e-06,-1.500000e-02
-3.821681e-06,-1.250000e-03
-3.813681e-06,-2.250000e-02
-3.805681e-06,-2.500000e-03
-3.797681e-06,-3.750000e-03
-3.789681e-06,2.875000e-02
-3.781681e-06,3.750000e-03
-3.773681e-06,2.625000e-02
-3.765681e-06,-2.500000e-03
-3.757681e-06,8.750000e-03
-3.749681e-06,-5.000000e-03
-3.741681e-06,1.875000e-02
-3.733681e-06,-1.375000e-02
-3.725681e-06,1.000000e-02
-3.717681e-06,6.250000e-03
-3.709681e-06,1.375000e-02
-3.701681e-06,3.750000e-03
-3.693681e-06,2.000000e-02
-3.685681e-06,-2.000000e-02
-3.677681e-06,2.750000e-02
-3.669681e-06,-1.875000e-02
-3.661681e-06,8.750000e-03
-3.653681e-06,-5.000000e-03
-3.645681e-06,1.125000e-02
-3.637681e-06,-7.500000e-03
-3.629681e-06,1.500000e-02
-3.621681e-06,-1.500000e-02
-3.613681e-06,1.625000e-02
-3.605681e-06,1.500000e-02
-3.597681e-06,1.000000e-02
-3.589681e-06,-7.500000e-03
-3.581681e-06,5.000000e-03
-3.573681e-06,-8.750000e-03
-3.565681e-06,1.875000e-02
-3.557681e-06,-1.250000e-02
-3.549681e-06,3.000000e-02
-3.541681e-06,-2.500000e-02
-3.533681e-06,2.125000e-02
-3.525681e-06,3.750000e-03
-3.517681e-06,1.750000e-02
-3.509681e-06,-1.000000e-02
-3.501681e-06,-1.250000e-03
-3.493681e-06,-2.500000e-02
-3.485681e-06,6.250000e-03
-3.477681e-06,8.750000e-03
-3.469681e-06,2.750000e-02
-3.461681e-06,-1.875000e-02
-3.453681e-06,3.000000e-02
-3.445681e-06,5.000000e-03
-3.437681e-06,2.750000e-02
-3.429681e-06,2.500000e-03
-3.421681e-06,6.250000e-03
-3.413681e-06,-1.875000e-02
-3.405681e-06,2.000000e-02
-3.397681e-06,7.500000e-03
-3.389681e-06,3.250000e-02
-3.381681e-06,-1.125000e-02
-3.373681e-06,2.625000e-02
-3.365681e-06,-7.500000e-03
-3.357681e-06,1.625000e-02
-3.349681e-06,1.375000e-02
-3.341681e-06,2.250000e-02
-3.333681e-06,-1.500000e-02
-3.325681e-06,3.125000e-02
-3.317681e-06,7.500000e-03
-3.309681e-06,2.875000e-02
-3.301681e-06,-1.750000e-02
-3.293681e-06,2.875000e-02
-3.285681e-06,-6.250000e-03
-3.277681e-06,2.125000e-02
-3.269681e-06,-1.250000e-03
-3.261681e-06,3.000000e-02
-3.253681e-06,-3.750000e-03
-3.245681e-06,2.000000e-02
-3.237681e-06,-1.875000e-02
-3.229681e-06,1.375000e-02
-3.221681e-06,-2.500000e-03
-3.213681e-06,1.250000e-02
-3.205681e-06,-7.500000e-03
-3.197681e-06,3.750000e-03
-3.189681e-06,-1.125000e-02
-3.181681e-06,2.500000e-02
-3.173681e-06,-3.750000e-03
-3.165681e-06,-5.000000e-03
-3.157681e-06,-1.625000e-02
-3.149681e-06,4.375000e-02
-3.141681e-06,-6.250000e-03
-3.133681e-06,1.375000e-02
-3.125681e-06,-1.125000e-02
-3.117681e-06,1.000000e-02
-3.109681e-06,-2.125000e-02
-3.101681e-06,6.250000e-03
-3.093681e-06,-1.250000e-03
-3.085681e-06,1.625000e-02
-3.077681e-06,-2.125000e-02
-3.069681e-06,-2.500000e-03
-3.061681e-06,-1.250000e-02
-3.053681e-06,1.750000e-02
-3.045681e-06,-4.375000e-02
-3.037681e-06,1.500000e-02
-3.029681e-06,-2.125000e-02
-3.021681e-06,7.500000e-03
-3.013681e-06,5.000000e-03
-3.005681e-06,3.750000e-03
-2.997681e-06,3.750000e-03
-2.989681e-06,-2.500000e-03
-2.981681e-06,-1.125000e-02
-2.973681e-06,2.125000e-02
-2.965681e-06,-8.750000e-03
-2.957681e-06,1.250000e-02
-2.949681e-06,-1.250000e-02
-2.941681e-06,2.125000e-02
-2.933681e-06,-1.500000e-02
-2.925681e-06,8.750000e-03
-2.917681e-06,-2.625000e-02
-2.909681e-06,2.500000e-02
-2.901681e-06,0.000000e+00
-2.893681e-06,2.750000e-02
-2.885681e-06,5.000000e-03
-2.877681e-06,2.125000e-02
-2.869681e-06,2.500000e-03
-2.861681e-06,2.500000e-02
-2.853681e-06,-1.375000e-02
-2.845681e-06,6.250000e-03
-2.837681e-06,-1.250000e-03
-2.829681e-06,1.875000e-02
-2.821681e-06,1.000000e-02
-2.813681e-06,8.750000e-03
-2.805681e-06,-1.375000e-02
-2.797681e-06,6.250000e-03
-2.789681e-06,-2.500000e-03
-2.781681e-06,1.125000e-02
-2.773681e-06,0.000000e+00
-2.765681e-06,1.500000e-02
-2.757681e-06,1.000000e-02
-2.749681e-06,2.125000e-02
-2.741681e-06,-7.500000e-03
-2.733681e-06,2.500000e-02
-2.725681e-06,-1.000000e-02
-2.717681e-06,1.375000e-02
-2.709681e-06,1.375000e-02
-2.701681e-06,3.375000e-02
-2.693681e-06,-1.875000e-02
-2.685681e-06,8.750000e-03
-2.677681e-06,-1.750000e-02
-2.669681e-06,1.500000e-02
-2.661681e-06,-1.375000e-02
-2.653681e-06,5.000000e-03
-2.645681e-06,-1.625000e-02
-2.637681e-06,4.875000e-02
-2.629681e-06,-2.250000e-02
-2.621681e-06,1.625000e-02
-2.613681e-06,-1.750000e-02
-2.605681e-06,8.750000e-03
-2.597681e-06,-2.125000e-02
-2.589681e-06,8.750000e-03
-2.581681e-06,-1.250000e-03
-2.573681e-06,1.875000e-02
-2.565681e-06,0.000000e+00
-2.557681e-06,1.875000e-02
-2.549681e-06,-5.000000e-03
-2.541681e-06,1.125000e-02
-2.533681e-06,-1.500000e-02
-2.525681e-06,3.125000e-02
-2.517681e-06,-2.125000e-02
-2.509681e-06,2.375000e-02
-2.501681e-06,-1.500000e-02
-2.493681e-06,1.500000e-02
-2.485681e-06,1.750000e-02
-2.477681e-06,1.375000e-02
-2.469681e-06,-1.750000e-02
-2.461681e-06,1.000000e-02
-2.453681e-06,-1.375000e-02
-2.445681e-06,1.500000e-02
-2.437681e-06,-1.250000e-02
-2.429681e-06,1.875000e-02
-2.421681e-06,-6.250000e-03
-2.413681e-06,6.250000e-03
-2.405681e-06,-8.750000e-03
-2.397681e-06,3.750000e-03
-2.389681e-06,-1.375000e-02
-2.381681e-06,7.500000e-03
-2.373681e-06,1.125000e-02
-2.365681e-06,2.250000e-02
-2.357681e-06,-1.500000e-02
-2.349681e-06,1.875000e-02
-2.341681e-06,-2.375000e-02
-2.333681e-06,8.750000e-03
-2.325681e-06,-7.500000e-03
-2.317681e-06,1.750000e-02
-2.309681e-06,-1.625000e-02
-2.301681e-06,1.750000e-02
-2.293681e-06,-3.750000e-03
-2.285681e-06,1.250000e-02
-2.277681e-06,-2.625000e-02
-2.269681e-06,2.750000e-02
-2.261681e-06,-2.875000e-02
-2.253681e-06,2.000000e-02
-2.245681e-06,-8.750000e-03
-2.237681e-06,1.625000e-02
-2.229681e-06,3.750000e-03
-2.221681e-06,1.500000e-02
-2.213681e-06,0.000000e+00
-2.205681e-06,2.500000e-02
-2.197681e-06,-7.500000e-03
-2.189681e-06,2.125000e-02
-2.181681e-06,1.000000e-02
-2.173681e-06,1.500000e-02
-2.165681e-06,-8.750000e-03
-2.157681e-06,1.000000e-02
-2.149681e-06,-2.375000e-02
-2.141681e-06,-3.750000e-03
-2.133681e-06,-1.000000e-02
-2.125681e-06,2.375000e-02
-2.117681e-06,-1.250000e-02
-2.109681e-06,2.000000e-02
-2.101681e-06,-2.500000e-03
-2.093681e-06,-1.250000e-03
-2.085681e-06,-4.250000e-02
-2.077681e-06,-6.250000e-03
-2.069681e-06,7.500000e-03
-2.061681e-06,3.125000e-02
-2.053681e-06,-2.000000e-02
-2.045681e-06,1.875000e-02
-2.037681e-06,6.250000e-03
-2.029681e-06,1.375000e-02
-2.021681e-06,-1.250000e-02
-2.013681e-06,4.375000e-02
-2.005681e-06,-1.750000e-02
-1.997681e-06,8.750000e-03
-1.989681e-06,5.000000e-03
-1.981681e-06,2.250000e-02
-1.973681e-06,-5.000000e-03
-1.965681e-06,1.500000e-02
-1.957681e-06,-1.625000e-02
-1.949681e-06,2.375000e-02
-1.941681e-06,-1.125000e-02
-1.933681e-06,1.625000e-02
-1.925681e-06,0.000000e+00
-1.917681e-06,1.750000e-02
-1.909681e-06,3.750000e-03
-1.901681e-06,2.500000e-03
-1.893681e-06,-1.250000e-02
-1.885681e-06,3.250000e-02
-1.877681e-06,-1.500000e-02
-1.869681e-06,2.125000e-02
-1.861681e-06,2.500000e-03
-1.853681e-06,-7.500000e-03
-1.845681e-06,0.000000e+00
-1.837681e-06,1.625000e-02
-1.829681e-06,-3.250000e-02
-1.821681e-06,-3.750000e-03
-1.813681e-06,-1.000000e-02
-1.805681e-06,1.875000e-02
-1.797681e-06,5.000000e-03
-1.789681e-06,-1.250000e-02
-1.781681e-06,-8.750000e-03
-1.773681e-06,1.375000e-02
-1.765681e-06,-2.500000e-02
-1.757681e-06,1.000000e-02
-1.749681e-06,-1.375000e-02
-1.741681e-06,2.375000e-02
-1.733681e-06,-1.875000e-02
-1.725681e-06,1.250000e-03
-1.717681e-06,-3.750000e-03
-1.709681e-06,3.750000e-02
-1.701681e-06,-4.250000e-02
-1.693681e-06,1.250000e-02
-1.685681e-06,-1.250000e-03
-1.677681e-06,8.750000e-03
-1.669681e-06,1.250000e-03
-1.661681e-06,8.750000e-03
-1.653681e-06,0.000000e+00
-1.645681e-06,2.250000e-02
-1.637681e-06,-1.500000e-02
-1.629681e-06,1.500000e-02
-1.621681e-06,-3.125000e-02
-1.613681e-06,2.625000e-02
-1.605681e-06,-1.250000e-03
-1.597681e-06,2.875000e-02
-1.589681e-06,-1.250000e-02
-1.581681e-06,5.000000e-03
-1.573681e-06,-5.000000e-03
-1.565681e-06,7.500000e-03
-1.557681e-06,-1.625000e-02
-1.549681e-06,1.500000e-02
-1.541681e-06,-1.250000e-03
-1.533681e-06,1.375000e-02
-1.525681e-06,-3.250000e-02
-1.517681e-06,3.375000e-02
-1.509681e-06,-1.875000e-02
-1.501681e-06,2.000000e-02
-1.493681e-06,8.750000e-03
-1.485681e-06,3.000000e-02
-1.477681e-06,-2.625000e-02
-1.469681e-06,1.625000e-02
-1.461681e-06,0.000000e+00
-1.453681e-06,2.000000e-02
-1.445681e-06,-7.500000e-03
-1.437681e-06,7.500000e-03
-1.429681e-06,2.500000e-03
-1.421681e-06,1.250000e-02
-1.413681e-06,1.375000e-02
-1.405681e-06,3.250000e-02
-1.397681e-06,-1.500000e-02
-1.389681e-06,3.750000e-03
-1.381681e-06,-1.250000e-02
-1.373681e-06,6.250000e-03
-1.365681e-06,-2.000000e-02
-1.357681e-06,2.500000e-02
-1.349681e-06,-2.750000e-02
-1.341681e-06,2.125000e-02
-1.333681e-06,0.000000e+00
-1.325681e-06,2.000000e-02
-1.317681e-06,-3.000000e-02
-1.309681e-06,8.750000e-03
-1.301681e-06,-6.250000e-03
-1.293681e-06,7.500000e-03
-1.285681e-06,2.500000e-03
-1.277681e-06,1.750000e-02
-1.269681e-06,-1.375000e-02
-1.261681e-06,1.375000e-02
-1.253681e-06,-2.625000e-02
-1.245681e-06,-1.125000e-02
-1.237681e-06,-8.750000e-03
-1.229681e-06,2.500000e-02
-1.221681e-06,-2.625000e-02
-1.213681e-06,3.875000e-02
-1.205681e-06,-1.250000e-03
-1.197681e-06,2.750000e-02
-1.189681e-06,-1.125000e-02
-1.181681e-06,7.500000e-03
-1.173681e-06,-1.250000e-03
-1.165681e-06,5.000000e-03
-1.157681e-06,2.500000e-03
-1.149681e-06,1.875000e-02
-1.141681e-06,2.500000e-03
-1.133681e-06,3.875000e-02
-1.125681e-06,-3.125000e-02
-1.117681e-06,2.750000e-02
-1.109681e-06,-2.000000e-02
-1.101681e-06,2.250000e-02
-1.093681e-06,-1.000000e-02
-1.085681e-06,3.750000e-03
-1.077681e-06,-3.000000e-02
-1.069681e-06,3.875000e-02
-1.061681e-06,-1.250000e-03
-1.053681e-06,2.750000e-02
-1.045681e-06,-5.000000e-03
-1.037681e-06,3.125000e-02
-1.029681e-06,-2.250000e-02
-1.021681e-06,1.250000e-03
-1.013681e-06,-2.250000e-02
-1.005681e-06,1.500000e-02
-9.976812e-07,-5.000000e-03
-9.896812e-07,1.625000e-02
-9.816812e-07,-2.000000e-02
-9.736812e-07,3.625000e-02
-9.656812e-07,-1.250000e-03
-9.576812e-07,8.750000e-03
-9.496812e-07,-1.250000e-02
-9.416812e-07,6.250000e-03
-9.336812e-07,-1.750000e-02
-9.256812e-07,-1.250000e-03
-9.176812e-07,7.500000e-03
-9.096812e-07,1.000000e-02
-9.016812e-07,1.250000e-03
-8.936812e-07,2.000000e-02
-8.856812e-07,-2.000000e-02
-8.776812e-07,6.250000e-03
-8.696812e-07,-2.500000e-02
-8.616812e-07,-3.750000e-03
-8.536812e-07,1.250000e-03
-8.456812e-07,2.625000e-02
-8.376812e-07,5.000000e-03
-8.296812e-07,1.250000e-02
-8.216812e-07,-1.375000e-02
-8.136812e-07,3.500000e-02
-8.056812e-07,-1.000000e-02
-7.976812e-07,8.750000e-03
-7.896812e-07,-1.125000e-02
-7.816812e-07,2.250000e-02
-7.736812e-07,7.500000e-03
-7.656812e-07,3.750000e-03
-7.576812e-07,-6.250000e-03
-7.496812e-07,1.875000e-02
-7.416812e-07,-1.625000e-02
-7.336812e-07,5.000000e-03
-7.256812e-07,-1.000000e-02
-7.176812e-07,2.125000e-02
-7.096812e-07,2.375000e-02
-7.016812e-07,3.000000e-02
-6.936812e-07,-1.250000e-02
-6.856812e-07,1.875000e-02
-6.776812e-07,-1.125000e-02
-6.696812e-07,2.375000e-02
-6.616812e-07,-7.500000e-03
-6.536812e-07,2.500000e-02
-6.456812e-07,-5.000000e-03
-6.376812e-07,3.125000e-02
-6.296812e-07,-1.250000e-02
-6.216812e-07,2.000000e-02
-6.136812e-07,3.750000e-03
-6.056812e-07,6.250000e-03
-5.976812e-07,-1.375000e-02
-5.896812e-07,1.875000e-02
-5.816812e-07,6.250000e-03
-5.736812e-07,5.000000e-03
-5.656812e-07,-8.750000e-03
-5.576812e-07,2.375000e-02
-5.496812e-07,-2.250000e-02
-5.416812e-07,1.375000e-02
-5.336812e-07,-2.500000e-03
-5.256812e-07,2.375000e-02
-5.176812e-07,1.000000e-02
-5.096812e-07,2.000000e-02
-5.016812e-07,-1.125000e-02
-4.936812e-07,2.250000e-02
-4.856812e-07,-1.125000e-02
-4.776812e-07,2.250000e-02
-4.696812e-07,-2.250000e-02
-4.616812e-07,2.250000e-02
-4.536812e-07,-8.750000e-03
-4.456812e-07,8.750000e-03
-4.376812e-07,-1.250000e-03
-4.296812e-07,1.750000e-02
-4.216812e-07,-1.625000e-02
-4.136812e-07,3.375000e-02
-4.056812e-07,-1.250000e-03
-3.976812e-07,-1.250000e-03
-3.896812e-07,1.750000e-02
-3.816812e-07,1.750000e-02
-3.736812e-07,1.250000e-03
-3.656812e-07,8.750000e-03
-3.576812e-07,-1.000000e-02
-3.496812e-07,1.125000e-02
-3.416812e-07,-1.125000e-02
-3.336812e-07,2.125000e-02
-3.256812e-07,-7.500000e-03
-3.176812e-07,2.750000e-02
-3.096812e-07,-1.500000e-02
-3.016812e-07,1.500000e-02
-2.936812e-07,-1.125000e-02
-2.856812e-07,1.000000e-02
-2.776812e-07,-1.000000e-02
-2.696812e-07,4.125000e-02
-2.616812e-07,-6.250000e-03
-2.536812e-07,3.750000e-02
-2.456812e-07,-1.000000e-02
-2.376812e-07,8.750000e-03
-2.296812e-07,-2.500000e-02
-2.216812e-07,2.250000e-02
-2.136812e-07,1.250000e-03
-2.056812e-07,1.875000e-02
-1.976812e-07,-7.500000e-03
-1.896812e-07,1.750000e-02
-1.816812e-07,0.000000e+00
-1.736812e-07,2.875000e-02
-1.656812e-07,-6.250000e-03
-1.576812e-07,5.000000e-03
-1.496812e-07,-1.125000e-02
-1.416812e-07,1.125000e-02
-1.336812e-07,-1.250000e-02
-1.256812e-07,3.250000e-02
-1.176812e-07,1.500000e-02
-1.096812e-07,2.125000e-02
-1.016812e-07,-2.125000e-02
-9.368125e-08,3.750000e-02
-8.568125e-08,1.000000e-02
-7.768125e-08,2.250000e-02
-6.968125e-08,1.250000e-03
-6.168125e-08,2.500000e-02
-5.368125e-08,-2.375000e-02
-4.568125e-08,2.000000e-02
-3.768125e-08,-6.250000e-03
-2.968125e-08,2.250000e-02
-2.168125e-08,-5.000000e-03
-1.368125e-08,7.500000e-03
-5.681250e-09,-7.500000e-03
2.318750e-09,-1.237500e+00
1.031875e-08,-1.415000e+00
1.831875e-08,-1.421250e+00
2.631875e-08,-1.438750e+00
3.431875e-08,1.250000e-03
4.231875e-08,-3.000000e-02
5.031875e-08,1.875000e-02
5.831875e-08,5.000000e-03
6.631875e-08,1.750000e-02
7.431875e-08,5.000000e-03
8.231875e-08,2.500000e-02
9.031875e-08,-2.375000e-02
9.831875e-08,1.500000e-02
1.063188e-07,-1.125000e-02
1.143188e-07,1.625000e-02
1.223188e-07,-2.500000e-03
1.303188e-07,1.125000e-02
1.383188e-07,-2.000000e-02
1.463188e-07,2.375000e-02
1.543188e-07,-2.625000e-02
1.623188e-07,7.500000e-03
1.703188e-07,-1.250000e-03
1.783188e-07,4.625000e-02
1.863188e-07,-8.750000e-03
1.943188e-07,2.625000e-02
2.023188e-07,5.000000e-03
2.103188e-07,6.250000e-03
2.183188e-07,3.750000e-03
2.263188e-07,2.875000e-02
2.343188e-07,1.250000e-02
2.423188e-07,5.500000e-02
2.503188e-07,8.750000e-03
2.583188e-07,7.500000e-03
2.663188e-07,-2.500000e-03
2.743188e-07,-3.750000e-03
2.823188e-07,-1.125000e-02
2.903188e-07,1.000000e-02
2.983188e-07,1.250000e-02
3.063188e-07,1.750000e-02
3.143188e-07,-7.500000e-03
3.223188e-07,8.750000e-03
3.303188e-07,1.125000e-02
3.383188e-07,3.750000e-02
3.463188e-07,-2.500000e-03
3.543188e-07,2.625000e-02
3.623188e-07,-8.750000e-03
3.703188e-07,5.000000e-03
3.783188e-07,1.000000e-02
3.863188e-07,2.875000e-02
3.943188e-07,-1.250000e-02
4.023188e-07,2.125000e-02
4.103188e-07,-1.750000e-02
4.183188e-07,3.125000e-02
4.263188e-07,-2.500000e-02
4.343188e-07,2.750000e-02
4.423188e-07,-1.500000e-02
4.503188e-07,1.250000e-02
4.583188e-07,-2.500000e-03
4.663188e-07,1.500000e-02
4.743188e-07,-7.500000e-03
4.823188e-07,2.500000e-03
4.903188e-07,-6.250000e-03
4.983188e-07,2.250000e-02
5.063188e-07,2.500000e-03
5.143188e-07,2.250000e-02
5.223188e-07,-1.875000e-02
5.303188e-07,2.625000e-02
5.383188e-07,-1.625000e-02
5.463188e-07,2.250000e-02
5.543188e-07,-7.500000e-03
5.623188e-07,2.625000e-02
5.703188e-07,-7.500000e-03
5.783188e-07,3.000000e-02
5.863188e-07,-5.000000e-03
5.943188e-07,1.875000e-02
6.023188e-07,3.750000e-03
6.103188e-07,1.375000e-02
6.183188e-07,-1.500000e-02
6.263188e-07,2.000000e-02
6.343188e-07,0.000000e+00
6.423188e-07,2.875000e-02
6.503188e-07,3.750000e-03
6.583188e-07,3.500000e-02
6.663188e-07,-2.500000e-02
6.743188e-07,2.375000e-02
6.823188e-07,-2.500000e-02
6.903188e-07,3.250000e-02
6.983188e-07,-3.750000e-03
7.063188e-07,2.250000e-02
7.143188e-07,-5.000000e-03
7.223188e-07,1.125000e-02
7.303188e-07,-2.250000e-02
7.383188e-07,2.875000e-02
7.463188e-07,-7.500000e-03
7.543188e-07,1.750000e-02
7.623188e-07,7.500000e-03
7.703188e-07,1.500000e-02
7.783188e-07,-8.750000e-03
7.863188e-07,2.000000e-02
7.943188e-07,-1.375000e-02
8.023188e-07,2.750000e-02
8.103188e-07,-1.625000e-02
