run1/run1_ch1_20210318180248041.csv

Model,MSO64
Waveform Type,ANALOG
Horizontal Units,s
Sample Interval,8.000000e-09
Record Length,1250
Zero Index,624.800156
Vertical Units,V

TIME,CH1
-4.998401e-06,-7.500000e-03
-4.990401e-06,1.750000e-02
-4.982401e-06,-5.000000e-03
-4.974401e-06,2.500000e-03
-4.966401e-06,-8.750000e-03
-4.958401e-06,1.250000e-02
-4.950401e-06,-2.500000e-03
-4.942401e-06,6.250000e-03
-4.934401e-06,0.000000e+00
-4.926401e-06,5.000000e-03
-4.918401e-06,-2.000000e-02
-4.910401e-06,-3.750000e-03
-4.902401e-06,-3.500000e-02
-4.894401e-06,4.125000e-02
-4.886401e-06,-1.625000e-02
-4.878401e-06,1.250000e-02
-4.870401e-06,-6.250000e-03
-4.862401e-06,3.125000e-02
-4.854401e-06,2.375000e-02
-4.846401e-06,2.625000e-02
-4.838401e-06,-1.375000e-02
-4.830401e-06,3.750000e-03
-4.822401e-06,-1.375000e-02
-4.814401e-06,2.500000e-02
-4.806401e-06,-1.250000e-02
-4.798401e-06,7.500000e-03
-4.790401e-06,-1.125000e-02
-4.782401e-06,7.500000e-03
-4.774401e-06,-1.125000e-02
-4.766401e-06,2.000000e-02
-4.758401e-06,-8.750000e-03
-4.750401e-06,5.000000e-03
-4.742401e-06,6.250000e-03
-4.734401e-06,1.750000e-02
-4.726401e-06,1.250000e-03
-4.718401e-06,1.250000e-03
-4.710401e-06,-1.500000e-02
-4.702401e-06,-8.750000e-03
-4.694401e-06,1.000000e-02
-4.686401e-06,2.500000e-02
-4.678401e-06,-8.750000e-03
-4.670401e-06,2.500000e-03
-4.662401e-06,-2.000000e-02
-4.654401e-06,-8.750000e-03
-4.646401e-06,-1.250000e-02
-4.638401e-06,1.250000e-02
-4.630401e-06,-1.000000e-02
-4.622401e-06,1.000000e-02
-4.614401e-06,-2.000000e-02
-4.606401e-06,3.750000e-03
-4.598401e-06,-1.375000e-02
-4.590401e-06,0.000000e+00
-4.582401e-06,-6.250000e-03
-4.574401e-06,1.250000e-02
-4.566401e-06,-1.250000e-02
-4.558401e-06,1.625000e-02
-4.550401e-06,1.500000e-02
-4.542401e-06,-3.750000e-03
-4.534401e-06,-2.500000e-03
-4.526401e-06,2.625000e-02
-4.518401e-06,-2.500000e-02
-4.510401e-06,1.625000e-02
-4.502401e-06,-6.250000e-03
-4.494401e-06,2.875000e-02
-4.486401e-06,-7.500000e-03
-4.478401e-06,-3.750000e-03
-4.470401e-06,1.250000e-03
-4.462401e-06,1.375000e-02
-4.454401e-06,-7.500000e-03
-4.446401e-06,1.625000e-02
-4.438401e-06,8.750000e-03
-4.430401e-06,1.750000e-02
-4.422401e-06,-1.000000e-02
-4.414401e-06,-5.000000e-03
-4.406401e-06,-2.375000e-02
-4.398401e-06,1.375000e-02
-4.390401e-06,-1.375000e-02
-4.382401e-06,1.750000e-02
-4.374401e-06,-8.750000e-03
-4.366401e-06,1.000000e-02
-4.358401e-06,-2.000000e-02
-4.350401e-06,2.375000e-02
-4.342401e-06,-1.750000e-02
-4.334401e-06,1.500000e-02
-4.326401e-06,5.000000e-03
-4.318401e-06,2.125000e-02
-4.310401e-06,-5.000000e-03
-4.302401e-06,2.500000e-02
-4.294401e-06,-1.875000e-02
-4.286401e-06,2.250000e-02
-4.278401e-06,-2.500000e-03
-4.270401e-06,-5.000000e-03
-4.262401e-06,-2.875000e-02
-4.254401e-06,1.375000e-02
-4.246401e-06,-1.375000e-02
-4.238401e-06,1.375000e-02
-4.230401e-06,-5.000000e-03
-4.222401e-06,1.750000e-02
-4.214401e-06,-1.750000e-02
-4.206401e-06,7.500000e-03
-4.198401e-06,1.625000e-02
-4.190401e-06,1.875000e-02
-4.182401e-06,-6.250000e-03
-4.174401e-06,1.250000e-02
-4.166401e-06,-1.625000e-02
-4.158401e-06,1.500000e-02
-4.150401e-06,-2.250000e-02
-4.142401e-06,1.625000e-02
-4.134401e-06,-1.000000e-02
-4.126401e-06,5.000000e-03
-4.118401e-06,-1.750000e-02
-4.110401e-06,7.500000e-03
-4.102401e-06,-1.000000e-02
-4.094401e-06,1.000000e-02
-4.086401e-06,-7.500000e-03
-4.078401e-06,7.500000e-03
-4.070401e-06,6.250000e-03
-4.062401e-06,2.625000e-02
-4.054401e-06,6.250000e-03
-4.046401e-06,1.250000e-02
-4.038401e-06,2.000000e-02
-4.030401e-06,3.625000e-02
-4.022401e-06,-2.125000e-02
-4.014401e-06,7.500000e-03
-4.006401e-06,-1.750000e-02
-3.998401e-06,2.375000e-02
-3.990401e-06,-5.000000e-03
-3.982401e-06,2.500000e-03
-3.974401e-06,-2.250000e-02
-3.966401e-06,1.250000e-02
-3.958401e-06,-5.000000e-03
-3.950401e-06,-1.000000e-02
-3.942401e-06,-1.875000e-02
-3.934401e-06,2.750000e-02
-3.926401e-06,-3.750000e-03
-3.918401e-06,-7.500000e-03
-3.910401e-06,-1.875000e-02
-3.902401e-06,1.375000e-02
-3.894401e-06,-1.375000e-02
-3.886401e-06,1.000000e-02
-3.878401e-06,-3.125000e-02
-3.870401e-06,2.000000e-02
-3.862401e-06,-1.000000e-02
-3.854401e-06,3.750000e-03
-3.846401e-06,0.000000e+00
-3.838401e-06,-7.500000e-03
-3.830401e-06,7.500000e-03
-3.822401e-06,7.500000e-03
-3.814401e-06,0.000000e+00
-3.806401e-06,-7.500000e-03
-3.798401e-06,-6.250000e-03
-3.790401e-06,-3.750000e-03
-3.782401e-06,-6.250000e-03
-3.774401e-06,2.500000e-02
-3.766401e-06,-2.375000e-02
-3.758401e-06,1.500000e-02
-3.750401e-06,-1.375000e-02
-3.742401e-06,5.000000e-03
-3.734401e-06,-1.125000e-02
-3.726401e-06,3.250000e-02
-3.718401e-06,-2.500000e-02
-3.710401e-06,1.125000e-02
-3.702401e-06,-3.500000e-02
-3.694401e-06,2.250000e-02
-3.686401e-06,-1.375000e-02
-3.678401e-06,3.125000e-02
-3.670401e-06,-2.375000e-02
-3.662401e-06,2.000000e-02
-3.654401e-06,-3.750000e-03
-3.646401e-06,1.000000e-02
-3.638401e-06,-2.500000e-02
-3.630401e-06,1.500000e-02
-3.622401e-06,-3.125000e-02
-3.614401e-06,2.250000e-02
-3.606401e-06,-1.875000e-02
-3.598401e-06,1.375000e-02
-3.590401e-06,-3.125000e-02
-3.582401e-06,8.750000e-03
-3.574401e-06,-2.250000e-02
-3.566401e-06,1.375000e-02
-3.558401e-06,3.750000e-03
-3.550401e-06,2.500000e-03
-3.542401e-06,-1.625000e-02
-3.534401e-06,1.000000e-02
-3.526401e-06,-2.625000e-02
-3.518401e-06,2.500000e-02
-3.510401e-06,-7.500000e-03
-3.502401e-06,3.750000e-02
-3.494401e-06,-3.750000e-03
-3.486401e-06,1.250000e-02
-3.478401e-06,-8.750000e-03
-3.470401e-06,2.750000e-02
-3.462401e-06,-1.000000e-02
-3.454401e-06,1.375000e-02
-3.446401e-06,-1.375000e-02
-3.438401e-06,7.500000e-03
-3.430401e-06,-3.875000e-02
-3.422401e-06,3.375000e-02
-3.414401e-06,-4.000000e-02
-3.406401e-06,1.375000e-02
-3.398401e-06,-2.375000e-02
-3.390401e-06,1.125000e-02
-3.382401e-06,-3.250000e-02
-3.374401e-06,3.250000e-02
-3.366401e-06,-1.375000e-02
-3.358401e-06,2.250000e-02
-3.350401e-06,7.500000e-03
-3.342401e-06,1.375000e-02
-3.334401e-06,-1.250000e-03
-3.326401e-06,2.250000e-02
-3.318401e-06,-2.500000e-02
-3.310401e-06,1.875000e-02
-3.302401e-06,-7.500000e-03
-3.294401e-06,3.500000e-02
-3.286401e-06,-7.500000e-03
-3.278401e-06,2.125000e-02
-3.270401e-06,-2.375000e-02
-3.262401e-06,2.000000e-02
-3.254401e-06,-4.625000e-02
-3.246401e-06,7.500000e-03
-3.238401e-06,-8.750000e-03
-3.230401e-06,7.500000e-03
-3.222401e-06,-1.500000e-02
-3.214401e-06,1.375000e-02
-3.206401e-06,0.000000e+00
-3.198401e-06,2.250000e-02
-3.190401e-06,-1.250000e-03
-3.182401e-06,3.750000e-03
-3.174401e-06,-3.750000e-03
-3.166401e-06,1.875000e-02
-3.158401e-06,-1.375000e-02
-3.150401e-06,3.125000e-02
-3.142401e-06,-1.500000e-02
-3.134401e-06,2.250000e-02
-3.126401e-06,-3.250000e-02
-3.118401e-06,7.500000e-03
-3.110401e-06,-1.250000e-02
-3.102401e-06,2.000000e-02
-3.094401e-06,-3.125000e-02
-3.086401e-06,1.750000e-02
-3.078401e-06,-2.000000e-02
-3.070401e-06,0.000000e+00
-3.062401e-06,-3.125000e-02
-3.054401e-06,1.250000e-03
-3.046401e-06,-1.750000e-02
-3.038401e-06,1.375000e-02
-3.030401e-06,-7.500000e-03
-3.022401e-06,-2.500000e-03
-3.014401e-06,6.250000e-03
-3.006401e-06,1.250000e-02
-2.998401e-06,-3.000000e-02
-2.990401e-06,1.750000e-02
-2.982401e-06,-1.500000e-02
-2.974401e-06,8.750000e-03
-2.966401e-06,-1.750000e-02
-2.958401e-06,2.500000e-03
-2.950401e-06,-2.750000e-02
-2.942401e-06,8.750000e-03
-2.934401e-06,-1.625000e-02
-2.926401e-06,1.250000e-02
-2.918401e-06,-7.500000e-03
-2.910401e-06,1.875000e-02
-2.902401e-06,5.000000e-03
-2.894401e-06,-6.250000e-03
-2.886401e-06,-8.750000e-03
-2.878401e-06,-1.250000e-03
-2.870401e-06,-3.125000e-02
-2.862401e-06,8.750000e-03
-2.854401e-06,-4.000000e-02
-2.846401e-06,1.750000e-02
-2.838401e-06,-1.625000e-02
-2.830401e-06,0.000000e+00
-2.822401e-06,-1.625000e-02
-2.814401e-06,8.750000e-03
-2.806401e-06,-3.250000e-02
-2.798401e-06,2.500000e-02
-2.790401e-06,-2.125000e-02
-2.782401e-06,1.875000e-02
-2.774401e-06,-6.250000e-03
-2.766401e-06,2.375000e-02
-2.758401e-06,-1.000000e-02
-2.750401e-06,1.750000e-02
-2.742401e-06,-2.250000e-02
-2.734401e-06,2.500000e-02
-2.726401e-06,-3.000000e-02
-2.718401e-06,1.750000e-02
-2.710401e-06,1.250000e-03
-2.702401e-06,2.250000e-02
-2.694401e-06,-2.750000e-02
-2.686401e-06,-1.250000e-03
-2.678401e-06,2.000000e-02
-2.670401e-06,8.750000e-03
-2.662401e-06,-1.500000e-02
-2.654401e-06,1.125000e-02
-2.646401e-06,6.250000e-03
-2.638401e-06,8.750000e-03
-2.630401e-06,-1.750000e-02
-2.622401e-06,3.375000e-02
-2.614401e-06,-1.250000e-03
-2.606401e-06,8.750000e-03
-2.598401e-06,-5.000000e-03
-2.590401e-06,1.250000e-02
-2.582401e-06,-1.625000e-02
-2.574401e-06,1.750000e-02
-2.566401e-06,-2.750000e-02
-2.558401e-06,8.750000e-03
-2.550401e-06,-2.500000e-02
-2.542401e-06,-1.250000e-02
-2.534401e-06,-1.250000e-03
-2.526401e-06,2.125000e-02
-2.518401e-06,-7.500000e-03
-2.510401e-06,0.000000e+00
-2.502401e-06,-2.500000e-02
-2.494401e-06,1.625000e-02
-2.486401e-06,-1.750000e-02
-2.478401e-06,6.250000e-03
-2.470401e-06,-3.000000e-02
-2.462401e-06,7.500000e-03
-2.454401e-06,8.750000e-03
-2.446401e-06,1.250000e-02
-2.438401e-06,-1.875000e-02
-2.430401e-06,1.625000e-02
-2.422401e-06,-2.500000e-02
-2.414401e-06,1.250000e-02
-2.406401e-06,0.000000e+00
-2.398401e-06,6.250000e-03
-2.390401e-06,5.000000e-03
-2.382401e-06,2.125000e-02
-2.374401e-06,-1.500000e-02
-2.366401e-06,2.875000e-02
-2.358401e-06,-8.750000e-03
-2.350401e-06,8.750000e-03
-2.342401e-06,-2.375000e-02
-2.334401e-06,3.375000e-02
-2.326401e-06,-2.250000e-02
-2.318401e-06,3.000000e-02
-2.310401e-06,-8.750000e-03
-2.302401e-06,-1.250000e-02
-2.294401e-06,-1.875000e-02
-2.286401e-06,3.750000e-03
-2.278401e-06,1.250000e-03
-2.270401e-06,3.625000e-02
-2.262401e-06,-1.125000e-02
-2.254401e-06,8.750000e-03
-2.246401e-06,-2.250000e-02
-2.238401e-06,1.000000e-02
-2.230401e-06,-2.875000e-02
-2.222401e-06,7.500000e-03
-2.214401e-06,-1.875000e-02
-2.206401e-06,2.875000e-02
-2.198401e-06,-1.875000e-02
-2.190401e-06,3.750000e-03
-2.182401e-06,-3.750000e-03
-2.174401e-06,0.000000e+00
-2.166401e-06,0.000000e+00
-2.158401e-06,1.125000e-02
-2.150401e-06,5.000000e-03
-2.142401e-06,3.125000e-02
-2.134401e-06,1.125000e-02
-2.126401e-06,1.125000e-02
-2.118401e-06,-3.750000e-03
-2.110401e-06,1.375000e-02
-2.102401e-06,-2.500000e-02
-2.094401e-06,1.125000e-02
-2.086401e-06,-2.125000e-02
-2.078401e-06,1.750000e-02
-2.070401e-06,-3.625000e-02
-2.062401e-06,1.375000e-02
-2.054401e-06,-1.875000e-02
-2.046401e-06,3.875000e-02
-2.038401e-06,-1.250000e-02
-2.030401e-06,1.500000e-02
-2.022401e-06,-1.125000e-02
-2.014401e-06,3.375000e-02
-2.006401e-06,1.625000e-02
-1.998401e-06,1.750000e-02
-1.990401e-06,-1.125000e-02
-1.982401e-06,1.125000e-02
-1.974401e-06,-4.125000e-02
-1.966401e-06,2.625000e-02
-1.958401e-06,-1.250000e-02
-1.950401e-06,1.000000e-02
-1.942401e-06,-7.500000e-03
-1.934401e-06,3.750000e-03
-1.926401e-06,-1.750000e-02
-1.918401e-06,1.375000e-02
-1.910401e-06,7.500000e-03
-1.902401e-06,1.125000e-02
-1.894401e-06,-3.750000e-03
-1.886401e-06,1.000000e-02
-1.878401e-06,6.250000e-03
-1.870401e-06,2.375000e-02
-1.862401e-06,5.000000e-03
-1.854401e-06,8.750000e-03
-1.846401e-06,-2.000000e-02
-1.838401e-06,7.500000e-03
-1.830401e-06,-1.875000e-02
-1.822401e-06,2.500000e-02
-1.814401e-06,-1.250000e-02
-1.806401e-06,1.875000e-02
-1.798401e-06,-8.750000e-03
-1.790401e-06,-1.250000e-03
-1.782401e-06,-1.375000e-02
-1.774401e-06,2.500000e-02
-1.766401e-06,-2.000000e-02
-1.758401e-06,2.500000e-03
-1.750401e-06,-1.125000e-02
-1.742401e-06,2.750000e-02
-1.734401e-06,-3.000000e-02
-1.726401e-06,1.375000e-02
-1.718401e-06,-1.000000e-02
-1.710401e-06,2.375000e-02
-1.702401e-06,-1.000000e-02
-1.694401e-06,2.375000e-02
-1.686401e-06,-1.250000e-02
-1.678401e-06,1.875000e-02
-1.670401e-06,-1.000000e-02
-1.662401e-06,-5.000000e-03
-1.654401e-06,-3.000000e-02
-1.646401e-06,1.750000e-02
-1.638401e-06,-3.750000e-02
-1.630401e-06,1.875000e-02
-1.622401e-06,-1.250000e-03
-1.614401e-06,1.250000e-02
-1.606401e-06,-1.750000e-02
-1.598401e-06,3.375000e-02
-1.590401e-06,-2.750000e-02
-1.582401e-06,5.000000e-03
-1.574401e-06,-2.875000e-02
-1.566401e-06,3.750000e-03
-1.558401e-06,-8.750000e-03
-1.550401e-06,-1.250000e-02
-1.542401e-06,-2.500000e-02
-1.534401e-06,1.250000e-03
-1.526401e-06,-1.875000e-02
-1.518401e-06,3.750000e-03
-1.510401e-06,-1.125000e-02
-1.502401e-06,1.250000e-02
-1.494401e-06,1.750000e-02
-1.486401e-06,3.625000e-02
-1.478401e-06,-2.000000e-02
-1.470401e-06,1.250000e-02
-1.462401e-06,-2.750000e-02
-1.454401e-06,4.375000e-02
-1.446401e-06,-2.125000e-02
-1.438401e-06,1.625000e-02
-1.430401e-06,-3.000000e-02
-1.422401e-06,2.500000e-03
-1.414401e-06,-2.750000e-02
-1.406401e-06,1.375000e-02
-1.398401e-06,-3.750000e-02
-1.390401e-06,1.000000e-02
-1.382401e-06,1.750000e-02
-1.374401e-06,-3.750000e-03
-1.366401e-06,-7.500000e-03
-1.358401e-06,3.375000e-02
-1.350401e-06,-2.000000e-02
-1.342401e-06,4.000000e-02
-1.334401e-06,-1.000000e-02
-1.326401e-06,8.750000e-03
-1.318401e-06,-2.375000e-02
-1.310401e-06,1.875000e-02
-1.302401e-06,-5.000000e-03
-1.294401e-06,3.750000e-03
-1.286401e-06,-2.125000e-02
-1.278401e-06,1.875000e-02
-1.270401e-06,-7.500000e-03
-1.262401e-06,1.250000e-02
-1.254401e-06,-5.000000e-03
-1.246401e-06,8.750000e-03
-1.238401e-06,-2.875000e-02
-1.230401e-06,2.375000e-02
-1.222401e-06,-2.250000e-02
-1.214401e-06,3.375000e-02
-1.206401e-06,-1.500000e-02
-1.198401e-06,2.750000e-02
-1.190401e-06,-1.875000e-02
-1.182401e-06,4.125000e-02
-1.174401e-06,-2.375000e-02
-1.166401e-06,2.250000e-02
-1.158401e-06,-1.750000e-02
-1.150401e-06,1.875000e-02
-1.142401e-06,-6.250000e-03
-1.134401e-06,1.000000e-02
-1.126401e-06,-1.500000e-02
-1.118401e-06,2.750000e-02
-1.110401e-06,-3.125000e-02
-1.102401e-06,1.250000e-02
-1.094401e-06,-1.125000e-02
-1.086401e-06,1.250000e-02
-1.078401e-06,-4.500000e-02
-1.070401e-06,2.750000e-02
-1.062401e-06,-2.500000e-02
-1.054401e-06,2.000000e-02
-1.046401e-06,-1.375000e-02
-1.038401e-06,-3.750000e-03
-1.030401e-06,-6.250000e-03
-1.022401e-06,-3.750000e-03
-1.014401e-06,-4.250000e-02
-1.006401e-06,2.750000e-02
-9.984012e-07,1.250000e-03
-9.904012e-07,2.375000e-02
-9.824012e-07,-2.125000e-02
-9.744013e-07,1.375000e-02
-9.664012e-07,-2.750000e-02
-9.584012e-07,1.875000e-02
-9.504012e-07,-2.375000e-02
-9.424012e-07,2.625000e-02
-9.344012e-07,-3.750000e-02
-9.264012e-07,3.375000e-02
-9.184012e-07,-6.250000e-03
-9.104012e-07,6.250000e-03
-9.024012e-07,-1.125000e-02
-8.944012e-07,2.500000e-02
-8.864012e-07,-1.500000e-02
-8.784012e-07,1.250000e-03
-8.704012e-07,-6.250000e-03
-8.624012e-07,2.875000e-02
-8.544012e-07,7.500000e-03
-8.464012e-07,2.000000e-02
-8.384012e-07,-5.000000e-03
-8.304012e-07,-1.500000e-02
-8.224012e-07,-2.750000e-02
-8.144012e-07,3.125000e-02
-8.064012e-07,-2.000000e-02
-7.984012e-07,2.250000e-02
-7.904012e-07,-8.750000e-03
-7.824012e-07,1.625000e-02
-7.744012e-07,-8.750000e-03
-7.664012e-07,2.500000e-02
-7.584012e-07,-1.625000e-02
-7.504012e-07,1.875000e-02
-7.424012e-07,7.500000e-03
-7.344012e-07,5.000000e-03
-7.264012e-07,2.500000e-03
-7.184012e-07,1.625000e-02
-7.104012e-07,-7.500000e-03
-7.024012e-07,8.750000e-03
-6.944012e-07,-2.375000e-02
-6.864012e-07,1.375000e-02
-6.784012e-07,-3.750000e-02
-6.704012e-07,3.750000e-03
-6.624012e-07,-2.000000e-02
-6.544012e-07,1.875000e-02
-6.464012e-07,7.500000e-03
-6.384012e-07,3.750000e-03
-6.304012e-07,-1.375000e-02
-6.224012e-07,-5.000000e-03
-6.144012e-07,-2.000000e-02
-6.064012e-07,1.375000e-02
-5.984012e-07,3.750000e-03
-5.904012e-07,1.000000e-02
-5.824012e-07,-1.625000e-02
-5.744012e-07,0.000000e+00
-5.664012e-07,-2.875000e-02
-5.584012e-07,7.500000e-03
-5.504012e-07,-2.250000e-02
-5.424012e-07,1.500000e-02
-5.344012e-07,-2.500000e-02
-5.264012e-07,2.125000e-02
-5.184012e-07,-3.750000e-03
-5.104012e-07,2.375000e-02
-5.024012e-07,-1.250000e-02
-4.944012e-07,6.250000e-03
-4.864012e-07,0.000000e+00
-4.784012e-07,1.750000e-02
-4.704012e-07,-2.500000e-03
-4.624012e-07,1.625000e-02
-4.544012e-07,-1.625000e-02
-4.464012e-07,1.875000e-02
-4.384012e-07,-6.250000e-03
-4.304012e-07,1.250000e-03
-4.224012e-07,-4.500000e-02
-4.144012e-07,2.875000e-02
-4.064012e-07,-2.000000e-02
-3.984012e-07,-3.750000e-03
-3.904012e-07,-1.000000e-02
-3.824012e-07,8.750000e-03
-3.744012e-07,-5.000000e-03
-3.664012e-07,1.625000e-02
-3.584012e-07,1.250000e-03
-3.504012e-07,5.000000e-03
-3.424012e-07,-1.875000e-02
-3.344012e-07,2.125000e-02
-3.264012e-07,-3.000000e-02
-3.184012e-07,2.000000e-02
-3.104012e-07,-3.750000e-02
-3.024012e-07,-1.250000e-02
-2.944012e-07,-1.500000e-02
-2.864012e-07,2.250000e-02
-2.784012e-07,6.250000e-03
-2.704012e-07,1.375000e-02
-2.624012e-07,-2.625000e-02
-2.544012e-07,1.500000e-02
-2.464012e-07,-2.000000e-02
-2.384012e-07,0.000000e+00
-2.304012e-07,-3.750000e-03
-2.224012e-07,2.250000e-02
-2.144012e-07,-1.625000e-02
-2.064012e-07,1.500000e-02
-1.984012e-07,-3.750000e-02
-1.904012e-07,1.625000e-02
-1.824012e-07,-1.250000e-02
-1.744012e-07,5.000000e-03
-1.664012e-07,-2.000000e-02
-1.584012e-07,3.375000e-02
-1.504012e-07,-1.125000e-02
-1.424012e-07,3.000000e-02
-1.344012e-07,-8.750000e-03
-1.264012e-07,3.000000e-02
-1.184012e-07,-2.000000e-02
-1.104012e-07,2.500000e-02
-1.024012e-07,-5.000000e-03
-9.440125e-08,2.125000e-02
-8.640125e-08,-2.250000e-02
-7.840125e-08,3.375000e-02
-7.040125e-08,-3.750000e-03
-6.240125e-08,2.375000e-02
-5.440125e-08,-1.875000e-02
-4.640125e-08,3.125000e-02
-3.840125e-08,-4.375000e-02
-3.040125e-08,4.625000e-02
-2.240125e-08,-1.250000e-02
-1.440125e-08,1.250000e-03
-6.401250e-09,-1.875000e-02
1.598750e-09,-1.005000e+00
9.598750e-09,-1.421250e+00
1.759875e-08,-1.400000e+00
2.559875e-08,-1.433750e+00
3.359875e-08,-8.750000e-03
4.159875e-08,-1.625000e-02
4.959875e-08,2.125000e-02
5.759875e-08,-3.875000e-02
6.559875e-08,1.875000e-02
7.359875e-08,-8.750000e-03
8.159875e-08,2.500000e-02
8.959875e-08,-2.000000e-02
9.759875e-08,2.000000e-02
1.055988e-07,-8.750000e-03
1.135988e-07,1.000000e-02
1.215988e-07,-2.125000e-02
1.295988e-07,2.375000e-02
1.375988e-07,1.250000e-03
1.455988e-07,2.375000e-02
1.535988e-07,-1.625000e-02
1.615988e-07,1.625000e-02
1.695988e-07,1.625000e-02
1.775988e-07,2.625000e-02
1.855988e-07,1.250000e-03
1.935988e-07,1.125000e-02
2.015988e-07,-1.500000e-02
2.095988e-07,5.000000e-03
2.175988e-07,-3.250000e-02
2.255988e-07,3.625000e-02
2.335988e-07,-3.000000e-02
2.415988e-07,-1.250000e-03
2.495988e-07,-3.000000e-02
2.575988e-07,2.875000e-02
2.655988e-07,-1.750000e-02
2.735988e-07,2.000000e-02
2.815988e-07,-1.250000e-03
2.895988e-07,3.875000e-02
2.975988e-07,2.500000e-03
3.055988e-07,1.750000e-02
3.135988e-07,-1.000000e-02
3.215988e-07,0.000000e+00
3.295988e-07,-3.125000e-02
3.375988e-07,1.375000e-02
3.455988e-07,-1.125000e-02
3.535988e-07,2.250000e-02
3.615988e-07,-1.750000e-02
3.695988e-07,-6.250000e-03
3.775988e-07,-2.125000e-02
3.855988e-07,1.000000e-02
3.935988e-07,-1.500000e-02
4.015988e-07,1.500000e-02
4.095988e-07,-7.500000e-03
4.175988e-07,2.625000e-02
4.255988e-07,-6.250000e-03
4.335988e-07,3.125000e-02
4.415988e-07,-5.000000e-03
4.495988e-07,2.625000e-02
4.575988e-07,-4.000000e-02
4.655988e-07,1.750000e-02
4.735988e-07,-2.375000e-02
4.815988e-07,1.625000e-02
4.895988e-07,-1.500000e-02
4.975988e-07,1.875000e-02
5.055988e-07,5.000000e-03
5.135988e-07,1.250000e-03
5.215988e-07,-1.750000e-02
5.295988e-07,3.750000e-03
5.375988e-07,-1.375000e-02
5.455988e-07,3.250000e-02
5.535988e-07,-6.250000e-03
5.615988e-07,2.000000e-02
5.695988e-07,-2.375000e-02
5.775988e-07,5.000000e-03
5.855988e-07,-1.750000e-02
5.935988e-07,1.375000e-02
6.015988e-07,-6.250000e-03
6.095988e-07,2.125000e-02
6.175988e-07,-6.250000e-03
6.255988e-07,2.000000e-02
6.335988e-07,-1.250000e-02
6.415988e-07,1.375000e-02
6.495988e-07,-2.250000e-02
6.575988e-07,1.875000e-02
6.655988e-07,-1.125000e-02
6.735988e-07,3.750000e-02
6.815988e-07,-1.750000e-02
6.895988e-07,7.500000e-03
6.975988e-07,-1.625000e-02
7.055988e-07,1.250000e-02
7.135988e-07,-2.125000e-02
7.215988e-07,7.500000e-03
7.295988e-07,-2.250000e-02
7.375988e-07,2.250000e-02
7.455988e-07,-2.000000e-02
7.535988e-07,1.125000e-02
7.615988e-07,8.750000e-03
7.695988e-07,1.750000e-02
7.775988e-07,-2.000000e-02
7.855988e-07,1.500000e-02
7.935988e-07,6.250000e-03
8.015988e-07,1.375000e-02
