run1/run1_ch1_20210318180207261.csv

Model,MSO64
Waveform Type,ANALOG
Horizontal Units,s
Sample Interval,8.000000e-09
Record Length,1250
Zero Index,624.200000
Vertical Units,V

TIME,CH1
-4.993600e-06,-1.250000e-03
-4.985600e-06,2.625000e-02
-4.977600e-06,-1.500000e-02
-4.969600e-06,3.750000e-03
-4.961600e-06,7.500000e-03
-4.953600e-06,1.750000e-02
-4.945600e-06,-1.000000e-02
-4.937600e-06,1.250000e-03
-4.929600e-06,-1.250000e-03
-4.921600e-06,7.500000e-03
-4.913600e-06,-3.750000e-03
-4.905600e-06,1.250000e-02
-4.897600e-06,-1.250000e-03
-4.889600e-06,4.250000e-02
-4.881600e-06,-2.500000e-03
-4.873600e-06,-1.250000e-02
-4.865600e-06,-2.375000e-02
-4.857600e-06,2.750000e-02
-4.849600e-06,-1.875000e-02
-4.841600e-06,8.750000e-03
-4.833600e-06,-1.125000e-02
-4.825600e-06,7.500000e-03
-4.817600e-06,-2.500000e-03
-4.809600e-06,1.250000e-02
-4.801600e-06,-3.500000e-02
-4.793600e-06,3.750000e-03
-4.785600e-06,-3.125000e-02
-4.777600e-06,8.750000e-03
-4.769600e-06,-2.375000e-02
-4.761600e-06,2.125000e-02
-4.753600e-06,-6.250000e-03
-4.745600e-06,2.625000e-02
-4.737600e-06,-1.875000e-02
-4.729600e-06,1.750000e-02
-4.721600e-06,-2.250000e-02
-4.713600e-06,1.250000e-02
-4.705600e-06,-1.375000e-02
-4.697600e-06,3.125000e-02
-4.689600e-06,-2.250000e-02
-4.681600e-06,7.500000e-03
-4.673600e-06,-6.250000e-03
-4.665600e-06,1.125000e-02
-4.657600e-06,-2.000000e-02
-4.649600e-06,1.625000e-02
-4.641600e-06,-2.625000e-02
-4.633600e-06,2.125000e-02
-4.625600e-06,-1.875000e-02
-4.617600e-06,2.125000e-02
-4.609600e-06,-1.625000e-02
-4.601600e-06,-1.000000e-02
-4.593600e-06,-2.875000e-02
-4.585600e-06,1.000000e-02
-4.577600e-06,-7.500000e-03
-4.569600e-06,2.000000e-02
-4.561600e-06,-2.500000e-03
-4.553600e-06,6.250000e-03
-4.545600e-06,-1.625000e-02
-4.537600e-06,3.625000e-02
-4.529600e-06,-2.125000e-02
-4.521600e-06,1.875000e-02
-4.513600e-06,-3.125000e-02
-4.505600e-06,1.000000e-02
-4.497600e-06,-5.000000e-03
-4.489600e-06,2.500000e-02
-4.481600e-06,3.750000e-03
-4.473600e-06,5.000000e-03
-4.465600e-06,-1.125000e-02
-4.457600e-06,6.250000e-03
-4.449600e-06,-1.000000e-02
-4.441600e-06,2.750000e-02
-4.433600e-06,2.500000e-03
-4.425600e-06,2.500000e-02
-4.417600e-06,-7.500000e-03
-4.409600e-06,7.500000e-03
-4.401600e-06,-4.000000e-02
-4.393600e-06,2.625000e-02
-4.385600e-06,-7.500000e-03
-4.377600e-06,2.125000e-02
-4.369600e-06,0.000000e+00
-4.361600e-06,1.375000e-02
-4.353600e-06,-2.000000e-02
-4.345600e-06,8.750000e-03
-4.337600e-06,-1.500000e-02
-4.329600e-06,6.250000e-03
-4.321600e-06,-1.375000e-02
-4.313600e-06,3.750000e-02
-4.305600e-06,3.750000e-03
-4.297600e-06,1.125000e-02
-4.289600e-06,-8.750000e-03
-4.281600e-06,1.750000e-02
-4.273600e-06,-3.375000e-02
-4.265600e-06,4.000000e-02
-4.257600e-06,-1.125000e-02
-4.249600e-06,2.500000e-02
-4.241600e-06,-1.375000e-02
-4.233600e-06,6.250000e-03
-4.225600e-06,-1.875000e-02
-4.217600e-06,-1.750000e-02
-4.209600e-06,2.500000e-03
-4.201600e-06,2.000000e-02
-4.193600e-06,-1.875000e-02
-4.185600e-06,2.500000e-02
-4.177600e-06,2.500000e-03
-4.169600e-06,2.375000e-02
-4.161600e-06,-1.125000e-02
-4.153600e-06,-1.625000e-02
-4.145600e-06,-1.625000e-02
-4.137600e-06,2.125000e-02
-4.129600e-06,-3.750000e-02
-4.121600e-06,7.500000e-03
-4.113600e-06,-3.750000e-03
-4.105600e-06,3.500000e-02
-4.097600e-06,-2.500000e-02
-4.089600e-06,5.000000e-03
-4.081600e-06,-3.250000e-02
-4.073600e-06,1.250000e-02
-4.065600e-06,-7.500000e-03
-4.057600e-06,3.750000e-03
-4.049600e-06,-1.250000e-03
-4.041600e-06,1.750000e-02
-4.033600e-06,1.125000e-02
-4.025600e-06,1.250000e-03
-4.017600e-06,-2.625000e-02
-4.009600e-06,3.000000e-02
-4.001600e-06,-3.125000e-02
-3.993600e-06,3.125000e-02
-3.985600e-06,-2.750000e-02
-3.977600e-06,6.250000e-03
-3.969600e-06,-2.000000e-02
-3.961600e-06,2.250000e-02
-3.953600e-06,-1.250000e-02
-3.945600e-06,2.125000e-02
-3.937600e-06,1.875000e-02
-3.929600e-06,2.375000e-02
-3.921600e-06,-6.250000e-03
-3.913600e-06,1.875000e-02
-3.905600e-06,-1.000000e-02
-3.897600e-06,2.375000e-02
-3.889600e-06,-1.125000e-02
-3.881600e-06,8.750000e-03
-3.873600e-06,-1.250000e-03
-3.865600e-06,2.000000e-02
-3.857600e-06,-1.250000e-02
-3.849600e-06,1.625000e-02
-3.841600e-06,-2.375000e-02
-3.833600e-06,1.250000e-03
-3.825600e-06,-2.625000e-02
-3.817600e-06,2.500000e-03
-3.809600e-06,-2.250000e-02
-3.801600e-06,1.750000e-02
-3.793600e-06,-1.875000e-02
-3.785600e-06,1.000000e-02
-3.777600e-06,-1.250000e-03
-3.769600e-06,1.250000e-03
-3.761600e-06,-3.625000e-02
-3.753600e-06,2.375000e-02
-3.745600e-06,-3.875000e-02
-3.737600e-06,2.250000e-02
-3.729600e-06,-1.250000e-03
-3.721600e-06,1.875000e-02
-3.713600e-06,-7.500000e-03
-3.705600e-06,-3.750000e-03
-3.697600e-06,-1.875000e-02
-3.689600e-06,2.500000e-03
-3.681600e-06,-7.500000e-03
-3.673600e-06,3.375000e-02
-3.665600e-06,5.000000e-03
-3.657600e-06,1.875000e-02
-3.649600e-06,-1.500000e-02
-3.641600e-06,7.500000e-03
-3.633600e-06,-1.125000e-02
-3.625600e-06,1.625000e-02
-3.617600e-06,-2.125000e-02
-3.609600e-06,2.625000e-02
-3.601600e-06,-1.625000e-02
-3.593600e-06,1.750000e-02
-3.585600e-06,-1.125000e-02
-3.577600e-06,1.250000e-03
-3.569600e-06,-4.000000e-02
-3.561600e-06,1.250000e-02
-3.553600e-06,1.000000e-02
-3.545600e-06,1.625000e-02
-3.537600e-06,3.750000e-03
-3.529600e-06,3.750000e-02
-3.521600e-06,-2.000000e-02
-3.513600e-06,3.750000e-02
-3.505600e-06,-1.500000e-02
-3.497600e-06,2.125000e-02
-3.489600e-06,-1.750000e-02
-3.481600e-06,1.125000e-02
-3.473600e-06,-1.125000e-02
-3.465600e-06,2.625000e-02
-3.457600e-06,6.250000e-03
-3.449600e-06,3.250000e-02
-3.441600e-06,-2.750000e-02
-3.433600e-06,4.125000e-02
-3.425600e-06,7.500000e-03
-3.417600e-06,1.875000e-02
-3.409600e-06,-3.750000e-03
-3.401600e-06,2.000000e-02
-3.393600e-06,-1.250000e-02
-3.385600e-06,3.125000e-02
-3.377600e-06,-3.625000e-02
-3.369600e-06,1.625000e-02
-3.361600e-06,-7.500000e-03
-3.353600e-06,2.875000e-02
-3.345600e-06,0.000000e+00
-3.337600e-06,2.500000e-03
-3.329600e-06,-8.750000e-03
-3.321600e-06,2.500000e-02
-3.313600e-06,-5.000000e-03
-3.305600e-06,1.125000e-02
-3.297600e-06,-1.250000e-03
-3.289600e-06,2.250000e-02
-3.281600e-06,2.500000e-03
-3.273600e-06,1.750000e-02
-3.265600e-06,-3.750000e-03
-3.257600e-06,-5.000000e-03
-3.249600e-06,-2.250000e-02
-3.241600e-06,-3.750000e-03
-3.233600e-06,-1.000000e-02
-3.225600e-06,2.375000e-02
-3.217600e-06,-3.000000e-02
-3.209600e-06,2.125000e-02
-3.201600e-06,-1.250000e-02
-3.193600e-06,4.750000e-02
-3.185600e-06,-3.375000e-02
-3.177600e-06,3.750000e-03
-3.169600e-06,1.000000e-02
-3.161600e-06,3.750000e-02
-3.153600e-06,-8.750000e-03
-3.145600e-06,8.750000e-03
-3.137600e-06,-6.250000e-03
-3.129600e-06,1.500000e-02
-3.121600e-06,-1.625000e-02
-3.113600e-06,1.375000e-02
-3.105600e-06,-1.000000e-02
-3.097600e-06,2.500000e-02
-3.089600e-06,-1.000000e-02
-3.081600e-06,7.500000e-03
-3.073600e-06,-1.625000e-02
-3.065600e-06,1.250000e-02
-3.057600e-06,-1.625000e-02
-3.049600e-06,3.750000e-03
-3.041600e-06,1.000000e-02
-3.033600e-06,8.750000e-03
-3.025600e-06,3.750000e-03
-3.017600e-06,1.250000e-02
-3.009600e-06,-1.625000e-02
-3.001600e-06,4.250000e-02
-2.993600e-06,-2.500000e-02
-2.985600e-06,2.125000e-02
-2.977600e-06,-2.500000e-02
-2.969600e-06,3.250000e-02
-2.961600e-06,-7.500000e-03
-2.953600e-06,-1.250000e-03
-2.945600e-06,-6.250000e-03
-2.937600e-06,0.000000e+00
-2.929600e-06,-1.875000e-02
-2.921600e-06,1.500000e-02
-2.913600e-06,0.000000e+00
-2.905600e-06,3.375000e-02
-2.897600e-06,0.000000e+00
-2.889600e-06,1.500000e-02
-2.881600e-06,-1.375000e-02
-2.873600e-06,1.000000e-02
-2.865600e-06,-1.125000e-02
-2.857600e-06,3.625000e-02
-2.849600e-06,-3.625000e-02
-2.841600e-06,2.125000e-02
-2.833600e-06,-2.250000e-02
-2.825600e-06,2.375000e-02
-2.817600e-06,-2.000000e-02
-2.809600e-06,2.000000e-02
-2.801600e-06,-2.375000e-02
-2.793600e-06,2.625000e-02
-2.785600e-06,-1.250000e-03
-2.777600e-06,-6.250000e-03
-2.769600e-06,5.000000e-03
-2.761600e-06,1.750000e-02
-2.753600e-06,-2.375000e-02
-2.745600e-06,1.375000e-02
-2.737600e-06,-1.375000e-02
-2.729600e-06,2.375000e-02
-2.721600e-06,-2.000000e-02
-2.713600e-06,2.750000e-02
-2.705600e-06,1.000000e-02
-2.697600e-06,1.250000e-02
-2.689600e-06,-2.500000e-02
-2.681600e-06,0.000000e+00
-2.673600e-06,-2.125000e-02
-2.665600e-06,5.000000e-03
-2.657600e-06,-7.500000e-03
-2.649600e-06,4.000000e-02
-2.641600e-06,6.250000e-03
-2.633600e-06,3.375000e-02
-2.625600e-06,-1.250000e-02
-2.617600e-06,7.500000e-03
-2.609600e-06,-1.875000e-02
-2.601600e-06,7.500000e-03
-2.593600e-06,-1.250000e-02
-2.585600e-06,2.375000e-02
-2.577600e-06,-3.750000e-03
-2.569600e-06,1.625000e-02
-2.561600e-06,-8.750000e-03
-2.553600e-06,1.500000e-02
-2.545600e-06,-1.500000e-02
-2.537600e-06,8.750000e-03
-2.529600e-06,-1.875000e-02
-2.521600e-06,2.500000e-02
-2.513600e-06,2.500000e-03
-2.505600e-06,2.500000e-02
-2.497600e-06,-1.375000e-02
-2.489600e-06,7.500000e-03
-2.481600e-06,-1.250000e-02
-2.473600e-06,2.625000e-02
-2.465600e-06,-7.500000e-03
-2.457600e-06,2.625000e-02
-2.449600e-06,-2.875000e-02
-2.441600e-06,2.500000e-03
-2.433600e-06,-6.250000e-03
-2.425600e-06,0.000000e+00
-2.417600e-06,-1.375000e-02
-2.409600e-06,2.750000e-02
-2.401600e-06,1.250000e-02
-2.393600e-06,5.000000e-03
-2.385600e-06,-1.500000e-02
-2.377600e-06,2.625000e-02
-2.369600e-06,-1.375000e-02
-2.361600e-06,1.125000e-02
-2.353600e-06,-2.500000e-02
-2.345600e-06,6.250000e-03
-2.337600e-06,-1.250000e-02
-2.329600e-06,2.250000e-02
-2.321600e-06,1.750000e-02
-2.313600e-06,-3.750000e-03
-2.305600e-06,-2.375000e-02
-2.297600e-06,8.750000e-03
-2.289600e-06,8.750000e-03
-2.281600e-06,8.750000e-03
-2.273600e-06,1.250000e-03
-2.265600e-06,1.375000e-02
-2.257600e-06,-1.500000e-02
-2.249600e-06,3.625000e-02
-2.241600e-06,-3.750000e-03
-2.233600e-06,1.125000e-02
-2.225600e-06,-7.500000e-03
-2.217600e-06,1.125000e-02
-2.209600e-06,-1.625000e-02
-2.201600e-06,2.625000e-02
-2.193600e-06,-2.500000e-02
-2.185600e-06,1.000000e-02
-2.177600e-06,-2.625000e-02
-2.169600e-06,1.000000e-02
-2.161600e-06,0.000000e+00
-2.153600e-06,-7.500000e-03
-2.145600e-06,1.000000e-02
-2.137600e-06,4.625000e-02
-2.129600e-06,1.000000e-02
-2.121600e-06,5.000000e-03
-2.113600e-06,-2.000000e-02
-2.105600e-06,1.375000e-02
-2.097600e-06,-1.625000e-02
-2.089600e-06,1.000000e-02
-2.081600e-06,-1.250000e-02
-2.073600e-06,1.125000e-02
-2.065600e-06,-1.250000e-02
-2.057600e-06,1.125000e-02
-2.049600e-06,-2.500000e-02
-2.041600e-06,1.500000e-02
-2.033600e-06,2.500000e-03
-2.025600e-06,3.125000e-02
-2.017600e-06,-8.750000e-03
-2.009600e-06,2.000000e-02
-2.001600e-06,-3.750000e-03
-1.993600e-06,1.250000e-02
-1.985600e-06,-1.000000e-02
-1.977600e-06,7.500000e-03
-1.969600e-06,-1.000000e-02
-1.961600e-06,1.500000e-02
-1.953600e-06,-2.500000e-02
-1.945600e-06,2.125000e-02
-1.937600e-06,-3.750000e-03
-1.929600e-06,1.125000e-02
-1.921600e-06,-1.750000e-02
-1.913600e-06,2.500000e-02
-1.905600e-06,-1.375000e-02
-1.897600e-06,4.125000e-02
-1.889600e-06,8.750000e-03
-1.881600e-06,7.500000e-03
-1.873600e-06,-6.250000e-03
-1.865600e-06,7.500000e-03
-1.857600e-06,-1.000000e-02
-1.849600e-06,1.500000e-02
-1.841600e-06,-1.500000e-02
-1.833600e-06,1.625000e-02
-1.825600e-06,5.000000e-03
-1.817600e-06,4.125000e-02
-1.809600e-06,-1.750000e-02
-1.801600e-06,1.000000e-02
-1.793600e-06,-1.125000e-02
-1.785600e-06,1.875000e-02
-1.777600e-06,-2.125000e-02
-1.769600e-06,3.250000e-02
-1.761600e-06,-1.125000e-02
-1.753600e-06,3.250000e-02
-1.745600e-06,-1.625000e-02
-1.737600e-06,1.750000e-02
-1.729600e-06,-6.250000e-03
-1.721600e-06,1.375000e-02
-1.713600e-06,-1.625000e-02
-1.705600e-06,1.750000e-02
-1.697600e-06,-4.125000e-02
-1.689600e-06,2.750000e-02
-1.681600e-06,-1.750000e-02
-1.673600e-06,8.750000e-03
-1.665600e-06,-1.625000e-02
-1.657600e-06,2.250000e-02
-1.649600e-06,-1.375000e-02
-1.641600e-06,7.500000e-03
-1.633600e-06,-6.250000e-03
-1.625600e-06,3.125000e-02
-1.617600e-06,-5.000000e-03
-1.609600e-06,2.125000e-02
-1.601600e-06,-3.125000e-02
-1.593600e-06,2.500000e-02
-1.585600e-06,-2.250000e-02
-1.577600e-06,6.250000e-03
-1.569600e-06,-5.000000e-03
-1.561600e-06,3.000000e-02
-1.553600e-06,-2.250000e-02
-1.545600e-06,5.000000e-03
-1.537600e-06,-1.750000e-02
-1.529600e-06,1.000000e-02
-1.521600e-06,-1.125000e-02
-1.513600e-06,7.500000e-03
-1.505600e-06,0.000000e+00
-1.497600e-06,0.000000e+00
-1.489600e-06,-3.750000e-03
-1.481600e-06,7.500000e-03
-1.473600e-06,-2.125000e-02
-1.465600e-06,-1.250000e-03
-1.457600e-06,-2.000000e-02
-1.449600e-06,1.250000e-02
-1.441600e-06,-1.250000e-02
-1.433600e-06,2.875000e-02
-1.425600e-06,-1.375000e-02
-1.417600e-06,2.500000e-02
-1.409600e-06,-8.750000e-03
-1.401600e-06,1.750000e-02
-1.393600e-06,-7.500000e-03
-1.385600e-06,3.750000e-03
-1.377600e-06,-7.500000e-03
-1.369600e-06,4.625000e-02
-1.361600e-06,-1.875000e-02
-1.353600e-06,2.375000e-02
-1.345600e-06,1.250000e-03
-1.337600e-06,2.000000e-02
-1.329600e-06,-1.000000e-02
-1.321600e-06,0.000000e+00
-1.313600e-06,-8.750000e-03
-1.305600e-06,2.500000e-02
-1.297600e-06,-2.000000e-02
-1.289600e-06,6.250000e-03
-1.281600e-06,-1.250000e-03
-1.273600e-06,2.750000e-02
-1.265600e-06,-1.125000e-02
-1.257600e-06,1.625000e-02
-1.249600e-06,-1.625000e-02
-1.241600e-06,2.125000e-02
-1.233600e-06,-1.625000e-02
-1.225600e-06,1.625000e-02
-1.217600e-06,-1.375000e-02
-1.209600e-06,1.125000e-02
-1.201600e-06,-2.125000e-02
-1.193600e-06,2.875000e-02
-1.185600e-06,-1.250000e-02
-1.177600e-06,3.750000e-03
-1.169600e-06,5.000000e-03
-1.161600e-06,8.750000e-03
-1.153600e-06,-5.000000e-03
-1.145600e-06,1.375000e-02
-1.137600e-06,-8.750000e-03
-1.129600e-06,1.625000e-02
-1.121600e-06,6.250000e-03
-1.113600e-06,1.250000e-02
-1.105600e-06,0.000000e+00
-1.097600e-06,2.125000e-02
-1.089600e-06,-7.500000e-03
-1.081600e-06,-6.250000e-03
-1.073600e-06,-1.000000e-02
-1.065600e-06,1.375000e-02
-1.057600e-06,-5.000000e-03
-1.049600e-06,3.500000e-02
-1.041600e-06,-3.750000e-03
-1.033600e-06,4.000000e-02
-1.025600e-06,-6.250000e-03
-1.017600e-06,3.750000e-03
-1.009600e-06,-5.000000e-03
-1.001600e-06,1.250000e-03
-9.936000e-07,-2.125000e-02
-9.856000e-07,3.250000e-02
-9.776000e-07,-1.375000e-02
-9.696000e-07,2.000000e-02
-9.616000e-07,-2.875000e-02
-9.536000e-07,7.500000e-03
-9.456000e-07,1.250000e-03
-9.376000e-07,3.000000e-02
-9.296000e-07,-2.125000e-02
-9.216000e-07,2.000000e-02
-9.136000e-07,-1.250000e-02
-9.056000e-07,5.000000e-03
-8.976000e-07,-1.250000e-03
-8.896000e-07,6.250000e-03
-8.816000e-07,-1.000000e-02
-8.736000e-07,5.000000e-03
-8.656000e-07,3.750000e-03
-8.576000e-07,3.250000e-02
-8.496000e-07,-5.000000e-03
-8.416000e-07,7.500000e-03
-8.336000e-07,-2.875000e-02
-8.256000e-07,1.250000e-02
-8.176000e-07,-2.500000e-02
-8.096000e-07,0.000000e+00
-8.016000e-07,-4.000000e-02
-7.936000e-07,3.250000e-02
-7.856000e-07,-1.000000e-02
-7.776000e-07,8.750000e-03
-7.696000e-07,-1.250000e-02
-7.616000e-07,6.250000e-03
-7.536000e-07,-1.250000e-03
-7.456000e-07,3.750000e-03
-7.376000e-07,-7.500000e-03
-7.296000e-07,3.000000e-02
-7.216000e-07,-2.500000e-03
-7.136000e-07,3.625000e-02
-7.056000e-07,-2.500000e-03
-6.976000e-07,-6.250000e-03
-6.896000e-07,-2.375000e-02
-6.816000e-07,1.500000e-02
-6.736000e-07,-2.875000e-02
-6.656000e-07,1.750000e-02
-6.576000e-07,-2.125000e-02
-6.496000e-07,2.500000e-03
-6.416000e-07,-2.500000e-02
-6.336000e-07,1.250000e-02
-6.256000e-07,-2.750000e-02
-6.176000e-07,2.500000e-02
-6.096000e-07,8.750000e-03
-6.016000e-07,2.500000e-03
-5.936000e-07,2.250000e-02
-5.856000e-07,2.500000e-02
-5.776000e-07,-1.250000e-03
-5.696000e-07,2.625000e-02
-5.616000e-07,-3.375000e-02
-5.536000e-07,2.000000e-02
-5.456000e-07,-2.500000e-02
-5.376000e-07,2.125000e-02
-5.296000e-07,-6.250000e-03
-5.216000e-07,1.750000e-02
-5.136000e-07,-1.875000e-02
-5.056000e-07,1.375000e-02
-4.976000e-07,-2.125000e-02
-4.896000e-07,1.375000e-02
-4.816000e-07,-6.250000e-03
-4.736000e-07,8.750000e-03
-4.656000e-07,-2.500000e-03
-4.576000e-07,1.375000e-02
-4.496000e-07,0.000000e+00
-4.416000e-07,2.375000e-02
-4.336000e-07,-2.875000e-02
-4.256000e-07,-3.750000e-03
-4.176000e-07,-4.125000e-02
-4.096000e-07,2.000000e-02
-4.016000e-07,-7.500000e-03
-3.936000e-07,1.625000e-02
-3.856000e-07,-1.125000e-02
-3.776000e-07,2.000000e-02
-3.696000e-07,1.250000e-03
-3.616000e-07,2.125000e-02
-3.536000e-07,-5.000000e-03
-3.456000e-07,1.625000e-02
-3.376000e-07,-5.000000e-03
-3.296000e-07,3.125000e-02
-3.216000e-07,-2.750000e-02
-3.136000e-07,3.750000e-03
-3.056000e-07,-1.000000e-02
-2.976000e-07,3.125000e-02
-2.896000e-07,-3.750000e-03
-2.816000e-07,1.000000e-02
-2.736000e-07,-1.125000e-02
-2.656000e-07,5.000000e-03
-2.576000e-07,-1.625000e-02
-2.496000e-07,1.250000e-02
-2.416000e-07,-2.375000e-02
-2.336000e-07,1.750000e-02
-2.256000e-07,-3.750000e-02
-2.176000e-07,7.500000e-03
-2.096000e-07,-2.625000e-02
-2.016000e-07,1.000000e-02
-1.936000e-07,-3.125000e-02
-1.856000e-07,1.000000e-02
-1.776000e-07,-2.000000e-02
-1.696000e-07,3.750000e-03
-1.616000e-07,-1.000000e-02
-1.536000e-07,3.125000e-02
-1.456000e-07,-1.250000e-02
-1.376000e-07,5.000000e-03
-1.296000e-07,-2.375000e-02
-1.216000e-07,2.375000e-02
-1.136000e-07,-2.500000e-03
-1.056000e-07,7.500000e-03
-9.760000e-08,-1.000000e-02
-8.960000e-08,2.625000e-02
-8.160000e-08,-8.750000e-03
-7.360000e-08,1.750000e-02
-6.560000e-08,-1.500000e-02
-5.760000e-08,2.750000e-02
-4.960000e-08,-1.375000e-02
-4.160000e-08,1.875000e-02
-3.360000e-08,-1.288750e+00
-2.560000e-08,-1.393750e+00
-1.760000e-08,-1.418750e+00
-9.600000e-09,-1.387500e+00
-1.600000e-09,-3.375000e-02
6.400000e-09,-1.875000e-02
1.440000e-08,-1.375000e-02
2.240000e-08,2.875000e-02
3.040000e-08,1.125000e-02
3.840000e-08,3.750000e-02
4.640000e-08,-7.500000e-03
5.440000e-08,2.000000e-02
6.240000e-08,-1.250000e-02
7.040000e-08,1.250000e-03
7.840000e-08,-2.875000e-02
8.640000e-08,1.000000e-02
9.440000e-08,6.250000e-03
1.024000e-07,2.000000e-02
1.104000e-07,-1.125000e-02
1.184000e-07,1.250000e-02
1.264000e-07,-1.625000e-02
1.344000e-07,3.000000e-02
1.424000e-07,-1.000000e-02
1.504000e-07,2.625000e-02
1.584000e-07,1.000000e-02
1.664000e-07,1.125000e-02
1.744000e-07,-2.875000e-02
1.824000e-07,2.500000e-02
1.904000e-07,-1.125000e-02
1.984000e-07,2.875000e-02
2.064000e-07,-2.625000e-02
2.144000e-07,1.375000e-02
2.224000e-07,-1.125000e-02
2.304000e-07,2.125000e-02
2.384000e-07,-4.125000e-02
2.464000e-07,1.375000e-02
2.544000e-07,-1.000000e-02
2.624000e-07,1.250000e-03
2.704000e-07,7.500000e-03
2.784000e-07,2.625000e-02
2.864000e-07,-1.750000e-02
2.944000e-07,1.500000e-02
3.024000e-07,-5.000000e-03
3.104000e-07,2.500000e-02
3.184000e-07,1.250000e-03
3.264000e-07,1.000000e-02
3.344000e-07,-1.500000e-02
3.424000e-07,2.750000e-02
3.504000e-07,-6.250000e-03
3.584000e-07,2.250000e-02
3.664000e-07,-1.625000e-02
3.744000e-07,1.500000e-02
3.824000e-07,-5.000000e-03
3.904000e-07,1.250000e-02
3.984000e-07,-2.625000e-02
4.064000e-07,-1.250000e-03
4.144000e-07,-2.375000e-02
4.224000e-07,2.500000e-02
4.304000e-07,-7.500000e-03
4.384000e-07,3.250000e-02
4.464000e-07,-2.625000e-02
4.544000e-07,2.500000e-02
4.624000e-07,-3.875000e-02
4.704000e-07,1.250000e-02
4.784000e-07,-1.375000e-02
4.864000e-07,2.000000e-02
4.944000e-07,-2.125000e-02
5.024000e-07,2.875000e-02
5.104000e-07,-1.250000e-02
5.184000e-07,2.375000e-02
5.264000e-07,-1.250000e-02
5.344000e-07,3.000000e-02
5.424000e-07,-7.500000e-03
5.504000e-07,1.625000e-02
5.584000e-07,3.750000e-03
5.664000e-07,2.125000e-02
5.744000e-07,-3.750000e-03
5.824000e-07,1.125000e-02
5.904000e-07,-2.625000e-02
5.984000e-07,-1.375000e-02
6.064000e-07,-2.000000e-02
6.144000e-07,3.000000e-02
6.224000e-07,-1.000000e-02
6.304000e-07,6.250000e-03
6.384000e-07,-3.750000e-03
6.464000e-07,-3.750000e-03
6.544000e-07,-2.750000e-02
6.624000e-07,2.125000e-02
6.704000e-07,-5.000000e-03
6.784000e-07,2.125000e-02
6.864000e-07,0.000000e+00
6.944000e-07,1.625000e-02
7.024000e-07,-1.125000e-02
7.104000e-07,-8.750000e-03
7.184000e-07,-1.250000e-03
7.264000e-07,6.250000e-03
7.344000e-07,-1.125000e-02
7.424000e-07,1.625000e-02
7.504000e-07,-2.125000e-02
7.584000e-07,1.375000e-02
7.664000e-07,-1.750000e-02
7.744000e-07,2.500000e-02
7.824000e-07,-1.125000e-02
7.904000e-07,2.750000e-02
7.984000e-07,-1.625000e-02
8.064000e-07,1.500000e-02
