run1/run1_ch1_20210318180214161.csv

Model,MSO64
Waveform Type,ANALOG
Horizontal Units,s
Sample Interval,8.000000e-09
Record Length,1250
Zero Index,624.595000
Vertical Units,V

TIME,CH1
-4.996760e-06,-8.750000e-03
-4.988760e-06,-2.500000e-03
-4.980760e-06,-1.625000e-02
-4.972760e-06,1.000000e-02
-4.964760e-06,-3.625000e-02
-4.956760e-06,2.375000e-02
-4.948760e-06,-1.750000e-02
-4.940760e-06,2.250000e-02
-4.932760e-06,-1.625000e-02
-4.924760e-06,-3.750000e-03
-4.916760e-06,-1.250000e-03
-4.908760e-06,-1.000000e-02
-4.900760e-06,-3.750000e-02
-4.892760e-06,1.125000e-02
-4.884760e-06,1.750000e-02
-4.876760e-06,2.375000e-02
-4.868760e-06,-1.750000e-02
-4.860760e-06,1.500000e-02
-4.852760e-06,-1.625000e-02
-4.844760e-06,5.000000e-03
-4.836760e-06,-2.250000e-02
-4.828760e-06,-1.250000e-03
-4.820760e-06,-2.500000e-02
-4.812760e-06,2.250000e-02
-4.804760e-06,-1.375000e-02
-4.796760e-06,-2.500000e-03
-4.788760e-06,1.125000e-02
-4.780760e-06,2.375000e-02
-4.772760e-06,8.750000e-03
-4.764760e-06,1.250000e-03
-4.756760e-06,-6.250000e-03
-4.748760e-06,4.000000e-02
-4.740760e-06,0.000000e+00
-4.732760e-06,1.250000e-02
-4.724760e-06,-8.750000e-03
-4.716760e-06,5.000000e-03
-4.708760e-06,-2.875000e-02
-4.700760e-06,3.000000e-02
-4.692760e-06,-1.500000e-02
-4.684760e-06,3.750000e-02
-4.676760e-06,8.750000e-03
-4.668760e-06,1.500000e-02
-4.660760e-06,-5.000000e-03
-4.652760e-06,1.750000e-02
-4.644760e-06,-2.375000e-02
-4.636760e-06,1.625000e-02
-4.628760e-06,-3.250000e-02
-4.620760e-06,1.750000e-02
-4.612760e-06,3.750000e-03
-4.604760e-06,1.250000e-02
-4.596760e-06,-6.250000e-03
-4.588760e-06,-1.375000e-02
-4.580760e-06,-2.125000e-02
-4.572760e-06,8.750000e-03
-4.564760e-06,-2.750000e-02
-4.556760e-06,3.500000e-02
-4.548760e-06,-3.125000e-02
-4.540760e-06,-5.000000e-03
-4.532760e-06,-1.250000e-02
-4.524760e-06,7.500000e-03
-4.516760e-06,-2.500000e-03
-4.508760e-06,7.500000e-03
-4.500760e-06,-3.750000e-03
-4.492760e-06,3.375000e-02
-4.484760e-06,-2.500000e-02
-4.476760e-06,2.500000e-03
-4.468760e-06,-1.875000e-02
-4.460760e-06,1.125000e-02
-4.452760e-06,-1.250000e-02
-4.444760e-06,7.500000e-03
-4.436760e-06,-6.250000e-03
-4.428760e-06,1.625000e-02
-4.420760e-06,0.000000e+00
-4.412760e-06,8.750000e-03
-4.404760e-06,-2.125000e-02
-4.396760e-06,7.500000e-03
-4.388760e-06,-1.000000e-02
-4.380760e-06,2.250000e-02
-4.372760e-06,-5.000000e-03
-4.364760e-06,2.250000e-02
-4.356760e-06,6.250000e-03
-4.348760e-06,1.250000e-03
-4.340760e-06,-3.750000e-03
-4.332760e-06,1.375000e-02
-4.324760e-06,-3.875000e-02
-4.316760e-06,1.875000e-02
-4.308760e-06,-5.000000e-03
-4.300760e-06,7.500000e-03
-4.292760e-06,-1.250000e-03
-4.284760e-06,1.875000e-02
-4.276760e-06,-1.625000e-02
-4.268760e-06,1.250000e-03
-4.260760e-06,-1.250000e-02
-4.252760e-06,1.000000e-02
-4.244760e-06,-6.250000e-03
-4.236760e-06,1.375000e-02
-4.228760e-06,-1.000000e-02
-4.220760e-06,2.750000e-02
-4.212760e-06,-1.000000e-02
-4.204760e-06,3.750000e-03
-4.196760e-06,-2.375000e-02
-4.188760e-06,2.500000e-03
-4.180760e-06,-2.125000e-02
-4.172760e-06,7.500000e-03
-4.164760e-06,-2.000000e-02
-4.156760e-06,1.875000e-02
-4.148760e-06,-1.125000e-02
-4.140760e-06,-2.250000e-02
-4.132760e-06,-5.000000e-03
-4.124760e-06,2.000000e-02
-4.116760e-06,6.250000e-03
-4.108760e-06,8.750000e-03
-4.100760e-06,3.750000e-03
-4.092760e-06,2.125000e-02
-4.084760e-06,-1.375000e-02
-4.076760e-06,1.125000e-02
-4.068760e-06,-4.500000e-02
-4.060760e-06,1.250000e-03
-4.052760e-06,-6.250000e-03
-4.044760e-06,1.875000e-02
-4.036760e-06,-1.125000e-02
-4.028760e-06,0.000000e+00
-4.020760e-06,0.000000e+00
-4.012760e-06,1.250000e-03
-4.004760e-06,-2.625000e-02
-3.996760e-06,2.500000e-03
-3.988760e-06,3.750000e-03
-3.980760e-06,1.875000e-02
-3.972760e-06,-6.250000e-03
-3.964760e-06,8.750000e-03
-3.956760e-06,-1.750000e-02
-3.948760e-06,1.125000e-02
-3.940760e-06,-1.625000e-02
-3.932760e-06,8.750000e-03
-3.924760e-06,-3.750000e-02
-3.916760e-06,1.625000e-02
-3.908760e-06,-3.250000e-02
-3.900760e-06,1.500000e-02
-3.892760e-06,6.250000e-03
-3.884760e-06,8.750000e-03
-3.876760e-06,-6.250000e-03
-3.868760e-06,1.375000e-02
-3.860760e-06,0.000000e+00
-3.852760e-06,8.750000e-03
-3.844760e-06,-1.250000e-03
-3.836760e-06,3.000000e-02
-3.828760e-06,-5.000000e-03
-3.820760e-06,1.125000e-02
-3.812760e-06,-3.375000e-02
-3.804760e-06,1.000000e-02
-3.796760e-06,-2.875000e-02
-3.788760e-06,1.750000e-02
-3.780760e-06,-1.250000e-03
-3.772760e-06,5.000000e-03
-3.764760e-06,0.000000e+00
-3.756760e-06,1.750000e-02
-3.748760e-06,-5.000000e-03
-3.740760e-06,1.625000e-02
-3.732760e-06,-5.000000e-03
-3.724760e-06,3.125000e-02
-3.716760e-06,-7.500000e-03
-3.708760e-06,2.125000e-02
-3.700760e-06,1.250000e-03
-3.692760e-06,1.875000e-02
-3.684760e-06,-1.750000e-02
-3.676760e-06,2.625000e-02
-3.668760e-06,0.000000e+00
-3.660760e-06,2.500000e-02
-3.652760e-06,1.500000e-02
-3.644760e-06,1.125000e-02
-3.636760e-06,-6.250000e-03
-3.628760e-06,2.125000e-02
-3.620760e-06,-3.625000e-02
-3.612760e-06,2.500000e-03
-3.604760e-06,-6.250000e-03
-3.596760e-06,1.625000e-02
-3.588760e-06,-8.750000e-03
-3.580760e-06,1.875000e-02
-3.572760e-06,1.250000e-03
-3.564760e-06,2.500000e-02
-3.556760e-06,-2.875000e-02
-3.548760e-06,0.000000e+00
-3.540760e-06,-6.250000e-03
-3.532760e-06,3.625000e-02
-3.524760e-06,-1.250000e-03
-3.516760e-06,1.250000e-03
-3.508760e-06,-7.500000e-03
-3.500760e-06,-2.500000e-03
-3.492760e-06,-2.250000e-02
-3.484760e-06,-1.250000e-03
-3.476760e-06,-7.500000e-03
-3.468760e-06,1.375000e-02
-3.460760e-06,-1.125000e-02
-3.452760e-06,3.250000e-02
-3.444760e-06,1.375000e-02
-3.436760e-06,6.250000e-03
-3.428760e-06,-2.750000e-02
-3.420760e-06,3.500000e-02
-3.412760e-06,-2.750000e-02
-3.404760e-06,2.500000e-02
-3.396760e-06,-1.000000e-02
-3.388760e-06,2.000000e-02
-3.380760e-06,-2.500000e-03
-3.372760e-06,1.250000e-02
-3.364760e-06,-2.625000e-02
-3.356760e-06,2.125000e-02
-3.348760e-06,-3.750000e-03
-3.340760e-06,1.000000e-02
-3.332760e-06,1.375000e-02
-3.324760e-06,5.000000e-03
-3.316760e-06,-2.375000e-02
-3.308760e-06,3.750000e-03
-3.300760e-06,-1.125000e-02
-3.292760e-06,3.250000e-02
-3.284760e-06,-1.375000e-02
-3.276760e-06,1.750000e-02
-3.268760e-06,6.250000e-03
-3.260760e-06,2.500000e-03
-3.252760e-06,-1.750000e-02
-3.244760e-06,1.125000e-02
-3.236760e-06,-3.625000e-02
-3.228760e-06,1.250000e-02
-3.220760e-06,-1.000000e-02
-3.212760e-06,2.000000e-02
-3.204760e-06,-2.750000e-02
-3.196760e-06,-5.000000e-03
-3.188760e-06,-1.625000e-02
-3.180760e-06,2.875000e-02
-3.172760e-06,-5.000000e-02
-3.164760e-06,6.250000e-03
-3.156760e-06,-2.000000e-02
-3.148760e-06,1.250000e-02
-3.140760e-06,-1.750000e-02
-3.132760e-06,1.625000e-02
-3.124760e-06,-1.000000e-02
-3.116760e-06,7.500000e-03
-3.108760e-06,-3.125000e-02
-3.100760e-06,1.750000e-02
-3.092760e-06,1.000000e-02
-3.084760e-06,3.250000e-02
-3.076760e-06,6.250000e-03
-3.068760e-06,2.125000e-02
-3.060760e-06,-8.750000e-03
-3.052760e-06,0.000000e+00
-3.044760e-06,-1.500000e-02
-3.036760e-06,1.875000e-02
-3.028760e-06,-1.500000e-02
-3.020760e-06,1.500000e-02
-3.012760e-06,1.250000e-03
-3.004760e-06,2.125000e-02
-2.996760e-06,-2.000000e-02
-2.988760e-06,1.250000e-02
-2.980760e-06,-1.625000e-02
-2.972760e-06,2.000000e-02
-2.964760e-06,-1.375000e-02
-2.956760e-06,2.125000e-02
-2.948760e-06,-1.000000e-02
-2.940760e-06,2.750000e-02
-2.932760e-06,-5.000000e-03
-2.924760e-06,2.500000e-02
-2.916760e-06,-2.375000e-02
-2.908760e-06,1.000000e-02
-2.900760e-06,-1.250000e-02
-2.892760e-06,3.375000e-02
-2.884760e-06,1.250000e-03
-2.876760e-06,7.500000e-03
-2.868760e-06,1.250000e-03
-2.860760e-06,3.500000e-02
-2.852760e-06,-1.500000e-02
-2.844760e-06,2.000000e-02
-2.836760e-06,-2.250000e-02
-2.828760e-06,2.750000e-02
-2.820760e-06,-1.250000e-02
-2.812760e-06,3.750000e-03
-2.804760e-06,-2.500000e-02
-2.796760e-06,1.375000e-02
-2.788760e-06,-1.250000e-03
-2.780760e-06,1.375000e-02
-2.772760e-06,-6.250000e-03
-2.764760e-06,2.625000e-02
-2.756760e-06,-1.250000e-03
-2.748760e-06,1.125000e-02
-2.740760e-06,8.750000e-03
-2.732760e-06,-1.000000e-02
-2.724760e-06,-2.000000e-02
-2.716760e-06,2.750000e-02
-2.708760e-06,7.500000e-03
-2.700760e-06,-3.750000e-03
-2.692760e-06,1.125000e-02
-2.684760e-06,1.125000e-02
-2.676760e-06,-1.500000e-02
-2.668760e-06,1.125000e-02
-2.660760e-06,-3.250000e-02
-2.652760e-06,1.250000e-02
-2.644760e-06,-1.625000e-02
-2.636760e-06,1.875000e-02
-2.628760e-06,-7.500000e-03
-2.620760e-06,1.125000e-02
-2.612760e-06,-1.125000e-02
-2.604760e-06,6.250000e-03
-2.596760e-06,-3.000000e-02
-2.588760e-06,1.625000e-02
-2.580760e-06,1.250000e-02
-2.572760e-06,4.125000e-02
-2.564760e-06,-6.250000e-03
-2.556760e-06,1.250000e-03
-2.548760e-06,-3.125000e-02
-2.540760e-06,1.875000e-02
-2.532760e-06,-2.375000e-02
-2.524760e-06,3.625000e-02
-2.516760e-06,-1.875000e-02
-2.508760e-06,2.875000e-02
-2.500760e-06,-1.250000e-03
-2.492760e-06,1.250000e-02
-2.484760e-06,5.000000e-03
-2.476760e-06,2.500000e-02
-2.468760e-06,-1.000000e-02
-2.460760e-06,-3.750000e-03
-2.452760e-06,0.000000e+00
-2.444760e-06,2.000000e-02
-2.436760e-06,-7.500000e-03
-2.428760e-06,-3.750000e-03
-2.420760e-06,-1.750000e-02
-2.412760e-06,-2.125000e-02
-2.404760e-06,-1.000000e-02
-2.396760e-06,2.250000e-02
-2.388760e-06,-1.250000e-02
-2.380760e-06,1.250000e-02
-2.372760e-06,-2.000000e-02
-2.364760e-06,1.250000e-02
-2.356760e-06,-1.125000e-02
-2.348760e-06,2.500000e-02
-2.340760e-06,-2.750000e-02
-2.332760e-06,2.625000e-02
-2.324760e-06,-1.000000e-02
-2.316760e-06,1.250000e-02
-2.308760e-06,-1.125000e-02
-2.300760e-06,-2.500000e-03
-2.292760e-06,-2.500000e-03
-2.284760e-06,1.250000e-02
-2.276760e-06,-2.375000e-02
-2.268760e-06,2.500000e-02
-2.260760e-06,2.500000e-03
-2.252760e-06,2.625000e-02
-2.244760e-06,-1.750000e-02
-2.236760e-06,1.250000e-02
-2.228760e-06,-1.875000e-02
-2.220760e-06,1.875000e-02
-2.212760e-06,-7.500000e-03
-2.204760e-06,6.250000e-03
-2.196760e-06,6.250000e-03
-2.188760e-06,1.875000e-02
-2.180760e-06,7.500000e-03
-2.172760e-06,7.500000e-03
-2.164760e-06,-1.750000e-02
-2.156760e-06,-2.500000e-03
-2.148760e-06,-4.625000e-02
-2.140760e-06,2.250000e-02
-2.132760e-06,-2.125000e-02
-2.124760e-06,1.500000e-02
-2.116760e-06,-1.000000e-02
-2.108760e-06,1.875000e-02
-2.100760e-06,-1.125000e-02
-2.092760e-06,8.750000e-03
-2.084760e-06,1.375000e-02
-2.076760e-06,2.625000e-02
-2.068760e-06,-1.375000e-02
-2.060760e-06,1.750000e-02
-2.052760e-06,-1.250000e-02
-2.044760e-06,1.250000e-03
-2.036760e-06,-2.625000e-02
-2.028760e-06,7.500000e-03
-2.020760e-06,-2.625000e-02
-2.012760e-06,-3.750000e-03
-2.004760e-06,-3.750000e-02
-1.996760e-06,2.250000e-02
-1.988760e-06,-1.125000e-02
-1.980760e-06,1.250000e-03
-1.972760e-06,-2.625000e-02
-1.964760e-06,2.000000e-02
-1.956760e-06,-7.500000e-03
-1.948760e-06,-1.250000e-03
-1.940760e-06,8.750000e-03
-1.932760e-06,7.500000e-03
-1.924760e-06,5.000000e-03
-1.916760e-06,1.000000e-02
-1.908760e-06,-2.250000e-02
-1.900760e-06,1.250000e-02
-1.892760e-06,-2.500000e-02
-1.884760e-06,7.500000e-03
-1.876760e-06,-2.625000e-02
-1.868760e-06,2.875000e-02
-1.860760e-06,-8.750000e-03
-1.852760e-06,2.500000e-03
-1.844760e-06,5.000000e-03
-1.836760e-06,1.500000e-02
-1.828760e-06,-1.125000e-02
-1.820760e-06,1.750000e-02
-1.812760e-06,8.750000e-03
-1.804760e-06,1.500000e-02
-1.796760e-06,-1.000000e-02
-1.788760e-06,1.875000e-02
-1.780760e-06,7.500000e-03
-1.772760e-06,8.750000e-03
-1.764760e-06,-3.125000e-02
-1.756760e-06,1.875000e-02
-1.748760e-06,-5.000000e-03
-1.740760e-06,1.750000e-02
-1.732760e-06,-2.500000e-03
-1.724760e-06,1.250000e-03
-1.716760e-06,-1.000000e-02
-1.708760e-06,6.250000e-03
-1.700760e-06,-2.625000e-02
-1.692760e-06,2.000000e-02
-1.684760e-06,-2.500000e-03
-1.676760e-06,2.625000e-02
-1.668760e-06,-1.250000e-03
-1.660760e-06,3.750000e-03
-1.652760e-06,-1.250000e-02
-1.644760e-06,2.625000e-02
-1.636760e-06,-1.000000e-02
-1.628760e-06,1.875000e-02
-1.620760e-06,-3.375000e-02
-1.612760e-06,2.250000e-02
-1.604760e-06,-2.750000e-02
-1.596760e-06,8.750000e-03
-1.588760e-06,-1.250000e-03
-1.580760e-06,1.375000e-02
-1.572760e-06,-1.375000e-02
-1.564760e-06,3.750000e-03
-1.556760e-06,-1.375000e-02
-1.548760e-06,2.500000e-02
-1.540760e-06,3.750000e-03
-1.532760e-06,7.500000e-03
-1.524760e-06,-2.125000e-02
-1.516760e-06,6.250000e-03
-1.508760e-06,-2.875000e-02
-1.500760e-06,1.750000e-02
-1.492760e-06,-1.125000e-02
-1.484760e-06,3.500000e-02
-1.476760e-06,-1.125000e-02
-1.468760e-06,-6.250000e-03
-1.460760e-06,-1.500000e-02
-1.452760e-06,5.000000e-03
-1.444760e-06,-2.500000e-03
-1.436760e-06,1.250000e-03
-1.428760e-06,-1.500000e-02
-1.420760e-06,2.625000e-02
-1.412760e-06,-8.750000e-03
-1.404760e-06,2.250000e-02
-1.396760e-06,-2.125000e-02
-1.388760e-06,1.250000e-03
-1.380760e-06,-2.375000e-02
-1.372760e-06,1.875000e-02
-1.364760e-06,-2.750000e-02
-1.356760e-06,2.375000e-02
-1.348760e-06,-1.500000e-02
-1.340760e-06,-5.000000e-03
-1.332760e-06,1.375000e-02
-1.324760e-06,3.750000e-03
-1.316760e-06,-1.000000e-02
-1.308760e-06,1.625000e-02
-1.300760e-06,-3.750000e-03
-1.292760e-06,7.500000e-03
-1.284760e-06,-1.000000e-02
-1.276760e-06,2.500000e-03
-1.268760e-06,-3.000000e-02
-1.260760e-06,-1.375000e-02
-1.252760e-06,-2.500000e-03
-1.244760e-06,3.750000e-03
-1.236760e-06,-2.375000e-02
-1.228760e-06,1.625000e-02
-1.220760e-06,-1.125000e-02
-1.212760e-06,-1.250000e-03
-1.204760e-06,1.250000e-03
-1.196760e-06,2.375000e-02
-1.188760e-06,-1.250000e-02
-1.180760e-06,1.500000e-02
-1.172760e-06,6.250000e-03
-1.164760e-06,3.125000e-02
-1.156760e-06,-8.750000e-03
-1.148760e-06,1.250000e-02
-1.140760e-06,-4.375000e-02
-1.132760e-06,5.000000e-03
-1.124760e-06,-2.875000e-02
-1.116760e-06,2.125000e-02
-1.108760e-06,-1.625000e-02
-1.100760e-06,3.125000e-02
-1.092760e-06,-2.750000e-02
-1.084760e-06,0.000000e+00
-1.076760e-06,-6.250000e-03
-1.068760e-06,0.000000e+00
-1.060760e-06,-1.750000e-02
-1.052760e-06,1.625000e-02
-1.044760e-06,-5.000000e-03
-1.036760e-06,1.875000e-02
-1.028760e-06,-8.750000e-03
-1.020760e-06,1.625000e-02
-1.012760e-06,-1.625000e-02
-1.004760e-06,1.750000e-02
-9.967600e-07,-3.125000e-02
-9.887600e-07,1.250000e-02
-9.807600e-07,-1.500000e-02
-9.727600e-07,2.625000e-02
-9.647600e-07,-7.500000e-03
-9.567600e-07,1.125000e-02
-9.487600e-07,-3.250000e-02
-9.407600e-07,3.750000e-03
-9.327600e-07,-1.750000e-02
-9.247600e-07,3.750000e-03
-9.167600e-07,-6.250000e-03
-9.087600e-07,2.625000e-02
-9.007600e-07,-2.000000e-02
-8.927600e-07,2.750000e-02
-8.847600e-07,-1.250000e-02
-8.767600e-07,1.250000e-03
-8.687600e-07,-8.750000e-03
-8.607600e-07,5.000000e-03
-8.527600e-07,-1.875000e-02
-8.447600e-07,6.250000e-03
-8.367600e-07,-3.500000e-02
-8.287600e-07,8.750000e-03
-8.207600e-07,-1.500000e-02
-8.127600e-07,2.000000e-02
-8.047600e-07,-1.125000e-02
-7.967600e-07,3.750000e-03
-7.887600e-07,-8.750000e-03
-7.807600e-07,8.750000e-03
-7.727600e-07,1.500000e-02
-7.647600e-07,1.625000e-02
-7.567600e-07,-1.250000e-02
-7.487600e-07,8.750000e-03
-7.407600e-07,-3.875000e-02
-7.327600e-07,2.500000e-02
-7.247600e-07,-2.625000e-02
-7.167600e-07,2.125000e-02
-7.087600e-07,-1.000000e-02
-7.007600e-07,1.250000e-03
-6.927600e-07,-2.625000e-02
-6.847600e-07,2.750000e-02
-6.767600e-07,-2.500000e-02
-6.687600e-07,1.375000e-02
-6.607600e-07,-1.250000e-02
-6.527600e-07,5.000000e-03
-6.447600e-07,-1.500000e-02
-6.367600e-07,2.000000e-02
-6.287600e-07,-2.000000e-02
-6.207600e-07,1.125000e-02
-6.127600e-07,-3.000000e-02
-6.047600e-07,1.750000e-02
-5.967600e-07,0.000000e+00
-5.887600e-07,8.750000e-03
-5.807600e-07,-2.500000e-03
-5.727600e-07,1.375000e-02
-5.647600e-07,-1.750000e-02
-5.567600e-07,8.750000e-03
-5.487600e-07,-1.625000e-02
-5.407600e-07,1.875000e-02
-5.327600e-07,-1.375000e-02
-5.247600e-07,1.750000e-02
-5.167600e-07,-1.250000e-02
-5.087600e-07,2.000000e-02
-5.007600e-07,-3.375000e-02
-4.927600e-07,2.000000e-02
-4.847600e-07,-1.750000e-02
-4.767600e-07,2.625000e-02
-4.687600e-07,-3.000000e-02
-4.607600e-07,7.500000e-03
-4.527600e-07,-7.500000e-03
-4.447600e-07,4.625000e-02
-4.367600e-07,0.000000e+00
-4.287600e-07,1.000000e-02
-4.207600e-07,-1.125000e-02
-4.127600e-07,7.500000e-03
-4.047600e-07,-6.250000e-03
-3.967600e-07,2.250000e-02
-3.887600e-07,1.250000e-03
-3.807600e-07,7.500000e-03
-3.727600e-07,-3.750000e-03
-3.647600e-07,5.000000e-03
-3.567600e-07,-2.125000e-02
-3.487600e-07,-5.000000e-03
-3.407600e-07,-7.500000e-03
-3.327600e-07,3.375000e-02
-3.247600e-07,2.500000e-03
-3.167600e-07,-1.250000e-03
-3.087600e-07,-3.750000e-03
-3.007600e-07,1.125000e-02
-2.927600e-07,-1.750000e-02
-2.847600e-07,1.250000e-03
-2.767600e-07,-1.250000e-03
-2.687600e-07,2.500000e-02
-2.607600e-07,5.000000e-03
-2.527600e-07,-3.750000e-03
-2.447600e-07,-1.625000e-02
-2.367600e-07,1.625000e-02
-2.287600e-07,-4.250000e-02
-2.207600e-07,2.125000e-02
-2.127600e-07,-1.750000e-02
-2.047600e-07,1.750000e-02
-1.967600e-07,-2.750000e-02
-1.887600e-07,-6.250000e-03
-1.807600e-07,-2.375000e-02
-1.727600e-07,2.250000e-02
-1.647600e-07,3.750000e-03
-1.567600e-07,1.250000e-02
-1.487600e-07,-1.250000e-02
-1.407600e-07,1.250000e-02
-1.327600e-07,-1.250000e-02
-1.247600e-07,-5.000000e-03
-1.167600e-07,-2.375000e-02
-1.087600e-07,1.250000e-02
-1.007600e-07,-2.250000e-02
-9.276000e-08,2.875000e-02
-8.476000e-08,-1.250000e-02
-7.676000e-08,1.125000e-02
-6.876000e-08,2.250000e-02
-6.076000e-08,1.250000e-02
-5.276000e-08,-7.500000e-03
-4.476000e-08,1.250000e-02
-3.676000e-08,-6.250000e-03
-2.876000e-08,-1.388750e+00
-2.076000e-08,-1.427500e+00
-1.276000e-08,-1.413750e+00
-4.760000e-09,-5.362500e-01
3.240000e-09,2.000000e-02
1.124000e-08,-2.250000e-02
1.924000e-08,1.750000e-02
2.724000e-08,-2.625000e-02
3.524000e-08,2.250000e-02
4.324000e-08,-1.125000e-02
5.124000e-08,4.625000e-02
5.924000e-08,-1.000000e-02
6.724000e-08,1.375000e-02
7.524000e-08,-7.500000e-03
8.324000e-08,2.625000e-02
9.124000e-08,7.500000e-03
9.924000e-08,2.875000e-02
1.072400e-07,-1.625000e-02
1.152400e-07,1.125000e-02
1.232400e-07,-2.250000e-02
1.312400e-07,-2.500000e-03
1.392400e-07,-3.750000e-03
1.472400e-07,3.875000e-02
1.552400e-07,-2.375000e-02
1.632400e-07,1.875000e-02
1.712400e-07,-1.250000e-03
1.792400e-07,3.250000e-02
1.872400e-07,-5.000000e-03
1.952400e-07,1.875000e-02
2.032400e-07,-7.500000e-03
2.112400e-07,2.875000e-02
2.192400e-07,1.375000e-02
2.272400e-07,1.875000e-02
2.352400e-07,3.750000e-03
2.432400e-07,2.250000e-02
2.512400e-07,-2.375000e-02
2.592400e-07,2.875000e-02
2.672400e-07,-1.125000e-02
2.752400e-07,3.750000e-03
2.832400e-07,-2.125000e-02
2.912400e-07,3.375000e-02
2.992400e-07,-2.875000e-02
3.072400e-07,1.000000e-02
3.152400e-07,-2.750000e-02
3.232400e-07,8.750000e-03
3.312400e-07,1.000000e-02
3.392400e-07,2.375000e-02
3.472400e-07,-6.250000e-03
3.552400e-07,0.000000e+00
3.632400e-07,5.000000e-03
3.712400e-07,2.500000e-03
3.792400e-07,-1.250000e-02
3.872400e-07,-7.500000e-03
3.952400e-07,-2.375000e-02
4.032400e-07,2.125000e-02
4.112400e-07,-2.375000e-02
4.192400e-07,2.625000e-02
4.272400e-07,-3.750000e-03
4.352400e-07,1.000000e-02
4.432400e-07,-2.625000e-02
4.512400e-07,2.500000e-03
4.592400e-07,8.750000e-03
4.672400e-07,2.625000e-02
4.752400e-07,-2.125000e-02
4.832400e-07,2.000000e-02
4.912400e-07,-1.250000e-03
4.992400e-07,8.750000e-03
5.072400e-07,5.000000e-03
5.152400e-07,2.625000e-02
5.232400e-07,7.500000e-03
5.312400e-07,6.250000e-03
5.392400e-07,-3.750000e-02
5.472400e-07,5.000000e-03
5.552400e-07,-4.500000e-02
5.632400e-07,1.125000e-02
5.712400e-07,-1.250000e-03
5.792400e-07,1.500000e-02
5.872400e-07,-2.500000e-03
5.952400e-07,5.000000e-03
6.032400e-07,-1.750000e-02
6.112400e-07,8.750000e-03
6.192400e-07,-1.375000e-02
6.272400e-07,6.250000e-03
6.352400e-07,-5.000000e-03
6.432400e-07,2.625000e-02
6.512400e-07,-1.750000e-02
6.592400e-07,5.000000e-03
6.672400e-07,-1.375000e-02
6.752400e-07,2.625000e-02
6.832400e-07,-3.125000e-02
6.912400e-07,7.500000e-03
6.992400e-07,1.125000e-02
7.072400e-07,-3.750000e-03
7.152400e-07,-3.125000e-02
7.232400e-07,1.250000e-03
7.312400e-07,-1.750000e-02
7.392400e-07,2.375000e-02
7.472400e-07,-8.750000e-03
7.552400e-07,5.000000e-03
7.632400e-07,3.750000e-03
7.712400e-07,2.125000e-02
7.792400e-07,8.750000e-03
7.872400e-07,2.500000e-03
7.952400e-07,-2.750000e-02
8.032400e-07,1.125000e-02
