run1/run1_ch1_20210318180135063.csv

Model,MSO64
Waveform Type,ANALOG
Horizontal Units,s
Sample Interval,8.000000e-09
Record Length,1250
Zero Index,624.650000
Vertical Units,V

TIME,CH1
-4.997200e-06,6.250000e-03
-4.989200e-06,-2.125000e-02
-4.981200e-06,2.250000e-02
-4.973200e-06,-1.750000e-02
-4.965200e-06,1.250000e-02
-4.957200e-06,-3.750000e-03
-4.949200e-06,6.250000e-03
-4.941200e-06,-1.875000e-02
-4.933200e-06,1.750000e-02
-4.925200e-06,-2.625000e-02
-4.917200e-06,2.000000e-02
-4.909200e-06,-1.875000e-02
-4.901200e-06,3.750000e-02
-4.893200e-06,-2.250000e-02
-4.885200e-06,2.500000e-03
-4.877200e-06,-1.375000e-02
-4.869200e-06,-2.500000e-03
-4.861200e-06,-1.250000e-02
-4.853200e-06,2.125000e-02
-4.845200e-06,-2.500000e-03
-4.837200e-06,2.500000e-02
-4.829200e-06,-3.750000e-03
-4.821200e-06,6.250000e-03
-4.813200e-06,-2.250000e-02
-4.805200e-06,2.250000e-02
-4.797200e-06,-2.625000e-02
-4.789200e-06,6.250000e-03
-4.781200e-06,-2.375000e-02
-4.773200e-06,2.500000e-02
-4.765200e-06,-7.500000e-03
-4.757200e-06,1.375000e-02
-4.749200e-06,-7.500000e-03
-4.741200e-06,2.000000e-02
-4.733200e-06,-4.625000e-02
-4.725200e-06,2.500000e-03
-4.717200e-06,-3.750000e-03
-4.709200e-06,2.500000e-03
-4.701200e-06,2.500000e-03
-4.693200e-06,-1.250000e-03
-4.685200e-06,-3.250000e-02
-4.677200e-06,3.750000e-03
-4.669200e-06,-4.000000e-02
-4.661200e-06,1.875000e-02
-4.653200e-06,-1.375000e-02
-4.645200e-06,3.125000e-02
-4.637200e-06,-3.000000e-02
-4.629200e-06,5.000000e-03
-4.621200e-06,-5.000000e-03
-4.613200e-06,7.500000e-03
-4.605200e-06,-2.375000e-02
-4.597200e-06,2.125000e-02
-4.589200e-06,-2.375000e-02
-4.581200e-06,2.750000e-02
-4.573200e-06,-6.250000e-03
-4.565200e-06,-7.500000e-03
-4.557200e-06,7.500000e-03
-4.549200e-06,1.375000e-02
-4.541200e-06,-3.625000e-02
-4.533200e-06,-2.500000e-03
-4.525200e-06,-2.250000e-02
-4.517200e-06,3.750000e-02
-4.509200e-06,-1.625000e-02
-4.501200e-06,1.125000e-02
-4.493200e-06,-1.250000e-02
-4.485200e-06,1.375000e-02
-4.477200e-06,-1.000000e-02
-4.469200e-06,-2.500000e-03
-4.461200e-06,3.750000e-03
-4.453200e-06,2.750000e-02
-4.445200e-06,-3.750000e-03
-4.437200e-06,1.250000e-02
-4.429200e-06,-2.000000e-02
-4.421200e-06,3.000000e-02
-4.413200e-06,-3.875000e-02
-4.405200e-06,1.500000e-02
-4.397200e-06,-3.625000e-02
-4.389200e-06,2.125000e-02
-4.381200e-06,-1.500000e-02
-4.373200e-06,3.125000e-02
-4.365200e-06,-1.750000e-02
-4.357200e-06,1.000000e-02
-4.349200e-06,-3.000000e-02
-4.341200e-06,-6.250000e-03
-4.333200e-06,-2.375000e-02
-4.325200e-06,2.375000e-02
-4.317200e-06,-2.125000e-02
-4.309200e-06,3.750000e-03
-4.301200e-06,-5.000000e-03
-4.293200e-06,3.125000e-02
-4.285200e-06,-2.375000e-02
-4.277200e-06,2.125000e-02
-4.269200e-06,-1.000000e-02
-4.261200e-06,2.250000e-02
-4.253200e-06,-3.250000e-02
-4.245200e-06,6.250000e-03
-4.237200e-06,-2.625000e-02
-4.229200e-06,3.750000e-03
-4.221200e-06,3.750000e-03
-4.213200e-06,1.250000e-02
-4.205200e-06,7.500000e-03
-4.197200e-06,3.750000e-02
-4.189200e-06,8.750000e-03
-4.181200e-06,1.000000e-02
-4.173200e-06,-2.500000e-02
-4.165200e-06,3.000000e-02
-4.157200e-06,-2.750000e-02
-4.149200e-06,2.125000e-02
-4.141200e-06,-2.250000e-02
-4.133200e-06,1.250000e-02
-4.125200e-06,-3.625000e-02
-4.117200e-06,1.000000e-02
-4.109200e-06,-3.625000e-02
-4.101200e-06,3.750000e-03
-4.093200e-06,-4.000000e-02
-4.085200e-06,3.750000e-03
-4.077200e-06,-3.750000e-03
-4.069200e-06,3.000000e-02
-4.061200e-06,-7.500000e-03
-4.053200e-06,1.500000e-02
-4.045200e-06,1.250000e-03
-4.037200e-06,8.750000e-03
-4.029200e-06,-1.375000e-02
-4.021200e-06,1.375000e-02
-4.013200e-06,-2.500000e-02
-4.005200e-06,6.250000e-03
-3.997200e-06,-1.125000e-02
-3.989200e-06,-1.250000e-03
-3.981200e-06,-1.375000e-02
-3.973200e-06,2.625000e-02
-3.965200e-06,-3.375000e-02
-3.957200e-06,1.250000e-03
-3.949200e-06,0.000000e+00
-3.941200e-06,3.250000e-02
-3.933200e-06,-5.000000e-03
-3.925200e-06,2.375000e-02
-3.917200e-06,-1.000000e-02
-3.909200e-06,2.000000e-02
-3.901200e-06,-3.625000e-02
-3.893200e-06,8.750000e-03
-3.885200e-06,-1.250000e-03
-3.877200e-06,2.500000e-02
-3.869200e-06,-4.125000e-02
-3.861200e-06,1.500000e-02
-3.853200e-06,-1.250000e-02
-3.845200e-06,0.000000e+00
-3.837200e-06,-3.375000e-02
-3.829200e-06,-3.750000e-03
-3.821200e-06,-5.000000e-03
-3.813200e-06,1.750000e-02
-3.805200e-06,-5.000000e-03
-3.797200e-06,1.875000e-02
-3.789200e-06,-6.250000e-03
-3.781200e-06,8.750000e-03
-3.773200e-06,-2.125000e-02
-3.765200e-06,1.625000e-02
-3.757200e-06,-3.375000e-02
-3.749200e-06,2.500000e-02
-3.741200e-06,-1.500000e-02
-3.733200e-06,1.875000e-02
-3.725200e-06,-1.875000e-02
-3.717200e-06,7.500000e-03
-3.709200e-06,-1.750000e-02
-3.701200e-06,1.875000e-02
-3.693200e-06,0.000000e+00
-3.685200e-06,6.250000e-03
-3.677200e-06,-1.750000e-02
-3.669200e-06,1.750000e-02
-3.661200e-06,-1.875000e-02
-3.653200e-06,1.875000e-02
-3.645200e-06,-1.250000e-02
-3.637200e-06,1.500000e-02
-3.629200e-06,-6.250000e-03
-3.621200e-06,3.750000e-02
-3.613200e-06,-3.125000e-02
-3.605200e-06,1.250000e-03
-3.597200e-06,1.250000e-03
-3.589200e-06,1.125000e-02
-3.581200e-06,-2.250000e-02
-3.573200e-06,1.250000e-02
-3.565200e-06,-2.125000e-02
-3.557200e-06,2.125000e-02
-3.549200e-06,-1.500000e-02
-3.541200e-06,1.875000e-02
-3.533200e-06,-2.500000e-03
-3.525200e-06,1.750000e-02
-3.517200e-06,-1.125000e-02
-3.509200e-06,3.000000e-02
-3.501200e-06,-1.000000e-02
-3.493200e-06,2.125000e-02
-3.485200e-06,-2.875000e-02
-3.477200e-06,2.625000e-02
-3.469200e-06,-1.625000e-02
-3.461200e-06,-3.750000e-03
-3.453200e-06,7.500000e-03
-3.445200e-06,2.125000e-02
-3.437200e-06,-1.375000e-02
-3.429200e-06,2.875000e-02
-3.421200e-06,5.000000e-03
-3.413200e-06,1.250000e-02
-3.405200e-06,-8.750000e-03
-3.397200e-06,1.250000e-03
-3.389200e-06,-1.500000e-02
-3.381200e-06,1.000000e-02
-3.373200e-06,-2.000000e-02
-3.365200e-06,3.875000e-02
-3.357200e-06,-3.750000e-03
-3.349200e-06,1.250000e-02
-3.341200e-06,8.750000e-03
-3.333200e-06,1.000000e-02
-3.325200e-06,-4.875000e-02
-3.317200e-06,2.000000e-02
-3.309200e-06,1.000000e-02
-3.301200e-06,2.125000e-02
-3.293200e-06,2.500000e-03
-3.285200e-06,0.000000e+00
-3.277200e-06,-4.000000e-02
-3.269200e-06,3.375000e-02
-3.261200e-06,-3.500000e-02
-3.253200e-06,2.500000e-02
-3.245200e-06,-3.250000e-02
-3.237200e-06,1.875000e-02
-3.229200e-06,-1.250000e-02
-3.221200e-06,1.500000e-02
-3.213200e-06,-2.250000e-02
-3.205200e-06,1.000000e-02
-3.197200e-06,-4.125000e-02
-3.189200e-06,7.500000e-03
-3.181200e-06,-1.375000e-02
-3.173200e-06,7.500000e-03
-3.165200e-06,-2.375000e-02
-3.157200e-06,7.500000e-03
-3.149200e-06,-4.250000e-02
-3.141200e-06,2.250000e-02
-3.133200e-06,-3.375000e-02
-3.125200e-06,1.375000e-02
-3.117200e-06,-2.375000e-02
-3.109200e-06,-5.000000e-03
-3.101200e-06,0.000000e+00
-3.093200e-06,8.750000e-03
-3.085200e-06,-8.750000e-03
-3.077200e-06,5.000000e-03
-3.069200e-06,1.125000e-02
-3.061200e-06,5.000000e-03
-3.053200e-06,-1.625000e-02
-3.045200e-06,1.500000e-02
-3.037200e-06,7.500000e-03
-3.029200e-06,6.250000e-03
-3.021200e-06,-3.500000e-02
-3.013200e-06,1.125000e-02
-3.005200e-06,3.750000e-03
-2.997200e-06,-1.125000e-02
-2.989200e-06,-2.875000e-02
-2.981200e-06,2.000000e-02
-2.973200e-06,-1.875000e-02
-2.965200e-06,3.750000e-03
-2.957200e-06,-1.125000e-02
-2.949200e-06,-1.375000e-02
-2.941200e-06,-1.625000e-02
-2.933200e-06,1.750000e-02
-2.925200e-06,-1.250000e-02
-2.917200e-06,7.500000e-03
-2.909200e-06,-3.750000e-03
-2.901200e-06,2.750000e-02
-2.893200e-06,-1.375000e-02
-2.885200e-06,8.750000e-03
-2.877200e-06,-1.500000e-02
-2.869200e-06,1.625000e-02
-2.861200e-06,-3.000000e-02
-2.853200e-06,3.250000e-02
-2.845200e-06,-7.500000e-03
-2.837200e-06,6.250000e-03
-2.829200e-06,-2.625000e-02
-2.821200e-06,1.750000e-02
-2.813200e-06,-5.000000e-03
-2.805200e-06,2.500000e-03
-2.797200e-06,-1.375000e-02
-2.789200e-06,2.625000e-02
-2.781200e-06,-1.500000e-02
-2.773200e-06,2.125000e-02
-2.765200e-06,-2.250000e-02
-2.757200e-06,2.750000e-02
-2.749200e-06,-2.125000e-02
-2.741200e-06,2.250000e-02
-2.733200e-06,-8.750000e-03
-2.725200e-06,4.875000e-02
-2.717200e-06,-2.750000e-02
-2.709200e-06,1.125000e-02
-2.701200e-06,-1.625000e-02
-2.693200e-06,1.000000e-02
-2.685200e-06,-1.125000e-02
-2.677200e-06,1.500000e-02
-2.669200e-06,7.500000e-03
-2.661200e-06,-3.750000e-03
-2.653200e-06,3.750000e-03
-2.645200e-06,2.375000e-02
-2.637200e-06,-2.625000e-02
-2.629200e-06,1.000000e-02
-2.621200e-06,-2.875000e-02
-2.613200e-06,1.125000e-02
-2.605200e-06,-2.000000e-02
-2.597200e-06,2.250000e-02
-2.589200e-06,-1.000000e-02
-2.581200e-06,8.750000e-03
-2.573200e-06,-3.750000e-03
-2.565200e-06,8.750000e-03
-2.557200e-06,-1.875000e-02
-2.549200e-06,8.750000e-03
-2.541200e-06,-1.250000e-03
-2.533200e-06,-6.250000e-03
-2.525200e-06,-7.500000e-03
-2.517200e-06,2.500000e-02
-2.509200e-06,-1.625000e-02
-2.501200e-06,1.625000e-02
-2.493200e-06,-3.500000e-02
-2.485200e-06,1.125000e-02
-2.477200e-06,-4.250000e-02
-2.469200e-06,2.250000e-02
-2.461200e-06,-1.375000e-02
-2.453200e-06,1.375000e-02
-2.445200e-06,-2.000000e-02
-2.437200e-06,1.000000e-02
-2.429200e-06,-1.250000e-02
-2.421200e-06,2.625000e-02
-2.413200e-06,-2.125000e-02
-2.405200e-06,7.500000e-03
-2.397200e-06,-2.500000e-03
-2.389200e-06,2.500000e-02
-2.381200e-06,-1.250000e-03
-2.373200e-06,1.625000e-02
-2.365200e-06,-2.875000e-02
-2.357200e-06,6.250000e-03
-2.349200e-06,-2.625000e-02
-2.341200e-06,3.500000e-02
-2.333200e-06,1.250000e-03
-2.325200e-06,2.250000e-02
-2.317200e-06,-2.750000e-02
-2.309200e-06,2.500000e-03
-2.301200e-06,-7.500000e-03
-2.293200e-06,2.500000e-03
-2.285200e-06,-2.500000e-03
-2.277200e-06,4.625000e-02
-2.269200e-06,-4.500000e-02
-2.261200e-06,2.250000e-02
-2.253200e-06,-2.125000e-02
-2.245200e-06,2.000000e-02
-2.237200e-06,-1.000000e-02
-2.229200e-06,2.125000e-02
-2.221200e-06,-1.375000e-02
-2.213200e-06,2.125000e-02
-2.205200e-06,-3.625000e-02
-2.197200e-06,1.000000e-02
-2.189200e-06,-7.500000e-03
-2.181200e-06,3.750000e-03
-2.173200e-06,-2.125000e-02
-2.165200e-06,1.875000e-02
-2.157200e-06,-2.875000e-02
-2.149200e-06,4.625000e-02
-2.141200e-06,-5.000000e-03
-2.133200e-06,0.000000e+00
-2.125200e-06,-5.000000e-03
-2.117200e-06,7.500000e-03
-2.109200e-06,-3.500000e-02
-2.101200e-06,-1.250000e-03
-2.093200e-06,-4.250000e-02
-2.085200e-06,3.625000e-02
-2.077200e-06,-2.750000e-02
-2.069200e-06,-1.250000e-03
-2.061200e-06,-1.500000e-02
-2.053200e-06,2.500000e-02
-2.045200e-06,-4.375000e-02
-2.037200e-06,1.750000e-02
-2.029200e-06,-1.250000e-02
-2.021200e-06,3.125000e-02
-2.013200e-06,-7.500000e-03
-2.005200e-06,1.000000e-02
-1.997200e-06,-6.250000e-03
-1.989200e-06,-2.500000e-03
-1.981200e-06,-2.250000e-02
-1.973200e-06,1.750000e-02
-1.965200e-06,-1.250000e-02
-1.957200e-06,2.375000e-02
-1.949200e-06,-3.625000e-02
-1.941200e-06,0.000000e+00
-1.933200e-06,-2.500000e-02
-1.925200e-06,1.250000e-03
-1.917200e-06,-1.250000e-02
-1.909200e-06,3.000000e-02
-1.901200e-06,-1.875000e-02
-1.893200e-06,3.250000e-02
-1.885200e-06,-2.000000e-02
-1.877200e-06,3.750000e-02
-1.869200e-06,-1.250000e-02
-1.861200e-06,1.625000e-02
-1.853200e-06,-3.750000e-02
-1.845200e-06,7.500000e-03
-1.837200e-06,-3.750000e-02
-1.829200e-06,4.125000e-02
-1.821200e-06,-3.000000e-02
-1.813200e-06,1.625000e-02
-1.805200e-06,-3.000000e-02
-1.797200e-06,6.250000e-03
-1.789200e-06,-2.000000e-02
-1.781200e-06,1.125000e-02
-1.773200e-06,-6.250000e-03
-1.765200e-06,1.625000e-02
-1.757200e-06,-6.250000e-03
-1.749200e-06,1.250000e-02
-1.741200e-06,-3.250000e-02
-1.733200e-06,2.375000e-02
-1.725200e-06,-2.625000e-02
-1.717200e-06,1.500000e-02
-1.709200e-06,-3.000000e-02
-1.701200e-06,7.500000e-03
-1.693200e-06,7.500000e-03
-1.685200e-06,3.250000e-02
-1.677200e-06,-1.250000e-02
-1.669200e-06,2.375000e-02
-1.661200e-06,-1.875000e-02
-1.653200e-06,-2.125000e-02
-1.645200e-06,-1.875000e-02
-1.637200e-06,2.000000e-02
-1.629200e-06,-7.500000e-03
-1.621200e-06,5.000000e-03
-1.613200e-06,-6.250000e-03
-1.605200e-06,1.875000e-02
-1.597200e-06,-1.875000e-02
-1.589200e-06,2.000000e-02
-1.581200e-06,-2.125000e-02
-1.573200e-06,-1.250000e-03
-1.565200e-06,-3.500000e-02
-1.557200e-06,1.500000e-02
-1.549200e-06,-8.750000e-03
-1.541200e-06,1.000000e-02
-1.533200e-06,-3.750000e-02
-1.525200e-06,-2.500000e-03
-1.517200e-06,-1.250000e-03
-1.509200e-06,1.500000e-02
-1.501200e-06,-2.000000e-02
-1.493200e-06,-1.125000e-02
-1.485200e-06,1.250000e-03
-1.477200e-06,1.000000e-02
-1.469200e-06,-2.750000e-02
-1.461200e-06,2.375000e-02
-1.453200e-06,-3.000000e-02
-1.445200e-06,2.500000e-02
-1.437200e-06,-1.000000e-02
-1.429200e-06,3.250000e-02
-1.421200e-06,-3.750000e-03
-1.413200e-06,1.000000e-02
-1.405200e-06,-5.000000e-02
-1.397200e-06,5.000000e-03
-1.389200e-06,-2.125000e-02
-1.381200e-06,1.875000e-02
-1.373200e-06,2.125000e-02
-1.365200e-06,1.250000e-02
-1.357200e-06,-1.250000e-02
-1.349200e-06,1.375000e-02
-1.341200e-06,-2.875000e-02
-1.333200e-06,-5.000000e-03
-1.325200e-06,-2.875000e-02
-1.317200e-06,3.750000e-02
-1.309200e-06,-3.625000e-02
-1.301200e-06,1.375000e-02
-1.293200e-06,-3.250000e-02
-1.285200e-06,2.125000e-02
-1.277200e-06,-2.250000e-02
-1.269200e-06,1.000000e-02
-1.261200e-06,1.250000e-02
-1.253200e-06,2.000000e-02
-1.245200e-06,5.000000e-03
-1.237200e-06,2.875000e-02
-1.229200e-06,-2.875000e-02
-1.221200e-06,-8.750000e-03
-1.213200e-06,-1.750000e-02
-1.205200e-06,1.250000e-03
-1.197200e-06,-2.250000e-02
-1.189200e-06,2.625000e-02
-1.181200e-06,-1.375000e-02
-1.173200e-06,3.500000e-02
-1.165200e-06,-1.750000e-02
-1.157200e-06,2.500000e-02
-1.149200e-06,-2.250000e-02
-1.141200e-06,2.500000e-03
-1.133200e-06,-2.500000e-03
-1.125200e-06,2.500000e-02
-1.117200e-06,-1.375000e-02
-1.109200e-06,1.625000e-02
-1.101200e-06,-1.375000e-02
-1.093200e-06,0.000000e+00
-1.085200e-06,-2.625000e-02
-1.077200e-06,1.375000e-02
-1.069200e-06,-2.500000e-02
-1.061200e-06,2.750000e-02
-1.053200e-06,-1.375000e-02
-1.045200e-06,-1.250000e-03
-1.037200e-06,-3.000000e-02
-1.029200e-06,-1.250000e-03
-1.021200e-06,-1.500000e-02
-1.013200e-06,1.000000e-02
-1.005200e-06,0.000000e+00
-9.972000e-07,1.000000e-02
-9.892000e-07,-1.500000e-02
-9.812000e-07,2.125000e-02
-9.732000e-07,1.000000e-02
-9.652000e-07,1.750000e-02
-9.572000e-07,2.500000e-03
-9.492000e-07,2.875000e-02
-9.412000e-07,-2.250000e-02
-9.332000e-07,2.375000e-02
-9.252000e-07,-1.250000e-03
-9.172000e-07,-5.000000e-03
-9.092000e-07,-6.250000e-03
-9.012000e-07,2.125000e-02
-8.932000e-07,-1.125000e-02
-8.852000e-07,1.250000e-02
-8.772000e-07,-1.500000e-02
-8.692000e-07,2.500000e-02
-8.612000e-07,-2.000000e-02
-8.532000e-07,2.500000e-03
-8.452000e-07,-4.250000e-02
-8.372000e-07,8.750000e-03
-8.292000e-07,-2.375000e-02
-8.212000e-07,1.250000e-03
-8.132000e-07,-3.000000e-02
-8.052000e-07,2.125000e-02
-7.972000e-07,-3.750000e-03
-7.892000e-07,2.750000e-02
-7.812000e-07,-1.250000e-02
-7.732000e-07,7.500000e-03
-7.652000e-07,-3.000000e-02
-7.572000e-07,1.250000e-02
-7.492000e-07,-1.125000e-02
-7.412000e-07,1.125000e-02
-7.332000e-07,1.500000e-02
-7.252000e-07,-3.750000e-03
-7.172000e-07,3.750000e-03
-7.092000e-07,2.875000e-02
-7.012000e-07,-2.250000e-02
-6.932000e-07,1.375000e-02
-6.852000e-07,-3.125000e-02
-6.772000e-07,7.500000e-03
-6.692000e-07,-1.625000e-02
-6.612000e-07,3.750000e-02
-6.532000e-07,-2.125000e-02
-6.452000e-07,1.000000e-02
-6.372000e-07,-1.250000e-03
-6.292000e-07,6.250000e-03
-6.212000e-07,-8.750000e-03
-6.132000e-07,1.125000e-02
-6.052000e-07,-1.625000e-02
-5.972000e-07,2.500000e-03
-5.892000e-07,-2.625000e-02
-5.812000e-07,1.000000e-02
-5.732000e-07,-1.250000e-02
-5.652000e-07,3.750000e-02
-5.572000e-07,-1.625000e-02
-5.492000e-07,2.375000e-02
-5.412000e-07,-7.500000e-03
-5.332000e-07,8.750000e-03
-5.252000e-07,-1.875000e-02
-5.172000e-07,2.500000e-03
-5.092000e-07,-1.500000e-02
-5.012000e-07,-3.750000e-03
-4.932000e-07,-6.250000e-03
-4.852000e-07,1.250000e-03
-4.772000e-07,2.500000e-03
-4.692000e-07,2.125000e-02
-4.612000e-07,-2.375000e-02
-4.532000e-07,1.500000e-02
-4.452000e-07,-4.375000e-02
-4.372000e-07,2.125000e-02
-4.292000e-07,-8.750000e-03
-4.212000e-07,3.750000e-02
-4.132000e-07,-1.875000e-02
-4.052000e-07,2.500000e-03
-3.972000e-07,-5.000000e-03
-3.892000e-07,-5.000000e-03
-3.812000e-07,3.750000e-03
-3.732000e-07,1.250000e-03
-3.652000e-07,-2.250000e-02
-3.572000e-07,1.375000e-02
-3.492000e-07,-1.250000e-03
-3.412000e-07,2.000000e-02
-3.332000e-07,-3.000000e-02
-3.252000e-07,2.500000e-02
-3.172000e-07,-4.000000e-02
-3.092000e-07,8.750000e-03
-3.012000e-07,-1.875000e-02
-2.932000e-07,4.375000e-02
-2.852000e-07,-3.625000e-02
-2.772000e-07,-1.625000e-02
-2.692000e-07,-1.500000e-02
-2.612000e-07,-2.500000e-03
-2.532000e-07,0.000000e+00
-2.452000e-07,1.000000e-02
-2.372000e-07,-8.750000e-03
-2.292000e-07,3.125000e-02
-2.212000e-07,-2.625000e-02
-2.132000e-07,1.125000e-02
-2.052000e-07,-1.125000e-02
-1.972000e-07,-6.250000e-03
-1.892000e-07,-3.500000e-02
-1.812000e-07,1.000000e-02
-1.732000e-07,-5.000000e-03
-1.652000e-07,1.000000e-02
-1.572000e-07,-1.000000e-02
-1.492000e-07,2.625000e-02
-1.412000e-07,-1.625000e-02
-1.332000e-07,1.750000e-02
-1.252000e-07,1.250000e-03
-1.172000e-07,1.125000e-02
-1.092000e-07,-5.000000e-03
-1.012000e-07,1.625000e-02
-9.320000e-08,-3.125000e-02
-8.520000e-08,5.000000e-03
-7.720000e-08,-1.750000e-02
-6.920000e-08,-1.250000e-03
-6.120000e-08,-2.500000e-02
-5.320000e-08,3.500000e-02
-4.520000e-08,-2.500000e-03
-3.720000e-08,6.875000e-02
-2.920000e-08,-1.420000e+00
-2.120000e-08,-1.420000e+00
-1.320000e-08,-1.432500e+00
-5.200000e-09,-1.762500e-01
2.800000e-09,-3.250000e-02
1.080000e-08,3.500000e-02
1.880000e-08,2.500000e-03
2.680000e-08,5.125000e-02
3.480000e-08,-1.250000e-02
4.280000e-08,2.000000e-02
5.080000e-08,0.000000e+00
5.880000e-08,1.000000e-02
6.680000e-08,-3.125000e-02
7.480000e-08,6.250000e-03
8.280000e-08,-2.625000e-02
9.080000e-08,2.875000e-02
9.880000e-08,1.250000e-03
1.068000e-07,1.375000e-02
1.148000e-07,-1.625000e-02
1.228000e-07,5.000000e-03
1.308000e-07,-2.125000e-02
1.388000e-07,0.000000e+00
1.468000e-07,-5.000000e-03
1.548000e-07,1.875000e-02
1.628000e-07,1.250000e-03
1.708000e-07,1.000000e-02
1.788000e-07,-1.000000e-02
1.868000e-07,6.250000e-03
1.948000e-07,-2.375000e-02
2.028000e-07,1.875000e-02
2.108000e-07,-2.000000e-02
2.188000e-07,3.125000e-02
2.268000e-07,-3.875000e-02
2.348000e-07,0.000000e+00
2.428000e-07,-1.125000e-02
2.508000e-07,-1.500000e-02
2.588000e-07,-1.250000e-02
2.668000e-07,1.750000e-02
2.748000e-07,-8.750000e-03
2.828000e-07,-3.750000e-03
2.908000e-07,-1.125000e-02
2.988000e-07,3.250000e-02
3.068000e-07,-5.000000e-03
3.148000e-07,0.000000e+00
3.228000e-07,-1.375000e-02
3.308000e-07,1.375000e-02
3.388000e-07,-1.125000e-02
3.468000e-07,2.625000e-02
3.548000e-07,-8.750000e-03
3.628000e-07,1.375000e-02
3.708000e-07,-3.500000e-02
3.788000e-07,8.750000e-03
3.868000e-07,-1.625000e-02
3.948000e-07,2.500000e-02
4.028000e-07,-2.375000e-02
4.108000e-07,2.375000e-02
4.188000e-07,-2.750000e-02
4.268000e-07,2.750000e-02
4.348000e-07,-1.750000e-02
4.428000e-07,6.250000e-03
4.508000e-07,-4.375000e-02
4.588000e-07,2.625000e-02
4.668000e-07,-1.250000e-02
4.748000e-07,3.625000e-02
4.828000e-07,-5.000000e-03
4.908000e-07,1.125000e-02
4.988000e-07,-2.875000e-02
5.068000e-07,1.375000e-02
5.148000e-07,3.750000e-03
5.228000e-07,7.500000e-03
5.308000e-07,-1.375000e-02
5.388000e-07,2.500000e-02
5.468000e-07,1.250000e-03
5.548000e-07,1.875000e-02
5.628000e-07,-1.000000e-02
5.708000e-07,3.375000e-02
5.788000e-07,-1.500000e-02
5.868000e-07,2.125000e-02
5.948000e-07,-2.375000e-02
6.028000e-07,5.250000e-02
6.108000e-07,-1.375000e-02
6.188000e-07,1.750000e-02
6.268000e-07,3.750000e-03
6.348000e-07,-7.500000e-03
6.428000e-07,-2.625000e-02
6.508000e-07,0.000000e+00
6.588000e-07,0.000000e+00
6.668000e-07,3.125000e-02
6.748000e-07,0.000000e+00
6.828000e-07,7.500000e-03
6.908000e-07,-1.250000e-02
6.988000e-07,2.250000e-02
7.068000e-07,-2.375000e-02
7.148000e-07,2.000000e-02
7.228000e-07,-3.500000e-02
7.308000e-07,3.000000e-02
7.388000e-07,-3.375000e-02
7.468000e-07,6.250000e-03
7.548000e-07,-3.750000e-03
7.628000e-07,2.875000e-02
7.708000e-07,-2.875000e-02
7.788000e-07,1.625000e-02
7.868000e-07,-2.500000e-02
7.948000e-07,3.125000e-02
