run1/run1_ch1_20210318180154626.csv

Model,MSO64
Waveform Type,ANALOG
Horizontal Units,s
Sample Interval,8.000000e-09
Record Length,1250
Zero Index,624.035000
Vertical Units,V

TIME,CH1
-4.992280e-06,-5.000000e-03
-4.984280e-06,1.000000e-02
-4.976280e-06,-1.625000e-02
-4.968280e-06,2.375000e-02
-4.960280e-06,-3.375000e-02
-4.952280e-06,2.625000e-02
-4.944280e-06,-1.375000e-02
-4.936280e-06,8.750000e-03
-4.928280e-06,-2.375000e-02
-4.920280e-06,4.000000e-02
-4.912280e-06,-1.500000e-02
-4.904280e-06,1.250000e-03
-4.896280e-06,-1.250000e-02
-4.888280e-06,-3.750000e-03
-4.880280e-06,-2.875000e-02
-4.872280e-06,1.750000e-02
-4.864280e-06,-2.375000e-02
-4.856280e-06,2.750000e-02
-4.848280e-06,-8.750000e-03
-4.840280e-06,1.250000e-03
-4.832280e-06,-1.250000e-03
-4.824280e-06,5.000000e-03
-4.816280e-06,-1.125000e-02
-4.808280e-06,2.125000e-02
-4.800280e-06,-3.125000e-02
-4.792280e-06,7.500000e-03
-4.784280e-06,-2.375000e-02
-4.776280e-06,6.250000e-03
-4.768280e-06,-2.750000e-02
-4.760280e-06,5.000000e-03
-4.752280e-06,-3.500000e-02
-4.744280e-06,1.125000e-02
-4.736280e-06,1.250000e-03
-4.728280e-06,1.500000e-02
-4.720280e-06,-1.250000e-03
-4.712280e-06,1.375000e-02
-4.704280e-06,-2.750000e-02
-4.696280e-06,1.375000e-02
-4.688280e-06,-3.750000e-02
-4.680280e-06,1.375000e-02
-4.672280e-06,-2.875000e-02
-4.664280e-06,1.500000e-02
-4.656280e-06,-7.500000e-03
-4.648280e-06,6.250000e-03
-4.640280e-06,-1.000000e-02
-4.632280e-06,3.750000e-03
-4.624280e-06,-2.000000e-02
-4.616280e-06,1.250000e-02
-4.608280e-06,-1.250000e-03
-4.600280e-06,-6.250000e-03
-4.592280e-06,6.250000e-03
-4.584280e-06,1.000000e-02
-4.576280e-06,-2.250000e-02
-4.568280e-06,2.375000e-02
-4.560280e-06,-2.750000e-02
-4.552280e-06,5.000000e-03
-4.544280e-06,-4.000000e-02
-4.536280e-06,1.625000e-02
-4.528280e-06,-3.875000e-02
-4.520280e-06,5.000000e-03
-4.512280e-06,0.000000e+00
-4.504280e-06,1.750000e-02
-4.496280e-06,-3.250000e-02
-4.488280e-06,6.250000e-03
-4.480280e-06,-1.125000e-02
-4.472280e-06,2.750000e-02
-4.464280e-06,-1.375000e-02
-4.456280e-06,2.750000e-02
-4.448280e-06,6.250000e-03
-4.440280e-06,8.750000e-03
-4.432280e-06,-5.125000e-02
-4.424280e-06,2.125000e-02
-4.416280e-06,-1.500000e-02
-4.408280e-06,3.500000e-02
-4.400280e-06,0.000000e+00
-4.392280e-06,6.250000e-03
-4.384280e-06,-2.750000e-02
-4.376280e-06,0.000000e+00
-4.368280e-06,-3.750000e-03
-4.360280e-06,-8.750000e-03
-4.352280e-06,0.000000e+00
-4.344280e-06,8.750000e-03
-4.336280e-06,-2.500000e-03
-4.328280e-06,5.000000e-03
-4.320280e-06,-3.250000e-02
-4.312280e-06,1.250000e-03
-4.304280e-06,-1.625000e-02
-4.296280e-06,3.750000e-03
-4.288280e-06,-1.250000e-02
-4.280280e-06,2.375000e-02
-4.272280e-06,-3.625000e-02
-4.264280e-06,6.250000e-03
-4.256280e-06,-1.875000e-02
-4.248280e-06,2.250000e-02
-4.240280e-06,-2.750000e-02
-4.232280e-06,1.375000e-02
-4.224280e-06,-2.500000e-02
-4.216280e-06,1.250000e-02
-4.208280e-06,1.250000e-02
-4.200280e-06,6.250000e-03
-4.192280e-06,-4.750000e-02
-4.184280e-06,8.750000e-03
-4.176280e-06,-4.125000e-02
-4.168280e-06,2.500000e-02
-4.160280e-06,-1.625000e-02
-4.152280e-06,2.250000e-02
-4.144280e-06,-2.000000e-02
-4.136280e-06,1.000000e-02
-4.128280e-06,-2.250000e-02
-4.120280e-06,1.500000e-02
-4.112280e-06,-1.625000e-02
-4.104280e-06,5.000000e-03
-4.096280e-06,-1.750000e-02
-4.088280e-06,8.750000e-03
-4.080280e-06,-3.750000e-03
-4.072280e-06,6.250000e-03
-4.064280e-06,-1.000000e-02
-4.056280e-06,-1.125000e-02
-4.048280e-06,-4.250000e-02
-4.040280e-06,1.250000e-03
-4.032280e-06,-2.375000e-02
-4.024280e-06,3.375000e-02
-4.016280e-06,-1.750000e-02
-4.008280e-06,-2.500000e-03
-4.000280e-06,-3.500000e-02
-3.992280e-06,2.250000e-02
-3.984280e-06,-3.625000e-02
-3.976280e-06,1.375000e-02
-3.968280e-06,-3.750000e-03
-3.960280e-06,2.500000e-02
-3.952280e-06,-1.750000e-02
-3.944280e-06,1.125000e-02
-3.936280e-06,-8.750000e-03
-3.928280e-06,7.500000e-03
-3.920280e-06,-8.750000e-03
-3.912280e-06,1.625000e-02
-3.904280e-06,-1.875000e-02
-3.896280e-06,1.125000e-02
-3.888280e-06,-2.375000e-02
-3.880280e-06,3.750000e-03
-3.872280e-06,-2.375000e-02
-3.864280e-06,1.500000e-02
-3.856280e-06,-3.250000e-02
-3.848280e-06,-7.500000e-03
-3.840280e-06,1.000000e-02
-3.832280e-06,1.500000e-02
-3.824280e-06,-1.000000e-02
-3.816280e-06,2.000000e-02
-3.808280e-06,-3.750000e-03
-3.800280e-06,1.125000e-02
-3.792280e-06,-2.250000e-02
-3.784280e-06,7.500000e-03
-3.776280e-06,-3.500000e-02
-3.768280e-06,1.750000e-02
-3.760280e-06,-2.000000e-02
-3.752280e-06,7.500000e-03
-3.744280e-06,-1.375000e-02
-3.736280e-06,-6.250000e-03
-3.728280e-06,-1.250000e-02
-3.720280e-06,1.250000e-03
-3.712280e-06,-1.250000e-02
-3.704280e-06,1.250000e-03
-3.696280e-06,5.000000e-03
-3.688280e-06,3.375000e-02
-3.680280e-06,-4.750000e-02
-3.672280e-06,1.375000e-02
-3.664280e-06,-3.500000e-02
-3.656280e-06,6.250000e-03
-3.648280e-06,-2.875000e-02
-3.640280e-06,1.750000e-02
-3.632280e-06,-3.250000e-02
-3.624280e-06,-6.250000e-03
-3.616280e-06,-3.250000e-02
-3.608280e-06,1.250000e-03
-3.600280e-06,-1.875000e-02
-3.592280e-06,-1.875000e-02
-3.584280e-06,2.500000e-03
-3.576280e-06,2.375000e-02
-3.568280e-06,-2.500000e-03
-3.560280e-06,6.250000e-03
-3.552280e-06,-1.250000e-02
-3.544280e-06,-1.250000e-03
-3.536280e-06,-1.875000e-02
-3.528280e-06,3.750000e-03
-3.520280e-06,-2.875000e-02
-3.512280e-06,5.750000e-02
-3.504280e-06,6.250000e-03
-3.496280e-06,-3.750000e-03
-3.488280e-06,-8.750000e-03
-3.480280e-06,-6.250000e-03
-3.472280e-06,-2.250000e-02
-3.464280e-06,3.000000e-02
-3.456280e-06,-1.250000e-02
-3.448280e-06,3.125000e-02
-3.440280e-06,0.000000e+00
-3.432280e-06,1.375000e-02
-3.424280e-06,5.000000e-03
-3.416280e-06,3.125000e-02
-3.408280e-06,-3.375000e-02
-3.400280e-06,2.500000e-02
-3.392280e-06,8.750000e-03
-3.384280e-06,3.000000e-02
-3.376280e-06,-1.500000e-02
-3.368280e-06,1.250000e-02
-3.360280e-06,-2.750000e-02
-3.352280e-06,-8.750000e-03
-3.344280e-06,-2.375000e-02
-3.336280e-06,2.000000e-02
-3.328280e-06,-2.500000e-02
-3.320280e-06,4.250000e-02
-3.312280e-06,3.750000e-03
-3.304280e-06,2.125000e-02
-3.296280e-06,-1.750000e-02
-3.288280e-06,3.750000e-03
-3.280280e-06,-3.625000e-02
-3.272280e-06,1.750000e-02
-3.264280e-06,-2.875000e-02
-3.256280e-06,1.250000e-03
-3.248280e-06,-2.250000e-02
-3.240280e-06,2.500000e-02
-3.232280e-06,0.000000e+00
-3.224280e-06,-2.500000e-03
-3.216280e-06,-2.125000e-02
-3.208280e-06,5.000000e-03
-3.200280e-06,-1.750000e-02
-3.192280e-06,1.875000e-02
-3.184280e-06,-2.500000e-03
-3.176280e-06,2.125000e-02
-3.168280e-06,-2.250000e-02
-3.160280e-06,-2.500000e-03
-3.152280e-06,-2.625000e-02
-3.144280e-06,1.250000e-02
-3.136280e-06,-3.250000e-02
-3.128280e-06,2.000000e-02
-3.120280e-06,-3.000000e-02
-3.112280e-06,1.000000e-02
-3.104280e-06,-2.625000e-02
-3.096280e-06,8.750000e-03
-3.088280e-06,-1.875000e-02
-3.080280e-06,1.000000e-02
-3.072280e-06,-1.125000e-02
-3.064280e-06,1.500000e-02
-3.056280e-06,-5.000000e-03
-3.048280e-06,1.875000e-02
-3.040280e-06,-2.000000e-02
-3.032280e-06,-6.250000e-03
-3.024280e-06,-5.500000e-02
-3.016280e-06,1.125000e-02
-3.008280e-06,-7.500000e-03
-3.000280e-06,3.125000e-02
-2.992280e-06,-1.750000e-02
-2.984280e-06,2.500000e-03
-2.976280e-06,-1.250000e-02
-2.968280e-06,1.750000e-02
-2.960280e-06,-1.875000e-02
-2.952280e-06,0.000000e+00
-2.944280e-06,-3.250000e-02
-2.936280e-06,1.875000e-02
-2.928280e-06,-1.500000e-02
-2.920280e-06,2.375000e-02
-2.912280e-06,-1.375000e-02
-2.904280e-06,8.750000e-03
-2.896280e-06,-3.125000e-02
-2.888280e-06,1.125000e-02
-2.880280e-06,-2.750000e-02
-2.872280e-06,2.375000e-02
-2.864280e-06,6.250000e-03
-2.856280e-06,2.500000e-03
-2.848280e-06,-2.125000e-02
-2.840280e-06,-3.750000e-03
-2.832280e-06,-2.875000e-02
-2.824280e-06,7.500000e-03
-2.816280e-06,-7.500000e-03
-2.808280e-06,2.500000e-03
-2.800280e-06,-8.750000e-03
-2.792280e-06,2.125000e-02
-2.784280e-06,-3.750000e-03
-2.776280e-06,5.000000e-03
-2.768280e-06,-2.125000e-02
-2.760280e-06,1.000000e-02
-2.752280e-06,-1.500000e-02
-2.744280e-06,2.750000e-02
-2.736280e-06,-2.500000e-02
-2.728280e-06,0.000000e+00
-2.720280e-06,-1.750000e-02
-2.712280e-06,2.250000e-02
-2.704280e-06,-3.625000e-02
-2.696280e-06,6.250000e-03
-2.688280e-06,-1.125000e-02
-2.680280e-06,1.875000e-02
-2.672280e-06,0.000000e+00
-2.664280e-06,2.500000e-02
-2.656280e-06,-1.250000e-02
-2.648280e-06,3.250000e-02
-2.640280e-06,-2.000000e-02
-2.632280e-06,1.625000e-02
-2.624280e-06,-1.875000e-02
-2.616280e-06,2.250000e-02
-2.608280e-06,-2.250000e-02
-2.600280e-06,2.500000e-03
-2.592280e-06,-5.000000e-03
-2.584280e-06,1.375000e-02
-2.576280e-06,-1.125000e-02
-2.568280e-06,0.000000e+00
-2.560280e-06,5.000000e-03
-2.552280e-06,2.000000e-02
-2.544280e-06,1.625000e-02
-2.536280e-06,8.750000e-03
-2.528280e-06,-2.500000e-02
-2.520280e-06,-5.000000e-03
-2.512280e-06,-2.250000e-02
-2.504280e-06,-1.625000e-02
-2.496280e-06,-1.250000e-02
-2.488280e-06,1.750000e-02
-2.480280e-06,2.125000e-02
-2.472280e-06,1.250000e-02
-2.464280e-06,-6.250000e-03
-2.456280e-06,2.500000e-02
-2.448280e-06,-4.000000e-02
-2.440280e-06,8.750000e-03
-2.432280e-06,-1.000000e-02
-2.424280e-06,1.625000e-02
-2.416280e-06,-1.250000e-03
-2.408280e-06,1.250000e-02
-2.400280e-06,-2.500000e-03
-2.392280e-06,-3.750000e-03
-2.384280e-06,-3.000000e-02
-2.376280e-06,1.625000e-02
-2.368280e-06,-2.875000e-02
-2.360280e-06,5.000000e-03
-2.352280e-06,-2.750000e-02
-2.344280e-06,2.500000e-03
-2.336280e-06,-2.000000e-02
-2.328280e-06,1.875000e-02
-2.320280e-06,-2.750000e-02
-2.312280e-06,2.000000e-02
-2.304280e-06,-1.375000e-02
-2.296280e-06,3.125000e-02
-2.288280e-06,2.500000e-03
-2.280280e-06,2.125000e-02
-2.272280e-06,-1.375000e-02
-2.264280e-06,1.750000e-02
-2.256280e-06,-7.500000e-03
-2.248280e-06,2.000000e-02
-2.240280e-06,-8.750000e-03
-2.232280e-06,3.500000e-02
-2.224280e-06,-2.875000e-02
-2.216280e-06,-8.750000e-03
-2.208280e-06,-1.500000e-02
-2.200280e-06,6.250000e-03
-2.192280e-06,-4.125000e-02
-2.184280e-06,2.000000e-02
-2.176280e-06,1.250000e-02
-2.168280e-06,1.250000e-03
-2.160280e-06,-1.125000e-02
-2.152280e-06,1.250000e-02
-2.144280e-06,-1.125000e-02
-2.136280e-06,1.875000e-02
-2.128280e-06,-7.500000e-03
-2.120280e-06,-8.750000e-03
-2.112280e-06,-4.250000e-02
-2.104280e-06,2.625000e-02
-2.096280e-06,-1.250000e-02
-2.088280e-06,8.750000e-03
-2.080280e-06,-6.250000e-03
-2.072280e-06,6.250000e-03
-2.064280e-06,-5.250000e-02
-2.056280e-06,2.250000e-02
-2.048280e-06,-5.000000e-03
-2.040280e-06,5.000000e-03
-2.032280e-06,1.250000e-03
-2.024280e-06,1.625000e-02
-2.016280e-06,-2.625000e-02
-2.008280e-06,-1.250000e-03
-2.000280e-06,-4.375000e-02
-1.992280e-06,0.000000e+00
-1.984280e-06,-2.250000e-02
-1.976280e-06,2.375000e-02
-1.968280e-06,-3.375000e-02
-1.960280e-06,1.625000e-02
-1.952280e-06,-1.875000e-02
-1.944280e-06,-1.250000e-03
-1.936280e-06,-1.250000e-02
-1.928280e-06,1.000000e-02
-1.920280e-06,-1.750000e-02
-1.912280e-06,1.500000e-02
-1.904280e-06,-1.625000e-02
-1.896280e-06,3.750000e-03
-1.888280e-06,-2.250000e-02
-1.880280e-06,7.500000e-03
-1.872280e-06,-4.125000e-02
-1.864280e-06,2.500000e-03
-1.856280e-06,-1.375000e-02
-1.848280e-06,2.375000e-02
-1.840280e-06,-3.250000e-02
-1.832280e-06,2.500000e-03
-1.824280e-06,-2.500000e-02
-1.816280e-06,-8.750000e-03
-1.808280e-06,-4.000000e-02
-1.800280e-06,7.500000e-03
-1.792280e-06,5.000000e-03
-1.784280e-06,1.625000e-02
-1.776280e-06,-5.000000e-03
-1.768280e-06,-2.500000e-03
-1.760280e-06,-1.625000e-02
-1.752280e-06,1.000000e-02
-1.744280e-06,-3.875000e-02
-1.736280e-06,1.000000e-02
-1.728280e-06,-3.625000e-02
-1.720280e-06,3.750000e-03
-1.712280e-06,-1.250000e-03
-1.704280e-06,6.250000e-03
-1.696280e-06,-2.625000e-02
-1.688280e-06,2.500000e-03
-1.680280e-06,-1.875000e-02
-1.672280e-06,1.250000e-03
-1.664280e-06,-3.750000e-03
-1.656280e-06,1.250000e-02
-1.648280e-06,-6.250000e-03
-1.640280e-06,-3.750000e-03
-1.632280e-06,5.000000e-03
-1.624280e-06,-3.750000e-03
-1.616280e-06,-3.750000e-02
-1.608280e-06,7.500000e-03
-1.600280e-06,-2.125000e-02
-1.592280e-06,4.875000e-02
-1.584280e-06,-3.625000e-02
-1.576280e-06,1.500000e-02
-1.568280e-06,-1.625000e-02
-1.560280e-06,6.250000e-03
-1.552280e-06,-2.375000e-02
-1.544280e-06,2.125000e-02
-1.536280e-06,5.000000e-03
-1.528280e-06,6.250000e-03
-1.520280e-06,-1.000000e-02
-1.512280e-06,2.000000e-02
-1.504280e-06,-6.250000e-03
-1.496280e-06,1.125000e-02
-1.488280e-06,-2.125000e-02
-1.480280e-06,1.250000e-02
-1.472280e-06,-2.625000e-02
-1.464280e-06,4.125000e-02
-1.456280e-06,-2.125000e-02
-1.448280e-06,-1.125000e-02
-1.440280e-06,-3.625000e-02
-1.432280e-06,1.500000e-02
-1.424280e-06,-3.000000e-02
-1.416280e-06,1.625000e-02
-1.408280e-06,-1.250000e-02
-1.400280e-06,1.875000e-02
-1.392280e-06,-5.000000e-03
-1.384280e-06,6.250000e-03
-1.376280e-06,6.250000e-03
-1.368280e-06,2.875000e-02
-1.360280e-06,-5.250000e-02
-1.352280e-06,1.125000e-02
-1.344280e-06,-1.750000e-02
-1.336280e-06,1.750000e-02
-1.328280e-06,-2.625000e-02
-1.320280e-06,1.875000e-02
-1.312280e-06,-1.500000e-02
-1.304280e-06,3.500000e-02
-1.296280e-06,-2.250000e-02
-1.288280e-06,1.250000e-03
-1.280280e-06,-2.500000e-03
-1.272280e-06,7.500000e-03
-1.264280e-06,-1.250000e-02
-1.256280e-06,2.000000e-02
-1.248280e-06,-2.875000e-02
-1.240280e-06,0.000000e+00
-1.232280e-06,-2.125000e-02
-1.224280e-06,-2.500000e-03
-1.216280e-06,-4.000000e-02
-1.208280e-06,3.625000e-02
-1.200280e-06,-1.250000e-03
-1.192280e-06,0.000000e+00
-1.184280e-06,-3.750000e-03
-1.176280e-06,-5.000000e-03
-1.168280e-06,-3.375000e-02
-1.160280e-06,2.125000e-02
-1.152280e-06,-2.000000e-02
-1.144280e-06,1.875000e-02
-1.136280e-06,-1.875000e-02
-1.128280e-06,-1.625000e-02
-1.120280e-06,3.750000e-03
-1.112280e-06,1.125000e-02
-1.104280e-06,-5.375000e-02
-1.096280e-06,-1.250000e-03
-1.088280e-06,-1.750000e-02
-1.080280e-06,6.250000e-03
-1.072280e-06,-1.250000e-02
-1.064280e-06,-6.250000e-03
-1.056280e-06,-2.875000e-02
-1.048280e-06,7.500000e-03
-1.040280e-06,-1.625000e-02
-1.032280e-06,-6.250000e-03
-1.024280e-06,-1.125000e-02
-1.016280e-06,2.375000e-02
-1.008280e-06,-5.000000e-03
-1.000280e-06,1.000000e-02
-9.922800e-07,-8.750000e-03
-9.842800e-07,7.500000e-03
-9.762800e-07,-4.750000e-02
-9.682800e-07,1.250000e-02
-9.602800e-07,-3.625000e-02
-9.522800e-07,2.625000e-02
-9.442800e-07,-1.750000e-02
-9.362800e-07,2.500000e-03
-9.282800e-07,-1.625000e-02
-9.202800e-07,3.000000e-02
-9.122800e-07,-1.250000e-02
-9.042800e-07,1.000000e-02
-8.962800e-07,-1.250000e-03
-8.882800e-07,1.875000e-02
-8.802800e-07,-2.625000e-02
-8.722800e-07,1.125000e-02
-8.642800e-07,-4.000000e-02
-8.562800e-07,1.500000e-02
-8.482800e-07,-4.375000e-02
-8.402800e-07,2.375000e-02
-8.322800e-07,-2.625000e-02
-8.242800e-07,1.250000e-02
-8.162800e-07,-2.875000e-02
-8.082800e-07,7.500000e-03
-8.002800e-07,-3.500000e-02
-7.922800e-07,2.250000e-02
-7.842800e-07,-3.500000e-02
-7.762800e-07,1.375000e-02
-7.682800e-07,1.000000e-02
-7.602800e-07,1.375000e-02
-7.522800e-07,-1.375000e-02
-7.442800e-07,8.750000e-03
-7.362800e-07,-7.500000e-03
-7.282800e-07,2.125000e-02
-7.202800e-07,-3.000000e-02
-7.122800e-07,1.500000e-02
-7.042800e-07,-3.250000e-02
-6.962800e-07,2.250000e-02
-6.882800e-07,-1.875000e-02
-6.802800e-07,1.500000e-02
-6.722800e-07,-3.750000e-03
-6.642800e-07,-6.250000e-03
-6.562800e-07,-2.500000e-02
-6.482800e-07,3.375000e-02
-6.402800e-07,-3.750000e-03
-6.322800e-07,1.000000e-02
-6.242800e-07,-7.500000e-03
-6.162800e-07,1.500000e-02
-6.082800e-07,-2.875000e-02
-6.002800e-07,0.000000e+00
-5.922800e-07,-3.625000e-02
-5.842800e-07,3.750000e-03
-5.762800e-07,-1.625000e-02
-5.682800e-07,1.250000e-02
-5.602800e-07,-6.250000e-03
-5.522800e-07,1.875000e-02
-5.442800e-07,-1.250000e-02
-5.362800e-07,1.875000e-02
-5.282800e-07,2.500000e-03
-5.202800e-07,-5.000000e-03
-5.122800e-07,6.250000e-03
-5.042800e-07,1.625000e-02
-4.962800e-07,1.250000e-03
-4.882800e-07,-1.250000e-03
-4.802800e-07,-1.625000e-02
-4.722800e-07,7.500000e-03
-4.642800e-07,-2.375000e-02
-4.562800e-07,1.625000e-02
-4.482800e-07,-3.500000e-02
-4.402800e-07,3.125000e-02
-4.322800e-07,-2.500000e-02
-4.242800e-07,-3.750000e-03
-4.162800e-07,-2.000000e-02
-4.082800e-07,2.375000e-02
-4.002800e-07,-2.000000e-02
-3.922800e-07,8.750000e-03
-3.842800e-07,-2.375000e-02
-3.762800e-07,2.000000e-02
-3.682800e-07,-2.000000e-02
-3.602800e-07,2.125000e-02
-3.522800e-07,-3.125000e-02
-3.442800e-07,1.125000e-02
-3.362800e-07,-2.750000e-02
-3.282800e-07,1.125000e-02
-3.202800e-07,-5.000000e-03
-3.122800e-07,1.750000e-02
-3.042800e-07,-2.250000e-02
-2.962800e-07,1.125000e-02
-2.882800e-07,-2.000000e-02
-2.802800e-07,-1.125000e-02
-2.722800e-07,-3.625000e-02
-2.642800e-07,-1.250000e-03
-2.562800e-07,-1.375000e-02
-2.482800e-07,1.375000e-02
-2.402800e-07,-2.000000e-02
-2.322800e-07,3.750000e-03
-2.242800e-07,-2.000000e-02
-2.162800e-07,8.750000e-03
-2.082800e-07,-3.000000e-02
-2.002800e-07,2.750000e-02
-1.922800e-07,-2.125000e-02
-1.842800e-07,3.375000e-02
-1.762800e-07,-1.000000e-02
-1.682800e-07,-7.500000e-03
-1.602800e-07,-1.000000e-02
-1.522800e-07,2.500000e-03
-1.442800e-07,-2.500000e-02
-1.362800e-07,1.125000e-02
-1.282800e-07,3.750000e-03
-1.202800e-07,2.500000e-02
-1.122800e-07,-8.750000e-03
-1.042800e-07,3.750000e-03
-9.628000e-08,-1.625000e-02
-8.828000e-08,5.000000e-03
-8.028000e-08,-3.625000e-02
-7.228000e-08,2.250000e-02
-6.428000e-08,-4.750000e-02
-5.628000e-08,1.000000e-02
-4.828000e-08,-1.125000e-02
-4.028000e-08,2.125000e-02
-3.228000e-08,-1.305000e+00
-2.428000e-08,-1.433750e+00
-1.628000e-08,-1.445000e+00
-8.280000e-09,-1.402500e+00
-2.800000e-10,-1.750000e-02
7.720000e-09,1.250000e-03
1.572000e-08,-6.250000e-03
2.372000e-08,2.000000e-02
3.172000e-08,-1.625000e-02
3.972000e-08,-1.250000e-03
4.772000e-08,-2.750000e-02
5.572000e-08,1.125000e-02
6.372000e-08,-2.125000e-02
7.172000e-08,2.000000e-02
7.972000e-08,-1.125000e-02
8.772000e-08,1.125000e-02
9.572000e-08,-5.000000e-03
1.037200e-07,-6.250000e-03
1.117200e-07,-1.375000e-02
1.197200e-07,1.000000e-02
1.277200e-07,1.125000e-02
1.357200e-07,2.500000e-02
1.437200e-07,-3.125000e-02
1.517200e-07,1.000000e-02
1.597200e-07,-2.125000e-02
1.677200e-07,2.625000e-02
1.757200e-07,-3.625000e-02
1.837200e-07,1.000000e-02
1.917200e-07,-1.375000e-02
1.997200e-07,1.250000e-02
2.077200e-07,-1.625000e-02
2.157200e-07,3.750000e-03
2.237200e-07,-7.500000e-03
2.317200e-07,1.500000e-02
2.397200e-07,-2.125000e-02
2.477200e-07,1.375000e-02
2.557200e-07,-1.625000e-02
2.637200e-07,1.125000e-02
2.717200e-07,-3.750000e-03
2.797200e-07,-6.250000e-03
2.877200e-07,-2.000000e-02
2.957200e-07,-2.500000e-03
3.037200e-07,-2.000000e-02
3.117200e-07,1.250000e-02
3.197200e-07,-3.500000e-02
3.277200e-07,6.250000e-03
3.357200e-07,-7.500000e-03
3.437200e-07,1.500000e-02
3.517200e-07,-1.500000e-02
3.597200e-07,1.625000e-02
3.677200e-07,-2.250000e-02
3.757200e-07,-1.000000e-02
3.837200e-07,-1.500000e-02
3.917200e-07,1.375000e-02
3.997200e-07,-8.750000e-03
4.077200e-07,1.125000e-02
4.157200e-07,-1.875000e-02
4.237200e-07,1.125000e-02
4.317200e-07,-5.500000e-02
4.397200e-07,2.000000e-02
4.477200e-07,-2.375000e-02
4.557200e-07,2.500000e-02
4.637200e-07,3.750000e-03
4.717200e-07,3.000000e-02
4.797200e-07,-1.000000e-02
4.877200e-07,1.250000e-03
4.957200e-07,-1.375000e-02
5.037200e-07,0.000000e+00
5.117200e-07,3.750000e-03
5.197200e-07,1.625000e-02
5.277200e-07,-2.500000e-03
5.357200e-07,7.500000e-03
5.437200e-07,-8.750000e-03
5.517200e-07,-1.125000e-02
5.597200e-07,-3.750000e-03
5.677200e-07,1.875000e-02
5.757200e-07,-2.125000e-02
5.837200e-07,2.250000e-02
5.917200e-07,-3.500000e-02
5.997200e-07,-1.250000e-03
6.077200e-07,-7.500000e-03
6.157200e-07,2.125000e-02
6.237200e-07,-4.625000e-02
6.317200e-07,2.625000e-02
6.397200e-07,-1.250000e-02
6.477200e-07,5.000000e-03
6.557200e-07,1.250000e-03
6.637200e-07,1.750000e-02
6.717200e-07,-8.750000e-03
6.797200e-07,6.250000e-03
6.877200e-07,-2.000000e-02
6.957200e-07,2.625000e-02
7.037200e-07,-3.000000e-02
7.117200e-07,3.125000e-02
7.197200e-07,-1.500000e-02
7.277200e-07,1.750000e-02
7.357200e-07,-1.375000e-02
7.437200e-07,3.750000e-03
7.517200e-07,-2.625000e-02
7.597200e-07,7.500000e-03
7.677200e-07,-8.750000e-03
7.757200e-07,3.750000e-03
7.837200e-07,-5.000000e-03
7.917200e-07,1.000000e-02
7.997200e-07,-5.000000e-03
