run1/run1_ch1_20210318180138563.csv

Model,MSO64
Waveform Type,ANALOG
Horizontal Units,s
Sample Interval,8.000000e-09
Record Length,1250
Zero Index,624.560000
Vertical Units,V

TIME,CH1
-4.996480e-06,5.000000e-03
-4.988480e-06,0.000000e+00
-4.980480e-06,5.000000e-03
-4.972480e-06,6.250000e-03
-4.964480e-06,1.875000e-02
-4.956480e-06,-1.250000e-02
-4.948480e-06,-1.000000e-02
-4.940480e-06,-1.875000e-02
-4.932480e-06,1.750000e-02
-4.924480e-06,-1.125000e-02
-4.916480e-06,2.500000e-03
-4.908480e-06,-1.625000e-02
-4.900480e-06,2.000000e-02
-4.892480e-06,5.000000e-03
-4.884480e-06,1.750000e-02
-4.876480e-06,-1.250000e-03
-4.868480e-06,1.875000e-02
-4.860480e-06,7.500000e-03
-4.852480e-06,7.500000e-03
-4.844480e-06,-5.000000e-03
-4.836480e-06,1.500000e-02
-4.828480e-06,-2.625000e-02
-4.820480e-06,7.500000e-03
-4.812480e-06,-2.000000e-02
-4.804480e-06,1.875000e-02
-4.796480e-06,-1.625000e-02
-4.788480e-06,1.000000e-02
-4.780480e-06,-1.250000e-02
-4.772480e-06,1.125000e-02
-4.764480e-06,-1.625000e-02
-4.756480e-06,-5.000000e-03
-4.748480e-06,2.500000e-02
-4.740480e-06,2.000000e-02
-4.732480e-06,-1.625000e-02
-4.724480e-06,5.000000e-03
-4.716480e-06,-7.500000e-03
-4.708480e-06,2.125000e-02
-4.700480e-06,-2.875000e-02
-4.692480e-06,1.625000e-02
-4.684480e-06,-1.625000e-02
-4.676480e-06,2.500000e-02
-4.668480e-06,-2.875000e-02
-4.660480e-06,2.750000e-02
-4.652480e-06,-1.250000e-02
-4.644480e-06,-7.500000e-03
-4.636480e-06,-2.500000e-03
-4.628480e-06,1.500000e-02
-4.620480e-06,-1.125000e-02
-4.612480e-06,3.125000e-02
-4.604480e-06,2.125000e-02
-4.596480e-06,7.500000e-03
-4.588480e-06,-3.750000e-03
-4.580480e-06,1.500000e-02
-4.572480e-06,-3.375000e-02
-4.564480e-06,2.375000e-02
-4.556480e-06,-1.750000e-02
-4.548480e-06,2.625000e-02
-4.540480e-06,0.000000e+00
-4.532480e-06,1.500000e-02
-4.524480e-06,-1.375000e-02
-4.516480e-06,-2.500000e-03
-4.508480e-06,-1.250000e-02
-4.500480e-06,-3.750000e-03
-4.492480e-06,-1.000000e-02
-4.484480e-06,3.625000e-02
-4.476480e-06,-1.250000e-03
-4.468480e-06,8.750000e-03
-4.460480e-06,-8.750000e-03
-4.452480e-06,8.750000e-03
-4.444480e-06,-1.250000e-03
-4.436480e-06,2.875000e-02
-4.428480e-06,-2.125000e-02
-4.420480e-06,1.875000e-02
-4.412480e-06,-2.000000e-02
-4.404480e-06,1.000000e-02
-4.396480e-06,-7.500000e-03
-4.388480e-06,2.500000e-02
-4.380480e-06,-1.375000e-02
-4.372480e-06,1.250000e-02
-4.364480e-06,-1.250000e-03
-4.356480e-06,1.250000e-02
-4.348480e-06,-6.250000e-03
-4.340480e-06,8.750000e-03
-4.332480e-06,-1.625000e-02
-4.324480e-06,-1.250000e-03
-4.316480e-06,-2.875000e-02
-4.308480e-06,2.250000e-02
-4.300480e-06,-2.250000e-02
-4.292480e-06,2.875000e-02
-4.284480e-06,-7.500000e-03
-4.276480e-06,8.750000e-03
-4.268480e-06,-7.500000e-03
-4.260480e-06,2.000000e-02
-4.252480e-06,-3.000000e-02
-4.244480e-06,1.000000e-02
-4.236480e-06,-5.000000e-03
-4.228480e-06,4.250000e-02
-4.220480e-06,-2.000000e-02
-4.212480e-06,1.875000e-02
-4.204480e-06,-2.250000e-02
-4.196480e-06,1.000000e-02
-4.188480e-06,-2.625000e-02
-4.180480e-06,2.125000e-02
-4.172480e-06,-1.000000e-02
-4.164480e-06,2.250000e-02
-4.156480e-06,-1.625000e-02
-4.148480e-06,2.750000e-02
-4.140480e-06,-1.500000e-02
-4.132480e-06,-1.250000e-03
-4.124480e-06,-1.000000e-02
-4.116480e-06,2.250000e-02
-4.108480e-06,-1.250000e-03
-4.100480e-06,7.500000e-03
-4.092480e-06,-2.625000e-02
-4.084480e-06,-7.500000e-03
-4.076480e-06,-8.750000e-03
-4.068480e-06,3.250000e-02
-4.060480e-06,-1.625000e-02
-4.052480e-06,2.625000e-02
-4.044480e-06,0.000000e+00
-4.036480e-06,3.375000e-02
-4.028480e-06,-2.000000e-02
-4.020480e-06,3.750000e-03
-4.012480e-06,-2.500000e-02
-4.004480e-06,3.750000e-03
-3.996480e-06,-2.375000e-02
-3.988480e-06,5.000000e-03
-3.980480e-06,-1.000000e-02
-3.972480e-06,2.500000e-02
-3.964480e-06,1.125000e-02
-3.956480e-06,2.250000e-02
-3.948480e-06,2.500000e-03
-3.940480e-06,2.250000e-02
-3.932480e-06,-1.375000e-02
-3.924480e-06,1.250000e-03
-3.916480e-06,-7.500000e-03
-3.908480e-06,1.125000e-02
-3.900480e-06,-1.125000e-02
-3.892480e-06,1.750000e-02
-3.884480e-06,-1.750000e-02
-3.876480e-06,-1.000000e-02
-3.868480e-06,-8.750000e-03
-3.860480e-06,3.250000e-02
-3.852480e-06,-5.000000e-03
-3.844480e-06,8.750000e-03
-3.836480e-06,-2.500000e-03
-3.828480e-06,2.250000e-02
-3.820480e-06,1.250000e-03
-3.812480e-06,1.125000e-02
-3.804480e-06,-2.625000e-02
-3.796480e-06,1.250000e-02
-3.788480e-06,-1.000000e-02
-3.780480e-06,4.250000e-02
-3.772480e-06,1.500000e-02
-3.764480e-06,3.750000e-03
-3.756480e-06,-1.125000e-02
-3.748480e-06,1.125000e-02
-3.740480e-06,0.000000e+00
-3.732480e-06,1.500000e-02
-3.724480e-06,7.500000e-03
-3.716480e-06,1.500000e-02
-3.708480e-06,-2.500000e-03
-3.700480e-06,1.125000e-02
-3.692480e-06,-7.500000e-03
-3.684480e-06,1.250000e-02
-3.676480e-06,-7.500000e-03
-3.668480e-06,5.000000e-03
-3.660480e-06,-3.000000e-02
-3.652480e-06,7.500000e-03
-3.644480e-06,-3.750000e-02
-3.636480e-06,1.125000e-02
-3.628480e-06,1.250000e-03
-3.620480e-06,1.500000e-02
-3.612480e-06,-2.500000e-02
-3.604480e-06,8.750000e-03
-3.596480e-06,3.750000e-03
-3.588480e-06,2.625000e-02
-3.580480e-06,-1.250000e-02
-3.572480e-06,2.125000e-02
-3.564480e-06,-2.250000e-02
-3.556480e-06,1.500000e-02
-3.548480e-06,-1.875000e-02
-3.540480e-06,1.750000e-02
-3.532480e-06,-2.250000e-02
-3.524480e-06,2.625000e-02
-3.516480e-06,-2.500000e-03
-3.508480e-06,2.250000e-02
-3.500480e-06,-1.250000e-02
-3.492480e-06,-3.750000e-03
-3.484480e-06,-2.500000e-03
-3.476480e-06,1.750000e-02
-3.468480e-06,-2.500000e-03
-3.460480e-06,5.000000e-03
-3.452480e-06,-6.250000e-03
-3.444480e-06,-1.500000e-02
-3.436480e-06,-7.500000e-03
-3.428480e-06,6.250000e-03
-3.420480e-06,-3.000000e-02
-3.412480e-06,5.000000e-03
-3.404480e-06,-5.000000e-03
-3.396480e-06,1.625000e-02
-3.388480e-06,5.000000e-03
-3.380480e-06,0.000000e+00
-3.372480e-06,-1.250000e-02
-3.364480e-06,2.250000e-02
-3.356480e-06,-2.625000e-02
-3.348480e-06,3.000000e-02
-3.340480e-06,-7.500000e-03
-3.332480e-06,1.250000e-02
-3.324480e-06,-1.000000e-02
-3.316480e-06,3.750000e-03
-3.308480e-06,-1.250000e-02
-3.300480e-06,3.875000e-02
-3.292480e-06,-1.000000e-02
-3.284480e-06,1.375000e-02
-3.276480e-06,-3.375000e-02
-3.268480e-06,1.500000e-02
-3.260480e-06,-8.750000e-03
-3.252480e-06,-3.750000e-03
-3.244480e-06,-1.250000e-03
-3.236480e-06,1.375000e-02
-3.228480e-06,-2.500000e-02
-3.220480e-06,1.875000e-02
-3.212480e-06,1.375000e-02
-3.204480e-06,3.750000e-03
-3.196480e-06,-8.750000e-03
-3.188480e-06,0.000000e+00
-3.180480e-06,1.250000e-02
-3.172480e-06,3.750000e-03
-3.164480e-06,-2.000000e-02
-3.156480e-06,1.375000e-02
-3.148480e-06,-2.125000e-02
-3.140480e-06,6.250000e-03
-3.132480e-06,-1.750000e-02
-3.124480e-06,1.500000e-02
-3.116480e-06,-2.500000e-03
-3.108480e-06,1.625000e-02
-3.100480e-06,-1.750000e-02
-3.092480e-06,1.000000e-02
-3.084480e-06,-1.000000e-02
-3.076480e-06,1.875000e-02
-3.068480e-06,1.125000e-02
-3.060480e-06,1.875000e-02
-3.052480e-06,-1.250000e-02
-3.044480e-06,2.250000e-02
-3.036480e-06,-3.625000e-02
-3.028480e-06,1.375000e-02
-3.020480e-06,-2.500000e-02
-3.012480e-06,3.000000e-02
-3.004480e-06,1.875000e-02
-2.996480e-06,7.500000e-03
-2.988480e-06,-2.250000e-02
-2.980480e-06,-1.125000e-02
-2.972480e-06,-2.500000e-02
-2.964480e-06,1.000000e-02
-2.956480e-06,-8.750000e-03
-2.948480e-06,2.000000e-02
-2.940480e-06,-1.125000e-02
-2.932480e-06,2.500000e-03
-2.924480e-06,-2.875000e-02
-2.916480e-06,1.875000e-02
-2.908480e-06,-1.250000e-02
-2.900480e-06,2.500000e-02
-2.892480e-06,-1.875000e-02
-2.884480e-06,2.250000e-02
-2.876480e-06,-1.500000e-02
-2.868480e-06,2.500000e-03
-2.860480e-06,2.500000e-03
-2.852480e-06,5.000000e-03
-2.844480e-06,-5.000000e-03
-2.836480e-06,2.125000e-02
-2.828480e-06,-1.375000e-02
-2.820480e-06,2.875000e-02
-2.812480e-06,-6.250000e-03
-2.804480e-06,1.750000e-02
-2.796480e-06,-1.250000e-02
-2.788480e-06,3.125000e-02
-2.780480e-06,-1.875000e-02
-2.772480e-06,3.750000e-03
-2.764480e-06,-1.125000e-02
-2.756480e-06,3.750000e-02
-2.748480e-06,-1.500000e-02
-2.740480e-06,1.125000e-02
-2.732480e-06,-1.375000e-02
-2.724480e-06,7.500000e-03
-2.716480e-06,-1.250000e-02
-2.708480e-06,2.125000e-02
-2.700480e-06,-7.500000e-03
-2.692480e-06,1.750000e-02
-2.684480e-06,-1.875000e-02
-2.676480e-06,7.500000e-03
-2.668480e-06,-8.750000e-03
-2.660480e-06,1.250000e-02
-2.652480e-06,-1.125000e-02
-2.644480e-06,1.500000e-02
-2.636480e-06,-1.125000e-02
-2.628480e-06,3.000000e-02
-2.620480e-06,-1.000000e-02
-2.612480e-06,2.375000e-02
-2.604480e-06,-8.750000e-03
-2.596480e-06,1.375000e-02
-2.588480e-06,-2.750000e-02
-2.580480e-06,2.750000e-02
-2.572480e-06,-1.000000e-02
-2.564480e-06,1.500000e-02
-2.556480e-06,-3.125000e-02
-2.548480e-06,2.750000e-02
-2.540480e-06,-3.750000e-03
-2.532480e-06,2.500000e-02
-2.524480e-06,-3.875000e-02
-2.516480e-06,2.375000e-02
-2.508480e-06,-3.000000e-02
-2.500480e-06,2.750000e-02
-2.492480e-06,-5.000000e-03
-2.484480e-06,1.875000e-02
-2.476480e-06,3.750000e-03
-2.468480e-06,2.250000e-02
-2.460480e-06,-1.500000e-02
-2.452480e-06,4.750000e-02
-2.444480e-06,1.125000e-02
-2.436480e-06,2.750000e-02
-2.428480e-06,2.500000e-03
-2.420480e-06,3.250000e-02
-2.412480e-06,-1.000000e-02
-2.404480e-06,6.250000e-03
-2.396480e-06,-2.375000e-02
-2.388480e-06,1.000000e-02
-2.380480e-06,-1.750000e-02
-2.372480e-06,2.125000e-02
-2.364480e-06,-1.625000e-02
-2.356480e-06,1.250000e-02
-2.348480e-06,-1.000000e-02
-2.340480e-06,1.500000e-02
-2.332480e-06,-1.250000e-03
-2.324480e-06,5.000000e-03
-2.316480e-06,1.500000e-02
-2.308480e-06,2.375000e-02
-2.300480e-06,3.750000e-03
-2.292480e-06,0.000000e+00
-2.284480e-06,-7.500000e-03
-2.276480e-06,3.750000e-03
-2.268480e-06,-2.750000e-02
-2.260480e-06,5.000000e-03
-2.252480e-06,-1.750000e-02
-2.244480e-06,3.125000e-02
-2.236480e-06,-5.000000e-03
-2.228480e-06,-2.500000e-03
-2.220480e-06,-7.500000e-03
-2.212480e-06,1.875000e-02
-2.204480e-06,-3.625000e-02
-2.196480e-06,3.750000e-03
-2.188480e-06,-1.500000e-02
-2.180480e-06,1.750000e-02
-2.172480e-06,-1.625000e-02
-2.164480e-06,1.375000e-02
-2.156480e-06,-1.250000e-02
-2.148480e-06,2.125000e-02
-2.140480e-06,-2.625000e-02
-2.132480e-06,5.000000e-03
-2.124480e-06,-1.500000e-02
-2.116480e-06,1.750000e-02
-2.108480e-06,-3.750000e-03
-2.100480e-06,1.750000e-02
-2.092480e-06,-8.750000e-03
-2.084480e-06,3.625000e-02
-2.076480e-06,-2.500000e-03
-2.068480e-06,6.250000e-03
-2.060480e-06,-2.500000e-03
-2.052480e-06,3.750000e-03
-2.044480e-06,-6.250000e-03
-2.036480e-06,2.125000e-02
-2.028480e-06,-1.250000e-03
-2.020480e-06,5.000000e-03
-2.012480e-06,-7.500000e-03
-2.004480e-06,1.750000e-02
-1.996480e-06,-1.250000e-02
-1.988480e-06,2.875000e-02
-1.980480e-06,-1.875000e-02
-1.972480e-06,7.500000e-03
-1.964480e-06,-1.375000e-02
-1.956480e-06,1.500000e-02
-1.948480e-06,-3.250000e-02
-1.940480e-06,6.250000e-03
-1.932480e-06,-3.750000e-03
-1.924480e-06,2.000000e-02
-1.916480e-06,-1.125000e-02
-1.908480e-06,3.750000e-03
-1.900480e-06,1.250000e-03
-1.892480e-06,1.375000e-02
-1.884480e-06,-2.000000e-02
-1.876480e-06,2.500000e-03
-1.868480e-06,-5.000000e-03
-1.860480e-06,4.625000e-02
-1.852480e-06,-1.500000e-02
-1.844480e-06,1.000000e-02
-1.836480e-06,-1.125000e-02
-1.828480e-06,1.625000e-02
-1.820480e-06,-3.000000e-02
-1.812480e-06,1.500000e-02
-1.804480e-06,-1.000000e-02
-1.796480e-06,4.000000e-02
-1.788480e-06,1.250000e-02
-1.780480e-06,1.750000e-02
-1.772480e-06,-2.625000e-02
-1.764480e-06,1.625000e-02
-1.756480e-06,-3.750000e-02
-1.748480e-06,1.250000e-03
-1.740480e-06,-2.000000e-02
-1.732480e-06,0.000000e+00
-1.724480e-06,-5.000000e-03
-1.716480e-06,1.250000e-02
-1.708480e-06,5.000000e-03
-1.700480e-06,1.125000e-02
-1.692480e-06,-2.375000e-02
-1.684480e-06,1.375000e-02
-1.676480e-06,0.000000e+00
-1.668480e-06,2.500000e-02
-1.660480e-06,-1.250000e-02
-1.652480e-06,1.250000e-02
-1.644480e-06,-1.875000e-02
-1.636480e-06,1.500000e-02
-1.628480e-06,-3.125000e-02
-1.620480e-06,3.375000e-02
-1.612480e-06,-8.750000e-03
-1.604480e-06,1.875000e-02
-1.596480e-06,-5.000000e-03
-1.588480e-06,1.125000e-02
-1.580480e-06,-7.500000e-03
-1.572480e-06,1.500000e-02
-1.564480e-06,-6.250000e-03
-1.556480e-06,3.375000e-02
-1.548480e-06,-7.500000e-03
-1.540480e-06,4.125000e-02
-1.532480e-06,1.250000e-02
-1.524480e-06,2.250000e-02
-1.516480e-06,-3.375000e-02
-1.508480e-06,1.750000e-02
-1.500480e-06,-2.500000e-02
-1.492480e-06,3.375000e-02
-1.484480e-06,-3.750000e-02
-1.476480e-06,3.500000e-02
-1.468480e-06,-1.250000e-03
-1.460480e-06,7.500000e-03
-1.452480e-06,-3.125000e-02
-1.444480e-06,0.000000e+00
-1.436480e-06,-3.500000e-02
-1.428480e-06,1.625000e-02
-1.420480e-06,1.375000e-02
-1.412480e-06,1.500000e-02
-1.404480e-06,6.250000e-03
-1.396480e-06,7.500000e-03
-1.388480e-06,-1.125000e-02
-1.380480e-06,2.375000e-02
-1.372480e-06,-2.000000e-02
-1.364480e-06,2.500000e-02
-1.356480e-06,-1.000000e-02
-1.348480e-06,2.250000e-02
-1.340480e-06,-1.625000e-02
-1.332480e-06,1.500000e-02
-1.324480e-06,-1.125000e-02
-1.316480e-06,6.250000e-03
-1.308480e-06,-1.875000e-02
-1.300480e-06,2.250000e-02
-1.292480e-06,8.750000e-03
-1.284480e-06,2.125000e-02
-1.276480e-06,-1.250000e-02
-1.268480e-06,-1.250000e-03
-1.260480e-06,-1.000000e-02
-1.252480e-06,3.000000e-02
-1.244480e-06,-2.250000e-02
-1.236480e-06,1.875000e-02
-1.228480e-06,-1.625000e-02
-1.220480e-06,2.500000e-02
-1.212480e-06,-5.000000e-03
-1.204480e-06,-3.750000e-03
-1.196480e-06,-6.250000e-03
-1.188480e-06,2.750000e-02
-1.180480e-06,-7.500000e-03
-1.172480e-06,2.000000e-02
-1.164480e-06,-7.500000e-03
-1.156480e-06,2.375000e-02
-1.148480e-06,-7.500000e-03
-1.140480e-06,2.000000e-02
-1.132480e-06,-2.750000e-02
-1.124480e-06,1.375000e-02
-1.116480e-06,-2.625000e-02
-1.108480e-06,-1.250000e-03
-1.100480e-06,-7.500000e-03
-1.092480e-06,1.125000e-02
-1.084480e-06,6.250000e-03
-1.076480e-06,1.000000e-02
-1.068480e-06,-1.500000e-02
-1.060480e-06,-2.500000e-03
-1.052480e-06,-2.000000e-02
-1.044480e-06,-1.500000e-02
-1.036480e-06,-1.000000e-02
-1.028480e-06,1.000000e-02
-1.020480e-06,-8.750000e-03
-1.012480e-06,1.000000e-02
-1.004480e-06,-1.625000e-02
-9.964800e-07,-3.750000e-03
-9.884800e-07,-2.125000e-02
-9.804800e-07,2.125000e-02
-9.724800e-07,-8.750000e-03
-9.644800e-07,1.750000e-02
-9.564800e-07,-2.500000e-02
-9.484800e-07,1.625000e-02
-9.404800e-07,1.250000e-03
-9.324800e-07,2.375000e-02
-9.244800e-07,-3.125000e-02
-9.164800e-07,2.375000e-02
-9.084800e-07,3.750000e-03
-9.004800e-07,1.625000e-02
-8.924800e-07,-1.250000e-03
-8.844800e-07,6.250000e-03
-8.764800e-07,-2.625000e-02
-8.684800e-07,1.250000e-02
-8.604800e-07,-3.250000e-02
-8.524800e-07,3.375000e-02
-8.444800e-07,-7.500000e-03
-8.364800e-07,2.500000e-02
-8.284800e-07,-1.750000e-02
-8.204800e-07,1.375000e-02
-8.124800e-07,-1.000000e-02
-8.044800e-07,-6.250000e-03
-7.964800e-07,-1.875000e-02
-7.884800e-07,1.875000e-02
-7.804800e-07,8.750000e-03
-7.724800e-07,3.000000e-02
-7.644800e-07,-2.125000e-02
-7.564800e-07,6.250000e-03
-7.484800e-07,-1.625000e-02
-7.404800e-07,3.750000e-03
-7.324800e-07,-2.500000e-03
-7.244800e-07,3.500000e-02
-7.164800e-07,-2.500000e-03
-7.084800e-07,1.375000e-02
-7.004800e-07,-1.625000e-02
-6.924800e-07,2.500000e-03
-6.844800e-07,-1.750000e-02
-6.764800e-07,0.000000e+00
-6.684800e-07,-1.500000e-02
-6.604800e-07,1.375000e-02
-6.524800e-07,1.000000e-02
-6.444800e-07,1.250000e-02
-6.364800e-07,-7.500000e-03
-6.284800e-07,1.625000e-02
-6.204800e-07,-1.250000e-03
-6.124800e-07,1.625000e-02
-6.044800e-07,-1.375000e-02
-5.964800e-07,1.500000e-02
-5.884800e-07,-3.750000e-03
-5.804800e-07,2.875000e-02
-5.724800e-07,-2.375000e-02
-5.644800e-07,0.000000e+00
-5.564800e-07,-2.500000e-03
-5.484800e-07,2.500000e-02
-5.404800e-07,-5.000000e-03
-5.324800e-07,1.625000e-02
-5.244800e-07,1.250000e-03
-5.164800e-07,3.250000e-02
-5.084800e-07,2.500000e-03
-5.004800e-07,1.250000e-02
-4.924800e-07,-1.500000e-02
-4.844800e-07,1.500000e-02
-4.764800e-07,-2.000000e-02
-4.684800e-07,-5.000000e-03
-4.604800e-07,-1.875000e-02
-4.524800e-07,2.500000e-02
-4.444800e-07,-1.750000e-02
-4.364800e-07,7.500000e-03
-4.284800e-07,-1.000000e-02
-4.204800e-07,3.500000e-02
-4.124800e-07,-1.375000e-02
-4.044800e-07,2.000000e-02
-3.964800e-07,1.250000e-03
-3.884800e-07,4.000000e-02
-3.804800e-07,-3.125000e-02
-3.724800e-07,2.500000e-02
-3.644800e-07,-6.250000e-03
-3.564800e-07,1.125000e-02
-3.484800e-07,-2.625000e-02
-3.404800e-07,2.875000e-02
-3.324800e-07,6.250000e-03
-3.244800e-07,1.875000e-02
-3.164800e-07,-7.500000e-03
-3.084800e-07,-1.250000e-03
-3.004800e-07,0.000000e+00
-2.924800e-07,1.000000e-02
-2.844800e-07,-1.625000e-02
-2.764800e-07,3.125000e-02
-2.684800e-07,-1.250000e-02
-2.604800e-07,3.750000e-03
-2.524800e-07,-3.750000e-03
-2.444800e-07,2.000000e-02
-2.364800e-07,1.250000e-03
-2.284800e-07,1.250000e-02
-2.204800e-07,-2.875000e-02
-2.124800e-07,1.625000e-02
-2.044800e-07,-2.875000e-02
-1.964800e-07,2.375000e-02
-1.884800e-07,-2.000000e-02
-1.804800e-07,3.000000e-02
-1.724800e-07,-1.000000e-02
-1.644800e-07,-5.000000e-03
-1.564800e-07,-2.250000e-02
-1.484800e-07,2.500000e-03
-1.404800e-07,-1.250000e-03
-1.324800e-07,5.500000e-02
-1.244800e-07,-1.750000e-02
-1.164800e-07,1.000000e-02
-1.084800e-07,-2.500000e-02
-1.004800e-07,1.375000e-02
-9.248000e-08,-3.250000e-02
-8.448000e-08,4.125000e-02
-7.648000e-08,-1.125000e-02
-6.848000e-08,2.625000e-02
-6.048000e-08,2.625000e-02
-5.248000e-08,2.000000e-02
-4.448000e-08,-1.875000e-02
-3.648000e-08,1.500000e-02
-2.848000e-08,-1.427500e+00
-2.048000e-08,-1.381250e+00
-1.248000e-08,-1.460000e+00
-4.480000e-09,-4.500000e-01
3.520000e-09,-3.500000e-02
1.152000e-08,2.000000e-02
1.952000e-08,-3.750000e-02
2.752000e-08,3.000000e-02
3.552000e-08,2.500000e-03
4.352000e-08,7.500000e-03
5.152000e-08,-7.500000e-03
5.952000e-08,3.250000e-02
6.752000e-08,3.750000e-03
7.552000e-08,5.000000e-03
8.352000e-08,-1.500000e-02
9.152000e-08,1.000000e-02
9.952000e-08,1.250000e-02
1.075200e-07,1.000000e-02
1.155200e-07,-1.625000e-02
1.235200e-07,7.500000e-03
1.315200e-07,3.750000e-03
1.395200e-07,2.250000e-02
1.475200e-07,-1.250000e-02
1.555200e-07,1.125000e-02
1.635200e-07,-1.000000e-02
1.715200e-07,1.500000e-02
1.795200e-07,-2.625000e-02
1.875200e-07,1.875000e-02
1.955200e-07,-1.250000e-02
2.035200e-07,1.875000e-02
2.115200e-07,-1.500000e-02
2.195200e-07,1.250000e-03
2.275200e-07,-2.125000e-02
2.355200e-07,2.250000e-02
2.435200e-07,-2.500000e-03
2.515200e-07,3.875000e-02
2.595200e-07,-1.125000e-02
2.675200e-07,4.750000e-02
2.755200e-07,-2.750000e-02
2.835200e-07,2.500000e-03
2.915200e-07,-5.000000e-03
2.995200e-07,1.000000e-02
3.075200e-07,-6.250000e-03
3.155200e-07,3.625000e-02
3.235200e-07,-5.000000e-03
3.315200e-07,-2.500000e-03
3.395200e-07,-2.000000e-02
3.475200e-07,1.750000e-02
3.555200e-07,8.750000e-03
3.635200e-07,1.625000e-02
3.715200e-07,-7.500000e-03
3.795200e-07,1.375000e-02
3.875200e-07,-2.250000e-02
3.955200e-07,2.625000e-02
4.035200e-07,-7.500000e-03
4.115200e-07,3.625000e-02
4.195200e-07,-1.500000e-02
4.275200e-07,1.750000e-02
4.355200e-07,-1.375000e-02
4.435200e-07,3.000000e-02
4.515200e-07,2.500000e-03
4.595200e-07,3.000000e-02
4.675200e-07,6.250000e-03
4.755200e-07,2.625000e-02
4.835200e-07,-1.500000e-02
4.915200e-07,1.000000e-02
4.995200e-07,-7.500000e-03
5.075200e-07,2.500000e-03
5.155200e-07,1.000000e-02
5.235200e-07,1.625000e-02
5.315200e-07,-1.000000e-02
5.395200e-07,2.250000e-02
5.475200e-07,-1.750000e-02
5.555200e-07,8.750000e-03
5.635200e-07,-1.000000e-02
5.715200e-07,3.000000e-02
5.795200e-07,3.750000e-03
5.875200e-07,1.125000e-02
5.955200e-07,-1.375000e-02
6.035200e-07,1.000000e-02
6.115200e-07,-5.000000e-03
6.195200e-07,7.500000e-03
6.275200e-07,1.500000e-02
6.355200e-07,3.625000e-02
6.435200e-07,-1.250000e-02
6.515200e-07,1.875000e-02
6.595200e-07,-1.125000e-02
6.675200e-07,1.750000e-02
6.755200e-07,-3.750000e-03
6.835200e-07,1.250000e-03
6.915200e-07,-6.250000e-03
6.995200e-07,3.750000e-02
7.075200e-07,-1.125000e-02
7.155200e-07,3.000000e-02
7.235200e-07,-2.500000e-02
7.315200e-07,1.125000e-02
7.395200e-07,-7.500000e-03
7.475200e-07,8.750000e-03
7.555200e-07,-3.750000e-03
7.635200e-07,3.125000e-02
7.715200e-07,0.000000e+00
7.795200e-07,1.250000e-03
7.875200e-07,-1.875000e-02
7.955200e-07,3.750000e-02
8.035200e-07,-2.125000e-02
