run1/run1_ch1_20210318180257920.csv

Model,MSO64
Waveform Type,ANALOG
Horizontal Units,s
Sample Interval,8.000000e-09
Record Length,1250
Zero Index,624.545156
Vertical Units,V

TIME,CH1
-4.996361e-06,-5.000000e-03
-4.988361e-06,1.375000e-02
-4.980361e-06,-3.750000e-03
-4.972361e-06,2.250000e-02
-4.964361e-06,-2.500000e-02
-4.956361e-06,-2.500000e-03
-4.948361e-06,-1.250000e-03
-4.940361e-06,1.750000e-02
-4.932361e-06,-2.500000e-02
-4.924361e-06,1.625000e-02
-4.916361e-06,-3.750000e-03
-4.908361e-06,7.500000e-03
-4.900361e-06,-1.000000e-02
-4.892361e-06,2.500000e-03
-4.884361e-06,-1.625000e-02
-4.876361e-06,1.750000e-02
-4.868361e-06,-1.000000e-02
-4.860361e-06,1.375000e-02
-4.852361e-06,-1.125000e-02
-4.844361e-06,4.375000e-02
-4.836361e-06,-3.500000e-02
-4.828361e-06,1.375000e-02
-4.820361e-06,-2.250000e-02
-4.812361e-06,6.250000e-03
-4.804361e-06,-1.500000e-02
-4.796361e-06,1.875000e-02
-4.788361e-06,-1.500000e-02
-4.780361e-06,1.000000e-02
-4.772361e-06,-2.500000e-02
-4.764361e-06,2.625000e-02
-4.756361e-06,-1.250000e-02
-4.748361e-06,3.875000e-02
-4.740361e-06,-3.750000e-03
-4.732361e-06,3.750000e-03
-4.724361e-06,-1.875000e-02
-4.716361e-06,5.000000e-03
-4.708361e-06,-3.875000e-02
-4.700361e-06,1.250000e-03
-4.692361e-06,-1.125000e-02
-4.684361e-06,1.250000e-02
-4.676361e-06,2.500000e-03
-4.668361e-06,3.750000e-03
-4.660361e-06,-2.250000e-02
-4.652361e-06,2.750000e-02
-4.644361e-06,-8.750000e-03
-4.636361e-06,2.625000e-02
-4.628361e-06,3.750000e-03
-4.620361e-06,8.750000e-03
-4.612361e-06,-1.625000e-02
-4.604361e-06,-5.000000e-03
-4.596361e-06,-2.000000e-02
-4.588361e-06,2.250000e-02
-4.580361e-06,-1.000000e-02
-4.572361e-06,3.750000e-03
-4.564361e-06,7.500000e-03
-4.556361e-06,1.250000e-02
-4.548361e-06,-1.250000e-02
-4.540361e-06,2.500000e-02
-4.532361e-06,-2.375000e-02
-4.524361e-06,1.000000e-02
-4.516361e-06,-3.250000e-02
-4.508361e-06,1.000000e-02
-4.500361e-06,-3.500000e-02
-4.492361e-06,2.750000e-02
-4.484361e-06,-3.000000e-02
-4.476361e-06,1.000000e-02
-4.468361e-06,-2.375000e-02
-4.460361e-06,2.000000e-02
-4.452361e-06,-3.750000e-03
-4.444361e-06,2.875000e-02
-4.436361e-06,-1.625000e-02
-4.428361e-06,3.375000e-02
-4.420361e-06,-1.250000e-03
-4.412361e-06,1.625000e-02
-4.404361e-06,-3.000000e-02
-4.396361e-06,2.125000e-02
-4.388361e-06,-3.875000e-02
-4.380361e-06,1.125000e-02
-4.372361e-06,-3.250000e-02
-4.364361e-06,3.125000e-02
-4.356361e-06,-8.750000e-03
-4.348361e-06,2.875000e-02
-4.340361e-06,-1.250000e-03
-4.332361e-06,2.500000e-02
-4.324361e-06,-2.500000e-03
-4.316361e-06,1.250000e-02
-4.308361e-06,-3.125000e-02
-4.300361e-06,1.625000e-02
-4.292361e-06,1.250000e-03
-4.284361e-06,1.500000e-02
-4.276361e-06,-2.250000e-02
-4.268361e-06,1.250000e-02
-4.260361e-06,-2.875000e-02
-4.252361e-06,1.000000e-02
-4.244361e-06,-6.250000e-03
-4.236361e-06,2.000000e-02
-4.228361e-06,-1.250000e-03
-4.220361e-06,3.125000e-02
-4.212361e-06,1.250000e-03
-4.204361e-06,2.500000e-03
-4.196361e-06,-2.125000e-02
-4.188361e-06,1.125000e-02
-4.180361e-06,-2.500000e-03
-4.172361e-06,1.500000e-02
-4.164361e-06,-7.500000e-03
-4.156361e-06,8.750000e-03
-4.148361e-06,-2.500000e-03
-4.140361e-06,2.625000e-02
-4.132361e-06,-1.250000e-02
-4.124361e-06,5.000000e-03
-4.116361e-06,-2.750000e-02
-4.108361e-06,3.000000e-02
-4.100361e-06,6.250000e-03
-4.092361e-06,6.250000e-03
-4.084361e-06,-1.750000e-02
-4.076361e-06,5.000000e-03
-4.068361e-06,-1.625000e-02
-4.060361e-06,1.625000e-02
-4.052361e-06,-7.500000e-03
-4.044361e-06,1.625000e-02
-4.036361e-06,-1.250000e-02
-4.028361e-06,3.375000e-02
-4.020361e-06,5.000000e-03
-4.012361e-06,2.625000e-02
-4.004361e-06,-3.750000e-02
-3.996361e-06,-2.500000e-03
-3.988361e-06,-2.625000e-02
-3.980361e-06,1.250000e-02
-3.972361e-06,-3.625000e-02
-3.964361e-06,7.500000e-03
-3.956361e-06,-1.250000e-03
-3.948361e-06,1.750000e-02
-3.940361e-06,-2.000000e-02
-3.932361e-06,2.625000e-02
-3.924361e-06,1.000000e-02
-3.916361e-06,-1.250000e-03
-3.908361e-06,-7.500000e-03
-3.900361e-06,1.375000e-02
-3.892361e-06,-3.750000e-03
-3.884361e-06,2.625000e-02
-3.876361e-06,-3.625000e-02
-3.868361e-06,2.000000e-02
-3.860361e-06,-2.000000e-02
-3.852361e-06,1.750000e-02
-3.844361e-06,-1.250000e-03
-3.836361e-06,2.000000e-02
-3.828361e-06,-7.500000e-03
-3.820361e-06,8.750000e-03
-3.812361e-06,-2.625000e-02
-3.804361e-06,1.250000e-03
-3.796361e-06,-2.125000e-02
-3.788361e-06,7.500000e-03
-3.780361e-06,-3.250000e-02
-3.772361e-06,2.000000e-02
-3.764361e-06,-1.875000e-02
-3.756361e-06,2.250000e-02
-3.748361e-06,-3.875000e-02
-3.740361e-06,2.625000e-02
-3.732361e-06,-1.250000e-02
-3.724361e-06,4.000000e-02
-3.716361e-06,-1.750000e-02
-3.708361e-06,8.750000e-03
-3.700361e-06,-1.750000e-02
-3.692361e-06,2.125000e-02
-3.684361e-06,-2.250000e-02
-3.676361e-06,-1.250000e-03
-3.668361e-06,-5.000000e-03
-3.660361e-06,2.875000e-02
-3.652361e-06,1.250000e-03
-3.644361e-06,1.625000e-02
-3.636361e-06,-6.250000e-03
-3.628361e-06,1.750000e-02
-3.620361e-06,-2.250000e-02
-3.612361e-06,1.625000e-02
-3.604361e-06,-5.000000e-03
-3.596361e-06,2.625000e-02
-3.588361e-06,-1.250000e-03
-3.580361e-06,1.000000e-02
-3.572361e-06,1.625000e-02
-3.564361e-06,1.750000e-02
-3.556361e-06,-1.000000e-02
-3.548361e-06,2.500000e-03
-3.540361e-06,3.750000e-03
-3.532361e-06,3.250000e-02
-3.524361e-06,-2.625000e-02
-3.516361e-06,1.875000e-02
-3.508361e-06,-3.750000e-03
-3.500361e-06,6.250000e-03
-3.492361e-06,-1.125000e-02
-3.484361e-06,1.000000e-02
-3.476361e-06,-2.875000e-02
-3.468361e-06,1.875000e-02
-3.460361e-06,-8.750000e-03
-3.452361e-06,2.000000e-02
-3.444361e-06,1.250000e-02
-3.436361e-06,1.500000e-02
-3.428361e-06,-5.125000e-02
-3.420361e-06,1.875000e-02
-3.412361e-06,0.000000e+00
-3.404361e-06,1.875000e-02
-3.396361e-06,1.625000e-02
-3.388361e-06,2.500000e-02
-3.380361e-06,-1.875000e-02
-3.372361e-06,1.125000e-02
-3.364361e-06,-1.625000e-02
-3.356361e-06,4.375000e-02
-3.348361e-06,-1.000000e-02
-3.340361e-06,3.125000e-02
-3.332361e-06,-2.250000e-02
-3.324361e-06,1.875000e-02
-3.316361e-06,-1.250000e-02
-3.308361e-06,1.625000e-02
-3.300361e-06,-1.625000e-02
-3.292361e-06,2.875000e-02
-3.284361e-06,-6.250000e-03
-3.276361e-06,2.000000e-02
-3.268361e-06,-2.000000e-02
-3.260361e-06,3.125000e-02
-3.252361e-06,-8.750000e-03
-3.244361e-06,3.125000e-02
-3.236361e-06,-2.750000e-02
-3.228361e-06,1.125000e-02
-3.220361e-06,-1.250000e-02
-3.212361e-06,1.000000e-02
-3.204361e-06,-2.250000e-02
-3.196361e-06,-7.500000e-03
-3.188361e-06,-1.250000e-02
-3.180361e-06,1.750000e-02
-3.172361e-06,-2.875000e-02
-3.164361e-06,2.625000e-02
-3.156361e-06,-1.500000e-02
-3.148361e-06,2.000000e-02
-3.140361e-06,-3.750000e-03
-3.132361e-06,1.750000e-02
-3.124361e-06,-2.625000e-02
-3.116361e-06,2.250000e-02
-3.108361e-06,-3.125000e-02
-3.100361e-06,1.250000e-02
-3.092361e-06,-1.250000e-02
-3.084361e-06,2.125000e-02
-3.076361e-06,-2.250000e-02
-3.068361e-06,1.500000e-02
-3.060361e-06,-2.000000e-02
-3.052361e-06,6.250000e-03
-3.044361e-06,-3.875000e-02
-3.036361e-06,1.875000e-02
-3.028361e-06,-1.875000e-02
-3.020361e-06,3.125000e-02
-3.012361e-06,-3.750000e-03
-3.004361e-06,-1.125000e-02
-2.996361e-06,-1.750000e-02
-2.988361e-06,2.500000e-02
-2.980361e-06,-3.375000e-02
-2.972361e-06,5.000000e-03
-2.964361e-06,-4.125000e-02
-2.956361e-06,7.500000e-03
-2.948361e-06,-1.500000e-02
-2.940361e-06,1.250000e-03
-2.932361e-06,-8.750000e-03
-2.924361e-06,2.250000e-02
-2.916361e-06,-1.000000e-02
-2.908361e-06,3.375000e-02
-2.900361e-06,7.500000e-03
-2.892361e-06,5.000000e-03
-2.884361e-06,-1.750000e-02
-2.876361e-06,1.250000e-02
-2.868361e-06,-1.250000e-02
-2.860361e-06,-5.000000e-03
-2.852361e-06,-6.250000e-03
-2.844361e-06,6.250000e-03
-2.836361e-06,-5.000000e-03
-2.828361e-06,1.375000e-02
-2.820361e-06,-3.125000e-02
-2.812361e-06,1.750000e-02
-2.804361e-06,-1.250000e-03
-2.796361e-06,7.500000e-03
-2.788361e-06,-1.750000e-02
-2.780361e-06,-8.750000e-03
-2.772361e-06,-1.000000e-02
-2.764361e-06,3.125000e-02
-2.756361e-06,-2.250000e-02
-2.748361e-06,1.375000e-02
-2.740361e-06,-2.625000e-02
-2.732361e-06,2.625000e-02
-2.724361e-06,-3.000000e-02
-2.716361e-06,1.750000e-02
-2.708361e-06,-1.000000e-02
-2.700361e-06,2.500000e-02
-2.692361e-06,-1.750000e-02
-2.684361e-06,7.500000e-03
-2.676361e-06,-1.750000e-02
-2.668361e-06,2.250000e-02
-2.660361e-06,-7.500000e-03
-2.652361e-06,1.375000e-02
-2.644361e-06,-6.250000e-03
-2.636361e-06,1.375000e-02
-2.628361e-06,1.500000e-02
-2.620361e-06,2.375000e-02
-2.612361e-06,-2.250000e-02
-2.604361e-06,1.250000e-03
-2.596361e-06,-2.250000e-02
-2.588361e-06,2.625000e-02
-2.580361e-06,0.000000e+00
-2.572361e-06,3.000000e-02
-2.564361e-06,-3.750000e-03
-2.556361e-06,5.000000e-03
-2.548361e-06,-1.875000e-02
-2.540361e-06,1.500000e-02
-2.532361e-06,-1.750000e-02
-2.524361e-06,1.750000e-02
-2.516361e-06,-1.250000e-02
-2.508361e-06,2.375000e-02
-2.500361e-06,-7.500000e-03
-2.492361e-06,2.000000e-02
-2.484361e-06,-2.375000e-02
-2.476361e-06,5.000000e-03
-2.468361e-06,-2.375000e-02
-2.460361e-06,1.625000e-02
-2.452361e-06,-2.000000e-02
-2.444361e-06,1.125000e-02
-2.436361e-06,-2.000000e-02
-2.428361e-06,1.875000e-02
-2.420361e-06,-2.625000e-02
-2.412361e-06,8.750000e-03
-2.404361e-06,-1.875000e-02
-2.396361e-06,2.375000e-02
-2.388361e-06,-1.125000e-02
-2.380361e-06,1.875000e-02
-2.372361e-06,-1.375000e-02
-2.364361e-06,8.750000e-03
-2.356361e-06,5.000000e-03
-2.348361e-06,2.625000e-02
-2.340361e-06,-1.625000e-02
-2.332361e-06,5.000000e-03
-2.324361e-06,-1.000000e-02
-2.316361e-06,2.625000e-02
-2.308361e-06,-1.750000e-02
-2.300361e-06,1.875000e-02
-2.292361e-06,-3.125000e-02
-2.284361e-06,1.500000e-02
-2.276361e-06,-6.250000e-03
-2.268361e-06,3.750000e-03
-2.260361e-06,-1.250000e-03
-2.252361e-06,1.250000e-03
-2.244361e-06,1.250000e-02
-2.236361e-06,1.000000e-02
-2.228361e-06,-4.125000e-02
-2.220361e-06,4.375000e-02
-2.212361e-06,-3.375000e-02
-2.204361e-06,1.250000e-02
-2.196361e-06,-2.000000e-02
-2.188361e-06,2.625000e-02
-2.180361e-06,-1.000000e-02
-2.172361e-06,2.000000e-02
-2.164361e-06,-1.000000e-02
-2.156361e-06,1.000000e-02
-2.148361e-06,-2.625000e-02
-2.140361e-06,3.500000e-02
-2.132361e-06,-3.750000e-03
-2.124361e-06,3.000000e-02
-2.116361e-06,-1.125000e-02
-2.108361e-06,3.125000e-02
-2.100361e-06,-1.500000e-02
-2.092361e-06,-3.750000e-03
-2.084361e-06,-3.750000e-02
-2.076361e-06,8.750000e-03
-2.068361e-06,-3.500000e-02
-2.060361e-06,1.625000e-02
-2.052361e-06,-2.250000e-02
-2.044361e-06,-1.750000e-02
-2.036361e-06,-5.000000e-03
-2.028361e-06,1.500000e-02
-2.020361e-06,-2.875000e-02
-2.012361e-06,1.875000e-02
-2.004361e-06,5.000000e-03
-1.996361e-06,1.375000e-02
-1.988361e-06,-1.250000e-03
-1.980361e-06,6.250000e-03
-1.972361e-06,-2.000000e-02
-1.964361e-06,1.125000e-02
-1.956361e-06,-2.500000e-03
-1.948361e-06,1.750000e-02
-1.940361e-06,-4.375000e-02
-1.932361e-06,2.500000e-02
-1.924361e-06,-1.625000e-02
-1.916361e-06,1.250000e-03
-1.908361e-06,-2.125000e-02
-1.900361e-06,2.250000e-02
-1.892361e-06,-8.750000e-03
-1.884361e-06,-5.000000e-03
-1.876361e-06,-2.125000e-02
-1.868361e-06,2.125000e-02
-1.860361e-06,-7.500000e-03
-1.852361e-06,1.375000e-02
-1.844361e-06,-8.750000e-03
-1.836361e-06,0.000000e+00
-1.828361e-06,-1.500000e-02
-1.820361e-06,2.500000e-02
-1.812361e-06,-3.500000e-02
-1.804361e-06,1.250000e-02
-1.796361e-06,-1.750000e-02
-1.788361e-06,7.500000e-03
-1.780361e-06,-8.750000e-03
-1.772361e-06,2.500000e-02
-1.764361e-06,-1.875000e-02
-1.756361e-06,2.125000e-02
-1.748361e-06,-1.750000e-02
-1.740361e-06,1.750000e-02
-1.732361e-06,-2.500000e-02
-1.724361e-06,7.500000e-03
-1.716361e-06,-2.750000e-02
-1.708361e-06,2.500000e-02
-1.700361e-06,-1.250000e-02
-1.692361e-06,1.750000e-02
-1.684361e-06,-2.625000e-02
-1.676361e-06,4.875000e-02
-1.668361e-06,-1.875000e-02
-1.660361e-06,1.125000e-02
-1.652361e-06,-3.625000e-02
-1.644361e-06,2.625000e-02
-1.636361e-06,-3.000000e-02
-1.628361e-06,8.750000e-03
-1.620361e-06,-1.750000e-02
-1.612361e-06,3.500000e-02
-1.604361e-06,-8.750000e-03
-1.596361e-06,1.250000e-03
-1.588361e-06,-3.250000e-02
-1.580361e-06,3.750000e-03
-1.572361e-06,-1.750000e-02
-1.564361e-06,1.000000e-02
-1.556361e-06,-4.125000e-02
-1.548361e-06,4.500000e-02
-1.540361e-06,-7.500000e-03
-1.532361e-06,2.625000e-02
-1.524361e-06,-8.750000e-03
-1.516361e-06,8.750000e-03
-1.508361e-06,-3.500000e-02
-1.500361e-06,3.750000e-03
-1.492361e-06,-1.000000e-02
-1.484361e-06,2.250000e-02
-1.476361e-06,-5.000000e-03
-1.468361e-06,1.625000e-02
-1.460361e-06,-1.125000e-02
-1.452361e-06,1.250000e-02
-1.444361e-06,-4.625000e-02
-1.436361e-06,1.250000e-02
-1.428361e-06,-7.500000e-03
-1.420361e-06,3.625000e-02
-1.412361e-06,-7.500000e-03
-1.404361e-06,8.750000e-03
-1.396361e-06,-3.250000e-02
-1.388361e-06,-5.000000e-03
-1.380361e-06,2.500000e-03
-1.372361e-06,1.125000e-02
-1.364361e-06,1.250000e-03
-1.356361e-06,1.375000e-02
-1.348361e-06,-3.750000e-03
-1.340361e-06,4.000000e-02
-1.332361e-06,-2.125000e-02
-1.324361e-06,0.000000e+00
-1.316361e-06,-3.250000e-02
-1.308361e-06,2.750000e-02
-1.300361e-06,-2.125000e-02
-1.292361e-06,3.750000e-03
-1.284361e-06,-1.125000e-02
-1.276361e-06,8.750000e-03
-1.268361e-06,-5.000000e-03
-1.260361e-06,1.750000e-02
-1.252361e-06,-3.875000e-02
-1.244361e-06,1.375000e-02
-1.236361e-06,-2.750000e-02
-1.228361e-06,1.125000e-02
-1.220361e-06,0.000000e+00
-1.212361e-06,1.250000e-03
-1.204361e-06,-5.000000e-03
-1.196361e-06,3.750000e-03
-1.188361e-06,-5.000000e-02
-1.180361e-06,2.250000e-02
-1.172361e-06,-1.500000e-02
-1.164361e-06,3.250000e-02
-1.156361e-06,3.750000e-03
-1.148361e-06,2.500000e-03
-1.140361e-06,-3.750000e-03
-1.132361e-06,3.750000e-03
-1.124361e-06,-2.125000e-02
-1.116361e-06,1.125000e-02
-1.108361e-06,-2.875000e-02
-1.100361e-06,1.625000e-02
-1.092361e-06,-1.750000e-02
-1.084361e-06,2.750000e-02
-1.076361e-06,-1.125000e-02
-1.068361e-06,2.000000e-02
-1.060361e-06,-4.500000e-02
-1.052361e-06,2.875000e-02
-1.044361e-06,-1.500000e-02
-1.036361e-06,2.125000e-02
-1.028361e-06,-1.125000e-02
-1.020361e-06,1.250000e-02
-1.012361e-06,-2.125000e-02
-1.004361e-06,1.125000e-02
-9.963612e-07,-1.125000e-02
-9.883612e-07,6.250000e-03
-9.803613e-07,3.750000e-03
-9.723613e-07,1.750000e-02
-9.643613e-07,-2.375000e-02
-9.563612e-07,8.750000e-03
-9.483613e-07,-8.750000e-03
-9.403612e-07,1.250000e-02
-9.323613e-07,-4.125000e-02
-9.243613e-07,1.375000e-02
-9.163612e-07,-4.250000e-02
-9.083612e-07,3.750000e-02
-9.003613e-07,-1.625000e-02
-8.923612e-07,0.000000e+00
-8.843612e-07,1.250000e-03
-8.763613e-07,1.875000e-02
-8.683612e-07,2.500000e-03
-8.603612e-07,5.000000e-03
-8.523613e-07,2.500000e-03
-8.443612e-07,8.750000e-03
-8.363612e-07,-2.625000e-02
-8.283613e-07,8.750000e-03
-8.203612e-07,-1.500000e-02
-8.123612e-07,-1.000000e-02
-8.043613e-07,-2.000000e-02
-7.963612e-07,2.125000e-02
-7.883612e-07,-3.750000e-03
-7.803613e-07,6.250000e-03
-7.723612e-07,-1.250000e-02
-7.643612e-07,1.000000e-02
-7.563613e-07,0.000000e+00
-7.483612e-07,1.375000e-02
-7.403612e-07,-2.875000e-02
-7.323613e-07,1.125000e-02
-7.243612e-07,-5.000000e-03
-7.163612e-07,8.750000e-03
-7.083613e-07,-1.250000e-02
-7.003612e-07,1.250000e-03
-6.923612e-07,-8.750000e-03
-6.843613e-07,3.000000e-02
-6.763612e-07,-3.250000e-02
-6.683612e-07,1.125000e-02
-6.603612e-07,3.750000e-03
-6.523612e-07,1.250000e-02
-6.443612e-07,1.250000e-02
-6.363612e-07,7.500000e-03
-6.283612e-07,-4.250000e-02
-6.203612e-07,2.625000e-02
-6.123612e-07,-1.500000e-02
-6.043612e-07,5.000000e-03
-5.963612e-07,-1.125000e-02
-5.883612e-07,2.500000e-02
-5.803612e-07,-2.625000e-02
-5.723612e-07,2.500000e-02
-5.643612e-07,-2.625000e-02
-5.563612e-07,7.500000e-03
-5.483612e-07,1.250000e-03
-5.403612e-07,6.250000e-03
-5.323612e-07,-1.375000e-02
-5.243612e-07,3.625000e-02
-5.163612e-07,-1.250000e-03
-5.083612e-07,1.250000e-03
-5.003612e-07,-8.750000e-03
-4.923612e-07,2.500000e-03
-4.843612e-07,-8.750000e-03
-4.763612e-07,3.750000e-03
-4.683612e-07,-7.500000e-03
-4.603612e-07,1.750000e-02
-4.523612e-07,-1.000000e-02
-4.443612e-07,2.375000e-02
-4.363612e-07,-3.125000e-02
-4.283612e-07,-2.500000e-03
-4.203612e-07,-4.625000e-02
-4.123612e-07,7.500000e-03
-4.043612e-07,-1.250000e-02
-3.963612e-07,3.000000e-02
-3.883612e-07,-6.250000e-03
-3.803612e-07,1.000000e-02
-3.723612e-07,1.125000e-02
-3.643612e-07,1.250000e-03
-3.563612e-07,-6.250000e-03
-3.483612e-07,2.125000e-02
-3.403612e-07,-1.250000e-03
-3.323612e-07,2.875000e-02
-3.243612e-07,-1.000000e-02
-3.163612e-07,1.250000e-02
-3.083612e-07,-5.000000e-03
-3.003612e-07,2.125000e-02
-2.923612e-07,-1.750000e-02
-2.843612e-07,1.250000e-03
-2.763612e-07,-2.250000e-02
-2.683612e-07,2.375000e-02
-2.603612e-07,-1.875000e-02
-2.523612e-07,6.250000e-03
-2.443612e-07,-1.250000e-03
-2.363612e-07,0.000000e+00
-2.283612e-07,-1.500000e-02
-2.203612e-07,1.375000e-02
-2.123612e-07,-7.500000e-03
-2.043612e-07,7.500000e-03
-1.963612e-07,-7.500000e-03
-1.883612e-07,1.500000e-02
-1.803612e-07,-1.875000e-02
-1.723612e-07,3.000000e-02
-1.643612e-07,-3.625000e-02
-1.563612e-07,8.750000e-03
-1.483612e-07,-1.250000e-02
-1.403612e-07,3.750000e-02
-1.323612e-07,7.500000e-03
-1.243612e-07,-1.375000e-02
-1.163612e-07,-1.625000e-02
-1.083612e-07,3.000000e-02
-1.003612e-07,-1.250000e-02
-9.236125e-08,1.375000e-02
-8.436125e-08,-2.500000e-03
-7.636125e-08,7.500000e-03
-6.836125e-08,-1.500000e-02
-6.036125e-08,3.250000e-02
-5.236125e-08,-1.750000e-02
-4.436125e-08,1.250000e-02
-3.636125e-08,-4.125000e-02
-2.836125e-08,2.500000e-03
-2.036125e-08,-5.000000e-03
-1.236125e-08,2.500000e-02
-4.361250e-09,-1.500000e-02
3.638750e-09,-1.411250e+00
1.163875e-08,-1.437500e+00
1.963875e-08,-1.432500e+00
2.763875e-08,-1.385000e+00
3.563875e-08,-8.750000e-03
4.363875e-08,-7.500000e-03
5.163875e-08,3.125000e-02
5.963875e-08,-1.250000e-03
6.763875e-08,5.000000e-03
7.563875e-08,-3.500000e-02
8.363875e-08,2.625000e-02
9.163875e-08,-2.750000e-02
9.963875e-08,1.375000e-02
1.076388e-07,-2.125000e-02
1.156388e-07,1.375000e-02
1.236388e-07,-3.000000e-02
1.316388e-07,2.125000e-02
1.396388e-07,-1.875000e-02
1.476388e-07,2.500000e-03
1.556388e-07,-2.250000e-02
1.636388e-07,7.500000e-03
1.716388e-07,-7.500000e-03
1.796388e-07,4.125000e-02
1.876388e-07,-6.250000e-03
1.956388e-07,1.625000e-02
2.036388e-07,-3.375000e-02
2.116388e-07,2.750000e-02
2.196388e-07,-3.750000e-03
2.276388e-07,2.000000e-02
2.356388e-07,-6.250000e-03
2.436388e-07,1.250000e-02
2.516388e-07,-1.000000e-02
2.596388e-07,3.750000e-03
2.676388e-07,-8.750000e-03
2.756388e-07,7.500000e-03
2.836388e-07,-3.750000e-02
2.916388e-07,2.250000e-02
2.996388e-07,-2.500000e-03
3.076388e-07,1.500000e-02
3.156388e-07,-5.000000e-03
3.236388e-07,1.500000e-02
3.316388e-07,-2.375000e-02
3.396388e-07,1.500000e-02
3.476388e-07,-2.875000e-02
3.556388e-07,-1.250000e-03
3.636388e-07,-3.000000e-02
3.716388e-07,3.125000e-02
3.796388e-07,-2.750000e-02
3.876388e-07,3.375000e-02
3.956388e-07,-2.000000e-02
4.036388e-07,2.250000e-02
4.116388e-07,1.250000e-03
4.196388e-07,1.500000e-02
4.276388e-07,-7.500000e-03
4.356388e-07,1.375000e-02
4.436388e-07,-1.625000e-02
4.516388e-07,2.375000e-02
4.596388e-07,-1.875000e-02
4.676388e-07,-1.125000e-02
4.756388e-07,-7.500000e-03
4.836388e-07,1.750000e-02
4.916388e-07,-5.000000e-03
4.996388e-07,2.625000e-02
5.076388e-07,0.000000e+00
5.156388e-07,7.500000e-03
5.236388e-07,3.750000e-03
5.316388e-07,6.250000e-03
5.396388e-07,-1.375000e-02
5.476388e-07,3.750000e-03
5.556388e-07,7.500000e-03
5.636388e-07,1.500000e-02
5.716388e-07,-1.625000e-02
5.796388e-07,1.500000e-02
5.876388e-07,-6.250000e-03
5.956388e-07,-1.500000e-02
6.036388e-07,-2.875000e-02
6.116388e-07,6.250000e-03
6.196388e-07,-5.000000e-03
6.276388e-07,1.750000e-02
6.356388e-07,-6.250000e-03
6.436388e-07,8.750000e-03
6.516388e-07,1.250000e-03
6.596388e-07,-3.750000e-03
6.676388e-07,-3.375000e-02
6.756388e-07,2.875000e-02
6.836388e-07,-3.750000e-03
6.916388e-07,1.500000e-02
6.996388e-07,0.000000e+00
7.076388e-07,1.625000e-02
7.156388e-07,-1.250000e-02
7.236388e-07,7.500000e-03
7.316388e-07,1.250000e-03
7.396388e-07,2.250000e-02
7.476388e-07,1.250000e-03
7.556388e-07,3.250000e-02
7.636388e-07,1.250000e-03
7.716388e-07,6.250000e-03
7.796388e-07,-2.250000e-02
7.876388e-07,5.000000e-03
7.956388e-07,-1.375000e-02
8.036388e-07,1.125000e-02
