run1/run1_ch1_20210318180158331.csv

Model,MSO64
Waveform Type,ANALOG
Horizontal Units,s
Sample Interval,8.000000e-09
Record Length,1250
Zero Index,624.480000
Vertical Units,V

TIME,CH1
-4.995840e-06,2.750000e-02
-4.987840e-06,1.875000e-02
-4.979840e-06,1.375000e-02
-4.971840e-06,-1.000000e-02
-4.963840e-06,2.500000e-03
-4.955840e-06,-1.000000e-02
-4.947840e-06,2.250000e-02
-4.939840e-06,-2.375000e-02
-4.931840e-06,-2.500000e-03
-4.923840e-06,2.500000e-03
-4.915840e-06,1.250000e-02
-4.907840e-06,-1.875000e-02
-4.899840e-06,1.250000e-02
-4.891840e-06,-2.750000e-02
-4.883840e-06,1.250000e-03
-4.875840e-06,-5.000000e-03
-4.867840e-06,-3.750000e-03
-4.859840e-06,-1.375000e-02
-4.851840e-06,1.375000e-02
-4.843840e-06,-1.375000e-02
-4.835840e-06,-7.500000e-03
-4.827840e-06,-2.625000e-02
-4.819840e-06,1.500000e-02
-4.811840e-06,-2.000000e-02
-4.803840e-06,3.125000e-02
-4.795840e-06,5.000000e-03
-4.787840e-06,1.750000e-02
-4.779840e-06,-8.750000e-03
-4.771840e-06,1.875000e-02
-4.763840e-06,-5.000000e-03
-4.755840e-06,1.375000e-02
-4.747840e-06,2.500000e-03
-4.739840e-06,2.375000e-02
-4.731840e-06,-8.750000e-03
-4.723840e-06,2.000000e-02
-4.715840e-06,-1.375000e-02
-4.707840e-06,2.000000e-02
-4.699840e-06,-3.375000e-02
-4.691840e-06,2.375000e-02
-4.683840e-06,-2.125000e-02
-4.675840e-06,3.000000e-02
-4.667840e-06,1.000000e-02
-4.659840e-06,1.625000e-02
-4.651840e-06,-6.250000e-03
-4.643840e-06,1.875000e-02
-4.635840e-06,-2.125000e-02
-4.627840e-06,3.750000e-02
-4.619840e-06,3.750000e-03
-4.611840e-06,1.000000e-02
-4.603840e-06,-8.750000e-03
-4.595840e-06,1.500000e-02
-4.587840e-06,-2.625000e-02
-4.579840e-06,2.000000e-02
-4.571840e-06,-2.000000e-02
-4.563840e-06,0.000000e+00
-4.555840e-06,-4.000000e-02
-4.547840e-06,2.125000e-02
-4.539840e-06,-6.250000e-03
-4.531840e-06,2.875000e-02
-4.523840e-06,-3.625000e-02
-4.515840e-06,-3.750000e-03
-4.507840e-06,-4.500000e-02
-4.499840e-06,3.750000e-02
-4.491840e-06,1.500000e-02
-4.483840e-06,1.750000e-02
-4.475840e-06,-1.375000e-02
-4.467840e-06,1.500000e-02
-4.459840e-06,-3.125000e-02
-4.451840e-06,2.125000e-02
-4.443840e-06,-1.375000e-02
-4.435840e-06,1.125000e-02
-4.427840e-06,-2.000000e-02
-4.419840e-06,3.250000e-02
-4.411840e-06,-2.875000e-02
-4.403840e-06,1.000000e-02
-4.395840e-06,-2.125000e-02
-4.387840e-06,1.250000e-02
-4.379840e-06,-1.750000e-02
-4.371840e-06,5.000000e-03
-4.363840e-06,5.000000e-03
-4.355840e-06,1.750000e-02
-4.347840e-06,5.000000e-03
-4.339840e-06,1.125000e-02
-4.331840e-06,-2.000000e-02
-4.323840e-06,2.250000e-02
-4.315840e-06,-3.125000e-02
-4.307840e-06,2.000000e-02
-4.299840e-06,3.750000e-03
-4.291840e-06,1.875000e-02
-4.283840e-06,-3.500000e-02
-4.275840e-06,-2.500000e-03
-4.267840e-06,5.000000e-03
-4.259840e-06,1.625000e-02
-4.251840e-06,-1.625000e-02
-4.243840e-06,1.625000e-02
-4.235840e-06,-1.375000e-02
-4.227840e-06,3.000000e-02
-4.219840e-06,-2.500000e-03
-4.211840e-06,-1.250000e-03
-4.203840e-06,-1.500000e-02
-4.195840e-06,6.250000e-03
-4.187840e-06,-4.875000e-02
-4.179840e-06,1.250000e-02
-4.171840e-06,-1.375000e-02
-4.163840e-06,2.125000e-02
-4.155840e-06,1.250000e-03
-4.147840e-06,3.750000e-03
-4.139840e-06,-1.125000e-02
-4.131840e-06,3.750000e-03
-4.123840e-06,-4.750000e-02
-4.115840e-06,1.250000e-02
-4.107840e-06,-8.750000e-03
-4.099840e-06,1.625000e-02
-4.091840e-06,3.750000e-03
-4.083840e-06,1.250000e-02
-4.075840e-06,1.250000e-02
-4.067840e-06,1.750000e-02
-4.059840e-06,-2.750000e-02
-4.051840e-06,7.500000e-03
-4.043840e-06,-1.375000e-02
-4.035840e-06,-1.250000e-03
-4.027840e-06,-8.750000e-03
-4.019840e-06,1.375000e-02
-4.011840e-06,8.750000e-03
-4.003840e-06,-2.500000e-03
-3.995840e-06,-1.000000e-02
-3.987840e-06,3.625000e-02
-3.979840e-06,-3.250000e-02
-3.971840e-06,3.750000e-03
-3.963840e-06,-1.375000e-02
-3.955840e-06,2.375000e-02
-3.947840e-06,-1.500000e-02
-3.939840e-06,6.250000e-03
-3.931840e-06,-4.125000e-02
-3.923840e-06,-5.000000e-03
-3.915840e-06,-1.250000e-02
-3.907840e-06,1.875000e-02
-3.899840e-06,3.750000e-03
-3.891840e-06,2.250000e-02
-3.883840e-06,-6.250000e-03
-3.875840e-06,8.750000e-03
-3.867840e-06,-2.375000e-02
-3.859840e-06,2.750000e-02
-3.851840e-06,-1.375000e-02
-3.843840e-06,3.250000e-02
-3.835840e-06,1.000000e-02
-3.827840e-06,8.750000e-03
-3.819840e-06,-3.000000e-02
-3.811840e-06,3.750000e-03
-3.803840e-06,-2.875000e-02
-3.795840e-06,3.750000e-03
-3.787840e-06,-2.500000e-02
-3.779840e-06,1.750000e-02
-3.771840e-06,-1.500000e-02
-3.763840e-06,-2.500000e-03
-3.755840e-06,-2.750000e-02
-3.747840e-06,2.125000e-02
-3.739840e-06,-1.875000e-02
-3.731840e-06,1.500000e-02
-3.723840e-06,-7.500000e-03
-3.715840e-06,2.000000e-02
-3.707840e-06,-1.250000e-03
-3.699840e-06,1.000000e-02
-3.691840e-06,-2.375000e-02
-3.683840e-06,6.250000e-03
-3.675840e-06,-4.500000e-02
-3.667840e-06,1.500000e-02
-3.659840e-06,-7.500000e-03
-3.651840e-06,2.375000e-02
-3.643840e-06,-1.500000e-02
-3.635840e-06,1.500000e-02
-3.627840e-06,-7.500000e-03
-3.619840e-06,3.750000e-03
-3.611840e-06,-3.750000e-02
-3.603840e-06,2.875000e-02
-3.595840e-06,-1.125000e-02
-3.587840e-06,1.625000e-02
-3.579840e-06,-8.750000e-03
-3.571840e-06,1.500000e-02
-3.563840e-06,-1.750000e-02
-3.555840e-06,6.250000e-03
-3.547840e-06,-2.875000e-02
-3.539840e-06,1.500000e-02
-3.531840e-06,-1.875000e-02
-3.523840e-06,3.000000e-02
-3.515840e-06,-1.875000e-02
-3.507840e-06,1.125000e-02
-3.499840e-06,-1.750000e-02
-3.491840e-06,5.000000e-03
-3.483840e-06,-3.250000e-02
-3.475840e-06,1.750000e-02
-3.467840e-06,1.000000e-02
-3.459840e-06,1.750000e-02
-3.451840e-06,2.375000e-02
-3.443840e-06,6.250000e-03
-3.435840e-06,-2.125000e-02
-3.427840e-06,1.625000e-02
-3.419840e-06,-1.250000e-02
-3.411840e-06,0.000000e+00
-3.403840e-06,-1.125000e-02
-3.395840e-06,2.875000e-02
-3.387840e-06,-2.250000e-02
-3.379840e-06,2.000000e-02
-3.371840e-06,-1.000000e-02
-3.363840e-06,3.500000e-02
-3.355840e-06,-1.750000e-02
-3.347840e-06,1.250000e-02
-3.339840e-06,-2.500000e-03
-3.331840e-06,1.250000e-02
-3.323840e-06,-2.500000e-03
-3.315840e-06,1.375000e-02
-3.307840e-06,0.000000e+00
-3.299840e-06,1.000000e-02
-3.291840e-06,-2.000000e-02
-3.283840e-06,1.750000e-02
-3.275840e-06,-2.125000e-02
-3.267840e-06,6.250000e-03
-3.259840e-06,-7.500000e-03
-3.251840e-06,1.625000e-02
-3.243840e-06,-3.750000e-03
-3.235840e-06,7.500000e-03
-3.227840e-06,-2.250000e-02
-3.219840e-06,-3.750000e-03
-3.211840e-06,-6.250000e-03
-3.203840e-06,2.875000e-02
-3.195840e-06,-5.000000e-03
-3.187840e-06,-1.125000e-02
-3.179840e-06,-1.250000e-03
-3.171840e-06,1.750000e-02
-3.163840e-06,-3.250000e-02
-3.155840e-06,1.625000e-02
-3.147840e-06,-1.750000e-02
-3.139840e-06,2.500000e-02
-3.131840e-06,-2.500000e-03
-3.123840e-06,1.875000e-02
-3.115840e-06,-1.500000e-02
-3.107840e-06,3.125000e-02
-3.099840e-06,-2.000000e-02
-3.091840e-06,3.750000e-03
-3.083840e-06,1.250000e-03
-3.075840e-06,2.375000e-02
-3.067840e-06,0.000000e+00
-3.059840e-06,2.250000e-02
-3.051840e-06,-1.125000e-02
-3.043840e-06,1.500000e-02
-3.035840e-06,-3.375000e-02
-3.027840e-06,3.125000e-02
-3.019840e-06,-3.125000e-02
-3.011840e-06,4.000000e-02
-3.003840e-06,2.500000e-03
-2.995840e-06,-1.750000e-02
-2.987840e-06,-1.750000e-02
-2.979840e-06,-6.250000e-03
-2.971840e-06,-3.375000e-02
-2.963840e-06,1.875000e-02
-2.955840e-06,-1.375000e-02
-2.947840e-06,3.000000e-02
-2.939840e-06,-7.500000e-03
-2.931840e-06,3.000000e-02
-2.923840e-06,-2.375000e-02
-2.915840e-06,1.250000e-02
-2.907840e-06,-3.375000e-02
-2.899840e-06,2.000000e-02
-2.891840e-06,-3.500000e-02
-2.883840e-06,8.750000e-03
-2.875840e-06,-2.375000e-02
-2.867840e-06,2.500000e-02
-2.859840e-06,-1.875000e-02
-2.851840e-06,0.000000e+00
-2.843840e-06,-1.500000e-02
-2.835840e-06,1.250000e-02
-2.827840e-06,-2.500000e-02
-2.819840e-06,1.250000e-02
-2.811840e-06,-2.375000e-02
-2.803840e-06,1.125000e-02
-2.795840e-06,-1.250000e-02
-2.787840e-06,1.875000e-02
-2.779840e-06,-3.125000e-02
-2.771840e-06,2.500000e-02
-2.763840e-06,6.250000e-03
-2.755840e-06,2.375000e-02
-2.747840e-06,-1.875000e-02
-2.739840e-06,5.000000e-03
-2.731840e-06,-1.750000e-02
-2.723840e-06,3.750000e-03
-2.715840e-06,-8.750000e-03
-2.707840e-06,2.250000e-02
-2.699840e-06,1.625000e-02
-2.691840e-06,1.250000e-03
-2.683840e-06,-2.000000e-02
-2.675840e-06,3.750000e-03
-2.667840e-06,-7.500000e-03
-2.659840e-06,1.750000e-02
-2.651840e-06,-5.250000e-02
-2.643840e-06,2.000000e-02
-2.635840e-06,-1.875000e-02
-2.627840e-06,1.250000e-03
-2.619840e-06,-3.750000e-03
-2.611840e-06,1.875000e-02
-2.603840e-06,-2.125000e-02
-2.595840e-06,0.000000e+00
-2.587840e-06,-6.250000e-03
-2.579840e-06,6.250000e-03
-2.571840e-06,3.750000e-03
-2.563840e-06,-3.750000e-03
-2.555840e-06,-1.625000e-02
-2.547840e-06,1.750000e-02
-2.539840e-06,-2.750000e-02
-2.531840e-06,-3.750000e-03
-2.523840e-06,-1.875000e-02
-2.515840e-06,8.750000e-03
-2.507840e-06,-1.375000e-02
-2.499840e-06,2.375000e-02
-2.491840e-06,-2.500000e-03
-2.483840e-06,1.125000e-02
-2.475840e-06,-2.125000e-02
-2.467840e-06,-1.625000e-02
-2.459840e-06,-3.000000e-02
-2.451840e-06,1.375000e-02
-2.443840e-06,-1.250000e-02
-2.435840e-06,4.000000e-02
-2.427840e-06,-1.875000e-02
-2.419840e-06,1.750000e-02
-2.411840e-06,-1.875000e-02
-2.403840e-06,3.375000e-02
-2.395840e-06,-3.750000e-02
-2.387840e-06,-6.250000e-03
-2.379840e-06,-1.250000e-02
-2.371840e-06,3.125000e-02
-2.363840e-06,6.250000e-03
-2.355840e-06,2.000000e-02
-2.347840e-06,-7.500000e-03
-2.339840e-06,3.625000e-02
-2.331840e-06,-3.625000e-02
-2.323840e-06,1.125000e-02
-2.315840e-06,-2.125000e-02
-2.307840e-06,3.250000e-02
-2.299840e-06,-1.625000e-02
-2.291840e-06,1.125000e-02
-2.283840e-06,-1.875000e-02
-2.275840e-06,1.500000e-02
-2.267840e-06,-8.750000e-03
-2.259840e-06,2.000000e-02
-2.251840e-06,-2.875000e-02
-2.243840e-06,2.625000e-02
-2.235840e-06,-1.250000e-03
-2.227840e-06,7.500000e-03
-2.219840e-06,-3.125000e-02
-2.211840e-06,5.000000e-03
-2.203840e-06,1.375000e-02
-2.195840e-06,-3.750000e-03
-2.187840e-06,-2.125000e-02
-2.179840e-06,1.875000e-02
-2.171840e-06,2.500000e-03
-2.163840e-06,1.250000e-03
-2.155840e-06,6.250000e-03
-2.147840e-06,6.250000e-03
-2.139840e-06,-1.375000e-02
-2.131840e-06,1.875000e-02
-2.123840e-06,-4.375000e-02
-2.115840e-06,3.750000e-02
-2.107840e-06,-2.000000e-02
-2.099840e-06,-3.750000e-03
-2.091840e-06,-3.750000e-02
-2.083840e-06,6.250000e-03
-2.075840e-06,-1.500000e-02
-2.067840e-06,2.375000e-02
-2.059840e-06,-1.500000e-02
-2.051840e-06,2.125000e-02
-2.043840e-06,-6.250000e-03
-2.035840e-06,1.500000e-02
-2.027840e-06,-1.750000e-02
-2.019840e-06,1.625000e-02
-2.011840e-06,-1.500000e-02
-2.003840e-06,-3.750000e-03
-1.995840e-06,-4.750000e-02
-1.987840e-06,2.625000e-02
-1.979840e-06,1.250000e-03
-1.971840e-06,8.750000e-03
-1.963840e-06,3.750000e-03
-1.955840e-06,8.750000e-03
-1.947840e-06,-3.750000e-03
-1.939840e-06,3.750000e-03
-1.931840e-06,-6.250000e-03
-1.923840e-06,2.250000e-02
-1.915840e-06,-7.500000e-03
-1.907840e-06,2.375000e-02
-1.899840e-06,-2.000000e-02
-1.891840e-06,-7.500000e-03
-1.883840e-06,-1.750000e-02
-1.875840e-06,1.125000e-02
-1.867840e-06,-2.625000e-02
-1.859840e-06,2.125000e-02
-1.851840e-06,1.250000e-02
-1.843840e-06,-1.250000e-02
-1.835840e-06,-1.250000e-02
-1.827840e-06,1.875000e-02
-1.819840e-06,-2.000000e-02
-1.811840e-06,1.000000e-02
-1.803840e-06,1.250000e-02
-1.795840e-06,2.375000e-02
-1.787840e-06,3.750000e-03
-1.779840e-06,1.750000e-02
-1.771840e-06,-2.875000e-02
-1.763840e-06,6.250000e-03
-1.755840e-06,-1.625000e-02
-1.747840e-06,1.875000e-02
-1.739840e-06,-2.500000e-03
-1.731840e-06,2.250000e-02
-1.723840e-06,-3.000000e-02
-1.715840e-06,1.125000e-02
-1.707840e-06,-3.750000e-03
-1.699840e-06,3.750000e-03
-1.691840e-06,-1.250000e-02
-1.683840e-06,0.000000e+00
-1.675840e-06,-8.750000e-03
-1.667840e-06,2.250000e-02
-1.659840e-06,-3.750000e-03
-1.651840e-06,8.750000e-03
-1.643840e-06,-1.000000e-02
-1.635840e-06,-1.375000e-02
-1.627840e-06,-1.000000e-02
-1.619840e-06,2.250000e-02
-1.611840e-06,-6.250000e-03
-1.603840e-06,2.125000e-02
-1.595840e-06,-8.750000e-03
-1.587840e-06,2.375000e-02
-1.579840e-06,-6.250000e-03
-1.571840e-06,6.250000e-03
-1.563840e-06,-1.625000e-02
-1.555840e-06,1.000000e-02
-1.547840e-06,-1.250000e-03
-1.539840e-06,3.750000e-03
-1.531840e-06,-3.750000e-03
-1.523840e-06,1.000000e-02
-1.515840e-06,-1.500000e-02
-1.507840e-06,1.750000e-02
-1.499840e-06,-1.750000e-02
-1.491840e-06,6.250000e-03
-1.483840e-06,-5.500000e-02
-1.475840e-06,8.750000e-03
-1.467840e-06,-3.375000e-02
-1.459840e-06,2.125000e-02
-1.451840e-06,-1.375000e-02
-1.443840e-06,8.750000e-03
-1.435840e-06,-2.000000e-02
-1.427840e-06,1.375000e-02
-1.419840e-06,1.250000e-02
-1.411840e-06,1.375000e-02
-1.403840e-06,1.000000e-02
-1.395840e-06,8.750000e-03
-1.387840e-06,-1.000000e-02
-1.379840e-06,1.250000e-02
-1.371840e-06,-2.250000e-02
-1.363840e-06,1.625000e-02
-1.355840e-06,-5.000000e-03
-1.347840e-06,2.875000e-02
-1.339840e-06,-1.625000e-02
-1.331840e-06,2.000000e-02
-1.323840e-06,3.750000e-03
-1.315840e-06,-6.250000e-03
-1.307840e-06,-2.750000e-02
-1.299840e-06,1.750000e-02
-1.291840e-06,1.000000e-02
-1.283840e-06,1.500000e-02
-1.275840e-06,-7.500000e-03
-1.267840e-06,1.500000e-02
-1.259840e-06,8.750000e-03
-1.251840e-06,2.375000e-02
-1.243840e-06,-7.500000e-03
-1.235840e-06,8.750000e-03
-1.227840e-06,-2.875000e-02
-1.219840e-06,3.125000e-02
-1.211840e-06,0.000000e+00
-1.203840e-06,2.875000e-02
-1.195840e-06,-1.750000e-02
-1.187840e-06,1.250000e-03
-1.179840e-06,-2.125000e-02
-1.171840e-06,1.250000e-02
-1.163840e-06,6.250000e-03
-1.155840e-06,2.000000e-02
-1.147840e-06,-1.000000e-02
-1.139840e-06,8.750000e-03
-1.131840e-06,1.750000e-02
-1.123840e-06,2.250000e-02
-1.115840e-06,-1.625000e-02
-1.107840e-06,1.500000e-02
-1.099840e-06,-1.875000e-02
-1.091840e-06,4.625000e-02
-1.083840e-06,-1.250000e-02
-1.075840e-06,-5.000000e-03
-1.067840e-06,0.000000e+00
-1.059840e-06,1.500000e-02
-1.051840e-06,-1.375000e-02
-1.043840e-06,1.250000e-03
-1.035840e-06,-2.500000e-03
-1.027840e-06,2.625000e-02
-1.019840e-06,-7.500000e-03
-1.011840e-06,1.750000e-02
-1.003840e-06,-1.000000e-02
-9.958400e-07,5.000000e-03
-9.878400e-07,-3.500000e-02
-9.798400e-07,7.500000e-03
-9.718400e-07,-2.125000e-02
-9.638400e-07,7.500000e-03
-9.558400e-07,-1.000000e-02
-9.478400e-07,1.500000e-02
-9.398400e-07,-8.750000e-03
-9.318400e-07,2.000000e-02
-9.238400e-07,-1.875000e-02
-9.158400e-07,4.625000e-02
-9.078400e-07,-1.500000e-02
-8.998400e-07,2.625000e-02
-8.918400e-07,-6.250000e-03
-8.838400e-07,1.000000e-02
-8.758400e-07,-1.250000e-02
-8.678400e-07,2.375000e-02
-8.598400e-07,-3.125000e-02
-8.518400e-07,7.500000e-03
-8.438400e-07,-2.375000e-02
-8.358400e-07,2.000000e-02
-8.278400e-07,-2.750000e-02
-8.198400e-07,6.250000e-03
-8.118400e-07,0.000000e+00
-8.038400e-07,2.500000e-03
-7.958400e-07,-2.125000e-02
-7.878400e-07,1.250000e-02
-7.798400e-07,-2.250000e-02
-7.718400e-07,2.375000e-02
-7.638400e-07,3.750000e-03
-7.558400e-07,1.875000e-02
-7.478400e-07,-2.375000e-02
-7.398400e-07,-1.250000e-03
-7.318400e-07,-2.625000e-02
-7.238400e-07,6.250000e-03
-7.158400e-07,-2.625000e-02
-7.078400e-07,5.000000e-03
-6.998400e-07,-7.500000e-03
-6.918400e-07,2.000000e-02
-6.838400e-07,-1.625000e-02
-6.758400e-07,1.000000e-02
-6.678400e-07,-1.750000e-02
-6.598400e-07,2.500000e-03
-6.518400e-07,1.750000e-02
-6.438400e-07,5.000000e-03
-6.358400e-07,-2.750000e-02
-6.278400e-07,2.125000e-02
-6.198400e-07,-3.000000e-02
-6.118400e-07,2.750000e-02
-6.038400e-07,-1.000000e-02
-5.958400e-07,1.750000e-02
-5.878400e-07,-2.375000e-02
-5.798400e-07,1.875000e-02
-5.718400e-07,-6.250000e-03
-5.638400e-07,8.750000e-03
-5.558400e-07,-3.750000e-03
-5.478400e-07,1.375000e-02
-5.398400e-07,-1.750000e-02
-5.318400e-07,1.750000e-02
-5.238400e-07,-1.750000e-02
-5.158400e-07,0.000000e+00
-5.078400e-07,-1.250000e-03
-4.998400e-07,1.125000e-02
-4.918400e-07,-5.000000e-03
-4.838400e-07,6.250000e-03
-4.758400e-07,-3.250000e-02
-4.678400e-07,1.000000e-02
-4.598400e-07,-6.250000e-03
-4.518400e-07,3.250000e-02
-4.438400e-07,-1.000000e-02
-4.358400e-07,7.500000e-03
-4.278400e-07,-1.625000e-02
-4.198400e-07,2.625000e-02
-4.118400e-07,-2.125000e-02
-4.038400e-07,1.250000e-02
-3.958400e-07,1.250000e-03
-3.878400e-07,8.750000e-03
-3.798400e-07,2.500000e-03
-3.718400e-07,1.500000e-02
-3.638400e-07,-3.750000e-03
-3.558400e-07,2.000000e-02
-3.478400e-07,-3.375000e-02
-3.398400e-07,6.250000e-03
-3.318400e-07,-3.750000e-03
-3.238400e-07,1.000000e-02
-3.158400e-07,-1.875000e-02
-3.078400e-07,0.000000e+00
-2.998400e-07,-5.000000e-03
-2.918400e-07,2.750000e-02
-2.838400e-07,-2.750000e-02
-2.758400e-07,8.750000e-03
-2.678400e-07,-3.750000e-03
-2.598400e-07,2.125000e-02
-2.518400e-07,-1.250000e-03
-2.438400e-07,1.375000e-02
-2.358400e-07,-7.500000e-03
-2.278400e-07,-6.250000e-03
-2.198400e-07,-3.250000e-02
-2.118400e-07,8.750000e-03
-2.038400e-07,-1.625000e-02
-1.958400e-07,2.500000e-02
-1.878400e-07,-1.375000e-02
-1.798400e-07,1.250000e-02
-1.718400e-07,-1.250000e-03
-1.638400e-07,4.000000e-02
-1.558400e-07,-2.125000e-02
-1.478400e-07,1.375000e-02
-1.398400e-07,0.000000e+00
-1.318400e-07,1.250000e-02
-1.238400e-07,-1.000000e-02
-1.158400e-07,1.375000e-02
-1.078400e-07,-1.500000e-02
-9.984000e-08,5.000000e-03
-9.184000e-08,-2.750000e-02
-8.384000e-08,3.750000e-03
-7.584000e-08,-2.125000e-02
-6.784000e-08,1.375000e-02
-5.984000e-08,-7.500000e-03
-5.184000e-08,-2.500000e-03
-4.384000e-08,-1.250000e-03
-3.584000e-08,-4.887500e-01
-2.784000e-08,-1.445000e+00
-1.984000e-08,-1.397500e+00
-1.184000e-08,-1.426250e+00
-3.840000e-09,-1.875000e-02
4.160000e-09,-3.125000e-02
1.216000e-08,2.500000e-02
2.016000e-08,-1.000000e-02
2.816000e-08,1.500000e-02
3.616000e-08,-2.500000e-03
4.416000e-08,1.750000e-02
5.216000e-08,-3.125000e-02
6.016000e-08,3.125000e-02
6.816000e-08,-3.750000e-03
7.616000e-08,-2.500000e-03
8.416000e-08,-2.250000e-02
9.216000e-08,8.750000e-03
1.001600e-07,-2.625000e-02
1.081600e-07,1.500000e-02
1.161600e-07,-7.500000e-03
1.241600e-07,2.375000e-02
1.321600e-07,-3.750000e-03
1.401600e-07,1.750000e-02
1.481600e-07,-2.000000e-02
1.561600e-07,1.000000e-02
1.641600e-07,-3.500000e-02
1.721600e-07,1.375000e-02
1.801600e-07,-1.500000e-02
1.881600e-07,2.625000e-02
1.961600e-07,5.000000e-03
2.041600e-07,2.000000e-02
2.121600e-07,-3.000000e-02
2.201600e-07,2.125000e-02
2.281600e-07,-2.875000e-02
2.361600e-07,1.000000e-02
2.441600e-07,-1.000000e-02
2.521600e-07,1.250000e-02
2.601600e-07,-5.000000e-03
2.681600e-07,2.000000e-02
2.761600e-07,-2.500000e-02
2.841600e-07,2.000000e-02
2.921600e-07,-1.125000e-02
3.001600e-07,2.500000e-03
3.081600e-07,-3.000000e-02
3.161600e-07,3.000000e-02
3.241600e-07,-1.000000e-02
3.321600e-07,2.250000e-02
3.401600e-07,-2.500000e-03
3.481600e-07,3.750000e-03
3.561600e-07,-1.625000e-02
3.641600e-07,3.375000e-02
3.721600e-07,2.500000e-03
3.801600e-07,2.625000e-02
3.881600e-07,8.750000e-03
3.961600e-07,1.250000e-02
4.041600e-07,-1.500000e-02
4.121600e-07,8.750000e-03
4.201600e-07,-3.625000e-02
4.281600e-07,1.375000e-02
4.361600e-07,-1.625000e-02
4.441600e-07,8.750000e-03
4.521600e-07,8.750000e-03
4.601600e-07,8.750000e-03
4.681600e-07,-1.125000e-02
4.761600e-07,1.625000e-02
4.841600e-07,-2.000000e-02
4.921600e-07,6.250000e-03
5.001600e-07,1.250000e-03
5.081600e-07,2.125000e-02
5.161600e-07,-1.250000e-02
5.241600e-07,1.000000e-02
5.321600e-07,-2.750000e-02
5.401600e-07,3.375000e-02
5.481600e-07,-4.375000e-02
5.561600e-07,-1.000000e-02
5.641600e-07,-2.500000e-02
5.721600e-07,1.875000e-02
5.801600e-07,-8.750000e-03
5.881600e-07,7.500000e-03
5.961600e-07,-1.375000e-02
6.041600e-07,2.625000e-02
6.121600e-07,-2.000000e-02
6.201600e-07,1.000000e-02
6.281600e-07,2.000000e-02
6.361600e-07,2.750000e-02
6.441600e-07,-1.250000e-02
6.521600e-07,0.000000e+00
6.601600e-07,-6.250000e-03
6.681600e-07,1.250000e-03
6.761600e-07,-2.000000e-02
6.841600e-07,2.000000e-02
6.921600e-07,-3.125000e-02
7.001600e-07,2.125000e-02
7.081600e-07,-3.500000e-02
7.161600e-07,2.125000e-02
7.241600e-07,-5.000000e-03
7.321600e-07,8.750000e-03
7.401600e-07,-2.625000e-02
7.481600e-07,-3.750000e-03
7.561600e-07,-1.500000e-02
7.641600e-07,1.125000e-02
7.721600e-07,-7.500000e-03
7.801600e-07,0.000000e+00
7.881600e-07,1.250000e-03
7.961600e-07,1.375000e-02
8.041600e-07,-3.750000e-02
