run1/run1_ch1_20210318180354104.csv

Model,MSO64
Waveform Type,ANALOG
Horizontal Units,s
Sample Interval,8.000000e-09
Record Length,1250
Zero Index,624.275156
Vertical Units,V

TIME,CH1
-4.994201e-06,6.250000e-03
-4.986201e-06,2.750000e-02
-4.978201e-06,-2.500000e-03
-4.970201e-06,3.125000e-02
-4.962201e-06,-7.500000e-03
-4.954201e-06,2.625000e-02
-4.946201e-06,-2.125000e-02
-4.938201e-06,8.750000e-03
-4.930201e-06,-8.750000e-03
-4.922201e-06,7.500000e-03
-4.914201e-06,-1.250000e-03
-4.906201e-06,2.625000e-02
-4.898201e-06,-2.375000e-02
-4.890201e-06,2.375000e-02
-4.882201e-06,-3.000000e-02
-4.874201e-06,1.250000e-03
-4.866201e-06,-7.500000e-03
-4.858201e-06,2.875000e-02
-4.850201e-06,-1.375000e-02
-4.842201e-06,-1.250000e-03
-4.834201e-06,-1.000000e-02
-4.826201e-06,1.250000e-02
-4.818201e-06,-2.875000e-02
-4.810201e-06,8.750000e-03
-4.802201e-06,-1.000000e-02
-4.794201e-06,3.500000e-02
-4.786201e-06,-5.000000e-03
-4.778201e-06,2.125000e-02
-4.770201e-06,-2.000000e-02
-4.762201e-06,2.625000e-02
-4.754201e-06,-2.000000e-02
-4.746201e-06,-6.250000e-03
-4.738201e-06,-1.250000e-03
-4.730201e-06,2.500000e-03
-4.722201e-06,-2.125000e-02
-4.714201e-06,1.250000e-03
-4.706201e-06,-5.000000e-03
-4.698201e-06,1.125000e-02
-4.690201e-06,-3.000000e-02
-4.682201e-06,2.250000e-02
-4.674201e-06,-5.000000e-03
-4.666201e-06,1.500000e-02
-4.658201e-06,-1.000000e-02
-4.650201e-06,2.500000e-03
-4.642201e-06,-2.125000e-02
-4.634201e-06,2.500000e-02
-4.626201e-06,5.000000e-03
-4.618201e-06,1.500000e-02
-4.610201e-06,-1.250000e-03
-4.602201e-06,2.750000e-02
-4.594201e-06,1.250000e-02
-4.586201e-06,1.250000e-03
-4.578201e-06,-2.500000e-03
-4.570201e-06,5.000000e-03
-4.562201e-06,-1.250000e-02
-4.554201e-06,2.250000e-02
-4.546201e-06,-8.750000e-03
-4.538201e-06,2.000000e-02
-4.530201e-06,1.000000e-02
-4.522201e-06,1.375000e-02
-4.514201e-06,-1.375000e-02
-4.506201e-06,3.375000e-02
-4.498201e-06,-3.625000e-02
-4.490201e-06,1.125000e-02
-4.482201e-06,-1.875000e-02
-4.474201e-06,1.250000e-02
-4.466201e-06,-1.125000e-02
-4.458201e-06,5.000000e-03
-4.450201e-06,-1.125000e-02
-4.442201e-06,0.000000e+00
-4.434201e-06,-7.500000e-03
-4.426201e-06,1.375000e-02
-4.418201e-06,-2.375000e-02
-4.410201e-06,1.375000e-02
-4.402201e-06,5.000000e-03
-4.394201e-06,3.500000e-02
-4.386201e-06,-1.000000e-02
-4.378201e-06,-6.250000e-03
-4.370201e-06,1.250000e-03
-4.362201e-06,-2.500000e-03
-4.354201e-06,1.250000e-02
-4.346201e-06,3.250000e-02
-4.338201e-06,-6.250000e-03
-4.330201e-06,1.250000e-03
-4.322201e-06,7.500000e-03
-4.314201e-06,-1.250000e-03
-4.306201e-06,-8.750000e-03
-4.298201e-06,8.750000e-03
-4.290201e-06,-2.375000e-02
-4.282201e-06,6.250000e-03
-4.274201e-06,-1.250000e-02
-4.266201e-06,-7.500000e-03
-4.258201e-06,-6.250000e-03
-4.250201e-06,2.250000e-02
-4.242201e-06,5.000000e-03
-4.234201e-06,0.000000e+00
-4.226201e-06,-2.250000e-02
-4.218201e-06,2.750000e-02
-4.210201e-06,-1.500000e-02
-4.202201e-06,-2.500000e-03
-4.194201e-06,-2.000000e-02
-4.186201e-06,0.000000e+00
-4.178201e-06,-1.125000e-02
-4.170201e-06,1.250000e-03
-4.162201e-06,-1.125000e-02
-4.154201e-06,2.875000e-02
-4.146201e-06,-1.500000e-02
-4.138201e-06,3.125000e-02
-4.130201e-06,-1.375000e-02
-4.122201e-06,1.375000e-02
-4.114201e-06,-2.375000e-02
-4.106201e-06,2.500000e-02
-4.098201e-06,-2.500000e-03
-4.090201e-06,2.875000e-02
-4.082201e-06,-1.500000e-02
-4.074201e-06,2.750000e-02
-4.066201e-06,-2.000000e-02
-4.058201e-06,2.125000e-02
-4.050201e-06,-3.750000e-03
-4.042201e-06,1.750000e-02
-4.034201e-06,-4.250000e-02
-4.026201e-06,1.250000e-02
-4.018201e-06,-1.125000e-02
-4.010201e-06,3.750000e-03
-4.002201e-06,-2.125000e-02
-3.994201e-06,-3.750000e-03
-3.986201e-06,-1.625000e-02
-3.978201e-06,3.750000e-03
-3.970201e-06,1.625000e-02
-3.962201e-06,1.750000e-02
-3.954201e-06,-2.750000e-02
-3.946201e-06,8.750000e-03
-3.938201e-06,-1.125000e-02
-3.930201e-06,2.500000e-02
-3.922201e-06,-2.625000e-02
-3.914201e-06,3.000000e-02
-3.906201e-06,-8.750000e-03
-3.898201e-06,2.000000e-02
-3.890201e-06,-2.375000e-02
-3.882201e-06,2.500000e-03
-3.874201e-06,-2.625000e-02
-3.866201e-06,1.250000e-03
-3.858201e-06,-2.250000e-02
-3.850201e-06,-2.500000e-03
-3.842201e-06,-1.250000e-02
-3.834201e-06,2.500000e-03
-3.826201e-06,-2.375000e-02
-3.818201e-06,7.500000e-03
-3.810201e-06,-1.875000e-02
-3.802201e-06,8.750000e-03
-3.794201e-06,-2.250000e-02
-3.786201e-06,3.500000e-02
-3.778201e-06,-3.750000e-03
-3.770201e-06,3.625000e-02
-3.762201e-06,1.250000e-02
-3.754201e-06,-6.250000e-03
-3.746201e-06,-3.000000e-02
-3.738201e-06,2.500000e-02
-3.730201e-06,1.250000e-03
-3.722201e-06,2.250000e-02
-3.714201e-06,-3.250000e-02
-3.706201e-06,1.125000e-02
-3.698201e-06,-1.000000e-02
-3.690201e-06,2.000000e-02
-3.682201e-06,-1.500000e-02
-3.674201e-06,1.375000e-02
-3.666201e-06,-3.750000e-02
-3.658201e-06,2.375000e-02
-3.650201e-06,-6.250000e-03
-3.642201e-06,2.625000e-02
-3.634201e-06,-1.250000e-03
-3.626201e-06,1.750000e-02
-3.618201e-06,-1.750000e-02
-3.610201e-06,4.375000e-02
-3.602201e-06,-1.375000e-02
-3.594201e-06,1.125000e-02
-3.586201e-06,6.250000e-03
-3.578201e-06,1.500000e-02
-3.570201e-06,-1.000000e-02
-3.562201e-06,3.250000e-02
-3.554201e-06,0.000000e+00
-3.546201e-06,1.000000e-02
-3.538201e-06,-2.375000e-02
-3.530201e-06,3.125000e-02
-3.522201e-06,-6.250000e-03
-3.514201e-06,1.875000e-02
-3.506201e-06,5.000000e-03
-3.498201e-06,3.750000e-02
-3.490201e-06,1.250000e-03
-3.482201e-06,1.625000e-02
-3.474201e-06,-1.875000e-02
-3.466201e-06,1.125000e-02
-3.458201e-06,-3.750000e-03
-3.450201e-06,5.000000e-02
-3.442201e-06,1.875000e-02
-3.434201e-06,1.000000e-02
-3.426201e-06,2.500000e-03
-3.418201e-06,1.500000e-02
-3.410201e-06,-2.000000e-02
-3.402201e-06,1.375000e-02
-3.394201e-06,1.250000e-03
-3.386201e-06,2.250000e-02
-3.378201e-06,-8.750000e-03
-3.370201e-06,1.625000e-02
-3.362201e-06,-2.500000e-03
-3.354201e-06,2.625000e-02
-3.346201e-06,-2.125000e-02
-3.338201e-06,1.500000e-02
-3.330201e-06,-6.250000e-03
-3.322201e-06,4.000000e-02
-3.314201e-06,-2.250000e-02
-3.306201e-06,1.125000e-02
-3.298201e-06,7.500000e-03
-3.290201e-06,1.000000e-02
-3.282201e-06,-2.500000e-02
-3.274201e-06,2.125000e-02
-3.266201e-06,-2.625000e-02
-3.258201e-06,2.750000e-02
-3.250201e-06,-1.250000e-03
-3.242201e-06,2.625000e-02
-3.234201e-06,-3.625000e-02
-3.226201e-06,4.125000e-02
-3.218201e-06,-1.250000e-03
-3.210201e-06,2.500000e-02
-3.202201e-06,-1.000000e-02
-3.194201e-06,-2.500000e-03
-3.186201e-06,-8.750000e-03
-3.178201e-06,1.875000e-02
-3.170201e-06,-1.250000e-02
-3.162201e-06,1.375000e-02
-3.154201e-06,1.250000e-03
-3.146201e-06,1.000000e-02
-3.138201e-06,-2.250000e-02
-3.130201e-06,1.875000e-02
-3.122201e-06,-3.500000e-02
-3.114201e-06,3.375000e-02
-3.106201e-06,-7.500000e-03
-3.098201e-06,2.000000e-02
-3.090201e-06,-3.750000e-03
-3.082201e-06,3.875000e-02
-3.074201e-06,-7.500000e-03
-3.066201e-06,3.125000e-02
-3.058201e-06,-1.875000e-02
-3.050201e-06,-6.250000e-03
-3.042201e-06,7.500000e-03
-3.034201e-06,2.250000e-02
-3.026201e-06,-3.250000e-02
-3.018201e-06,2.500000e-02
-3.010201e-06,-2.875000e-02
-3.002201e-06,1.250000e-03
-2.994201e-06,1.375000e-02
-2.986201e-06,6.250000e-03
-2.978201e-06,1.250000e-03
-2.970201e-06,2.125000e-02
-2.962201e-06,0.000000e+00
-2.954201e-06,0.000000e+00
-2.946201e-06,-2.500000e-02
-2.938201e-06,2.500000e-02
-2.930201e-06,0.000000e+00
-2.922201e-06,1.875000e-02
-2.914201e-06,-1.250000e-03
-2.906201e-06,2.500000e-02
-2.898201e-06,2.500000e-03
-2.890201e-06,1.000000e-02
-2.882201e-06,-1.625000e-02
-2.874201e-06,1.375000e-02
-2.866201e-06,-1.000000e-02
-2.858201e-06,8.750000e-03
-2.850201e-06,-8.750000e-03
-2.842201e-06,3.125000e-02
-2.834201e-06,2.500000e-03
-2.826201e-06,1.250000e-02
-2.818201e-06,-3.750000e-03
-2.810201e-06,7.500000e-03
-2.802201e-06,0.000000e+00
-2.794201e-06,1.500000e-02
-2.786201e-06,2.500000e-03
-2.778201e-06,3.000000e-02
-2.770201e-06,-1.750000e-02
-2.762201e-06,1.500000e-02
-2.754201e-06,1.250000e-02
-2.746201e-06,3.625000e-02
-2.738201e-06,1.250000e-03
-2.730201e-06,1.500000e-02
-2.722201e-06,-3.125000e-02
-2.714201e-06,1.375000e-02
-2.706201e-06,-1.250000e-02
-2.698201e-06,2.000000e-02
-2.690201e-06,-8.750000e-03
-2.682201e-06,-1.500000e-02
-2.674201e-06,1.125000e-02
-2.666201e-06,7.500000e-03
-2.658201e-06,-1.250000e-03
-2.650201e-06,2.625000e-02
-2.642201e-06,-2.125000e-02
-2.634201e-06,2.500000e-03
-2.626201e-06,-1.375000e-02
-2.618201e-06,1.000000e-02
-2.610201e-06,-8.750000e-03
-2.602201e-06,3.125000e-02
-2.594201e-06,3.750000e-03
-2.586201e-06,1.125000e-02
-2.578201e-06,-2.500000e-02
-2.570201e-06,-7.500000e-03
-2.562201e-06,3.750000e-03
-2.554201e-06,1.875000e-02
-2.546201e-06,-1.125000e-02
-2.538201e-06,3.875000e-02
-2.530201e-06,-3.000000e-02
-2.522201e-06,2.500000e-03
-2.514201e-06,-3.250000e-02
-2.506201e-06,1.500000e-02
-2.498201e-06,-2.125000e-02
-2.490201e-06,3.875000e-02
-2.482201e-06,-6.250000e-03
-2.474201e-06,2.750000e-02
-2.466201e-06,3.750000e-03
-2.458201e-06,2.250000e-02
-2.450201e-06,-1.500000e-02
-2.442201e-06,1.625000e-02
-2.434201e-06,-1.000000e-02
-2.426201e-06,5.000000e-03
-2.418201e-06,-1.875000e-02
-2.410201e-06,-3.750000e-03
-2.402201e-06,-8.750000e-03
-2.394201e-06,2.750000e-02
-2.386201e-06,8.750000e-03
-2.378201e-06,2.125000e-02
-2.370201e-06,-2.250000e-02
-2.362201e-06,2.125000e-02
-2.354201e-06,0.000000e+00
-2.346201e-06,1.875000e-02
-2.338201e-06,5.000000e-03
-2.330201e-06,1.750000e-02
-2.322201e-06,-2.500000e-02
-2.314201e-06,1.125000e-02
-2.306201e-06,-8.750000e-03
-2.298201e-06,7.500000e-03
-2.290201e-06,1.875000e-02
-2.282201e-06,3.000000e-02
-2.274201e-06,-1.875000e-02
-2.266201e-06,-3.750000e-03
-2.258201e-06,-2.875000e-02
-2.250201e-06,2.000000e-02
-2.242201e-06,-2.250000e-02
-2.234201e-06,2.500000e-02
-2.226201e-06,1.000000e-02
-2.218201e-06,-6.250000e-03
-2.210201e-06,-7.500000e-03
-2.202201e-06,3.750000e-03
-2.194201e-06,-6.250000e-03
-2.186201e-06,1.500000e-02
-2.178201e-06,1.250000e-02
-2.170201e-06,1.250000e-02
-2.162201e-06,-1.125000e-02
-2.154201e-06,8.750000e-03
-2.146201e-06,-1.625000e-02
-2.138201e-06,2.500000e-02
-2.130201e-06,-2.125000e-02
-2.122201e-06,2.500000e-02
-2.114201e-06,-1.875000e-02
-2.106201e-06,2.625000e-02
-2.098201e-06,-2.000000e-02
-2.090201e-06,5.000000e-03
-2.082201e-06,-6.250000e-03
-2.074201e-06,1.500000e-02
-2.066201e-06,-8.750000e-03
-2.058201e-06,1.250000e-03
-2.050201e-06,5.000000e-03
-2.042201e-06,-1.250000e-03
-2.034201e-06,1.250000e-03
-2.026201e-06,3.250000e-02
-2.018201e-06,1.125000e-02
-2.010201e-06,2.500000e-03
-2.002201e-06,-3.375000e-02
-1.994201e-06,3.750000e-03
-1.986201e-06,-1.750000e-02
-1.978201e-06,3.250000e-02
-1.970201e-06,7.500000e-03
-1.962201e-06,-3.750000e-03
-1.954201e-06,-5.000000e-03
-1.946201e-06,2.375000e-02
-1.938201e-06,-2.250000e-02
-1.930201e-06,2.750000e-02
-1.922201e-06,-5.000000e-03
-1.914201e-06,2.500000e-02
-1.906201e-06,-2.500000e-03
-1.898201e-06,6.250000e-03
-1.890201e-06,-1.875000e-02
-1.882201e-06,-1.500000e-02
-1.874201e-06,-1.500000e-02
-1.866201e-06,3.375000e-02
-1.858201e-06,-3.750000e-02
-1.850201e-06,-2.500000e-03
-1.842201e-06,-6.250000e-03
-1.834201e-06,3.625000e-02
-1.826201e-06,-1.250000e-02
-1.818201e-06,1.250000e-03
-1.810201e-06,-1.250000e-02
-1.802201e-06,-3.750000e-03
-1.794201e-06,-3.750000e-03
-1.786201e-06,6.250000e-03
-1.778201e-06,-5.000000e-03
-1.770201e-06,6.250000e-03
-1.762201e-06,-2.125000e-02
-1.754201e-06,2.875000e-02
-1.746201e-06,1.250000e-03
-1.738201e-06,3.875000e-02
-1.730201e-06,-1.000000e-02
-1.722201e-06,1.375000e-02
-1.714201e-06,-5.000000e-03
-1.706201e-06,2.250000e-02
-1.698201e-06,7.500000e-03
-1.690201e-06,1.500000e-02
-1.682201e-06,-2.000000e-02
-1.674201e-06,2.625000e-02
-1.666201e-06,2.500000e-02
-1.658201e-06,2.250000e-02
-1.650201e-06,-1.625000e-02
-1.642201e-06,1.250000e-03
-1.634201e-06,-2.125000e-02
-1.626201e-06,0.000000e+00
-1.618201e-06,-8.750000e-03
-1.610201e-06,3.500000e-02
-1.602201e-06,-1.875000e-02
-1.594201e-06,2.250000e-02
-1.586201e-06,1.250000e-03
-1.578201e-06,-7.500000e-03
-1.570201e-06,-5.000000e-03
-1.562201e-06,6.250000e-03
-1.554201e-06,-1.875000e-02
-1.546201e-06,-1.250000e-03
-1.538201e-06,1.250000e-02
-1.530201e-06,2.125000e-02
-1.522201e-06,-1.625000e-02
-1.514201e-06,2.500000e-02
-1.506201e-06,-2.750000e-02
-1.498201e-06,3.750000e-03
-1.490201e-06,-2.500000e-03
-1.482201e-06,3.500000e-02
-1.474201e-06,-3.375000e-02
-1.466201e-06,2.625000e-02
-1.458201e-06,-2.125000e-02
-1.450201e-06,2.375000e-02
-1.442201e-06,-2.375000e-02
-1.434201e-06,2.250000e-02
-1.426201e-06,-5.000000e-03
-1.418201e-06,1.625000e-02
-1.410201e-06,-8.750000e-03
-1.402201e-06,2.125000e-02
-1.394201e-06,6.250000e-03
-1.386201e-06,-1.250000e-03
-1.378201e-06,-1.125000e-02
-1.370201e-06,1.125000e-02
-1.362201e-06,-3.000000e-02
-1.354201e-06,7.500000e-03
-1.346201e-06,-4.500000e-02
-1.338201e-06,1.875000e-02
-1.330201e-06,-1.125000e-02
-1.322201e-06,3.750000e-03
-1.314201e-06,-8.750000e-03
-1.306201e-06,-1.500000e-02
-1.298201e-06,-2.375000e-02
-1.290201e-06,1.000000e-02
-1.282201e-06,-1.375000e-02
-1.274201e-06,6.250000e-03
-1.266201e-06,0.000000e+00
-1.258201e-06,5.000000e-03
-1.250201e-06,-3.375000e-02
-1.242201e-06,1.375000e-02
-1.234201e-06,-3.000000e-02
-1.226201e-06,5.000000e-03
-1.218201e-06,-3.250000e-02
-1.210201e-06,2.875000e-02
-1.202201e-06,-5.000000e-03
-1.194201e-06,-3.750000e-03
-1.186201e-06,-1.875000e-02
-1.178201e-06,-1.250000e-03
-1.170201e-06,-3.750000e-02
-1.162201e-06,8.750000e-03
-1.154201e-06,-7.500000e-03
-1.146201e-06,1.375000e-02
-1.138201e-06,-1.750000e-02
-1.130201e-06,2.875000e-02
-1.122201e-06,-3.750000e-03
-1.114201e-06,0.000000e+00
-1.106201e-06,-1.250000e-03
-1.098201e-06,1.875000e-02
-1.090201e-06,2.500000e-03
-1.082201e-06,1.375000e-02
-1.074201e-06,-1.250000e-03
-1.066201e-06,2.000000e-02
-1.058201e-06,-1.625000e-02
-1.050201e-06,2.625000e-02
-1.042201e-06,-5.000000e-03
-1.034201e-06,1.500000e-02
-1.026201e-06,-1.375000e-02
-1.018201e-06,2.125000e-02
-1.010201e-06,6.250000e-03
-1.002201e-06,1.500000e-02
-9.942013e-07,-3.750000e-03
-9.862013e-07,-2.500000e-03
-9.782013e-07,-1.625000e-02
-9.702013e-07,2.375000e-02
-9.622013e-07,-8.750000e-03
-9.542013e-07,2.500000e-02
-9.462013e-07,0.000000e+00
-9.382013e-07,7.500000e-03
-9.302013e-07,-1.750000e-02
-9.222013e-07,1.125000e-02
-9.142013e-07,-6.250000e-03
-9.062013e-07,2.250000e-02
-8.982013e-07,-8.750000e-03
-8.902013e-07,4.125000e-02
-8.822013e-07,0.000000e+00
-8.742013e-07,6.250000e-03
-8.662013e-07,-6.250000e-03
-8.582013e-07,3.250000e-02
-8.502013e-07,-2.250000e-02
-8.422013e-07,1.125000e-02
-8.342013e-07,-2.125000e-02
-8.262013e-07,1.625000e-02
-8.182013e-07,-1.750000e-02
-8.102013e-07,1.750000e-02
-8.022013e-07,-1.250000e-02
-7.942013e-07,2.125000e-02
-7.862013e-07,-1.250000e-02
-7.782013e-07,1.250000e-03
-7.702013e-07,2.625000e-02
-7.622013e-07,2.375000e-02
-7.542013e-07,-1.875000e-02
-7.462013e-07,2.125000e-02
-7.382013e-07,2.500000e-03
-7.302013e-07,1.250000e-03
-7.222013e-07,-1.000000e-02
-7.142013e-07,1.000000e-02
-7.062013e-07,-2.250000e-02
-6.982013e-07,1.750000e-02
-6.902013e-07,6.250000e-03
-6.822013e-07,2.500000e-03
-6.742013e-07,1.250000e-03
-6.662013e-07,2.000000e-02
-6.582013e-07,-6.250000e-03
-6.502013e-07,8.750000e-03
-6.422013e-07,-3.750000e-03
-6.342013e-07,1.375000e-02
-6.262013e-07,-6.250000e-03
-6.182013e-07,1.500000e-02
-6.102013e-07,-1.250000e-03
-6.022013e-07,1.375000e-02
-5.942013e-07,-7.500000e-03
-5.862013e-07,-5.000000e-03
-5.782013e-07,-8.750000e-03
-5.702013e-07,2.125000e-02
-5.622013e-07,-2.125000e-02
-5.542013e-07,1.750000e-02
-5.462013e-07,0.000000e+00
-5.382013e-07,1.250000e-03
-5.302013e-07,-7.500000e-03
-5.222013e-07,1.375000e-02
-5.142013e-07,-1.625000e-02
-5.062013e-07,2.125000e-02
-4.982013e-07,-7.500000e-03
-4.902013e-07,7.500000e-03
-4.822013e-07,-3.750000e-02
-4.742013e-07,1.375000e-02
-4.662013e-07,-1.250000e-03
-4.582013e-07,6.250000e-03
-4.502013e-07,-5.000000e-02
-4.422013e-07,2.750000e-02
-4.342013e-07,-5.000000e-03
-4.262013e-07,2.750000e-02
-4.182013e-07,-2.500000e-03
-4.102013e-07,5.000000e-03
-4.022013e-07,-3.750000e-03
-3.942013e-07,8.750000e-03
-3.862013e-07,-3.750000e-03
-3.782013e-07,-1.250000e-03
-3.702013e-07,-2.375000e-02
-3.622013e-07,2.625000e-02
-3.542013e-07,1.250000e-02
-3.462013e-07,-6.250000e-03
-3.382013e-07,-1.000000e-02
-3.302013e-07,1.250000e-02
-3.222013e-07,-1.875000e-02
-3.142013e-07,3.875000e-02
-3.062013e-07,1.250000e-03
-2.982013e-07,-3.750000e-03
-2.902013e-07,-1.625000e-02
-2.822013e-07,3.750000e-03
-2.742013e-07,-1.875000e-02
-2.662013e-07,1.125000e-02
-2.582013e-07,-1.500000e-02
-2.502013e-07,2.625000e-02
-2.422013e-07,7.500000e-03
-2.342013e-07,2.125000e-02
-2.262013e-07,2.500000e-02
-2.182013e-07,2.250000e-02
-2.102013e-07,-2.000000e-02
-2.022013e-07,1.500000e-02
-1.942013e-07,-1.875000e-02
-1.862013e-07,2.875000e-02
-1.782013e-07,1.250000e-03
-1.702013e-07,1.250000e-02
-1.622013e-07,1.250000e-03
-1.542013e-07,1.875000e-02
-1.462013e-07,7.500000e-03
-1.382013e-07,2.500000e-03
-1.302013e-07,-1.500000e-02
-1.222013e-07,1.000000e-02
-1.142013e-07,-2.125000e-02
-1.062013e-07,3.000000e-02
-9.820125e-08,-1.875000e-02
-9.020125e-08,-3.750000e-03
-8.220125e-08,-2.000000e-02
-7.420125e-08,6.250000e-03
-6.620125e-08,-2.500000e-02
-5.820125e-08,2.375000e-02
-5.020125e-08,-6.250000e-03
-4.220125e-08,1.375000e-02
-3.420125e-08,-5.000000e-03
-2.620125e-08,7.500000e-03
-1.820125e-08,-1.125000e-02
-1.020125e-08,2.000000e-02
-2.201250e-09,1.750000e-02
5.798750e-09,-1.413750e+00
1.379875e-08,-1.412500e+00
2.179875e-08,-1.408750e+00
2.979875e-08,-5.525000e-01
3.779875e-08,-1.250000e-03
4.579875e-08,-4.000000e-02
5.379875e-08,2.375000e-02
6.179875e-08,-8.750000e-03
6.979875e-08,1.625000e-02
7.779875e-08,-1.875000e-02
8.579875e-08,2.125000e-02
9.379875e-08,-2.000000e-02
1.017987e-07,8.750000e-03
1.097987e-07,-2.125000e-02
1.177987e-07,1.250000e-02
1.257987e-07,-2.500000e-03
1.337987e-07,3.000000e-02
1.417987e-07,-1.375000e-02
1.497987e-07,2.875000e-02
1.577987e-07,-7.500000e-03
1.657987e-07,1.875000e-02
1.737987e-07,-2.500000e-02
1.817987e-07,2.500000e-03
1.897987e-07,-4.000000e-02
1.977987e-07,1.375000e-02
2.057987e-07,-1.625000e-02
2.137987e-07,2.500000e-02
2.217987e-07,3.750000e-03
2.297987e-07,1.000000e-02
2.377987e-07,-2.500000e-02
2.457987e-07,2.875000e-02
2.537987e-07,-2.375000e-02
2.617987e-07,2.000000e-02
2.697987e-07,-3.750000e-03
2.777987e-07,2.375000e-02
2.857987e-07,-7.500000e-03
2.937987e-07,1.375000e-02
3.017987e-07,-5.000000e-03
3.097987e-07,-1.250000e-03
3.177987e-07,-2.500000e-03
3.257987e-07,0.000000e+00
3.337987e-07,-8.750000e-03
3.417987e-07,7.500000e-03
3.497987e-07,-5.000000e-03
3.577987e-07,1.875000e-02
3.657987e-07,-2.625000e-02
3.737987e-07,1.250000e-02
3.817987e-07,-5.000000e-03
3.897987e-07,2.500000e-02
3.977987e-07,-2.500000e-03
4.057987e-07,1.250000e-02
4.137987e-07,-1.500000e-02
4.217987e-07,3.000000e-02
4.297987e-07,-1.125000e-02
4.377987e-07,1.250000e-02
4.457987e-07,-1.875000e-02
4.537987e-07,1.625000e-02
4.617987e-07,5.000000e-03
4.697987e-07,3.750000e-03
4.777987e-07,-2.500000e-03
4.857987e-07,2.875000e-02
4.937987e-07,-1.000000e-02
5.017987e-07,1.375000e-02
5.097987e-07,1.250000e-02
5.177987e-07,1.750000e-02
5.257987e-07,6.250000e-03
5.337987e-07,1.625000e-02
5.417987e-07,-2.625000e-02
5.497987e-07,2.000000e-02
5.577987e-07,-1.625000e-02
5.657987e-07,2.000000e-02
5.737987e-07,-3.000000e-02
5.817988e-07,1.875000e-02
5.897987e-07,-8.750000e-03
5.977987e-07,-2.500000e-03
6.057988e-07,-5.000000e-03
6.137987e-07,3.750000e-03
6.217987e-07,-1.000000e-02
6.297988e-07,3.500000e-02
6.377987e-07,-6.250000e-03
6.457987e-07,1.375000e-02
6.537988e-07,-1.625000e-02
6.617987e-07,1.625000e-02
6.697987e-07,1.250000e-03
6.777988e-07,2.625000e-02
6.857987e-07,-2.625000e-02
6.937987e-07,1.500000e-02
7.017988e-07,-4.625000e-02
7.097987e-07,3.125000e-02
7.177987e-07,7.500000e-03
7.257988e-07,-1.250000e-03
7.337987e-07,-1.250000e-03
7.417987e-07,3.375000e-02
7.497988e-07,-2.375000e-02
7.577987e-07,1.125000e-02
7.657987e-07,1.250000e-03
7.737988e-07,1.500000e-02
7.817987e-07,1.250000e-02
7.897987e-07,6.250000e-03
7.977988e-07,-2.250000e-02
8.057987e-07,1.000000e-02
