run1/run1_ch3_20210318180401201.csv

Model,MSO64
Waveform Type,ANALOG
Horizontal Units,s
Sample Interval,8.000000e-09
Record Length,1250
Zero Index,624.265156
Vertical Units,V

TIME,CH3
-4.994121e-06,-7.225000e-01
-4.986121e-06,-7.390625e-01
-4.978121e-06,-7.175000e-01
-4.970121e-06,-7.378125e-01
-4.962121e-06,-7.268750e-01
-4.954121e-06,-7.534375e-01
-4.946121e-06,-7.265625e-01
-4.938121e-06,-7.528125e-01
-4.930121e-06,-7.243750e-01
-4.922121e-06,-7.487500e-01
-4.914121e-06,-7.209375e-01
-4.906121e-06,-7.443750e-01
-4.898121e-06,-7.409375e-01
-4.890121e-06,-7.434375e-01
-4.882121e-06,-7.459375e-01
-4.874121e-06,-7.550000e-01
-4.866121e-06,-7.318750e-01
-4.858121e-06,-7.487500e-01
-4.850121e-06,-7.231250e-01
-4.842121e-06,-7.406250e-01
-4.834121e-06,-7.265625e-01
-4.826121e-06,-7.587500e-01
-4.818121e-06,-7.487500e-01
-4.810121e-06,-7.484375e-01
-4.802121e-06,-7.306250e-01
-4.794121e-06,-7.418750e-01
-4.786121e-06,-7.203125e-01
-4.778121e-06,-7.571875e-01
-4.770121e-06,-7.459375e-01
-4.762121e-06,-7.506250e-01
-4.754121e-06,-7.375000e-01
-4.746121e-06,-7.600000e-01
-4.738121e-06,-7.287500e-01
-4.730121e-06,-7.468750e-01
-4.722121e-06,-7.259375e-01
-4.714121e-06,-7.456250e-01
-4.706121e-06,-7.287500e-01
-4.698121e-06,-7.459375e-01
-4.690121e-06,-7.281250e-01
-4.682121e-06,-7.506250e-01
-4.674121e-06,-7.387500e-01
-4.666121e-06,-7.575000e-01
-4.658121e-06,-7.231250e-01
-4.650121e-06,-7.465625e-01
-4.642121e-06,-7.459375e-01
-4.634121e-06,-7.528125e-01
-4.626121e-06,-7.346875e-01
-4.618121e-06,-7.434375e-01
-4.610121e-06,-7.275000e-01
-4.602121e-06,-7.606250e-01
-4.594121e-06,-7.278125e-01
-4.586121e-06,-7.493750e-01
-4.578121e-06,-7.290625e-01
-4.570121e-06,-7.531250e-01
-4.562121e-06,-7.418750e-01
-4.554121e-06,-7.625000e-01
-4.546121e-06,-7.340625e-01
-4.538121e-06,-7.437500e-01
-4.530121e-06,-7.209375e-01
-4.522121e-06,-7.468750e-01
-4.514121e-06,-7.318750e-01
-4.506121e-06,-7.503125e-01
-4.498121e-06,-7.328125e-01
-4.490121e-06,-7.509375e-01
-4.482121e-06,-7.368750e-01
-4.474121e-06,-7.506250e-01
-4.466121e-06,-7.221875e-01
-4.458121e-06,-7.531250e-01
-4.450121e-06,-7.318750e-01
-4.442121e-06,-7.443750e-01
-4.434121e-06,-7.287500e-01
-4.426121e-06,-7.512500e-01
-4.418121e-06,-7.178125e-01
-4.410121e-06,-7.525000e-01
-4.402121e-06,-7.140625e-01
-4.394121e-06,-7.500000e-01
-4.386121e-06,-7.359375e-01
-4.378121e-06,-7.487500e-01
-4.370121e-06,-7.406250e-01
-4.362121e-06,-7.550000e-01
-4.354121e-06,-7.231250e-01
-4.346121e-06,-7.475000e-01
-4.338121e-06,-7.300000e-01
-4.330121e-06,-7.340625e-01
-4.322121e-06,-7.312500e-01
-4.314121e-06,-7.493750e-01
-4.306121e-06,-7.412500e-01
-4.298121e-06,-7.490625e-01
-4.290121e-06,-7.415625e-01
-4.282121e-06,-7.331250e-01
-4.274121e-06,-7.115625e-01
-4.266121e-06,-7.468750e-01
-4.258121e-06,-7.312500e-01
-4.250121e-06,-7.531250e-01
-4.242121e-06,-7.375000e-01
-4.234121e-06,-7.590625e-01
-4.226121e-06,-7.240625e-01
-4.218121e-06,-7.568750e-01
-4.210121e-06,-7.243750e-01
-4.202121e-06,-7.468750e-01
-4.194121e-06,-7.262500e-01
-4.186121e-06,-7.653125e-01
-4.178121e-06,-7.303125e-01
-4.170121e-06,-7.543750e-01
-4.162121e-06,-7.296875e-01
-4.154121e-06,-7.525000e-01
-4.146121e-06,-7.218750e-01
-4.138121e-06,-7.575000e-01
-4.130121e-06,-7.487500e-01
-4.122121e-06,-7.387500e-01
-4.114121e-06,-7.425000e-01
-4.106121e-06,-7.596875e-01
-4.098121e-06,-7.303125e-01
-4.090121e-06,-7.346875e-01
-4.082121e-06,-7.140625e-01
-4.074121e-06,-7.418750e-01
-4.066121e-06,-7.268750e-01
-4.058121e-06,-7.506250e-01
-4.050121e-06,-7.325000e-01
-4.042121e-06,-7.493750e-01
-4.034121e-06,-7.265625e-01
-4.026121e-06,-7.418750e-01
-4.018121e-06,-7.246875e-01
-4.010121e-06,-7.475000e-01
-4.002121e-06,-7.309375e-01
-3.994121e-06,-7.484375e-01
-3.986121e-06,-7.381250e-01
-3.978121e-06,-7.393750e-01
-3.970121e-06,-7.187500e-01
-3.962121e-06,-7.550000e-01
-3.954121e-06,-7.175000e-01
-3.946121e-06,-7.459375e-01
-3.938121e-06,-7.337500e-01
-3.930121e-06,-7.662500e-01
-3.922121e-06,-7.343750e-01
-3.914121e-06,-7.506250e-01
-3.906121e-06,-7.303125e-01
-3.898121e-06,-7.375000e-01
-3.890121e-06,-7.121875e-01
-3.882121e-06,-7.500000e-01
-3.874121e-06,-7.343750e-01
-3.866121e-06,-7.521875e-01
-3.858121e-06,-7.446875e-01
-3.850121e-06,-7.609375e-01
-3.842121e-06,-7.443750e-01
-3.834121e-06,-7.521875e-01
-3.826121e-06,-7.387500e-01
-3.818121e-06,-7.387500e-01
-3.810121e-06,-7.325000e-01
-3.802121e-06,-7.562500e-01
-3.794121e-06,-7.271875e-01
-3.786121e-06,-7.518750e-01
-3.778121e-06,-7.268750e-01
-3.770121e-06,-7.471875e-01
-3.762121e-06,-7.315625e-01
-3.754121e-06,-7.437500e-01
-3.746121e-06,-7.378125e-01
-3.738121e-06,-7.428125e-01
-3.730121e-06,-7.418750e-01
-3.722121e-06,-7.496875e-01
-3.714121e-06,-7.287500e-01
-3.706121e-06,-7.446875e-01
-3.698121e-06,-7.253125e-01
-3.690121e-06,-7.306250e-01
-3.682121e-06,-7.287500e-01
-3.674121e-06,-7.503125e-01
-3.666121e-06,-7.340625e-01
-3.658121e-06,-7.509375e-01
-3.650121e-06,-7.253125e-01
-3.642121e-06,-7.443750e-01
-3.634121e-06,-7.128125e-01
-3.626121e-06,-7.471875e-01
-3.618121e-06,-7.318750e-01
-3.610121e-06,-7.393750e-01
-3.602121e-06,-7.459375e-01
-3.594121e-06,-7.446875e-01
-3.586121e-06,-7.328125e-01
-3.578121e-06,-7.337500e-01
-3.570121e-06,-7.278125e-01
-3.562121e-06,-7.493750e-01
-3.554121e-06,-7.131250e-01
-3.546121e-06,-7.581250e-01
-3.538121e-06,-7.284375e-01
-3.530121e-06,-7.575000e-01
-3.522121e-06,-7.215625e-01
-3.514121e-06,-7.381250e-01
-3.506121e-06,-7.259375e-01
-3.498121e-06,-7.565625e-01
-3.490121e-06,-7.312500e-01
-3.482121e-06,-7.575000e-01
-3.474121e-06,-7.496875e-01
-3.466121e-06,-7.484375e-01
-3.458121e-06,-7.353125e-01
-3.450121e-06,-7.281250e-01
-3.442121e-06,-7.393750e-01
-3.434121e-06,-7.490625e-01
-3.426121e-06,-7.287500e-01
-3.418121e-06,-7.496875e-01
-3.410121e-06,-7.237500e-01
-3.402121e-06,-7.612500e-01
-3.394121e-06,-7.203125e-01
-3.386121e-06,-7.318750e-01
-3.378121e-06,-7.287500e-01
-3.370121e-06,-7.512500e-01
-3.362121e-06,-7.287500e-01
-3.354121e-06,-7.484375e-01
-3.346121e-06,-7.253125e-01
-3.338121e-06,-7.562500e-01
-3.330121e-06,-7.265625e-01
-3.322121e-06,-7.371875e-01
-3.314121e-06,-7.312500e-01
-3.306121e-06,-7.387500e-01
-3.298121e-06,-7.159375e-01
-3.290121e-06,-7.509375e-01
-3.282121e-06,-7.287500e-01
-3.274121e-06,-7.515625e-01
-3.266121e-06,-7.371875e-01
-3.258121e-06,-7.384375e-01
-3.250121e-06,-7.212500e-01
-3.242121e-06,-7.593750e-01
-3.234121e-06,-7.362500e-01
-3.226121e-06,-7.509375e-01
-3.218121e-06,-7.381250e-01
-3.210121e-06,-7.478125e-01
-3.202121e-06,-7.312500e-01
-3.194121e-06,-7.431250e-01
-3.186121e-06,-7.284375e-01
-3.178121e-06,-7.359375e-01
-3.170121e-06,-7.362500e-01
-3.162121e-06,-7.525000e-01
-3.154121e-06,-7.375000e-01
-3.146121e-06,-7.471875e-01
-3.138121e-06,-7.321875e-01
-3.130121e-06,-7.350000e-01
-3.122121e-06,-7.221875e-01
-3.114121e-06,-7.381250e-01
-3.106121e-06,-7.337500e-01
-3.098121e-06,-7.343750e-01
-3.090121e-06,-7.478125e-01
-3.082121e-06,-7.503125e-01
-3.074121e-06,-7.175000e-01
-3.066121e-06,-7.596875e-01
-3.058121e-06,-7.290625e-01
-3.050121e-06,-7.481250e-01
-3.042121e-06,-7.165625e-01
-3.034121e-06,-7.503125e-01
-3.026121e-06,-7.312500e-01
-3.018121e-06,-7.496875e-01
-3.010121e-06,-7.343750e-01
-3.002121e-06,-7.400000e-01
-2.994121e-06,-7.250000e-01
-2.986121e-06,-7.462500e-01
-2.978121e-06,-7.328125e-01
-2.970121e-06,-7.443750e-01
-2.962121e-06,-7.343750e-01
-2.954121e-06,-7.475000e-01
-2.946121e-06,-7.312500e-01
-2.938121e-06,-7.481250e-01
-2.930121e-06,-7.209375e-01
-2.922121e-06,-7.478125e-01
-2.914121e-06,-7.412500e-01
-2.906121e-06,-7.515625e-01
-2.898121e-06,-7.362500e-01
-2.890121e-06,-7.600000e-01
-2.882121e-06,-7.156250e-01
-2.874121e-06,-7.456250e-01
-2.866121e-06,-7.159375e-01
-2.858121e-06,-7.621875e-01
-2.850121e-06,-7.321875e-01
-2.842121e-06,-7.531250e-01
-2.834121e-06,-7.546875e-01
-2.826121e-06,-7.512500e-01
-2.818121e-06,-7.306250e-01
-2.810121e-06,-7.493750e-01
-2.802121e-06,-7.215625e-01
-2.794121e-06,-7.453125e-01
-2.786121e-06,-7.375000e-01
-2.778121e-06,-7.631250e-01
-2.770121e-06,-7.312500e-01
-2.762121e-06,-7.559375e-01
-2.754121e-06,-7.378125e-01
-2.746121e-06,-7.462500e-01
-2.738121e-06,-7.128125e-01
-2.730121e-06,-7.515625e-01
-2.722121e-06,-7.356250e-01
-2.714121e-06,-7.346875e-01
-2.706121e-06,-7.378125e-01
-2.698121e-06,-7.550000e-01
-2.690121e-06,-7.231250e-01
-2.682121e-06,-7.506250e-01
-2.674121e-06,-7.275000e-01
-2.666121e-06,-7.362500e-01
-2.658121e-06,-7.318750e-01
-2.650121e-06,-7.493750e-01
-2.642121e-06,-7.250000e-01
-2.634121e-06,-7.365625e-01
-2.626121e-06,-7.378125e-01
-2.618121e-06,-7.559375e-01
-2.610121e-06,-7.168750e-01
-2.602121e-06,-7.418750e-01
-2.594121e-06,-7.312500e-01
-2.586121e-06,-7.550000e-01
-2.578121e-06,-7.437500e-01
-2.570121e-06,-7.431250e-01
-2.562121e-06,-7.250000e-01
-2.554121e-06,-7.581250e-01
-2.546121e-06,-7.215625e-01
-2.538121e-06,-7.409375e-01
-2.530121e-06,-7.181250e-01
-2.522121e-06,-7.550000e-01
-2.514121e-06,-7.209375e-01
-2.506121e-06,-7.612500e-01
-2.498121e-06,-7.243750e-01
-2.490121e-06,-7.556250e-01
-2.482121e-06,-7.203125e-01
-2.474121e-06,-7.506250e-01
-2.466121e-06,-7.418750e-01
-2.458121e-06,-7.578125e-01
-2.450121e-06,-7.300000e-01
-2.442121e-06,-7.675000e-01
-2.434121e-06,-7.306250e-01
-2.426121e-06,-7.487500e-01
-2.418121e-06,-7.281250e-01
-2.410121e-06,-7.531250e-01
-2.402121e-06,-7.271875e-01
-2.394121e-06,-7.431250e-01
-2.386121e-06,-7.165625e-01
-2.378121e-06,-7.559375e-01
-2.370121e-06,-7.246875e-01
-2.362121e-06,-7.612500e-01
-2.354121e-06,-7.215625e-01
-2.346121e-06,-7.531250e-01
-2.338121e-06,-7.312500e-01
-2.330121e-06,-7.465625e-01
-2.322121e-06,-7.459375e-01
-2.314121e-06,-7.546875e-01
-2.306121e-06,-7.334375e-01
-2.298121e-06,-7.425000e-01
-2.290121e-06,-7.178125e-01
-2.282121e-06,-7.409375e-01
-2.274121e-06,-7.300000e-01
-2.266121e-06,-7.500000e-01
-2.258121e-06,-7.387500e-01
-2.250121e-06,-7.584375e-01
-2.242121e-06,-7.259375e-01
-2.234121e-06,-7.531250e-01
-2.226121e-06,-7.131250e-01
-2.218121e-06,-7.465625e-01
-2.210121e-06,-7.359375e-01
-2.202121e-06,-7.500000e-01
-2.194121e-06,-7.203125e-01
-2.186121e-06,-7.550000e-01
-2.178121e-06,-7.268750e-01
-2.170121e-06,-7.387500e-01
-2.162121e-06,-7.309375e-01
-2.154121e-06,-7.443750e-01
-2.146121e-06,-7.300000e-01
-2.138121e-06,-7.621875e-01
-2.130121e-06,-7.306250e-01
-2.122121e-06,-7.553125e-01
-2.114121e-06,-7.387500e-01
-2.106121e-06,-7.525000e-01
-2.098121e-06,-7.265625e-01
-2.090121e-06,-7.484375e-01
-2.082121e-06,-7.443750e-01
-2.074121e-06,-7.475000e-01
-2.066121e-06,-7.459375e-01
-2.058121e-06,-7.515625e-01
-2.050121e-06,-7.315625e-01
-2.042121e-06,-7.400000e-01
-2.034121e-06,-7.278125e-01
-2.026121e-06,-7.343750e-01
-2.018121e-06,-7.375000e-01
-2.010121e-06,-7.521875e-01
-2.002121e-06,-7.150000e-01
-1.994121e-06,-7.387500e-01
-1.986121e-06,-7.190625e-01
-1.978121e-06,-7.581250e-01
-1.970121e-06,-7.181250e-01
-1.962121e-06,-7.581250e-01
-1.954121e-06,-7.384375e-01
-1.946121e-06,-7.515625e-01
-1.938121e-06,-7.406250e-01
-1.930121e-06,-7.475000e-01
-1.922121e-06,-7.281250e-01
-1.914121e-06,-7.518750e-01
-1.906121e-06,-7.293750e-01
-1.898121e-06,-7.446875e-01
-1.890121e-06,-7.287500e-01
-1.882121e-06,-7.506250e-01
-1.874121e-06,-7.237500e-01
-1.866121e-06,-7.490625e-01
-1.858121e-06,-7.293750e-01
-1.850121e-06,-7.300000e-01
-1.842121e-06,-7.146875e-01
-1.834121e-06,-7.543750e-01
-1.826121e-06,-7.365625e-01
-1.818121e-06,-7.418750e-01
-1.810121e-06,-7.293750e-01
-1.802121e-06,-7.496875e-01
-1.794121e-06,-7.340625e-01
-1.786121e-06,-7.543750e-01
-1.778121e-06,-7.328125e-01
-1.770121e-06,-7.450000e-01
-1.762121e-06,-7.275000e-01
-1.754121e-06,-7.543750e-01
-1.746121e-06,-7.140625e-01
-1.738121e-06,-7.612500e-01
-1.730121e-06,-7.168750e-01
-1.722121e-06,-7.409375e-01
-1.714121e-06,-7.071875e-01
-1.706121e-06,-7.546875e-01
-1.698121e-06,-7.390625e-01
-1.690121e-06,-7.578125e-01
-1.682121e-06,-7.350000e-01
-1.674121e-06,-7.484375e-01
-1.666121e-06,-7.096875e-01
-1.658121e-06,-7.284375e-01
-1.650121e-06,-7.250000e-01
-1.642121e-06,-7.484375e-01
-1.634121e-06,-7.278125e-01
-1.626121e-06,-7.440625e-01
-1.618121e-06,-7.140625e-01
-1.610121e-06,-7.518750e-01
-1.602121e-06,-7.268750e-01
-1.594121e-06,-7.493750e-01
-1.586121e-06,-7.237500e-01
-1.578121e-06,-7.456250e-01
-1.570121e-06,-7.343750e-01
-1.562121e-06,-7.512500e-01
-1.554121e-06,-7.368750e-01
-1.546121e-06,-7.537500e-01
-1.538121e-06,-7.156250e-01
-1.530121e-06,-7.537500e-01
-1.522121e-06,-7.287500e-01
-1.514121e-06,-7.450000e-01
-1.506121e-06,-7.243750e-01
-1.498121e-06,-7.537500e-01
-1.490121e-06,-7.268750e-01
-1.482121e-06,-7.562500e-01
-1.474121e-06,-7.206250e-01
-1.466121e-06,-7.387500e-01
-1.458121e-06,-7.100000e-01
-1.450121e-06,-7.453125e-01
-1.442121e-06,-7.453125e-01
-1.434121e-06,-7.500000e-01
-1.426121e-06,-7.425000e-01
-1.418121e-06,-7.553125e-01
-1.410121e-06,-7.253125e-01
-1.402121e-06,-7.421875e-01
-1.394121e-06,-7.184375e-01
-1.386121e-06,-7.396875e-01
-1.378121e-06,-7.362500e-01
-1.370121e-06,-7.471875e-01
-1.362121e-06,-7.175000e-01
-1.354121e-06,-7.490625e-01
-1.346121e-06,-7.218750e-01
-1.338121e-06,-7.368750e-01
-1.330121e-06,-7.090625e-01
-1.322121e-06,-7.575000e-01
-1.314121e-06,-7.312500e-01
-1.306121e-06,-7.496875e-01
-1.298121e-06,-7.393750e-01
-1.290121e-06,-7.512500e-01
-1.282121e-06,-7.287500e-01
-1.274121e-06,-7.634375e-01
-1.266121e-06,-7.318750e-01
-1.258121e-06,-7.418750e-01
-1.250121e-06,-7.365625e-01
-1.242121e-06,-7.556250e-01
-1.234121e-06,-7.218750e-01
-1.226121e-06,-7.600000e-01
-1.218121e-06,-7.165625e-01
-1.210121e-06,-7.443750e-01
-1.202121e-06,-7.178125e-01
-1.194121e-06,-7.493750e-01
-1.186121e-06,-7.262500e-01
-1.178121e-06,-7.518750e-01
-1.170121e-06,-7.484375e-01
-1.162121e-06,-7.515625e-01
-1.154121e-06,-7.228125e-01
-1.146121e-06,-7.325000e-01
-1.138121e-06,-7.328125e-01
-1.130121e-06,-7.500000e-01
-1.122121e-06,-7.293750e-01
-1.114121e-06,-7.462500e-01
-1.106121e-06,-7.300000e-01
-1.098121e-06,-7.575000e-01
-1.090121e-06,-7.356250e-01
-1.082121e-06,-7.368750e-01
-1.074121e-06,-7.337500e-01
-1.066121e-06,-7.543750e-01
-1.058121e-06,-7.400000e-01
-1.050121e-06,-7.478125e-01
-1.042121e-06,-7.465625e-01
-1.034121e-06,-7.575000e-01
-1.026121e-06,-7.315625e-01
-1.018121e-06,-7.515625e-01
-1.010121e-06,-7.215625e-01
-1.002121e-06,-7.415625e-01
-9.941213e-07,-7.296875e-01
-9.861213e-07,-7.537500e-01
-9.781213e-07,-7.450000e-01
-9.701213e-07,-7.693750e-01
-9.621213e-07,-7.312500e-01
-9.541213e-07,-7.525000e-01
-9.461213e-07,-7.215625e-01
-9.381213e-07,-7.615625e-01
-9.301213e-07,-7.365625e-01
-9.221213e-07,-7.440625e-01
-9.141213e-07,-7.309375e-01
-9.061213e-07,-7.600000e-01
-8.981213e-07,-7.140625e-01
-8.901213e-07,-7.500000e-01
-8.821213e-07,-7.293750e-01
-8.741213e-07,-7.306250e-01
-8.661213e-07,-7.215625e-01
-8.581213e-07,-7.562500e-01
-8.501213e-07,-7.262500e-01
-8.421213e-07,-7.587500e-01
-8.341213e-07,-7.250000e-01
-8.261213e-07,-7.443750e-01
-8.181213e-07,-7.156250e-01
-8.101213e-07,-7.606250e-01
-8.021213e-07,-7.325000e-01
-7.941213e-07,-7.531250e-01
-7.861213e-07,-7.412500e-01
-7.781213e-07,-7.606250e-01
-7.701213e-07,-7.168750e-01
-7.621213e-07,-7.518750e-01
-7.541213e-07,-7.240625e-01
-7.461213e-07,-7.365625e-01
-7.381213e-07,-7.325000e-01
-7.301213e-07,-7.506250e-01
-7.221213e-07,-7.318750e-01
-7.141213e-07,-7.575000e-01
-7.061213e-07,-7.331250e-01
-6.981213e-07,-7.493750e-01
-6.901213e-07,-7.062500e-01
-6.821213e-07,-7.443750e-01
-6.741213e-07,-7.387500e-01
-6.661213e-07,-7.525000e-01
-6.581213e-07,-7.418750e-01
-6.501213e-07,-7.581250e-01
-6.421213e-07,-7.221875e-01
-6.341213e-07,-7.518750e-01
-6.261213e-07,-7.271875e-01
-6.181213e-07,-7.340625e-01
-6.101213e-07,-7.281250e-01
-6.021213e-07,-7.581250e-01
-5.941213e-07,-7.203125e-01
-5.861213e-07,-7.475000e-01
-5.781213e-07,-7.268750e-01
-5.701213e-07,-7.515625e-01
-5.621213e-07,-7.256250e-01
-5.541213e-07,-7.356250e-01
-5.461213e-07,-7.331250e-01
-5.381213e-07,-7.425000e-01
-5.301213e-07,-7.456250e-01
-5.221213e-07,-7.578125e-01
-5.141213e-07,-7.153125e-01
-5.061213e-07,-7.475000e-01
-4.981213e-07,-7.325000e-01
-4.901213e-07,-7.390625e-01
-4.821213e-07,-7.250000e-01
-4.741213e-07,-7.506250e-01
-4.661213e-07,-7.190625e-01
-4.581213e-07,-7.550000e-01
-4.501213e-07,-7.328125e-01
-4.421213e-07,-7.365625e-01
-4.341213e-07,-7.181250e-01
-4.261213e-07,-7.440625e-01
-4.181213e-07,-7.331250e-01
-4.101213e-07,-7.428125e-01
-4.021213e-07,-7.209375e-01
-3.941213e-07,-7.525000e-01
-3.861213e-07,-7.259375e-01
-3.781213e-07,-7.456250e-01
-3.701213e-07,-7.268750e-01
-3.621213e-07,-7.428125e-01
-3.541213e-07,-7.256250e-01
-3.461213e-07,-7.543750e-01
-3.381213e-07,-7.218750e-01
-3.301213e-07,-7.478125e-01
-3.221213e-07,-7.296875e-01
-3.141213e-07,-7.375000e-01
-3.061213e-07,-7.171875e-01
-2.981213e-07,-7.468750e-01
-2.901213e-07,-7.306250e-01
-2.821213e-07,-7.512500e-01
-2.741213e-07,-7.300000e-01
-2.661213e-07,-7.456250e-01
-2.581213e-07,-7.165625e-01
-2.501213e-07,-7.350000e-01
-2.421213e-07,-7.296875e-01
-2.341213e-07,-7.418750e-01
-2.261213e-07,-7.187500e-01
-2.181213e-07,-7.481250e-01
-2.101213e-07,-7.371875e-01
-2.021213e-07,-7.596875e-01
-1.941213e-07,-7.375000e-01
-1.861213e-07,-7.562500e-01
-1.781213e-07,-7.181250e-01
-1.701213e-07,-7.534375e-01
-1.621213e-07,-7.490625e-01
-1.541213e-07,-7.465625e-01
-1.461213e-07,-7.393750e-01
-1.381213e-07,-7.496875e-01
-1.301213e-07,-7.371875e-01
-1.221213e-07,-7.487500e-01
-1.141213e-07,-7.312500e-01
-1.061213e-07,-7.359375e-01
-9.812125e-08,-7.293750e-01
-9.012125e-08,-7.540625e-01
-8.212125e-08,-7.281250e-01
-7.412125e-08,-7.515625e-01
-6.612125e-08,-7.340625e-01
-5.812125e-08,-7.421875e-01
-5.012125e-08,-7.103125e-01
-4.212125e-08,-7.418750e-01
-3.412125e-08,-7.390625e-01
-2.612125e-08,-7.456250e-01
-1.812125e-08,-7.387500e-01
-1.012125e-08,-7.459375e-01
-2.121250e-09,-7.293750e-01
5.878750e-09,-7.465625e-01
1.387875e-08,-7.290625e-01
2.187875e-08,-7.550000e-01
2.987875e-08,-7.228125e-01
3.787875e-08,-7.478125e-01
4.587875e-08,-7.356250e-01
5.387875e-08,-7.518750e-01
6.187875e-08,-7.284375e-01
6.987875e-08,-7.434375e-01
7.787875e-08,-7.131250e-01
8.587875e-08,-7.503125e-01
9.387875e-08,-7.331250e-01
1.018787e-07,-7.493750e-01
1.098787e-07,-7.400000e-01
1.178787e-07,-7.493750e-01
1.258787e-07,-7.181250e-01
1.338787e-07,-7.425000e-01
1.418787e-07,-7.325000e-01
1.498787e-07,-7.331250e-01
1.578787e-07,-7.321875e-01
1.658787e-07,-7.562500e-01
1.738787e-07,-7.318750e-01
1.818787e-07,-7.553125e-01
1.898787e-07,-7.321875e-01
1.978787e-07,-7.531250e-01
2.058787e-07,-7.278125e-01
2.138787e-07,-7.612500e-01
2.218787e-07,-7.337500e-01
2.298787e-07,-7.368750e-01
2.378787e-07,-7.418750e-01
2.458787e-07,-7.512500e-01
2.538787e-07,-7.203125e-01
2.618787e-07,-7.443750e-01
2.698787e-07,-7.278125e-01
2.778787e-07,-7.462500e-01
2.858787e-07,-7.237500e-01
2.938787e-07,-7.506250e-01
3.018787e-07,-7.256250e-01
3.098787e-07,-7.509375e-01
3.178787e-07,-7.340625e-01
3.258787e-07,-7.462500e-01
3.338787e-07,-7.078125e-01
3.418787e-07,-7.475000e-01
3.498787e-07,-7.331250e-01
3.578787e-07,-7.503125e-01
3.658787e-07,-7.390625e-01
3.738787e-07,-7.446875e-01
3.818787e-07,-7.278125e-01
3.898787e-07,-7.484375e-01
3.978787e-07,-7.275000e-01
4.058787e-07,-7.325000e-01
4.138787e-07,-7.328125e-01
4.218787e-07,-7.603125e-01
4.298787e-07,-7.318750e-01
4.378787e-07,-7.468750e-01
4.458787e-07,-7.318750e-01
4.538787e-07,-7.415625e-01
4.618787e-07,-7.165625e-01
4.698787e-07,-7.462500e-01
4.778787e-07,-7.306250e-01
4.858787e-07,-7.378125e-01
4.938787e-07,-7.271875e-01
5.018787e-07,-7.393750e-01
5.098787e-07,-7.215625e-01
5.178787e-07,-7.493750e-01
5.258787e-07,-7.190625e-01
5.338787e-07,-7.462500e-01
5.418787e-07,-7.287500e-01
5.498787e-07,-7.525000e-01
5.578787e-07,-7.312500e-01
5.658787e-07,-7.543750e-01
5.738787e-07,-7.250000e-01
5.818787e-07,-7.437500e-01
5.898787e-07,-7.196875e-01
5.978787e-07,-7.437500e-01
6.058787e-07,-7.384375e-01
6.138787e-07,-7.562500e-01
6.218787e-07,-7.387500e-01
6.298787e-07,-7.518750e-01
6.378787e-07,-7.343750e-01
6.458787e-07,-7.356250e-01
6.538787e-07,-7.275000e-01
6.618787e-07,-7.462500e-01
6.698787e-07,-7.303125e-01
6.778787e-07,-7.537500e-01
6.858787e-07,-7.390625e-01
6.938787e-07,-7.653125e-01
