run1/run1_ch1_20210318180307689.csv

Model,MSO64
Waveform Type,ANALOG
Horizontal Units,s
Sample Interval,8.000000e-09
Record Length,1250
Zero Index,624.520156
Vertical Units,V

TIME,CH1
-4.996161e-06,8.750000e-03
-4.988161e-06,-3.750000e-03
-4.980161e-06,1.125000e-02
-4.972161e-06,-1.000000e-02
-4.964161e-06,1.250000e-02
-4.956161e-06,-2.875000e-02
-4.948161e-06,1.000000e-02
-4.940161e-06,-2.750000e-02
-4.932161e-06,3.375000e-02
-4.924161e-06,-1.625000e-02
-4.916161e-06,1.500000e-02
-4.908161e-06,-2.000000e-02
-4.900161e-06,-1.000000e-02
-4.892161e-06,-1.000000e-02
-4.884161e-06,1.750000e-02
-4.876161e-06,-1.375000e-02
-4.868161e-06,8.750000e-03
-4.860161e-06,-5.000000e-03
-4.852161e-06,6.250000e-03
-4.844161e-06,-1.625000e-02
-4.836161e-06,1.250000e-02
-4.828161e-06,-1.250000e-03
-4.820161e-06,1.125000e-02
-4.812161e-06,-1.250000e-02
-4.804161e-06,2.000000e-02
-4.796161e-06,-1.250000e-02
-4.788161e-06,-3.750000e-03
-4.780161e-06,-2.375000e-02
-4.772161e-06,-1.250000e-03
-4.764161e-06,-1.250000e-02
-4.756161e-06,1.625000e-02
-4.748161e-06,-5.000000e-03
-4.740161e-06,6.250000e-03
-4.732161e-06,-1.250000e-03
-4.724161e-06,1.375000e-02
-4.716161e-06,6.250000e-03
-4.708161e-06,1.000000e-02
-4.700161e-06,-2.250000e-02
-4.692161e-06,1.625000e-02
-4.684161e-06,-2.000000e-02
-4.676161e-06,2.375000e-02
-4.668161e-06,1.250000e-03
-4.660161e-06,6.250000e-03
-4.652161e-06,-1.875000e-02
-4.644161e-06,1.000000e-02
-4.636161e-06,-1.625000e-02
-4.628161e-06,1.250000e-02
-4.620161e-06,-1.500000e-02
-4.612161e-06,2.000000e-02
-4.604161e-06,-5.000000e-03
-4.596161e-06,2.500000e-03
-4.588161e-06,-5.000000e-03
-4.580161e-06,1.250000e-03
-4.572161e-06,2.500000e-03
-4.564161e-06,2.625000e-02
-4.556161e-06,-3.125000e-02
-4.548161e-06,2.500000e-03
-4.540161e-06,-1.250000e-02
-4.532161e-06,-6.250000e-03
-4.524161e-06,-3.125000e-02
-4.516161e-06,1.875000e-02
-4.508161e-06,-2.375000e-02
-4.500161e-06,2.500000e-03
-4.492161e-06,-1.750000e-02
-4.484161e-06,3.000000e-02
-4.476161e-06,-1.500000e-02
-4.468161e-06,0.000000e+00
-4.460161e-06,-1.375000e-02
-4.452161e-06,2.000000e-02
-4.444161e-06,-3.750000e-02
-4.436161e-06,2.375000e-02
-4.428161e-06,-4.125000e-02
-4.420161e-06,5.000000e-03
-4.412161e-06,-6.250000e-03
-4.404161e-06,3.125000e-02
-4.396161e-06,-1.625000e-02
-4.388161e-06,2.500000e-03
-4.380161e-06,-3.750000e-03
-4.372161e-06,1.500000e-02
-4.364161e-06,-5.000000e-03
-4.356161e-06,3.750000e-02
-4.348161e-06,5.000000e-03
-4.340161e-06,2.125000e-02
-4.332161e-06,-1.000000e-02
-4.324161e-06,2.000000e-02
-4.316161e-06,-1.250000e-02
-4.308161e-06,1.125000e-02
-4.300161e-06,-7.500000e-03
-4.292161e-06,1.500000e-02
-4.284161e-06,-3.500000e-02
-4.276161e-06,5.000000e-03
-4.268161e-06,-1.500000e-02
-4.260161e-06,-3.750000e-03
-4.252161e-06,-2.875000e-02
-4.244161e-06,1.125000e-02
-4.236161e-06,1.250000e-03
-4.228161e-06,2.250000e-02
-4.220161e-06,-2.250000e-02
-4.212161e-06,1.625000e-02
-4.204161e-06,6.250000e-03
-4.196161e-06,2.125000e-02
-4.188161e-06,-3.750000e-02
-4.180161e-06,1.625000e-02
-4.172161e-06,-1.750000e-02
-4.164161e-06,1.500000e-02
-4.156161e-06,-1.500000e-02
-4.148161e-06,1.000000e-02
-4.140161e-06,-1.750000e-02
-4.132161e-06,1.625000e-02
-4.124161e-06,-1.375000e-02
-4.116161e-06,1.000000e-02
-4.108161e-06,-2.125000e-02
-4.100161e-06,1.875000e-02
-4.092161e-06,-3.875000e-02
-4.084161e-06,-7.500000e-03
-4.076161e-06,-1.250000e-02
-4.068161e-06,1.500000e-02
-4.060161e-06,-2.375000e-02
-4.052161e-06,2.125000e-02
-4.044161e-06,-8.750000e-03
-4.036161e-06,4.500000e-02
-4.028161e-06,-2.625000e-02
-4.020161e-06,1.000000e-02
-4.012161e-06,-1.625000e-02
-4.004161e-06,-1.125000e-02
-3.996161e-06,-6.250000e-03
-3.988161e-06,2.250000e-02
-3.980161e-06,1.375000e-02
-3.972161e-06,1.250000e-02
-3.964161e-06,-1.125000e-02
-3.956161e-06,1.250000e-02
-3.948161e-06,-1.625000e-02
-3.940161e-06,2.250000e-02
-3.932161e-06,-3.125000e-02
-3.924161e-06,1.875000e-02
-3.916161e-06,-3.125000e-02
-3.908161e-06,2.875000e-02
-3.900161e-06,8.750000e-03
-3.892161e-06,2.500000e-02
-3.884161e-06,-2.000000e-02
-3.876161e-06,2.000000e-02
-3.868161e-06,-3.875000e-02
-3.860161e-06,1.625000e-02
-3.852161e-06,-2.750000e-02
-3.844161e-06,-1.250000e-03
-3.836161e-06,-8.750000e-03
-3.828161e-06,2.125000e-02
-3.820161e-06,-3.375000e-02
-3.812161e-06,1.375000e-02
-3.804161e-06,-3.625000e-02
-3.796161e-06,-5.000000e-03
-3.788161e-06,-2.000000e-02
-3.780161e-06,1.750000e-02
-3.772161e-06,-1.750000e-02
-3.764161e-06,2.500000e-03
-3.756161e-06,-1.625000e-02
-3.748161e-06,3.000000e-02
-3.740161e-06,-2.000000e-02
-3.732161e-06,1.625000e-02
-3.724161e-06,1.250000e-03
-3.716161e-06,7.500000e-03
-3.708161e-06,-1.250000e-03
-3.700161e-06,6.250000e-03
-3.692161e-06,-1.750000e-02
-3.684161e-06,2.125000e-02
-3.676161e-06,-2.500000e-02
-3.668161e-06,1.125000e-02
-3.660161e-06,-2.875000e-02
-3.652161e-06,2.250000e-02
-3.644161e-06,-2.500000e-03
-3.636161e-06,-2.125000e-02
-3.628161e-06,-1.750000e-02
-3.620161e-06,5.000000e-03
-3.612161e-06,-4.375000e-02
-3.604161e-06,1.375000e-02
-3.596161e-06,-1.625000e-02
-3.588161e-06,0.000000e+00
-3.580161e-06,2.500000e-02
-3.572161e-06,7.500000e-03
-3.564161e-06,-3.000000e-02
-3.556161e-06,2.500000e-03
-3.548161e-06,-3.875000e-02
-3.540161e-06,3.125000e-02
-3.532161e-06,-2.500000e-02
-3.524161e-06,3.125000e-02
-3.516161e-06,5.000000e-03
-3.508161e-06,6.250000e-03
-3.500161e-06,-1.625000e-02
-3.492161e-06,1.750000e-02
-3.484161e-06,-1.625000e-02
-3.476161e-06,-1.250000e-03
-3.468161e-06,-8.750000e-03
-3.460161e-06,2.500000e-03
-3.452161e-06,-7.500000e-03
-3.444161e-06,1.375000e-02
-3.436161e-06,-3.750000e-03
-3.428161e-06,1.375000e-02
-3.420161e-06,-1.250000e-02
-3.412161e-06,-1.000000e-02
-3.404161e-06,-2.625000e-02
-3.396161e-06,1.375000e-02
-3.388161e-06,-3.750000e-03
-3.380161e-06,6.250000e-03
-3.372161e-06,-1.000000e-02
-3.364161e-06,-2.500000e-03
-3.356161e-06,-1.875000e-02
-3.348161e-06,6.250000e-03
-3.340161e-06,-1.250000e-02
-3.332161e-06,2.000000e-02
-3.324161e-06,-5.000000e-03
-3.316161e-06,1.250000e-03
-3.308161e-06,-2.250000e-02
-3.300161e-06,1.500000e-02
-3.292161e-06,-1.000000e-02
-3.284161e-06,6.250000e-03
-3.276161e-06,-1.625000e-02
-3.268161e-06,3.125000e-02
-3.260161e-06,-1.875000e-02
-3.252161e-06,1.875000e-02
-3.244161e-06,-1.000000e-02
-3.236161e-06,2.250000e-02
-3.228161e-06,-1.000000e-02
-3.220161e-06,1.250000e-02
-3.212161e-06,-1.250000e-03
-3.204161e-06,1.500000e-02
-3.196161e-06,1.375000e-02
-3.188161e-06,6.250000e-03
-3.180161e-06,-2.500000e-03
-3.172161e-06,0.000000e+00
-3.164161e-06,-1.625000e-02
-3.156161e-06,2.375000e-02
-3.148161e-06,-1.750000e-02
-3.140161e-06,-1.250000e-03
-3.132161e-06,-1.000000e-02
-3.124161e-06,8.750000e-03
-3.116161e-06,-2.125000e-02
-3.108161e-06,0.000000e+00
-3.100161e-06,-2.000000e-02
-3.092161e-06,-8.750000e-03
-3.084161e-06,0.000000e+00
-3.076161e-06,3.125000e-02
-3.068161e-06,2.500000e-03
-3.060161e-06,1.875000e-02
-3.052161e-06,-2.750000e-02
-3.044161e-06,2.125000e-02
-3.036161e-06,-5.000000e-03
-3.028161e-06,2.500000e-03
-3.020161e-06,-3.625000e-02
-3.012161e-06,8.750000e-03
-3.004161e-06,-2.750000e-02
-2.996161e-06,1.000000e-02
-2.988161e-06,8.750000e-03
-2.980161e-06,2.125000e-02
-2.972161e-06,-2.000000e-02
-2.964161e-06,-2.250000e-02
-2.956161e-06,-2.500000e-03
-2.948161e-06,1.250000e-03
-2.940161e-06,-2.000000e-02
-2.932161e-06,-5.000000e-03
-2.924161e-06,1.250000e-03
-2.916161e-06,1.750000e-02
-2.908161e-06,-7.500000e-03
-2.900161e-06,2.375000e-02
-2.892161e-06,-3.750000e-02
-2.884161e-06,2.500000e-02
-2.876161e-06,-1.125000e-02
-2.868161e-06,1.000000e-02
-2.860161e-06,-2.500000e-03
-2.852161e-06,-7.500000e-03
-2.844161e-06,-1.250000e-02
-2.836161e-06,1.250000e-03
-2.828161e-06,-6.250000e-03
-2.820161e-06,-3.750000e-03
-2.812161e-06,-1.125000e-02
-2.804161e-06,8.750000e-03
-2.796161e-06,-1.625000e-02
-2.788161e-06,1.250000e-02
-2.780161e-06,-5.000000e-03
-2.772161e-06,-7.500000e-03
-2.764161e-06,-2.125000e-02
-2.756161e-06,2.500000e-02
-2.748161e-06,6.250000e-03
-2.740161e-06,2.000000e-02
-2.732161e-06,-8.750000e-03
-2.724161e-06,2.750000e-02
-2.716161e-06,-2.375000e-02
-2.708161e-06,8.750000e-03
-2.700161e-06,-2.875000e-02
-2.692161e-06,2.250000e-02
-2.684161e-06,-1.750000e-02
-2.676161e-06,1.750000e-02
-2.668161e-06,3.750000e-03
-2.660161e-06,3.125000e-02
-2.652161e-06,-1.250000e-02
-2.644161e-06,-7.500000e-03
-2.636161e-06,-2.625000e-02
-2.628161e-06,2.000000e-02
-2.620161e-06,-1.250000e-02
-2.612161e-06,1.875000e-02
-2.604161e-06,3.750000e-03
-2.596161e-06,1.500000e-02
-2.588161e-06,-1.875000e-02
-2.580161e-06,6.250000e-03
-2.572161e-06,-7.500000e-03
-2.564161e-06,2.500000e-02
-2.556161e-06,-6.250000e-03
-2.548161e-06,1.625000e-02
-2.540161e-06,-1.250000e-02
-2.532161e-06,2.625000e-02
-2.524161e-06,-2.000000e-02
-2.516161e-06,-1.000000e-02
-2.508161e-06,6.250000e-03
-2.500161e-06,2.750000e-02
-2.492161e-06,3.750000e-03
-2.484161e-06,2.500000e-03
-2.476161e-06,-1.125000e-02
-2.468161e-06,2.000000e-02
-2.460161e-06,-1.500000e-02
-2.452161e-06,7.500000e-03
-2.444161e-06,-1.750000e-02
-2.436161e-06,5.000000e-03
-2.428161e-06,-1.250000e-03
-2.420161e-06,2.250000e-02
-2.412161e-06,1.375000e-02
-2.404161e-06,1.625000e-02
-2.396161e-06,-2.125000e-02
-2.388161e-06,-6.250000e-03
-2.380161e-06,-2.375000e-02
-2.372161e-06,-5.000000e-03
-2.364161e-06,-1.250000e-02
-2.356161e-06,1.875000e-02
-2.348161e-06,-2.875000e-02
-2.340161e-06,1.625000e-02
-2.332161e-06,-2.750000e-02
-2.324161e-06,1.875000e-02
-2.316161e-06,1.250000e-03
-2.308161e-06,8.750000e-03
-2.300161e-06,-1.875000e-02
-2.292161e-06,1.375000e-02
-2.284161e-06,-3.875000e-02
-2.276161e-06,7.500000e-03
-2.268161e-06,-1.000000e-02
-2.260161e-06,5.000000e-03
-2.252161e-06,-2.500000e-02
-2.244161e-06,2.875000e-02
-2.236161e-06,1.250000e-02
-2.228161e-06,1.375000e-02
-2.220161e-06,2.500000e-03
-2.212161e-06,2.125000e-02
-2.204161e-06,-1.375000e-02
-2.196161e-06,3.750000e-03
-2.188161e-06,2.000000e-02
-2.180161e-06,1.000000e-02
-2.172161e-06,-2.500000e-02
-2.164161e-06,2.125000e-02
-2.156161e-06,-2.500000e-03
-2.148161e-06,3.250000e-02
-2.140161e-06,-2.125000e-02
-2.132161e-06,-3.750000e-03
-2.124161e-06,-3.750000e-02
-2.116161e-06,-1.250000e-03
-2.108161e-06,-1.250000e-03
-2.100161e-06,1.250000e-02
-2.092161e-06,-2.375000e-02
-2.084161e-06,3.750000e-03
-2.076161e-06,-1.625000e-02
-2.068161e-06,6.250000e-03
-2.060161e-06,-5.000000e-03
-2.052161e-06,2.500000e-02
-2.044161e-06,-2.375000e-02
-2.036161e-06,2.625000e-02
-2.028161e-06,-1.250000e-02
-2.020161e-06,2.500000e-02
-2.012161e-06,-4.125000e-02
-2.004161e-06,1.500000e-02
-1.996161e-06,-3.000000e-02
-1.988161e-06,2.375000e-02
-1.980161e-06,-1.250000e-03
-1.972161e-06,-2.500000e-03
-1.964161e-06,-2.375000e-02
-1.956161e-06,1.750000e-02
-1.948161e-06,-2.875000e-02
-1.940161e-06,2.875000e-02
-1.932161e-06,-1.375000e-02
-1.924161e-06,2.500000e-02
-1.916161e-06,-3.750000e-03
-1.908161e-06,3.750000e-03
-1.900161e-06,-3.750000e-03
-1.892161e-06,5.000000e-03
-1.884161e-06,-8.750000e-03
-1.876161e-06,2.125000e-02
-1.868161e-06,-4.000000e-02
-1.860161e-06,7.500000e-03
-1.852161e-06,-1.875000e-02
-1.844161e-06,-1.125000e-02
-1.836161e-06,-2.375000e-02
-1.828161e-06,1.375000e-02
-1.820161e-06,-1.750000e-02
-1.812161e-06,2.250000e-02
-1.804161e-06,1.250000e-02
-1.796161e-06,8.750000e-03
-1.788161e-06,6.250000e-03
-1.780161e-06,1.500000e-02
-1.772161e-06,-5.000000e-03
-1.764161e-06,7.500000e-03
-1.756161e-06,-1.250000e-02
-1.748161e-06,2.625000e-02
-1.740161e-06,-2.125000e-02
-1.732161e-06,1.875000e-02
-1.724161e-06,-7.500000e-03
-1.716161e-06,1.000000e-02
-1.708161e-06,-2.000000e-02
-1.700161e-06,-3.750000e-03
-1.692161e-06,-2.875000e-02
-1.684161e-06,7.500000e-03
-1.676161e-06,3.750000e-03
-1.668161e-06,1.750000e-02
-1.660161e-06,-1.875000e-02
-1.652161e-06,6.250000e-03
-1.644161e-06,-3.125000e-02
-1.636161e-06,2.125000e-02
-1.628161e-06,-2.000000e-02
-1.620161e-06,1.750000e-02
-1.612161e-06,-3.375000e-02
-1.604161e-06,2.125000e-02
-1.596161e-06,-2.000000e-02
-1.588161e-06,2.250000e-02
-1.580161e-06,-2.125000e-02
-1.572161e-06,-1.000000e-02
-1.564161e-06,-8.750000e-03
-1.556161e-06,1.875000e-02
-1.548161e-06,-7.500000e-03
-1.540161e-06,1.125000e-02
-1.532161e-06,1.125000e-02
-1.524161e-06,3.000000e-02
-1.516161e-06,-2.125000e-02
-1.508161e-06,0.000000e+00
-1.500161e-06,-6.250000e-03
-1.492161e-06,2.000000e-02
-1.484161e-06,-2.500000e-03
-1.476161e-06,8.750000e-03
-1.468161e-06,2.500000e-03
-1.460161e-06,1.500000e-02
-1.452161e-06,-1.000000e-02
-1.444161e-06,3.125000e-02
-1.436161e-06,-2.750000e-02
-1.428161e-06,1.875000e-02
-1.420161e-06,-2.500000e-03
-1.412161e-06,7.500000e-03
-1.404161e-06,-6.250000e-03
-1.396161e-06,1.500000e-02
-1.388161e-06,-4.000000e-02
-1.380161e-06,3.750000e-03
-1.372161e-06,-2.375000e-02
-1.364161e-06,1.250000e-02
-1.356161e-06,-2.875000e-02
-1.348161e-06,1.500000e-02
-1.340161e-06,-1.500000e-02
-1.332161e-06,1.000000e-02
-1.324161e-06,-1.875000e-02
-1.316161e-06,-1.000000e-02
-1.308161e-06,3.750000e-03
-1.300161e-06,1.875000e-02
-1.292161e-06,-7.500000e-03
-1.284161e-06,2.500000e-02
-1.276161e-06,1.125000e-02
-1.268161e-06,5.000000e-03
-1.260161e-06,-3.625000e-02
-1.252161e-06,6.250000e-03
-1.244161e-06,-3.125000e-02
-1.236161e-06,1.250000e-02
-1.228161e-06,-1.500000e-02
-1.220161e-06,2.750000e-02
-1.212161e-06,-2.125000e-02
-1.204161e-06,-1.625000e-02
-1.196161e-06,-1.375000e-02
-1.188161e-06,3.750000e-03
-1.180161e-06,-8.750000e-03
-1.172161e-06,2.375000e-02
-1.164161e-06,-7.500000e-03
-1.156161e-06,8.750000e-03
-1.148161e-06,0.000000e+00
-1.140161e-06,0.000000e+00
-1.132161e-06,-2.250000e-02
-1.124161e-06,1.500000e-02
-1.116161e-06,-1.875000e-02
-1.108161e-06,1.375000e-02
-1.100161e-06,-3.375000e-02
-1.092161e-06,1.750000e-02
-1.084161e-06,-8.750000e-03
-1.076161e-06,1.250000e-02
-1.068161e-06,-1.750000e-02
-1.060161e-06,2.625000e-02
-1.052161e-06,-1.250000e-02
-1.044161e-06,1.250000e-03
-1.036161e-06,-8.750000e-03
-1.028161e-06,1.125000e-02
-1.020161e-06,-3.750000e-03
-1.012161e-06,4.125000e-02
-1.004161e-06,-1.250000e-02
-9.961613e-07,2.000000e-02
-9.881613e-07,-4.375000e-02
-9.801613e-07,2.250000e-02
-9.721613e-07,-3.750000e-03
-9.641613e-07,-1.250000e-03
-9.561613e-07,-1.125000e-02
-9.481613e-07,3.625000e-02
-9.401613e-07,-2.375000e-02
-9.321613e-07,5.000000e-03
-9.241613e-07,-1.250000e-03
-9.161613e-07,1.875000e-02
-9.081613e-07,-1.375000e-02
-9.001613e-07,2.125000e-02
-8.921613e-07,8.750000e-03
-8.841613e-07,1.000000e-02
-8.761613e-07,-2.250000e-02
-8.681613e-07,1.125000e-02
-8.601613e-07,-1.750000e-02
-8.521613e-07,7.500000e-03
-8.441613e-07,-1.125000e-02
-8.361613e-07,1.875000e-02
-8.281613e-07,0.000000e+00
-8.201613e-07,1.250000e-02
-8.121613e-07,1.000000e-02
-8.041613e-07,2.000000e-02
-7.961613e-07,-2.000000e-02
-7.881613e-07,2.375000e-02
-7.801613e-07,7.500000e-03
-7.721613e-07,5.000000e-03
-7.641613e-07,-1.500000e-02
-7.561613e-07,-1.125000e-02
-7.481613e-07,-1.500000e-02
-7.401613e-07,1.750000e-02
-7.321613e-07,-3.000000e-02
-7.241613e-07,1.375000e-02
-7.161613e-07,-2.125000e-02
-7.081613e-07,2.500000e-02
-7.001613e-07,5.000000e-03
-6.921613e-07,8.750000e-03
-6.841613e-07,-1.625000e-02
-6.761613e-07,2.750000e-02
-6.681613e-07,-2.125000e-02
-6.601613e-07,1.000000e-02
-6.521613e-07,1.750000e-02
-6.441613e-07,1.125000e-02
-6.361613e-07,-1.125000e-02
-6.281613e-07,2.125000e-02
-6.201613e-07,-1.500000e-02
-6.121613e-07,1.375000e-02
-6.041613e-07,-2.750000e-02
-5.961613e-07,1.250000e-02
-5.881613e-07,-2.125000e-02
-5.801613e-07,3.250000e-02
-5.721613e-07,-3.125000e-02
-5.641613e-07,1.625000e-02
-5.561613e-07,-2.875000e-02
-5.481613e-07,2.000000e-02
-5.401613e-07,-2.375000e-02
-5.321613e-07,1.125000e-02
-5.241613e-07,1.250000e-02
-5.161613e-07,2.000000e-02
-5.081613e-07,-7.500000e-03
-5.001613e-07,2.000000e-02
-4.921613e-07,-2.125000e-02
-4.841613e-07,-3.750000e-03
-4.761613e-07,-1.625000e-02
-4.681613e-07,2.125000e-02
-4.601613e-07,-3.000000e-02
-4.521613e-07,1.875000e-02
-4.441613e-07,-8.750000e-03
-4.361613e-07,1.125000e-02
-4.281613e-07,-2.000000e-02
-4.201613e-07,2.500000e-03
-4.121613e-07,-5.000000e-03
-4.041613e-07,1.500000e-02
-3.961613e-07,-1.250000e-03
-3.881613e-07,-6.250000e-03
-3.801613e-07,7.500000e-03
-3.721613e-07,1.875000e-02
-3.641613e-07,-2.500000e-02
-3.561613e-07,6.250000e-03
-3.481613e-07,-7.500000e-03
-3.401613e-07,-3.750000e-03
-3.321613e-07,-3.250000e-02
-3.241613e-07,2.375000e-02
-3.161613e-07,-2.750000e-02
-3.081613e-07,1.625000e-02
-3.001613e-07,-7.500000e-03
-2.921613e-07,2.000000e-02
-2.841613e-07,0.000000e+00
-2.761613e-07,-1.000000e-02
-2.681613e-07,-2.500000e-03
-2.601613e-07,1.750000e-02
-2.521613e-07,-1.500000e-02
-2.441613e-07,1.875000e-02
-2.361613e-07,-1.625000e-02
-2.281613e-07,1.500000e-02
-2.201613e-07,-3.750000e-02
-2.121613e-07,1.500000e-02
-2.041613e-07,0.000000e+00
-1.961613e-07,4.250000e-02
-1.881613e-07,-2.750000e-02
-1.801613e-07,2.375000e-02
-1.721613e-07,-2.875000e-02
-1.641613e-07,0.000000e+00
-1.561613e-07,-1.500000e-02
-1.481613e-07,3.750000e-03
-1.401613e-07,-8.750000e-03
-1.321613e-07,3.750000e-03
-1.241613e-07,-1.500000e-02
-1.161613e-07,-1.250000e-03
-1.081613e-07,-3.750000e-03
-1.001613e-07,6.250000e-03
-9.216125e-08,-2.250000e-02
-8.416125e-08,1.500000e-02
-7.616125e-08,-1.125000e-02
-6.816125e-08,2.625000e-02
-6.016125e-08,-3.750000e-03
-5.216125e-08,2.375000e-02
-4.416125e-08,-8.750000e-03
-3.616125e-08,2.125000e-02
-2.816125e-08,-1.000000e-02
-2.016125e-08,3.250000e-02
-1.216125e-08,-2.625000e-02
-4.161250e-09,1.750000e-02
3.838750e-09,-1.400000e+00
1.183875e-08,-1.390000e+00
1.983875e-08,-1.435000e+00
2.783875e-08,-1.308750e+00
3.583875e-08,-2.625000e-02
4.383875e-08,5.000000e-03
5.183875e-08,-1.625000e-02
5.983875e-08,4.000000e-02
6.783875e-08,-1.500000e-02
7.583875e-08,5.000000e-03
8.383875e-08,-1.375000e-02
9.183875e-08,3.750000e-02
9.983875e-08,-7.500000e-03
1.078387e-07,5.000000e-03
1.158387e-07,-1.125000e-02
1.238387e-07,1.500000e-02
1.318387e-07,-1.125000e-02
1.398387e-07,5.000000e-03
1.478387e-07,-1.625000e-02
1.558387e-07,3.750000e-03
1.638387e-07,-6.250000e-03
1.718387e-07,5.000000e-03
1.798387e-07,-2.250000e-02
1.878387e-07,2.000000e-02
1.958387e-07,-1.750000e-02
2.038387e-07,5.000000e-03
2.118387e-07,-2.000000e-02
2.198387e-07,8.750000e-03
2.278387e-07,-3.000000e-02
2.358387e-07,2.375000e-02
2.438387e-07,-1.750000e-02
2.518387e-07,1.250000e-03
2.598387e-07,0.000000e+00
2.678387e-07,3.750000e-03
2.758387e-07,-8.750000e-03
2.838387e-07,1.125000e-02
2.918387e-07,-2.125000e-02
2.998387e-07,5.000000e-03
3.078387e-07,-2.000000e-02
3.158387e-07,1.375000e-02
3.238387e-07,-2.750000e-02
3.318387e-07,1.625000e-02
3.398387e-07,-8.750000e-03
3.478387e-07,-3.750000e-03
3.558387e-07,-2.625000e-02
3.638387e-07,2.000000e-02
3.718387e-07,-6.250000e-03
3.798387e-07,1.625000e-02
3.878387e-07,-1.250000e-03
3.958387e-07,2.500000e-03
4.038387e-07,-8.750000e-03
4.118387e-07,2.875000e-02
4.198387e-07,-2.375000e-02
4.278387e-07,1.625000e-02
4.358387e-07,-2.125000e-02
4.438387e-07,2.250000e-02
4.518387e-07,-2.000000e-02
4.598387e-07,2.625000e-02
4.678387e-07,-1.000000e-02
4.758387e-07,-1.125000e-02
4.838387e-07,-2.625000e-02
4.918387e-07,2.625000e-02
4.998387e-07,-1.625000e-02
5.078387e-07,1.500000e-02
5.158387e-07,-6.250000e-03
5.238387e-07,-6.250000e-03
5.318387e-07,-2.000000e-02
5.398387e-07,1.500000e-02
5.478387e-07,-1.625000e-02
5.558387e-07,1.250000e-03
5.638387e-07,-3.000000e-02
5.718387e-07,2.750000e-02
5.798387e-07,-1.375000e-02
5.878387e-07,1.375000e-02
5.958387e-07,-6.250000e-03
6.038387e-07,2.625000e-02
6.118387e-07,-2.000000e-02
6.198387e-07,2.125000e-02
6.278387e-07,1.250000e-03
6.358387e-07,3.750000e-03
6.438387e-07,-5.000000e-03
6.518387e-07,1.125000e-02
6.598387e-07,-2.625000e-02
6.678387e-07,-2.500000e-03
6.758387e-07,-2.750000e-02
6.838387e-07,1.250000e-02
6.918387e-07,-4.250000e-02
6.998387e-07,1.250000e-02
7.078387e-07,-7.500000e-03
7.158387e-07,1.625000e-02
7.238387e-07,-5.000000e-03
7.318387e-07,1.875000e-02
7.398387e-07,-1.000000e-02
7.478387e-07,1.875000e-02
7.558387e-07,-1.750000e-02
7.638387e-07,5.000000e-03
7.718387e-07,-3.750000e-03
7.798387e-07,2.250000e-02
7.878387e-07,-1.500000e-02
7.958387e-07,1.125000e-02
