run1/run1_ch1_20210318180356268.csv

Model,MSO64
Waveform Type,ANALOG
Horizontal Units,s
Sample Interval,8.000000e-09
Record Length,1250
Zero Index,624.045156
Vertical Units,V

TIME,CH1
-4.992361e-06,2.000000e-02
-4.984361e-06,-2.125000e-02
-4.976361e-06,2.500000e-02
-4.968361e-06,-2.000000e-02
-4.960361e-06,6.250000e-03
-4.952361e-06,-1.500000e-02
-4.944361e-06,1.500000e-02
-4.936361e-06,-1.375000e-02
-4.928361e-06,3.625000e-02
-4.920361e-06,-1.250000e-03
-4.912361e-06,2.000000e-02
-4.904361e-06,6.250000e-03
-4.896361e-06,1.750000e-02
-4.888361e-06,-3.500000e-02
-4.880361e-06,2.375000e-02
-4.872361e-06,-2.125000e-02
-4.864361e-06,2.000000e-02
-4.856361e-06,-1.750000e-02
-4.848361e-06,1.250000e-03
-4.840361e-06,-2.375000e-02
-4.832361e-06,2.875000e-02
-4.824361e-06,-1.000000e-02
-4.816361e-06,1.000000e-02
-4.808361e-06,-6.250000e-03
-4.800361e-06,2.000000e-02
-4.792361e-06,0.000000e+00
-4.784361e-06,2.625000e-02
-4.776361e-06,-1.875000e-02
-4.768361e-06,2.000000e-02
-4.760361e-06,-1.500000e-02
-4.752361e-06,5.000000e-03
-4.744361e-06,-3.625000e-02
-4.736361e-06,4.250000e-02
-4.728361e-06,1.750000e-02
-4.720361e-06,1.625000e-02
-4.712361e-06,-1.625000e-02
-4.704361e-06,3.000000e-02
-4.696361e-06,-1.000000e-02
-4.688361e-06,2.125000e-02
-4.680361e-06,-1.125000e-02
-4.672361e-06,7.500000e-03
-4.664361e-06,2.500000e-03
-4.656361e-06,1.375000e-02
-4.648361e-06,-2.750000e-02
-4.640361e-06,2.625000e-02
-4.632361e-06,-1.250000e-02
-4.624361e-06,2.000000e-02
-4.616361e-06,-2.875000e-02
-4.608361e-06,2.125000e-02
-4.600361e-06,-1.625000e-02
-4.592361e-06,-2.500000e-03
-4.584361e-06,0.000000e+00
-4.576361e-06,2.125000e-02
-4.568361e-06,-2.250000e-02
-4.560361e-06,2.000000e-02
-4.552361e-06,-8.750000e-03
-4.544361e-06,1.625000e-02
-4.536361e-06,-1.000000e-02
-4.528361e-06,2.500000e-02
-4.520361e-06,-2.625000e-02
-4.512361e-06,-6.250000e-03
-4.504361e-06,-3.500000e-02
-4.496361e-06,1.750000e-02
-4.488361e-06,-2.250000e-02
-4.480361e-06,1.750000e-02
-4.472361e-06,-1.500000e-02
-4.464361e-06,1.875000e-02
-4.456361e-06,-6.250000e-03
-4.448361e-06,1.500000e-02
-4.440361e-06,-1.125000e-02
-4.432361e-06,1.250000e-02
-4.424361e-06,-1.125000e-02
-4.416361e-06,3.375000e-02
-4.408361e-06,-1.000000e-02
-4.400361e-06,0.000000e+00
-4.392361e-06,-1.125000e-02
-4.384361e-06,2.500000e-03
-4.376361e-06,-2.375000e-02
-4.368361e-06,1.375000e-02
-4.360361e-06,-2.250000e-02
-4.352361e-06,4.125000e-02
-4.344361e-06,1.750000e-02
-4.336361e-06,1.375000e-02
-4.328361e-06,-6.250000e-03
-4.320361e-06,3.625000e-02
-4.312361e-06,-2.250000e-02
-4.304361e-06,1.250000e-03
-4.296361e-06,-3.750000e-03
-4.288361e-06,2.750000e-02
-4.280361e-06,-3.750000e-03
-4.272361e-06,1.125000e-02
-4.264361e-06,-2.375000e-02
-4.256361e-06,1.250000e-03
-4.248361e-06,-1.500000e-02
-4.240361e-06,1.750000e-02
-4.232361e-06,-2.500000e-03
-4.224361e-06,3.875000e-02
-4.216361e-06,8.750000e-03
-4.208361e-06,-1.500000e-02
-4.200361e-06,-1.500000e-02
-4.192361e-06,-1.000000e-02
-4.184361e-06,-3.250000e-02
-4.176361e-06,1.125000e-02
-4.168361e-06,-3.750000e-03
-4.160361e-06,1.125000e-02
-4.152361e-06,-2.625000e-02
-4.144361e-06,1.625000e-02
-4.136361e-06,-2.375000e-02
-4.128361e-06,2.500000e-02
-4.120361e-06,-5.375000e-02
-4.112361e-06,3.125000e-02
-4.104361e-06,-2.750000e-02
-4.096361e-06,3.125000e-02
-4.088361e-06,-2.250000e-02
-4.080361e-06,0.000000e+00
-4.072361e-06,-2.750000e-02
-4.064361e-06,1.875000e-02
-4.056361e-06,-3.625000e-02
-4.048361e-06,4.500000e-02
-4.040361e-06,-2.500000e-03
-4.032361e-06,2.000000e-02
-4.024361e-06,1.250000e-02
-4.016361e-06,1.000000e-02
-4.008361e-06,-2.125000e-02
-4.000361e-06,2.375000e-02
-3.992361e-06,-1.250000e-02
-3.984361e-06,2.250000e-02
-3.976361e-06,-1.000000e-02
-3.968361e-06,2.000000e-02
-3.960361e-06,-1.125000e-02
-3.952361e-06,3.250000e-02
-3.944361e-06,-1.750000e-02
-3.936361e-06,4.125000e-02
-3.928361e-06,-2.875000e-02
-3.920361e-06,2.625000e-02
-3.912361e-06,-3.000000e-02
-3.904361e-06,1.625000e-02
-3.896361e-06,1.750000e-02
-3.888361e-06,2.125000e-02
-3.880361e-06,-5.000000e-03
-3.872361e-06,2.375000e-02
-3.864361e-06,-2.750000e-02
-3.856361e-06,1.375000e-02
-3.848361e-06,-3.750000e-03
-3.840361e-06,3.125000e-02
-3.832361e-06,-1.750000e-02
-3.824361e-06,3.625000e-02
-3.816361e-06,-1.125000e-02
-3.808361e-06,-3.750000e-03
-3.800361e-06,-1.750000e-02
-3.792361e-06,-5.000000e-03
-3.784361e-06,-7.500000e-03
-3.776361e-06,1.375000e-02
-3.768361e-06,-1.625000e-02
-3.760361e-06,1.250000e-03
-3.752361e-06,-2.125000e-02
-3.744361e-06,1.500000e-02
-3.736361e-06,-1.375000e-02
-3.728361e-06,2.875000e-02
-3.720361e-06,-1.125000e-02
-3.712361e-06,1.125000e-02
-3.704361e-06,-3.625000e-02
-3.696361e-06,3.750000e-03
-3.688361e-06,-5.000000e-03
-3.680361e-06,2.250000e-02
-3.672361e-06,-1.875000e-02
-3.664361e-06,2.500000e-02
-3.656361e-06,-1.375000e-02
-3.648361e-06,2.625000e-02
-3.640361e-06,-1.250000e-03
-3.632361e-06,1.625000e-02
-3.624361e-06,-3.750000e-03
-3.616361e-06,8.750000e-03
-3.608361e-06,-2.625000e-02
-3.600361e-06,1.500000e-02
-3.592361e-06,-8.750000e-03
-3.584361e-06,3.750000e-02
-3.576361e-06,-1.250000e-02
-3.568361e-06,1.375000e-02
-3.560361e-06,5.000000e-03
-3.552361e-06,-1.250000e-03
-3.544361e-06,-2.250000e-02
-3.536361e-06,-6.250000e-03
-3.528361e-06,1.125000e-02
-3.520361e-06,2.250000e-02
-3.512361e-06,-1.000000e-02
-3.504361e-06,3.250000e-02
-3.496361e-06,-2.375000e-02
-3.488361e-06,2.625000e-02
-3.480361e-06,-2.125000e-02
-3.472361e-06,2.500000e-02
-3.464361e-06,-1.375000e-02
-3.456361e-06,3.625000e-02
-3.448361e-06,-2.375000e-02
-3.440361e-06,1.000000e-02
-3.432361e-06,-8.750000e-03
-3.424361e-06,2.875000e-02
-3.416361e-06,-2.250000e-02
-3.408361e-06,1.250000e-03
-3.400361e-06,-2.000000e-02
-3.392361e-06,3.750000e-03
-3.384361e-06,-2.375000e-02
-3.376361e-06,1.500000e-02
-3.368361e-06,-2.250000e-02
-3.360361e-06,3.875000e-02
-3.352361e-06,-3.375000e-02
-3.344361e-06,2.125000e-02
-3.336361e-06,-2.250000e-02
-3.328361e-06,2.125000e-02
-3.320361e-06,-2.000000e-02
-3.312361e-06,2.500000e-03
-3.304361e-06,-3.750000e-03
-3.296361e-06,1.000000e-02
-3.288361e-06,-2.250000e-02
-3.280361e-06,2.500000e-03
-3.272361e-06,-1.250000e-03
-3.264361e-06,3.250000e-02
-3.256361e-06,-3.625000e-02
-3.248361e-06,2.250000e-02
-3.240361e-06,-3.000000e-02
-3.232361e-06,1.375000e-02
-3.224361e-06,-3.500000e-02
-3.216361e-06,3.250000e-02
-3.208361e-06,-2.375000e-02
-3.200361e-06,2.375000e-02
-3.192361e-06,-2.500000e-02
-3.184361e-06,1.000000e-02
-3.176361e-06,-1.250000e-02
-3.168361e-06,1.375000e-02
-3.160361e-06,-1.375000e-02
-3.152361e-06,1.375000e-02
-3.144361e-06,-2.000000e-02
-3.136361e-06,1.250000e-03
-3.128361e-06,-5.000000e-03
-3.120361e-06,6.250000e-03
-3.112361e-06,-2.500000e-03
-3.104361e-06,1.750000e-02
-3.096361e-06,-3.625000e-02
-3.088361e-06,1.125000e-02
-3.080361e-06,-6.250000e-03
-3.072361e-06,4.000000e-02
-3.064361e-06,-2.000000e-02
-3.056361e-06,3.375000e-02
-3.048361e-06,-1.125000e-02
-3.040361e-06,2.500000e-02
-3.032361e-06,-3.250000e-02
-3.024361e-06,1.625000e-02
-3.016361e-06,-1.375000e-02
-3.008361e-06,1.875000e-02
-3.000361e-06,-1.875000e-02
-2.992361e-06,4.250000e-02
-2.984361e-06,-2.875000e-02
-2.976361e-06,1.375000e-02
-2.968361e-06,-1.375000e-02
-2.960361e-06,6.250000e-03
-2.952361e-06,-1.250000e-03
-2.944361e-06,2.875000e-02
-2.936361e-06,7.500000e-03
-2.928361e-06,8.750000e-03
-2.920361e-06,-1.875000e-02
-2.912361e-06,2.250000e-02
-2.904361e-06,-3.875000e-02
-2.896361e-06,-5.000000e-03
-2.888361e-06,6.250000e-03
-2.880361e-06,4.625000e-02
-2.872361e-06,-1.250000e-02
-2.864361e-06,-5.000000e-03
-2.856361e-06,-1.000000e-02
-2.848361e-06,1.750000e-02
-2.840361e-06,-1.750000e-02
-2.832361e-06,2.375000e-02
-2.824361e-06,-2.750000e-02
-2.816361e-06,3.375000e-02
-2.808361e-06,-5.000000e-03
-2.800361e-06,-1.000000e-02
-2.792361e-06,-1.875000e-02
-2.784361e-06,3.500000e-02
-2.776361e-06,-4.000000e-02
-2.768361e-06,-1.625000e-02
-2.760361e-06,6.250000e-03
-2.752361e-06,2.500000e-02
-2.744361e-06,-1.250000e-03
-2.736361e-06,2.125000e-02
-2.728361e-06,-2.000000e-02
-2.720361e-06,8.750000e-03
-2.712361e-06,-3.000000e-02
-2.704361e-06,3.750000e-03
-2.696361e-06,-2.625000e-02
-2.688361e-06,1.625000e-02
-2.680361e-06,-1.500000e-02
-2.672361e-06,2.875000e-02
-2.664361e-06,-2.500000e-02
-2.656361e-06,3.750000e-03
-2.648361e-06,-1.750000e-02
-2.640361e-06,-7.500000e-03
-2.632361e-06,-1.000000e-02
-2.624361e-06,1.250000e-02
-2.616361e-06,1.625000e-02
-2.608361e-06,3.750000e-02
-2.600361e-06,-5.000000e-03
-2.592361e-06,2.000000e-02
-2.584361e-06,-1.125000e-02
-2.576361e-06,2.625000e-02
-2.568361e-06,-3.250000e-02
-2.560361e-06,3.500000e-02
-2.552361e-06,-3.000000e-02
-2.544361e-06,2.125000e-02
-2.536361e-06,-1.000000e-02
-2.528361e-06,5.000000e-03
-2.520361e-06,6.250000e-03
-2.512361e-06,1.125000e-02
-2.504361e-06,5.000000e-03
-2.496361e-06,3.250000e-02
-2.488361e-06,1.250000e-03
-2.480361e-06,6.250000e-03
-2.472361e-06,-2.875000e-02
-2.464361e-06,2.375000e-02
-2.456361e-06,-2.875000e-02
-2.448361e-06,2.000000e-02
-2.440361e-06,-2.875000e-02
-2.432361e-06,4.000000e-02
-2.424361e-06,6.250000e-03
-2.416361e-06,1.375000e-02
-2.408361e-06,-2.000000e-02
-2.400361e-06,2.125000e-02
-2.392361e-06,-4.500000e-02
-2.384361e-06,2.125000e-02
-2.376361e-06,-1.250000e-02
-2.368361e-06,3.625000e-02
-2.360361e-06,-1.125000e-02
-2.352361e-06,6.250000e-03
-2.344361e-06,-1.375000e-02
-2.336361e-06,1.875000e-02
-2.328361e-06,-4.750000e-02
-2.320361e-06,1.500000e-02
-2.312361e-06,-2.750000e-02
-2.304361e-06,6.250000e-03
-2.296361e-06,-3.750000e-02
-2.288361e-06,8.750000e-03
-2.280361e-06,-2.000000e-02
-2.272361e-06,1.125000e-02
-2.264361e-06,-1.375000e-02
-2.256361e-06,-2.500000e-03
-2.248361e-06,-1.250000e-03
-2.240361e-06,1.625000e-02
-2.232361e-06,-1.250000e-03
-2.224361e-06,2.500000e-02
-2.216361e-06,5.000000e-03
-2.208361e-06,-2.375000e-02
-2.200361e-06,-1.500000e-02
-2.192361e-06,1.500000e-02
-2.184361e-06,-2.500000e-03
-2.176361e-06,4.750000e-02
-2.168361e-06,-1.250000e-02
-2.160361e-06,1.625000e-02
-2.152361e-06,-1.875000e-02
-2.144361e-06,-6.250000e-03
-2.136361e-06,-1.375000e-02
-2.128361e-06,1.000000e-02
-2.120361e-06,7.500000e-03
-2.112361e-06,3.750000e-02
-2.104361e-06,-1.250000e-03
-2.096361e-06,2.875000e-02
-2.088361e-06,-8.750000e-03
-2.080361e-06,1.500000e-02
-2.072361e-06,-3.750000e-02
-2.064361e-06,7.500000e-03
-2.056361e-06,-3.000000e-02
-2.048361e-06,4.625000e-02
-2.040361e-06,-1.750000e-02
-2.032361e-06,2.750000e-02
-2.024361e-06,-3.750000e-03
-2.016361e-06,3.500000e-02
-2.008361e-06,-4.125000e-02
-2.000361e-06,1.625000e-02
-1.992361e-06,-2.375000e-02
-1.984361e-06,2.250000e-02
-1.976361e-06,-2.500000e-03
-1.968361e-06,2.000000e-02
-1.960361e-06,-3.875000e-02
-1.952361e-06,1.875000e-02
-1.944361e-06,-2.500000e-02
-1.936361e-06,2.500000e-03
-1.928361e-06,-5.125000e-02
-1.920361e-06,2.625000e-02
-1.912361e-06,-3.125000e-02
-1.904361e-06,1.875000e-02
-1.896361e-06,-1.500000e-02
-1.888361e-06,1.000000e-02
-1.880361e-06,0.000000e+00
-1.872361e-06,3.375000e-02
-1.864361e-06,3.750000e-03
-1.856361e-06,2.375000e-02
-1.848361e-06,0.000000e+00
-1.840361e-06,1.500000e-02
-1.832361e-06,-1.000000e-02
-1.824361e-06,0.000000e+00
-1.816361e-06,-1.375000e-02
-1.808361e-06,-6.250000e-03
-1.800361e-06,-2.625000e-02
-1.792361e-06,2.250000e-02
-1.784361e-06,-1.750000e-02
-1.776361e-06,1.625000e-02
-1.768361e-06,-2.625000e-02
-1.760361e-06,-2.500000e-03
-1.752361e-06,-3.500000e-02
-1.744361e-06,3.125000e-02
-1.736361e-06,-1.250000e-02
-1.728361e-06,2.125000e-02
-1.720361e-06,-2.125000e-02
-1.712361e-06,-2.500000e-03
-1.704361e-06,-3.375000e-02
-1.696361e-06,1.625000e-02
-1.688361e-06,-2.750000e-02
-1.680361e-06,2.500000e-02
-1.672361e-06,-2.750000e-02
-1.664361e-06,2.625000e-02
-1.656361e-06,-6.250000e-03
-1.648361e-06,2.125000e-02
-1.640361e-06,-2.000000e-02
-1.632361e-06,1.000000e-02
-1.624361e-06,-2.375000e-02
-1.616361e-06,2.250000e-02
-1.608361e-06,5.000000e-03
-1.600361e-06,1.250000e-02
-1.592361e-06,-1.750000e-02
-1.584361e-06,1.875000e-02
-1.576361e-06,-1.000000e-02
-1.568361e-06,1.000000e-02
-1.560361e-06,-1.375000e-02
-1.552361e-06,-1.000000e-02
-1.544361e-06,-2.875000e-02
-1.536361e-06,3.250000e-02
-1.528361e-06,-1.125000e-02
-1.520361e-06,4.125000e-02
-1.512361e-06,-5.000000e-03
-1.504361e-06,6.250000e-03
-1.496361e-06,-2.750000e-02
-1.488361e-06,-1.375000e-02
-1.480361e-06,1.625000e-02
-1.472361e-06,3.750000e-03
-1.464361e-06,-1.125000e-02
-1.456361e-06,1.000000e-02
-1.448361e-06,1.250000e-03
-1.440361e-06,2.125000e-02
-1.432361e-06,-7.500000e-03
-1.424361e-06,1.250000e-02
-1.416361e-06,-3.500000e-02
-1.408361e-06,3.000000e-02
-1.400361e-06,-1.125000e-02
-1.392361e-06,2.500000e-03
-1.384361e-06,-2.250000e-02
-1.376361e-06,1.500000e-02
-1.368361e-06,-1.875000e-02
-1.360361e-06,2.500000e-03
-1.352361e-06,-6.250000e-03
-1.344361e-06,7.500000e-03
-1.336361e-06,-2.500000e-03
-1.328361e-06,1.875000e-02
-1.320361e-06,-2.500000e-02
-1.312361e-06,3.750000e-03
-1.304361e-06,-2.125000e-02
-1.296361e-06,2.250000e-02
-1.288361e-06,-4.375000e-02
-1.280361e-06,2.375000e-02
-1.272361e-06,-2.625000e-02
-1.264361e-06,-1.125000e-02
-1.256361e-06,-2.125000e-02
-1.248361e-06,6.250000e-03
-1.240361e-06,-2.250000e-02
-1.232361e-06,1.000000e-02
-1.224361e-06,-3.750000e-03
-1.216361e-06,4.500000e-02
-1.208361e-06,-1.000000e-02
-1.200361e-06,1.125000e-02
-1.192361e-06,-1.125000e-02
-1.184361e-06,1.125000e-02
-1.176361e-06,-1.000000e-02
-1.168361e-06,1.500000e-02
-1.160361e-06,-3.250000e-02
-1.152361e-06,2.500000e-02
-1.144361e-06,-1.625000e-02
-1.136361e-06,1.875000e-02
-1.128361e-06,2.500000e-03
-1.120361e-06,2.000000e-02
-1.112361e-06,-8.750000e-03
-1.104361e-06,2.250000e-02
-1.096361e-06,1.625000e-02
-1.088361e-06,3.625000e-02
-1.080361e-06,-3.125000e-02
-1.072361e-06,8.750000e-03
-1.064361e-06,-1.375000e-02
-1.056361e-06,2.500000e-03
-1.048361e-06,-2.500000e-02
-1.040361e-06,2.500000e-02
-1.032361e-06,-2.500000e-03
-1.024361e-06,1.875000e-02
-1.016361e-06,-1.375000e-02
-1.008361e-06,2.250000e-02
-1.000361e-06,-1.625000e-02
-9.923613e-07,1.375000e-02
-9.843612e-07,-2.000000e-02
-9.763612e-07,1.000000e-02
-9.683612e-07,-2.500000e-03
-9.603612e-07,3.000000e-02
-9.523613e-07,7.500000e-03
-9.443612e-07,2.125000e-02
-9.363612e-07,-8.750000e-03
-9.283613e-07,1.625000e-02
-9.203612e-07,-3.750000e-02
-9.123612e-07,2.000000e-02
-9.043613e-07,-1.500000e-02
-8.963612e-07,3.000000e-02
-8.883612e-07,-2.125000e-02
-8.803613e-07,2.125000e-02
-8.723612e-07,-2.500000e-03
-8.643612e-07,2.375000e-02
-8.563613e-07,-4.500000e-02
-8.483612e-07,1.250000e-02
-8.403612e-07,-1.500000e-02
-8.323613e-07,1.500000e-02
-8.243612e-07,-1.500000e-02
-8.163612e-07,2.125000e-02
-8.083613e-07,-3.000000e-02
-8.003612e-07,1.125000e-02
-7.923612e-07,-3.375000e-02
-7.843612e-07,2.000000e-02
-7.763612e-07,-1.000000e-02
-7.683612e-07,1.875000e-02
-7.603612e-07,-6.250000e-03
-7.523612e-07,6.250000e-03
-7.443612e-07,-2.500000e-02
-7.363612e-07,2.125000e-02
-7.283612e-07,-1.875000e-02
-7.203612e-07,2.000000e-02
-7.123612e-07,-1.000000e-02
-7.043613e-07,1.625000e-02
-6.963612e-07,-2.250000e-02
-6.883612e-07,2.250000e-02
-6.803613e-07,-1.250000e-03
-6.723612e-07,1.250000e-02
-6.643612e-07,-3.125000e-02
-6.563613e-07,1.500000e-02
-6.483612e-07,-2.875000e-02
-6.403612e-07,5.000000e-03
-6.323613e-07,0.000000e+00
-6.243612e-07,1.875000e-02
-6.163612e-07,-3.000000e-02
-6.083613e-07,8.750000e-03
-6.003612e-07,-3.250000e-02
-5.923612e-07,2.875000e-02
-5.843613e-07,-1.000000e-02
-5.763612e-07,2.500000e-03
-5.683612e-07,-1.500000e-02
-5.603613e-07,2.375000e-02
-5.523612e-07,-3.375000e-02
-5.443612e-07,2.750000e-02
-5.363613e-07,-3.250000e-02
-5.283612e-07,2.500000e-02
-5.203612e-07,-8.750000e-03
-5.123612e-07,7.500000e-03
-5.043612e-07,-2.000000e-02
-4.963612e-07,-3.750000e-03
-4.883612e-07,6.250000e-03
-4.803612e-07,2.125000e-02
-4.723612e-07,-1.375000e-02
-4.643612e-07,1.750000e-02
-4.563612e-07,-2.500000e-03
-4.483612e-07,1.875000e-02
-4.403612e-07,1.250000e-03
-4.323612e-07,1.250000e-02
-4.243612e-07,2.500000e-03
-4.163612e-07,3.750000e-03
-4.083612e-07,-4.875000e-02
-4.003612e-07,1.000000e-02
-3.923612e-07,-1.375000e-02
-3.843612e-07,3.250000e-02
-3.763612e-07,-1.500000e-02
-3.683612e-07,3.250000e-02
-3.603612e-07,1.250000e-03
-3.523612e-07,8.750000e-03
-3.443612e-07,-2.500000e-03
-3.363612e-07,1.625000e-02
-3.283612e-07,-2.125000e-02
-3.203612e-07,1.875000e-02
-3.123612e-07,-1.125000e-02
-3.043612e-07,1.250000e-02
-2.963612e-07,3.750000e-03
-2.883612e-07,1.875000e-02
-2.803612e-07,-2.000000e-02
-2.723612e-07,2.000000e-02
-2.643612e-07,1.250000e-03
-2.563612e-07,1.750000e-02
-2.483612e-07,-1.625000e-02
-2.403612e-07,1.125000e-02
-2.323612e-07,-3.375000e-02
-2.243612e-07,1.875000e-02
-2.163612e-07,-2.500000e-02
-2.083612e-07,2.375000e-02
-2.003612e-07,0.000000e+00
-1.923612e-07,2.750000e-02
-1.843612e-07,-1.125000e-02
-1.763612e-07,1.250000e-02
-1.683612e-07,-3.750000e-02
-1.603612e-07,6.250000e-03
-1.523612e-07,-1.500000e-02
-1.443612e-07,2.875000e-02
-1.363612e-07,-2.125000e-02
-1.283612e-07,1.750000e-02
-1.203612e-07,-1.875000e-02
-1.123612e-07,2.500000e-02
-1.043612e-07,1.375000e-02
-9.636125e-08,-8.750000e-03
-8.836125e-08,-4.875000e-02
-8.036125e-08,1.375000e-02
-7.236125e-08,-7.500000e-03
-6.436125e-08,2.125000e-02
-5.636125e-08,-6.250000e-03
-4.836125e-08,3.375000e-02
-4.036125e-08,-2.875000e-02
-3.236125e-08,3.000000e-02
-2.436125e-08,-1.750000e-02
-1.636125e-08,2.250000e-02
-8.361250e-09,-2.500000e-02
-3.612500e-10,-3.500000e-02
7.638750e-09,-1.423750e+00
1.563875e-08,-1.387500e+00
2.363875e-08,-1.415000e+00
3.163875e-08,-1.025000e-01
3.963875e-08,-2.000000e-02
4.763875e-08,4.000000e-02
5.563875e-08,-1.250000e-02
6.363875e-08,2.875000e-02
7.163875e-08,8.750000e-03
7.963875e-08,1.750000e-02
8.763875e-08,-2.000000e-02
9.563875e-08,1.250000e-02
1.036388e-07,-1.625000e-02
1.116388e-07,2.625000e-02
1.196388e-07,-2.250000e-02
1.276388e-07,1.125000e-02
1.356388e-07,-1.625000e-02
1.436388e-07,2.000000e-02
1.516388e-07,1.250000e-03
1.596388e-07,8.750000e-03
1.676388e-07,-7.500000e-03
1.756388e-07,2.750000e-02
1.836388e-07,-3.250000e-02
1.916388e-07,1.500000e-02
1.996388e-07,-3.750000e-03
2.076388e-07,1.375000e-02
2.156388e-07,-1.250000e-03
2.236388e-07,8.750000e-03
2.316388e-07,-6.125000e-02
2.396388e-07,-2.500000e-03
2.476388e-07,-2.250000e-02
2.556388e-07,4.750000e-02
2.636388e-07,-7.500000e-03
2.716388e-07,-1.250000e-03
2.796388e-07,-2.375000e-02
2.876388e-07,1.875000e-02
2.956388e-07,-3.625000e-02
3.036388e-07,1.250000e-02
3.116388e-07,-6.250000e-03
3.196388e-07,7.500000e-03
3.276388e-07,-1.750000e-02
3.356388e-07,-2.500000e-03
3.436388e-07,-6.250000e-03
3.516388e-07,1.375000e-02
3.596388e-07,-1.750000e-02
3.676388e-07,2.375000e-02
3.756388e-07,-4.250000e-02
3.836388e-07,7.500000e-03
3.916388e-07,5.000000e-03
3.996388e-07,1.125000e-02
4.076388e-07,-7.500000e-03
4.156388e-07,2.625000e-02
4.236388e-07,-2.250000e-02
4.316388e-07,2.375000e-02
4.396388e-07,-5.000000e-03
4.476388e-07,2.500000e-02
4.556388e-07,-1.250000e-02
4.636388e-07,1.625000e-02
4.716388e-07,-1.250000e-03
4.796388e-07,1.500000e-02
4.876388e-07,-1.500000e-02
4.956388e-07,2.500000e-02
5.036388e-07,-3.500000e-02
5.116388e-07,1.375000e-02
5.196388e-07,-3.625000e-02
5.276388e-07,1.750000e-02
5.356388e-07,-2.500000e-02
5.436388e-07,2.375000e-02
5.516388e-07,-1.875000e-02
5.596388e-07,1.375000e-02
5.676388e-07,-1.625000e-02
5.756388e-07,3.250000e-02
5.836388e-07,-1.875000e-02
5.916388e-07,-8.750000e-03
5.996388e-07,-2.625000e-02
6.076388e-07,5.000000e-03
6.156388e-07,-1.875000e-02
6.236388e-07,3.125000e-02
6.316388e-07,-1.125000e-02
6.396388e-07,3.500000e-02
6.476388e-07,-1.875000e-02
6.556388e-07,2.500000e-02
6.636388e-07,-2.000000e-02
6.716388e-07,-1.500000e-02
6.796388e-07,-2.125000e-02
6.876388e-07,1.500000e-02
6.956388e-07,1.250000e-03
7.036388e-07,2.500000e-02
7.116388e-07,-1.375000e-02
7.196388e-07,2.000000e-02
7.276388e-07,-8.750000e-03
7.356388e-07,1.375000e-02
7.436388e-07,-1.750000e-02
7.516388e-07,1.625000e-02
7.596388e-07,-3.125000e-02
7.676388e-07,2.000000e-02
7.756388e-07,-1.250000e-02
7.836388e-07,3.750000e-03
7.916388e-07,-3.625000e-02
7.996388e-07,1.000000e-02
