run1/run1_ch3_20210318180313455.csv

Model,MSO64
Waveform Type,ANALOG
Horizontal Units,s
Sample Interval,8.000000e-09
Record Length,1250
Zero Index,624.015156
Vertical Units,V

TIME,CH3
-4.992121e-06,-7.550000e-01
-4.984121e-06,-7.190625e-01
-4.976121e-06,-7.440625e-01
-4.968121e-06,-7.450000e-01
-4.960121e-06,-7.540625e-01
-4.952121e-06,-7.375000e-01
-4.944121e-06,-7.581250e-01
-4.936121e-06,-7.262500e-01
-4.928121e-06,-7.453125e-01
-4.920121e-06,-7.340625e-01
-4.912121e-06,-7.437500e-01
-4.904121e-06,-7.437500e-01
-4.896121e-06,-7.559375e-01
-4.888121e-06,-7.390625e-01
-4.880121e-06,-7.590625e-01
-4.872121e-06,-7.340625e-01
-4.864121e-06,-7.387500e-01
-4.856121e-06,-7.203125e-01
-4.848121e-06,-7.453125e-01
-4.840121e-06,-7.356250e-01
-4.832121e-06,-7.381250e-01
-4.824121e-06,-7.509375e-01
-4.816121e-06,-7.503125e-01
-4.808121e-06,-7.278125e-01
-4.800121e-06,-7.437500e-01
-4.792121e-06,-7.371875e-01
-4.784121e-06,-7.509375e-01
-4.776121e-06,-7.290625e-01
-4.768121e-06,-7.556250e-01
-4.760121e-06,-7.306250e-01
-4.752121e-06,-7.478125e-01
-4.744121e-06,-7.234375e-01
-4.736121e-06,-7.515625e-01
-4.728121e-06,-7.156250e-01
-4.720121e-06,-7.450000e-01
-4.712121e-06,-7.453125e-01
-4.704121e-06,-7.528125e-01
-4.696121e-06,-7.471875e-01
-4.688121e-06,-7.553125e-01
-4.680121e-06,-7.434375e-01
-4.672121e-06,-7.518750e-01
-4.664121e-06,-7.215625e-01
-4.656121e-06,-7.456250e-01
-4.648121e-06,-7.387500e-01
-4.640121e-06,-7.612500e-01
-4.632121e-06,-7.268750e-01
-4.624121e-06,-7.518750e-01
-4.616121e-06,-7.293750e-01
-4.608121e-06,-7.518750e-01
-4.600121e-06,-7.209375e-01
-4.592121e-06,-7.506250e-01
-4.584121e-06,-7.443750e-01
-4.576121e-06,-7.509375e-01
-4.568121e-06,-7.368750e-01
-4.560121e-06,-7.509375e-01
-4.552121e-06,-7.296875e-01
-4.544121e-06,-7.500000e-01
-4.536121e-06,-7.262500e-01
-4.528121e-06,-7.415625e-01
-4.520121e-06,-7.293750e-01
-4.512121e-06,-7.515625e-01
-4.504121e-06,-7.415625e-01
-4.496121e-06,-7.690625e-01
-4.488121e-06,-7.362500e-01
-4.480121e-06,-7.478125e-01
-4.472121e-06,-7.256250e-01
-4.464121e-06,-7.506250e-01
-4.456121e-06,-7.390625e-01
-4.448121e-06,-7.459375e-01
-4.440121e-06,-7.312500e-01
-4.432121e-06,-7.450000e-01
-4.424121e-06,-7.315625e-01
-4.416121e-06,-7.518750e-01
-4.408121e-06,-7.334375e-01
-4.400121e-06,-7.331250e-01
-4.392121e-06,-7.293750e-01
-4.384121e-06,-7.581250e-01
-4.376121e-06,-7.287500e-01
-4.368121e-06,-7.559375e-01
-4.360121e-06,-7.328125e-01
-4.352121e-06,-7.512500e-01
-4.344121e-06,-7.181250e-01
-4.336121e-06,-7.543750e-01
-4.328121e-06,-7.384375e-01
-4.320121e-06,-7.481250e-01
-4.312121e-06,-7.443750e-01
-4.304121e-06,-7.528125e-01
-4.296121e-06,-7.278125e-01
-4.288121e-06,-7.356250e-01
-4.280121e-06,-7.393750e-01
-4.272121e-06,-7.487500e-01
-4.264121e-06,-7.228125e-01
-4.256121e-06,-7.615625e-01
-4.248121e-06,-7.303125e-01
-4.240121e-06,-7.562500e-01
-4.232121e-06,-7.240625e-01
-4.224121e-06,-7.515625e-01
-4.216121e-06,-7.268750e-01
-4.208121e-06,-7.512500e-01
-4.200121e-06,-7.381250e-01
-4.192121e-06,-7.350000e-01
-4.184121e-06,-7.250000e-01
-4.176121e-06,-7.534375e-01
-4.168121e-06,-7.278125e-01
-4.160121e-06,-7.503125e-01
-4.152121e-06,-7.331250e-01
-4.144121e-06,-7.325000e-01
-4.136121e-06,-7.209375e-01
-4.128121e-06,-7.490625e-01
-4.120121e-06,-7.325000e-01
-4.112121e-06,-7.515625e-01
-4.104121e-06,-7.250000e-01
-4.096121e-06,-7.475000e-01
-4.088121e-06,-7.221875e-01
-4.080121e-06,-7.518750e-01
-4.072121e-06,-7.343750e-01
-4.064121e-06,-7.500000e-01
-4.056121e-06,-7.359375e-01
-4.048121e-06,-7.562500e-01
-4.040121e-06,-7.253125e-01
-4.032121e-06,-7.381250e-01
-4.024121e-06,-7.275000e-01
-4.016121e-06,-7.421875e-01
-4.008121e-06,-7.431250e-01
-4.000121e-06,-7.600000e-01
-3.992121e-06,-7.331250e-01
-3.984121e-06,-7.553125e-01
-3.976121e-06,-7.353125e-01
-3.968121e-06,-7.550000e-01
-3.960121e-06,-7.240625e-01
-3.952121e-06,-7.531250e-01
-3.944121e-06,-7.478125e-01
-3.936121e-06,-7.493750e-01
-3.928121e-06,-7.331250e-01
-3.920121e-06,-7.653125e-01
-3.912121e-06,-7.259375e-01
-3.904121e-06,-7.550000e-01
-3.896121e-06,-7.265625e-01
-3.888121e-06,-7.384375e-01
-3.880121e-06,-7.306250e-01
-3.872121e-06,-7.478125e-01
-3.864121e-06,-7.312500e-01
-3.856121e-06,-7.625000e-01
-3.848121e-06,-7.284375e-01
-3.840121e-06,-7.540625e-01
-3.832121e-06,-7.212500e-01
-3.824121e-06,-7.518750e-01
-3.816121e-06,-7.278125e-01
-3.808121e-06,-7.484375e-01
-3.800121e-06,-7.381250e-01
-3.792121e-06,-7.496875e-01
-3.784121e-06,-7.303125e-01
-3.776121e-06,-7.484375e-01
-3.768121e-06,-7.312500e-01
-3.760121e-06,-7.459375e-01
-3.752121e-06,-7.312500e-01
-3.744121e-06,-7.525000e-01
-3.736121e-06,-7.287500e-01
-3.728121e-06,-7.506250e-01
-3.720121e-06,-7.259375e-01
-3.712121e-06,-7.396875e-01
-3.704121e-06,-7.287500e-01
-3.696121e-06,-7.487500e-01
-3.688121e-06,-7.462500e-01
-3.680121e-06,-7.512500e-01
-3.672121e-06,-7.306250e-01
-3.664121e-06,-7.478125e-01
-3.656121e-06,-7.446875e-01
-3.648121e-06,-7.468750e-01
-3.640121e-06,-7.365625e-01
-3.632121e-06,-7.300000e-01
-3.624121e-06,-7.362500e-01
-3.616121e-06,-7.465625e-01
-3.608121e-06,-7.478125e-01
-3.600121e-06,-7.518750e-01
-3.592121e-06,-7.290625e-01
-3.584121e-06,-7.475000e-01
-3.576121e-06,-7.318750e-01
-3.568121e-06,-7.362500e-01
-3.560121e-06,-7.478125e-01
-3.552121e-06,-7.496875e-01
-3.544121e-06,-7.378125e-01
-3.536121e-06,-7.546875e-01
-3.528121e-06,-7.271875e-01
-3.520121e-06,-7.475000e-01
-3.512121e-06,-7.231250e-01
-3.504121e-06,-7.384375e-01
-3.496121e-06,-7.415625e-01
-3.488121e-06,-7.475000e-01
-3.480121e-06,-7.368750e-01
-3.472121e-06,-7.600000e-01
-3.464121e-06,-7.303125e-01
-3.456121e-06,-7.525000e-01
-3.448121e-06,-7.231250e-01
-3.440121e-06,-7.531250e-01
-3.432121e-06,-7.365625e-01
-3.424121e-06,-7.471875e-01
-3.416121e-06,-7.534375e-01
-3.408121e-06,-7.731250e-01
-3.400121e-06,-7.209375e-01
-3.392121e-06,-7.500000e-01
-3.384121e-06,-7.315625e-01
-3.376121e-06,-7.475000e-01
-3.368121e-06,-7.384375e-01
-3.360121e-06,-7.515625e-01
-3.352121e-06,-7.306250e-01
-3.344121e-06,-7.575000e-01
-3.336121e-06,-7.146875e-01
-3.328121e-06,-7.462500e-01
-3.320121e-06,-7.228125e-01
-3.312121e-06,-7.462500e-01
-3.304121e-06,-7.356250e-01
-3.296121e-06,-7.462500e-01
-3.288121e-06,-7.378125e-01
-3.280121e-06,-7.525000e-01
-3.272121e-06,-7.275000e-01
-3.264121e-06,-7.437500e-01
-3.256121e-06,-7.281250e-01
-3.248121e-06,-7.409375e-01
-3.240121e-06,-7.275000e-01
-3.232121e-06,-7.631250e-01
-3.224121e-06,-7.321875e-01
-3.216121e-06,-7.487500e-01
-3.208121e-06,-7.331250e-01
-3.200121e-06,-7.493750e-01
-3.192121e-06,-7.190625e-01
-3.184121e-06,-7.468750e-01
-3.176121e-06,-7.353125e-01
-3.168121e-06,-7.368750e-01
-3.160121e-06,-7.306250e-01
-3.152121e-06,-7.525000e-01
-3.144121e-06,-7.281250e-01
-3.136121e-06,-7.578125e-01
-3.128121e-06,-7.315625e-01
-3.120121e-06,-7.343750e-01
-3.112121e-06,-7.215625e-01
-3.104121e-06,-7.428125e-01
-3.096121e-06,-7.362500e-01
-3.088121e-06,-7.631250e-01
-3.080121e-06,-7.350000e-01
-3.072121e-06,-7.325000e-01
-3.064121e-06,-7.175000e-01
-3.056121e-06,-7.462500e-01
-3.048121e-06,-7.450000e-01
-3.040121e-06,-7.637500e-01
-3.032121e-06,-7.356250e-01
-3.024121e-06,-7.550000e-01
-3.016121e-06,-7.350000e-01
-3.008121e-06,-7.531250e-01
-3.000121e-06,-7.340625e-01
-2.992121e-06,-7.390625e-01
-2.984121e-06,-7.287500e-01
-2.976121e-06,-7.484375e-01
-2.968121e-06,-7.309375e-01
-2.960121e-06,-7.531250e-01
-2.952121e-06,-7.428125e-01
-2.944121e-06,-7.518750e-01
-2.936121e-06,-7.175000e-01
-2.928121e-06,-7.456250e-01
-2.920121e-06,-7.343750e-01
-2.912121e-06,-7.543750e-01
-2.904121e-06,-7.425000e-01
-2.896121e-06,-7.487500e-01
-2.888121e-06,-7.240625e-01
-2.880121e-06,-7.356250e-01
-2.872121e-06,-7.184375e-01
-2.864121e-06,-7.400000e-01
-2.856121e-06,-7.243750e-01
-2.848121e-06,-7.325000e-01
-2.840121e-06,-7.300000e-01
-2.832121e-06,-7.493750e-01
-2.824121e-06,-7.318750e-01
-2.816121e-06,-7.568750e-01
-2.808121e-06,-7.225000e-01
-2.800121e-06,-7.446875e-01
-2.792121e-06,-7.356250e-01
-2.784121e-06,-7.484375e-01
-2.776121e-06,-7.278125e-01
-2.768121e-06,-7.503125e-01
-2.760121e-06,-7.265625e-01
-2.752121e-06,-7.437500e-01
-2.744121e-06,-7.259375e-01
-2.736121e-06,-7.459375e-01
-2.728121e-06,-7.231250e-01
-2.720121e-06,-7.465625e-01
-2.712121e-06,-7.268750e-01
-2.704121e-06,-7.631250e-01
-2.696121e-06,-7.259375e-01
-2.688121e-06,-7.462500e-01
-2.680121e-06,-7.262500e-01
-2.672121e-06,-7.531250e-01
-2.664121e-06,-7.309375e-01
-2.656121e-06,-7.521875e-01
-2.648121e-06,-7.459375e-01
-2.640121e-06,-7.662500e-01
-2.632121e-06,-7.362500e-01
-2.624121e-06,-7.534375e-01
-2.616121e-06,-7.300000e-01
-2.608121e-06,-7.487500e-01
-2.600121e-06,-7.268750e-01
-2.592121e-06,-7.512500e-01
-2.584121e-06,-7.396875e-01
-2.576121e-06,-7.528125e-01
-2.568121e-06,-7.343750e-01
-2.560121e-06,-7.378125e-01
-2.552121e-06,-7.225000e-01
-2.544121e-06,-7.415625e-01
-2.536121e-06,-7.496875e-01
-2.528121e-06,-7.400000e-01
-2.520121e-06,-7.471875e-01
-2.512121e-06,-7.500000e-01
-2.504121e-06,-7.256250e-01
-2.496121e-06,-7.400000e-01
-2.488121e-06,-7.331250e-01
-2.480121e-06,-7.581250e-01
-2.472121e-06,-7.375000e-01
-2.464121e-06,-7.556250e-01
-2.456121e-06,-7.293750e-01
-2.448121e-06,-7.459375e-01
-2.440121e-06,-7.331250e-01
-2.432121e-06,-7.493750e-01
-2.424121e-06,-7.218750e-01
-2.416121e-06,-7.406250e-01
-2.408121e-06,-7.365625e-01
-2.400121e-06,-7.546875e-01
-2.392121e-06,-7.425000e-01
-2.384121e-06,-7.421875e-01
-2.376121e-06,-7.181250e-01
-2.368121e-06,-7.331250e-01
-2.360121e-06,-7.303125e-01
-2.352121e-06,-7.356250e-01
-2.344121e-06,-7.315625e-01
-2.336121e-06,-7.612500e-01
-2.328121e-06,-7.337500e-01
-2.320121e-06,-7.550000e-01
-2.312121e-06,-7.293750e-01
-2.304121e-06,-7.468750e-01
-2.296121e-06,-7.150000e-01
-2.288121e-06,-7.550000e-01
-2.280121e-06,-7.418750e-01
-2.272121e-06,-7.484375e-01
-2.264121e-06,-7.425000e-01
-2.256121e-06,-7.562500e-01
-2.248121e-06,-7.384375e-01
-2.240121e-06,-7.409375e-01
-2.232121e-06,-7.387500e-01
-2.224121e-06,-7.378125e-01
-2.216121e-06,-7.325000e-01
-2.208121e-06,-7.525000e-01
-2.200121e-06,-7.275000e-01
-2.192121e-06,-7.540625e-01
-2.184121e-06,-7.315625e-01
-2.176121e-06,-7.537500e-01
-2.168121e-06,-7.259375e-01
-2.160121e-06,-7.340625e-01
-2.152121e-06,-7.462500e-01
-2.144121e-06,-7.381250e-01
-2.136121e-06,-7.259375e-01
-2.128121e-06,-7.534375e-01
-2.120121e-06,-7.384375e-01
-2.112121e-06,-7.612500e-01
-2.104121e-06,-7.268750e-01
-2.096121e-06,-7.506250e-01
-2.088121e-06,-7.306250e-01
-2.080121e-06,-7.484375e-01
-2.072121e-06,-7.306250e-01
-2.064121e-06,-7.540625e-01
-2.056121e-06,-7.428125e-01
-2.048121e-06,-7.528125e-01
-2.040121e-06,-7.106250e-01
-2.032121e-06,-7.506250e-01
-2.024121e-06,-7.415625e-01
-2.016121e-06,-7.475000e-01
-2.008121e-06,-7.440625e-01
-2.000121e-06,-7.509375e-01
-1.992121e-06,-7.359375e-01
-1.984121e-06,-7.421875e-01
-1.976121e-06,-7.381250e-01
-1.968121e-06,-7.390625e-01
-1.960121e-06,-7.340625e-01
-1.952121e-06,-7.606250e-01
-1.944121e-06,-7.434375e-01
-1.936121e-06,-7.471875e-01
-1.928121e-06,-7.253125e-01
-1.920121e-06,-7.450000e-01
-1.912121e-06,-7.184375e-01
-1.904121e-06,-7.453125e-01
-1.896121e-06,-7.371875e-01
-1.888121e-06,-7.490625e-01
-1.880121e-06,-7.446875e-01
-1.872121e-06,-7.512500e-01
-1.864121e-06,-7.281250e-01
-1.856121e-06,-7.546875e-01
-1.848121e-06,-7.343750e-01
-1.840121e-06,-7.471875e-01
-1.832121e-06,-7.287500e-01
-1.824121e-06,-7.443750e-01
-1.816121e-06,-7.312500e-01
-1.808121e-06,-7.540625e-01
-1.800121e-06,-7.256250e-01
-1.792121e-06,-7.481250e-01
-1.784121e-06,-7.234375e-01
-1.776121e-06,-7.431250e-01
-1.768121e-06,-7.268750e-01
-1.760121e-06,-7.365625e-01
-1.752121e-06,-7.340625e-01
-1.744121e-06,-7.431250e-01
-1.736121e-06,-7.253125e-01
-1.728121e-06,-7.381250e-01
-1.720121e-06,-7.237500e-01
-1.712121e-06,-7.425000e-01
-1.704121e-06,-7.437500e-01
-1.696121e-06,-7.534375e-01
-1.688121e-06,-7.343750e-01
-1.680121e-06,-7.475000e-01
-1.672121e-06,-7.312500e-01
-1.664121e-06,-7.575000e-01
-1.656121e-06,-7.206250e-01
-1.648121e-06,-7.481250e-01
-1.640121e-06,-7.312500e-01
-1.632121e-06,-7.543750e-01
-1.624121e-06,-7.368750e-01
-1.616121e-06,-7.537500e-01
-1.608121e-06,-7.290625e-01
-1.600121e-06,-7.456250e-01
-1.592121e-06,-7.334375e-01
-1.584121e-06,-7.462500e-01
-1.576121e-06,-7.312500e-01
-1.568121e-06,-7.603125e-01
-1.560121e-06,-7.337500e-01
-1.552121e-06,-7.378125e-01
-1.544121e-06,-7.356250e-01
-1.536121e-06,-7.484375e-01
-1.528121e-06,-7.146875e-01
-1.520121e-06,-7.500000e-01
-1.512121e-06,-7.443750e-01
-1.504121e-06,-7.531250e-01
-1.496121e-06,-7.390625e-01
-1.488121e-06,-7.546875e-01
-1.480121e-06,-7.228125e-01
-1.472121e-06,-7.603125e-01
-1.464121e-06,-7.365625e-01
-1.456121e-06,-7.484375e-01
-1.448121e-06,-7.325000e-01
-1.440121e-06,-7.546875e-01
-1.432121e-06,-7.306250e-01
-1.424121e-06,-7.550000e-01
-1.416121e-06,-7.225000e-01
-1.408121e-06,-7.453125e-01
-1.400121e-06,-7.156250e-01
-1.392121e-06,-7.506250e-01
-1.384121e-06,-7.343750e-01
-1.376121e-06,-7.421875e-01
-1.368121e-06,-7.481250e-01
-1.360121e-06,-7.453125e-01
-1.352121e-06,-7.321875e-01
-1.344121e-06,-7.293750e-01
-1.336121e-06,-7.203125e-01
-1.328121e-06,-7.393750e-01
-1.320121e-06,-7.293750e-01
-1.312121e-06,-7.518750e-01
-1.304121e-06,-7.287500e-01
-1.296121e-06,-7.475000e-01
-1.288121e-06,-7.275000e-01
-1.280121e-06,-7.393750e-01
-1.272121e-06,-7.190625e-01
-1.264121e-06,-7.450000e-01
-1.256121e-06,-7.353125e-01
-1.248121e-06,-7.587500e-01
-1.240121e-06,-7.393750e-01
-1.232121e-06,-7.471875e-01
-1.224121e-06,-7.096875e-01
-1.216121e-06,-7.481250e-01
-1.208121e-06,-7.275000e-01
-1.200121e-06,-7.428125e-01
-1.192121e-06,-7.190625e-01
-1.184121e-06,-7.487500e-01
-1.176121e-06,-7.275000e-01
-1.168121e-06,-7.568750e-01
-1.160121e-06,-7.259375e-01
-1.152121e-06,-7.350000e-01
-1.144121e-06,-7.128125e-01
-1.136121e-06,-7.390625e-01
-1.128121e-06,-7.381250e-01
-1.120121e-06,-7.393750e-01
-1.112121e-06,-7.281250e-01
-1.104121e-06,-7.393750e-01
-1.096121e-06,-7.100000e-01
-1.088121e-06,-7.415625e-01
-1.080121e-06,-7.106250e-01
-1.072121e-06,-7.337500e-01
-1.064121e-06,-7.287500e-01
-1.056121e-06,-7.453125e-01
-1.048121e-06,-7.162500e-01
-1.040121e-06,-7.556250e-01
-1.032121e-06,-7.303125e-01
-1.024121e-06,-7.393750e-01
-1.016121e-06,-7.053125e-01
-1.008121e-06,-7.384375e-01
-1.000121e-06,-7.387500e-01
-9.921213e-07,-7.396875e-01
-9.841213e-07,-7.350000e-01
-9.761213e-07,-7.400000e-01
-9.681213e-07,-7.318750e-01
-9.601213e-07,-7.493750e-01
-9.521213e-07,-7.256250e-01
-9.441213e-07,-7.375000e-01
-9.361213e-07,-7.256250e-01
-9.281213e-07,-7.518750e-01
-9.201213e-07,-7.328125e-01
-9.121213e-07,-7.453125e-01
-9.041213e-07,-7.259375e-01
-8.961213e-07,-7.468750e-01
-8.881213e-07,-7.243750e-01
-8.801213e-07,-7.412500e-01
-8.721213e-07,-7.331250e-01
-8.641213e-07,-7.456250e-01
-8.561213e-07,-7.290625e-01
-8.481213e-07,-7.493750e-01
-8.401213e-07,-7.240625e-01
-8.321213e-07,-7.400000e-01
-8.241213e-07,-7.256250e-01
-8.161213e-07,-7.296875e-01
-8.081213e-07,-7.350000e-01
-8.001213e-07,-7.518750e-01
-7.921213e-07,-7.209375e-01
-7.841213e-07,-7.462500e-01
-7.761213e-07,-7.300000e-01
-7.681213e-07,-7.512500e-01
-7.601213e-07,-7.181250e-01
-7.521213e-07,-7.456250e-01
-7.441213e-07,-7.246875e-01
-7.361213e-07,-7.484375e-01
-7.281213e-07,-7.425000e-01
-7.201213e-07,-7.487500e-01
-7.121213e-07,-7.287500e-01
-7.041213e-07,-7.325000e-01
-6.961213e-07,-7.278125e-01
-6.881213e-07,-7.356250e-01
-6.801213e-07,-7.350000e-01
-6.721213e-07,-7.446875e-01
-6.641213e-07,-7.281250e-01
-6.561213e-07,-7.340625e-01
-6.481213e-07,-7.243750e-01
-6.401213e-07,-7.459375e-01
-6.321213e-07,-7.184375e-01
-6.241213e-07,-7.537500e-01
-6.161213e-07,-7.318750e-01
-6.081213e-07,-7.434375e-01
-6.001213e-07,-7.412500e-01
-5.921213e-07,-7.453125e-01
-5.841213e-07,-7.240625e-01
-5.761213e-07,-7.328125e-01
-5.681213e-07,-7.275000e-01
-5.601213e-07,-7.475000e-01
-5.521213e-07,-7.268750e-01
-5.441213e-07,-7.378125e-01
-5.361213e-07,-7.268750e-01
-5.281213e-07,-7.440625e-01
-5.201213e-07,-7.212500e-01
-5.121213e-07,-7.459375e-01
-5.041213e-07,-7.103125e-01
-4.961213e-07,-7.468750e-01
-4.881213e-07,-7.315625e-01
-4.801213e-07,-7.556250e-01
-4.721213e-07,-7.340625e-01
-4.641213e-07,-7.481250e-01
-4.561213e-07,-7.228125e-01
-4.481213e-07,-7.446875e-01
-4.401213e-07,-7.275000e-01
-4.321213e-07,-7.400000e-01
-4.241213e-07,-7.287500e-01
-4.161213e-07,-7.512500e-01
-4.081213e-07,-7.225000e-01
-4.001213e-07,-7.518750e-01
-3.921213e-07,-7.243750e-01
-3.841213e-07,-7.421875e-01
-3.761213e-07,-7.215625e-01
-3.681213e-07,-7.431250e-01
-3.601213e-07,-7.459375e-01
-3.521213e-07,-7.465625e-01
-3.441213e-07,-7.346875e-01
-3.361213e-07,-7.600000e-01
-3.281213e-07,-7.331250e-01
-3.201213e-07,-7.409375e-01
-3.121213e-07,-7.209375e-01
-3.041213e-07,-7.465625e-01
-2.961213e-07,-7.271875e-01
-2.881213e-07,-7.575000e-01
-2.801213e-07,-7.346875e-01
-2.721213e-07,-7.440625e-01
-2.641213e-07,-7.256250e-01
-2.561213e-07,-7.356250e-01
-2.481213e-07,-7.178125e-01
-2.401213e-07,-7.415625e-01
-2.321213e-07,-7.296875e-01
-2.241213e-07,-7.387500e-01
-2.161213e-07,-7.331250e-01
-2.081213e-07,-7.487500e-01
-2.001213e-07,-7.206250e-01
-1.921213e-07,-7.493750e-01
-1.841213e-07,-7.278125e-01
-1.761213e-07,-7.343750e-01
-1.681213e-07,-7.221875e-01
-1.601213e-07,-7.521875e-01
-1.521213e-07,-7.243750e-01
-1.441213e-07,-7.503125e-01
-1.361213e-07,-7.278125e-01
-1.281213e-07,-7.456250e-01
-1.201213e-07,-7.250000e-01
-1.121213e-07,-7.512500e-01
-1.041213e-07,-7.418750e-01
-9.612125e-08,-7.540625e-01
-8.812125e-08,-7.312500e-01
-8.012125e-08,-7.509375e-01
-7.212125e-08,-7.106250e-01
-6.412125e-08,-7.537500e-01
-5.612125e-08,-7.221875e-01
-4.812125e-08,-7.434375e-01
-4.012125e-08,-7.256250e-01
-3.212125e-08,-7.393750e-01
-2.412125e-08,-7.337500e-01
-1.612125e-08,-7.478125e-01
-8.121250e-09,-7.275000e-01
-1.212500e-10,-7.543750e-01
7.878750e-09,-2.750000e-02
1.587875e-08,-5.062500e-02
2.387875e-08,-3.687500e-02
3.187875e-08,-5.125000e-02
3.987875e-08,-3.687500e-02
4.787875e-08,-4.750000e-02
5.587875e-08,-3.125000e-02
6.387875e-08,-4.625000e-02
7.187875e-08,-2.531250e-02
7.987875e-08,-4.812500e-02
8.787875e-08,-2.968750e-02
9.587875e-08,-6.000000e-02
1.038787e-07,-3.593750e-02
1.118787e-07,-5.625000e-02
1.198787e-07,-2.156250e-02
1.278787e-07,-3.500000e-02
1.358787e-07,-3.000000e-02
1.438787e-07,-4.781250e-02
1.518787e-07,-4.375000e-02
1.598787e-07,-3.750000e-02
1.678787e-07,-4.750000e-02
1.758787e-07,-4.875000e-02
1.838787e-07,-3.000000e-02
1.918787e-07,-5.500000e-02
1.998787e-07,-1.937500e-02
2.078787e-07,-3.656250e-02
2.158787e-07,-3.125000e-02
2.238787e-07,-5.062500e-02
2.318787e-07,-3.125000e-02
2.398787e-07,-4.125000e-02
2.478787e-07,-3.031250e-02
2.558787e-07,-2.843750e-02
2.638787e-07,-1.031250e-02
2.718787e-07,-4.781250e-02
2.798787e-07,-8.125000e-02
2.878787e-07,-7.134375e-01
2.958787e-07,-7.218750e-01
3.038787e-07,-7.343750e-01
3.118787e-07,-7.106250e-01
3.198787e-07,-7.293750e-01
3.278787e-07,-7.281250e-01
3.358787e-07,-7.296875e-01
3.438787e-07,-7.218750e-01
3.518787e-07,-7.418750e-01
3.598787e-07,-7.287500e-01
3.678787e-07,-7.409375e-01
3.758787e-07,-7.300000e-01
3.838787e-07,-7.481250e-01
3.918787e-07,-7.150000e-01
3.998787e-07,-7.318750e-01
4.078787e-07,-7.431250e-01
4.158787e-07,-7.468750e-01
4.238787e-07,-7.337500e-01
4.318787e-07,-7.556250e-01
4.398787e-07,-7.284375e-01
4.478787e-07,-7.525000e-01
4.558787e-07,-7.228125e-01
4.638787e-07,-7.550000e-01
4.718787e-07,-7.293750e-01
4.798787e-07,-7.512500e-01
4.878787e-07,-7.262500e-01
4.958787e-07,-7.453125e-01
5.038787e-07,-7.275000e-01
5.118787e-07,-7.384375e-01
5.198787e-07,-7.162500e-01
5.278787e-07,-7.434375e-01
5.358787e-07,-7.318750e-01
5.438787e-07,-7.487500e-01
5.518787e-07,-7.418750e-01
5.598787e-07,-7.593750e-01
5.678787e-07,-7.240625e-01
5.758787e-07,-7.365625e-01
5.838787e-07,-7.275000e-01
5.918787e-07,-7.384375e-01
5.998787e-07,-7.281250e-01
6.078787e-07,-7.537500e-01
6.158787e-07,-7.490625e-01
6.238787e-07,-7.393750e-01
6.318787e-07,-7.287500e-01
6.398787e-07,-7.525000e-01
6.478787e-07,-7.165625e-01
6.558787e-07,-7.528125e-01
6.638787e-07,-7.350000e-01
6.718787e-07,-7.478125e-01
6.798787e-07,-7.425000e-01
6.878787e-07,-7.484375e-01
6.958787e-07,-7.300000e-01
