run1/run1_ch1_20210318180229998.csv

Model,MSO64
Waveform Type,ANALOG
Horizontal Units,s
Sample Interval,8.000000e-09
Record Length,1250
Zero Index,624.875000
Vertical Units,V

TIME,CH1
-4.999000e-06,1.125000e-02
-4.991000e-06,-1.500000e-02
-4.983000e-06,7.500000e-03
-4.975000e-06,-1.625000e-02
-4.967000e-06,0.000000e+00
-4.959000e-06,-1.125000e-02
-4.951000e-06,1.125000e-02
-4.943000e-06,1.375000e-02
-4.935000e-06,3.750000e-03
-4.927000e-06,-8.750000e-03
-4.919000e-06,1.875000e-02
-4.911000e-06,-1.625000e-02
-4.903000e-06,2.500000e-02
-4.895000e-06,-2.875000e-02
-4.887000e-06,2.000000e-02
-4.879000e-06,0.000000e+00
-4.871000e-06,1.000000e-02
-4.863000e-06,7.500000e-03
-4.855000e-06,2.125000e-02
-4.847000e-06,1.125000e-02
-4.839000e-06,1.500000e-02
-4.831000e-06,-1.500000e-02
-4.823000e-06,2.625000e-02
-4.815000e-06,-1.000000e-02
-4.807000e-06,4.125000e-02
-4.799000e-06,-2.750000e-02
-4.791000e-06,1.375000e-02
-4.783000e-06,-3.750000e-03
-4.775000e-06,3.250000e-02
-4.767000e-06,-2.000000e-02
-4.759000e-06,1.000000e-02
-4.751000e-06,-2.750000e-02
-4.743000e-06,4.625000e-02
-4.735000e-06,-1.500000e-02
-4.727000e-06,1.875000e-02
-4.719000e-06,-2.250000e-02
-4.711000e-06,1.250000e-03
-4.703000e-06,-8.750000e-03
-4.695000e-06,-1.250000e-03
-4.687000e-06,-2.000000e-02
-4.679000e-06,5.125000e-02
-4.671000e-06,1.375000e-02
-4.663000e-06,8.750000e-03
-4.655000e-06,1.125000e-02
-4.647000e-06,1.875000e-02
-4.639000e-06,-3.250000e-02
-4.631000e-06,0.000000e+00
-4.623000e-06,1.250000e-03
-4.615000e-06,2.125000e-02
-4.607000e-06,-1.375000e-02
-4.599000e-06,2.500000e-02
-4.591000e-06,-3.125000e-02
-4.583000e-06,1.000000e-02
-4.575000e-06,-1.250000e-02
-4.567000e-06,1.375000e-02
-4.559000e-06,0.000000e+00
-4.551000e-06,2.500000e-03
-4.543000e-06,2.500000e-03
-4.535000e-06,2.500000e-02
-4.527000e-06,-1.000000e-02
-4.519000e-06,-2.500000e-03
-4.511000e-06,-1.500000e-02
-4.503000e-06,2.125000e-02
-4.495000e-06,-1.375000e-02
-4.487000e-06,4.000000e-02
-4.479000e-06,-1.125000e-02
-4.471000e-06,2.000000e-02
-4.463000e-06,-1.250000e-03
-4.455000e-06,0.000000e+00
-4.447000e-06,5.000000e-03
-4.439000e-06,1.375000e-02
-4.431000e-06,7.500000e-03
-4.423000e-06,3.125000e-02
-4.415000e-06,0.000000e+00
-4.407000e-06,2.750000e-02
-4.399000e-06,-6.250000e-03
-4.391000e-06,2.500000e-03
-4.383000e-06,-1.750000e-02
-4.375000e-06,1.750000e-02
-4.367000e-06,-6.250000e-03
-4.359000e-06,2.875000e-02
-4.351000e-06,-2.000000e-02
-4.343000e-06,2.625000e-02
-4.335000e-06,-3.750000e-03
-4.327000e-06,1.500000e-02
-4.319000e-06,-8.750000e-03
-4.311000e-06,8.750000e-03
-4.303000e-06,-2.750000e-02
-4.295000e-06,1.375000e-02
-4.287000e-06,-2.500000e-03
-4.279000e-06,1.375000e-02
-4.271000e-06,-1.625000e-02
-4.263000e-06,6.250000e-03
-4.255000e-06,-2.625000e-02
-4.247000e-06,5.000000e-03
-4.239000e-06,-1.375000e-02
-4.231000e-06,4.125000e-02
-4.223000e-06,1.875000e-02
-4.215000e-06,6.250000e-03
-4.207000e-06,-8.750000e-03
-4.199000e-06,5.000000e-03
-4.191000e-06,-2.125000e-02
-4.183000e-06,8.750000e-03
-4.175000e-06,-1.375000e-02
-4.167000e-06,2.000000e-02
-4.159000e-06,-1.250000e-03
-4.151000e-06,8.750000e-03
-4.143000e-06,-1.125000e-02
-4.135000e-06,2.375000e-02
-4.127000e-06,-2.250000e-02
-4.119000e-06,3.250000e-02
-4.111000e-06,-1.750000e-02
-4.103000e-06,1.250000e-02
-4.095000e-06,-2.000000e-02
-4.087000e-06,8.750000e-03
-4.079000e-06,-1.250000e-02
-4.071000e-06,1.250000e-03
-4.063000e-06,-2.750000e-02
-4.055000e-06,2.875000e-02
-4.047000e-06,0.000000e+00
-4.039000e-06,2.750000e-02
-4.031000e-06,-1.625000e-02
-4.023000e-06,3.375000e-02
-4.015000e-06,-8.750000e-03
-4.007000e-06,-2.500000e-03
-3.999000e-06,-2.000000e-02
-3.991000e-06,2.625000e-02
-3.983000e-06,1.250000e-03
-3.975000e-06,2.875000e-02
-3.967000e-06,-1.250000e-03
-3.959000e-06,8.750000e-03
-3.951000e-06,-2.000000e-02
-3.943000e-06,2.250000e-02
-3.935000e-06,-1.125000e-02
-3.927000e-06,1.500000e-02
-3.919000e-06,1.250000e-03
-3.911000e-06,7.500000e-03
-3.903000e-06,-7.500000e-03
-3.895000e-06,2.250000e-02
-3.887000e-06,-1.625000e-02
-3.879000e-06,1.750000e-02
-3.871000e-06,-2.375000e-02
-3.863000e-06,2.500000e-03
-3.855000e-06,-1.125000e-02
-3.847000e-06,5.000000e-03
-3.839000e-06,-1.875000e-02
-3.831000e-06,1.000000e-02
-3.823000e-06,-1.875000e-02
-3.815000e-06,1.625000e-02
-3.807000e-06,-1.250000e-02
-3.799000e-06,2.500000e-02
-3.791000e-06,-1.250000e-02
-3.783000e-06,2.000000e-02
-3.775000e-06,-6.250000e-03
-3.767000e-06,1.375000e-02
-3.759000e-06,-2.750000e-02
-3.751000e-06,1.625000e-02
-3.743000e-06,-2.000000e-02
-3.735000e-06,2.125000e-02
-3.727000e-06,-3.125000e-02
-3.719000e-06,-6.250000e-03
-3.711000e-06,-1.250000e-02
-3.703000e-06,1.875000e-02
-3.695000e-06,-1.500000e-02
-3.687000e-06,2.500000e-02
-3.679000e-06,-1.750000e-02
-3.671000e-06,2.750000e-02
-3.663000e-06,2.625000e-02
-3.655000e-06,3.875000e-02
-3.647000e-06,-1.125000e-02
-3.639000e-06,1.625000e-02
-3.631000e-06,-1.625000e-02
-3.623000e-06,-3.750000e-03
-3.615000e-06,-8.750000e-03
-3.607000e-06,1.875000e-02
-3.599000e-06,-2.875000e-02
-3.591000e-06,2.625000e-02
-3.583000e-06,5.000000e-03
-3.575000e-06,8.750000e-03
-3.567000e-06,-3.125000e-02
-3.559000e-06,1.250000e-03
-3.551000e-06,-2.125000e-02
-3.543000e-06,1.250000e-02
-3.535000e-06,1.250000e-03
-3.527000e-06,3.250000e-02
-3.519000e-06,-6.250000e-03
-3.511000e-06,2.750000e-02
-3.503000e-06,-1.750000e-02
-3.495000e-06,1.625000e-02
-3.487000e-06,-1.125000e-02
-3.479000e-06,1.750000e-02
-3.471000e-06,-2.000000e-02
-3.463000e-06,3.250000e-02
-3.455000e-06,-1.750000e-02
-3.447000e-06,1.250000e-03
-3.439000e-06,-1.625000e-02
-3.431000e-06,0.000000e+00
-3.423000e-06,-3.000000e-02
-3.415000e-06,1.750000e-02
-3.407000e-06,-2.250000e-02
-3.399000e-06,1.750000e-02
-3.391000e-06,3.750000e-03
-3.383000e-06,2.375000e-02
-3.375000e-06,-1.125000e-02
-3.367000e-06,1.750000e-02
-3.359000e-06,-3.125000e-02
-3.351000e-06,3.000000e-02
-3.343000e-06,-2.250000e-02
-3.335000e-06,2.375000e-02
-3.327000e-06,-1.125000e-02
-3.319000e-06,5.000000e-03
-3.311000e-06,-1.250000e-02
-3.303000e-06,2.250000e-02
-3.295000e-06,-2.375000e-02
-3.287000e-06,1.500000e-02
-3.279000e-06,-3.125000e-02
-3.271000e-06,2.500000e-02
-3.263000e-06,-1.750000e-02
-3.255000e-06,1.625000e-02
-3.247000e-06,-1.875000e-02
-3.239000e-06,1.750000e-02
-3.231000e-06,-1.375000e-02
-3.223000e-06,1.250000e-02
-3.215000e-06,-7.500000e-03
-3.207000e-06,4.125000e-02
-3.199000e-06,-1.250000e-03
-3.191000e-06,1.625000e-02
-3.183000e-06,-1.125000e-02
-3.175000e-06,1.750000e-02
-3.167000e-06,-1.000000e-02
-3.159000e-06,1.125000e-02
-3.151000e-06,-1.000000e-02
-3.143000e-06,8.750000e-03
-3.135000e-06,1.125000e-02
-3.127000e-06,3.500000e-02
-3.119000e-06,-6.250000e-03
-3.111000e-06,2.125000e-02
-3.103000e-06,-1.625000e-02
-3.095000e-06,0.000000e+00
-3.087000e-06,1.250000e-03
-3.079000e-06,3.625000e-02
-3.071000e-06,7.500000e-03
-3.063000e-06,-7.500000e-03
-3.055000e-06,-6.250000e-03
-3.047000e-06,1.125000e-02
-3.039000e-06,-3.375000e-02
-3.031000e-06,-5.000000e-03
-3.023000e-06,-6.250000e-03
-3.015000e-06,2.500000e-02
-3.007000e-06,7.500000e-03
-2.999000e-06,1.125000e-02
-2.991000e-06,-1.500000e-02
-2.983000e-06,-2.500000e-03
-2.975000e-06,-1.125000e-02
-2.967000e-06,1.125000e-02
-2.959000e-06,-1.875000e-02
-2.951000e-06,2.375000e-02
-2.943000e-06,-1.375000e-02
-2.935000e-06,1.250000e-03
-2.927000e-06,-2.250000e-02
-2.919000e-06,-1.375000e-02
-2.911000e-06,-3.000000e-02
-2.903000e-06,2.500000e-03
-2.895000e-06,-2.500000e-03
-2.887000e-06,4.125000e-02
-2.879000e-06,-1.125000e-02
-2.871000e-06,2.000000e-02
-2.863000e-06,-2.250000e-02
-2.855000e-06,5.000000e-03
-2.847000e-06,-3.500000e-02
-2.839000e-06,1.750000e-02
-2.831000e-06,-1.750000e-02
-2.823000e-06,2.875000e-02
-2.815000e-06,-1.125000e-02
-2.807000e-06,2.625000e-02
-2.799000e-06,-1.875000e-02
-2.791000e-06,-5.000000e-03
-2.783000e-06,-2.125000e-02
-2.775000e-06,1.625000e-02
-2.767000e-06,-1.125000e-02
-2.759000e-06,2.750000e-02
-2.751000e-06,-7.500000e-03
-2.743000e-06,1.375000e-02
-2.735000e-06,-1.125000e-02
-2.727000e-06,2.125000e-02
-2.719000e-06,-3.125000e-02
-2.711000e-06,0.000000e+00
-2.703000e-06,-2.000000e-02
-2.695000e-06,2.500000e-03
-2.687000e-06,-3.750000e-03
-2.679000e-06,0.000000e+00
-2.671000e-06,-2.500000e-02
-2.663000e-06,1.750000e-02
-2.655000e-06,-2.250000e-02
-2.647000e-06,1.000000e-02
-2.639000e-06,-2.500000e-03
-2.631000e-06,1.500000e-02
-2.623000e-06,-6.250000e-03
-2.615000e-06,8.750000e-03
-2.607000e-06,-1.375000e-02
-2.599000e-06,2.500000e-03
-2.591000e-06,-1.750000e-02
-2.583000e-06,4.000000e-02
-2.575000e-06,-4.375000e-02
-2.567000e-06,7.500000e-03
-2.559000e-06,-3.750000e-03
-2.551000e-06,2.625000e-02
-2.543000e-06,-1.375000e-02
-2.535000e-06,1.875000e-02
-2.527000e-06,-1.125000e-02
-2.519000e-06,1.250000e-03
-2.511000e-06,-1.375000e-02
-2.503000e-06,1.625000e-02
-2.495000e-06,0.000000e+00
-2.487000e-06,3.250000e-02
-2.479000e-06,-5.000000e-03
-2.471000e-06,1.750000e-02
-2.463000e-06,-3.625000e-02
-2.455000e-06,2.625000e-02
-2.447000e-06,-7.500000e-03
-2.439000e-06,2.000000e-02
-2.431000e-06,-2.000000e-02
-2.423000e-06,1.125000e-02
-2.415000e-06,1.250000e-03
-2.407000e-06,-8.750000e-03
-2.399000e-06,-2.875000e-02
-2.391000e-06,2.625000e-02
-2.383000e-06,3.750000e-03
-2.375000e-06,2.125000e-02
-2.367000e-06,-2.500000e-03
-2.359000e-06,2.375000e-02
-2.351000e-06,-1.625000e-02
-2.343000e-06,1.500000e-02
-2.335000e-06,-2.750000e-02
-2.327000e-06,3.750000e-03
-2.319000e-06,-1.375000e-02
-2.311000e-06,2.250000e-02
-2.303000e-06,-3.250000e-02
-2.295000e-06,5.000000e-03
-2.287000e-06,-2.625000e-02
-2.279000e-06,1.375000e-02
-2.271000e-06,-3.000000e-02
-2.263000e-06,2.375000e-02
-2.255000e-06,1.250000e-03
-2.247000e-06,2.750000e-02
-2.239000e-06,-1.750000e-02
-2.231000e-06,2.250000e-02
-2.223000e-06,-1.375000e-02
-2.215000e-06,1.375000e-02
-2.207000e-06,-2.875000e-02
-2.199000e-06,1.750000e-02
-2.191000e-06,-2.000000e-02
-2.183000e-06,1.750000e-02
-2.175000e-06,-1.625000e-02
-2.167000e-06,1.250000e-03
-2.159000e-06,-1.000000e-02
-2.151000e-06,1.875000e-02
-2.143000e-06,-1.625000e-02
-2.135000e-06,3.125000e-02
-2.127000e-06,3.750000e-03
-2.119000e-06,3.750000e-03
-2.111000e-06,-2.500000e-03
-2.103000e-06,1.125000e-02
-2.095000e-06,-1.875000e-02
-2.087000e-06,5.000000e-03
-2.079000e-06,-3.125000e-02
-2.071000e-06,3.750000e-03
-2.063000e-06,-2.500000e-03
-2.055000e-06,1.250000e-02
-2.047000e-06,-1.625000e-02
-2.039000e-06,7.500000e-03
-2.031000e-06,-2.250000e-02
-2.023000e-06,2.500000e-03
-2.015000e-06,-2.125000e-02
-2.007000e-06,1.500000e-02
-1.999000e-06,-3.625000e-02
-1.991000e-06,1.125000e-02
-1.983000e-06,-7.500000e-03
-1.975000e-06,1.375000e-02
-1.967000e-06,-2.125000e-02
-1.959000e-06,1.875000e-02
-1.951000e-06,-1.500000e-02
-1.943000e-06,-5.000000e-03
-1.935000e-06,1.250000e-03
-1.927000e-06,2.500000e-02
-1.919000e-06,1.250000e-03
-1.911000e-06,4.000000e-02
-1.903000e-06,0.000000e+00
-1.895000e-06,3.750000e-03
-1.887000e-06,-1.875000e-02
-1.879000e-06,1.000000e-02
-1.871000e-06,-1.250000e-02
-1.863000e-06,7.500000e-03
-1.855000e-06,-2.625000e-02
-1.847000e-06,2.125000e-02
-1.839000e-06,-1.500000e-02
-1.831000e-06,2.625000e-02
-1.823000e-06,-3.250000e-02
-1.815000e-06,1.250000e-02
-1.807000e-06,-3.000000e-02
-1.799000e-06,2.125000e-02
-1.791000e-06,-1.125000e-02
-1.783000e-06,0.000000e+00
-1.775000e-06,-2.000000e-02
-1.767000e-06,2.250000e-02
-1.759000e-06,-1.500000e-02
-1.751000e-06,1.875000e-02
-1.743000e-06,-1.125000e-02
-1.735000e-06,8.750000e-03
-1.727000e-06,-3.750000e-03
-1.719000e-06,2.625000e-02
-1.711000e-06,-3.625000e-02
-1.703000e-06,7.500000e-03
-1.695000e-06,-3.500000e-02
-1.687000e-06,2.875000e-02
-1.679000e-06,-1.000000e-02
-1.671000e-06,1.375000e-02
-1.663000e-06,1.250000e-03
-1.655000e-06,6.250000e-03
-1.647000e-06,-1.250000e-02
-1.639000e-06,1.125000e-02
-1.631000e-06,-4.875000e-02
-1.623000e-06,2.875000e-02
-1.615000e-06,1.250000e-03
-1.607000e-06,3.375000e-02
-1.599000e-06,-8.750000e-03
-1.591000e-06,1.250000e-03
-1.583000e-06,-2.000000e-02
-1.575000e-06,3.500000e-02
-1.567000e-06,-3.750000e-02
-1.559000e-06,2.625000e-02
-1.551000e-06,-5.000000e-03
-1.543000e-06,2.250000e-02
-1.535000e-06,5.000000e-03
-1.527000e-06,-1.250000e-03
-1.519000e-06,-2.000000e-02
-1.511000e-06,0.000000e+00
-1.503000e-06,-5.000000e-02
-1.495000e-06,1.625000e-02
-1.487000e-06,0.000000e+00
-1.479000e-06,5.000000e-03
-1.471000e-06,0.000000e+00
-1.463000e-06,6.250000e-03
-1.455000e-06,-1.375000e-02
-1.447000e-06,1.750000e-02
-1.439000e-06,-1.500000e-02
-1.431000e-06,1.875000e-02
-1.423000e-06,-1.125000e-02
-1.415000e-06,3.125000e-02
-1.407000e-06,-1.375000e-02
-1.399000e-06,1.125000e-02
-1.391000e-06,-8.750000e-03
-1.383000e-06,7.500000e-03
-1.375000e-06,-1.500000e-02
-1.367000e-06,8.750000e-03
-1.359000e-06,-2.250000e-02
-1.351000e-06,1.375000e-02
-1.343000e-06,1.125000e-02
-1.335000e-06,2.500000e-02
-1.327000e-06,-2.125000e-02
-1.319000e-06,2.375000e-02
-1.311000e-06,-1.875000e-02
-1.303000e-06,6.250000e-03
-1.295000e-06,-3.375000e-02
-1.287000e-06,2.875000e-02
-1.279000e-06,-3.750000e-02
-1.271000e-06,1.375000e-02
-1.263000e-06,-2.000000e-02
-1.255000e-06,2.250000e-02
-1.247000e-06,-1.250000e-02
-1.239000e-06,7.500000e-03
-1.231000e-06,2.750000e-02
-1.223000e-06,2.250000e-02
-1.215000e-06,0.000000e+00
-1.207000e-06,3.750000e-03
-1.199000e-06,-1.250000e-03
-1.191000e-06,2.750000e-02
-1.183000e-06,-3.875000e-02
-1.175000e-06,2.875000e-02
-1.167000e-06,-7.500000e-03
-1.159000e-06,2.875000e-02
-1.151000e-06,5.000000e-03
-1.143000e-06,3.125000e-02
-1.135000e-06,-6.250000e-03
-1.127000e-06,6.250000e-03
-1.119000e-06,-1.250000e-02
-1.111000e-06,2.500000e-02
-1.103000e-06,-8.750000e-03
-1.095000e-06,4.250000e-02
-1.087000e-06,-1.625000e-02
-1.079000e-06,2.500000e-02
-1.071000e-06,-3.750000e-03
-1.063000e-06,1.250000e-03
-1.055000e-06,-1.500000e-02
-1.047000e-06,1.625000e-02
-1.039000e-06,-2.750000e-02
-1.031000e-06,2.125000e-02
-1.023000e-06,0.000000e+00
-1.015000e-06,2.375000e-02
-1.007000e-06,-3.750000e-03
-9.990000e-07,2.500000e-02
-9.910000e-07,-3.750000e-03
-9.830000e-07,2.250000e-02
-9.750000e-07,-8.750000e-03
-9.670000e-07,3.250000e-02
-9.590000e-07,-3.375000e-02
-9.510000e-07,1.250000e-02
-9.430000e-07,-6.250000e-03
-9.350000e-07,1.875000e-02
-9.270000e-07,-4.000000e-02
-9.190000e-07,3.125000e-02
-9.110000e-07,-2.250000e-02
-9.030000e-07,2.875000e-02
-8.950000e-07,-1.750000e-02
-8.870000e-07,1.500000e-02
-8.790000e-07,-2.500000e-03
-8.710000e-07,6.250000e-03
-8.630000e-07,-2.875000e-02
-8.550000e-07,2.250000e-02
-8.470000e-07,2.500000e-03
-8.390000e-07,1.750000e-02
-8.310000e-07,-1.375000e-02
-8.230000e-07,2.250000e-02
-8.150000e-07,-2.750000e-02
-8.070000e-07,0.000000e+00
-7.990000e-07,-4.625000e-02
-7.910000e-07,1.250000e-02
-7.830000e-07,-4.000000e-02
-7.750000e-07,2.625000e-02
-7.670000e-07,3.750000e-03
-7.590000e-07,1.250000e-02
-7.510000e-07,-3.500000e-02
-7.430000e-07,-3.750000e-03
-7.350000e-07,-7.500000e-03
-7.270000e-07,1.750000e-02
-7.190000e-07,-1.875000e-02
-7.110000e-07,7.500000e-03
-7.030000e-07,-7.500000e-03
-6.950000e-07,3.250000e-02
-6.870000e-07,-2.000000e-02
-6.790000e-07,1.500000e-02
-6.710000e-07,-3.125000e-02
-6.630000e-07,-1.000000e-02
-6.550000e-07,-1.375000e-02
-6.470000e-07,3.000000e-02
-6.390000e-07,-1.625000e-02
-6.310000e-07,-3.750000e-03
-6.230000e-07,-1.250000e-03
-6.150000e-07,1.000000e-02
-6.070000e-07,-2.375000e-02
-5.990000e-07,-8.750000e-03
-5.910000e-07,7.500000e-03
-5.830000e-07,1.375000e-02
-5.750000e-07,5.000000e-03
-5.670000e-07,2.125000e-02
-5.590000e-07,2.500000e-03
-5.510000e-07,3.750000e-03
-5.430000e-07,-3.875000e-02
-5.350000e-07,2.375000e-02
-5.270000e-07,-1.125000e-02
-5.190000e-07,3.750000e-02
-5.110000e-07,-2.375000e-02
-5.030000e-07,2.250000e-02
-4.950000e-07,-1.375000e-02
-4.870000e-07,1.000000e-02
-4.790000e-07,-1.000000e-02
-4.710000e-07,1.625000e-02
-4.630000e-07,-8.750000e-03
-4.550000e-07,1.500000e-02
-4.470000e-07,3.750000e-03
-4.390000e-07,2.500000e-02
-4.310000e-07,-2.500000e-03
-4.230000e-07,2.875000e-02
-4.150000e-07,-2.000000e-02
-4.070000e-07,1.625000e-02
-3.990000e-07,-1.125000e-02
-3.910000e-07,2.625000e-02
-3.830000e-07,3.750000e-03
-3.750000e-07,1.375000e-02
-3.670000e-07,-1.250000e-02
-3.590000e-07,8.750000e-03
-3.510000e-07,-1.625000e-02
-3.430000e-07,2.500000e-02
-3.350000e-07,-6.250000e-03
-3.270000e-07,8.750000e-03
-3.190000e-07,-1.125000e-02
-3.110000e-07,1.250000e-03
-3.030000e-07,-6.250000e-03
-2.950000e-07,2.500000e-02
-2.870000e-07,-2.000000e-02
-2.790000e-07,3.375000e-02
-2.710000e-07,-2.625000e-02
-2.630000e-07,3.625000e-02
-2.550000e-07,6.250000e-03
-2.470000e-07,1.750000e-02
-2.390000e-07,1.250000e-03
-2.310000e-07,1.500000e-02
-2.230000e-07,-1.875000e-02
-2.150000e-07,5.000000e-03
-2.070000e-07,2.500000e-03
-1.990000e-07,2.500000e-03
-1.910000e-07,1.125000e-02
-1.830000e-07,3.250000e-02
-1.750000e-07,-1.125000e-02
-1.670000e-07,1.125000e-02
-1.590000e-07,-1.500000e-02
-1.510000e-07,3.250000e-02
-1.430000e-07,-2.500000e-03
-1.350000e-07,2.750000e-02
-1.270000e-07,-1.625000e-02
-1.190000e-07,1.250000e-03
-1.110000e-07,-3.250000e-02
-1.030000e-07,2.875000e-02
-9.500000e-08,-6.250000e-03
-8.700000e-08,1.250000e-02
-7.900000e-08,-3.250000e-02
-7.100000e-08,1.625000e-02
-6.300000e-08,-3.875000e-02
-5.500000e-08,2.625000e-02
-4.700000e-08,8.750000e-03
-3.900000e-08,1.750000e-02
-3.100000e-08,-1.408750e+00
-2.300000e-08,-1.405000e+00
-1.500000e-08,-1.427500e+00
-7.000000e-09,-1.348750e+00
1.000000e-09,-3.125000e-02
9.000000e-09,-1.250000e-03
1.700000e-08,-5.000000e-03
2.500000e-08,1.500000e-02
3.300000e-08,-1.250000e-02
4.100000e-08,1.625000e-02
4.900000e-08,0.000000e+00
5.700000e-08,2.125000e-02
6.500000e-08,-1.393750e+00
7.300000e-08,-1.411250e+00
8.100000e-08,-1.422500e+00
8.900000e-08,-4.400000e-01
9.700000e-08,-2.375000e-02
1.050000e-07,3.500000e-02
1.130000e-07,-8.750000e-03
1.210000e-07,1.875000e-02
1.290000e-07,-6.250000e-03
1.370000e-07,3.250000e-02
1.450000e-07,-6.250000e-03
1.530000e-07,2.125000e-02
1.610000e-07,-3.625000e-02
1.690000e-07,1.250000e-02
1.770000e-07,5.000000e-03
1.850000e-07,1.125000e-02
1.930000e-07,3.750000e-03
2.010000e-07,7.500000e-03
2.090000e-07,-6.250000e-03
2.170000e-07,2.500000e-03
2.250000e-07,-2.750000e-02
2.330000e-07,1.250000e-02
2.410000e-07,-2.000000e-02
2.490000e-07,3.125000e-02
2.570000e-07,-1.750000e-02
2.650000e-07,2.625000e-02
2.730000e-07,3.750000e-03
2.810000e-07,-2.500000e-03
2.890000e-07,-1.500000e-02
2.970000e-07,2.500000e-02
3.050000e-07,-1.375000e-02
3.130000e-07,2.125000e-02
3.210000e-07,7.500000e-03
3.290000e-07,1.750000e-02
3.370000e-07,-5.000000e-03
3.450000e-07,5.000000e-03
3.530000e-07,-2.875000e-02
3.610000e-07,2.625000e-02
3.690000e-07,-1.750000e-02
3.770000e-07,3.000000e-02
3.850000e-07,-3.750000e-03
3.930000e-07,8.750000e-03
4.010000e-07,-1.500000e-02
4.090000e-07,0.000000e+00
4.170000e-07,-6.250000e-03
4.250000e-07,1.250000e-02
4.330000e-07,-7.500000e-03
4.410000e-07,2.250000e-02
4.490000e-07,-3.750000e-03
4.570000e-07,2.125000e-02
4.650000e-07,-2.625000e-02
4.730000e-07,1.000000e-02
4.810000e-07,-3.750000e-03
4.890000e-07,2.500000e-02
4.970000e-07,8.750000e-03
5.050000e-07,3.750000e-03
5.130000e-07,-2.500000e-02
5.210000e-07,1.250000e-02
5.290000e-07,-6.250000e-03
5.370000e-07,1.625000e-02
5.450000e-07,-3.750000e-03
5.530000e-07,8.750000e-03
5.610000e-07,-1.250000e-03
5.690000e-07,0.000000e+00
5.770000e-07,-3.750000e-03
5.850000e-07,1.250000e-02
5.930000e-07,-1.875000e-02
6.010000e-07,1.625000e-02
6.090000e-07,-4.000000e-02
6.170000e-07,2.875000e-02
6.250000e-07,-1.250000e-02
6.330000e-07,5.375000e-02
6.410000e-07,-1.125000e-02
6.490000e-07,1.375000e-02
6.570000e-07,1.250000e-03
6.650000e-07,-1.125000e-02
6.730000e-07,-1.750000e-02
6.810000e-07,1.875000e-02
6.890000e-07,-1.000000e-02
6.970000e-07,2.875000e-02
7.050000e-07,-2.125000e-02
7.130000e-07,7.500000e-03
7.210000e-07,0.000000e+00
7.290000e-07,2.500000e-03
7.370000e-07,-2.125000e-02
7.450000e-07,2.000000e-02
7.530000e-07,-1.125000e-02
7.610000e-07,4.375000e-02
7.690000e-07,-1.375000e-02
7.770000e-07,1.125000e-02
7.850000e-07,-2.625000e-02
7.930000e-07,1.375000e-02
8.010000e-07,-3.750000e-03
