run1/run1_ch1_20210318180137261.csv

Model,MSO64
Waveform Type,ANALOG
Horizontal Units,s
Sample Interval,8.000000e-09
Record Length,1250
Zero Index,624.605000
Vertical Units,V

TIME,CH1
-4.996840e-06,-1.750000e-02
-4.988840e-06,8.750000e-03
-4.980840e-06,-1.500000e-02
-4.972840e-06,2.375000e-02
-4.964840e-06,-4.375000e-02
-4.956840e-06,7.500000e-03
-4.948840e-06,-5.000000e-02
-4.940840e-06,3.625000e-02
-4.932840e-06,3.750000e-03
-4.924840e-06,2.125000e-02
-4.916840e-06,-2.375000e-02
-4.908840e-06,2.375000e-02
-4.900840e-06,-3.250000e-02
-4.892840e-06,6.250000e-03
-4.884840e-06,-1.625000e-02
-4.876840e-06,2.125000e-02
-4.868840e-06,-7.500000e-03
-4.860840e-06,0.000000e+00
-4.852840e-06,-3.000000e-02
-4.844840e-06,-2.500000e-03
-4.836840e-06,-1.375000e-02
-4.828840e-06,6.250000e-03
-4.820840e-06,-2.750000e-02
-4.812840e-06,1.875000e-02
-4.804840e-06,-2.125000e-02
-4.796840e-06,6.250000e-03
-4.788840e-06,-2.375000e-02
-4.780840e-06,1.250000e-02
-4.772840e-06,-4.375000e-02
-4.764840e-06,1.875000e-02
-4.756840e-06,-2.500000e-03
-4.748840e-06,4.125000e-02
-4.740840e-06,-2.750000e-02
-4.732840e-06,1.750000e-02
-4.724840e-06,-2.000000e-02
-4.716840e-06,1.375000e-02
-4.708840e-06,-2.375000e-02
-4.700840e-06,1.750000e-02
-4.692840e-06,-3.875000e-02
-4.684840e-06,2.000000e-02
-4.676840e-06,-1.250000e-02
-4.668840e-06,8.750000e-03
-4.660840e-06,0.000000e+00
-4.652840e-06,5.000000e-03
-4.644840e-06,-1.000000e-02
-4.636840e-06,3.125000e-02
-4.628840e-06,-1.750000e-02
-4.620840e-06,2.875000e-02
-4.612840e-06,-2.125000e-02
-4.604840e-06,-2.500000e-03
-4.596840e-06,-1.375000e-02
-4.588840e-06,4.500000e-02
-4.580840e-06,-3.750000e-03
-4.572840e-06,2.250000e-02
-4.564840e-06,-2.875000e-02
-4.556840e-06,3.125000e-02
-4.548840e-06,-3.000000e-02
-4.540840e-06,1.875000e-02
-4.532840e-06,-1.250000e-02
-4.524840e-06,-2.500000e-03
-4.516840e-06,-1.125000e-02
-4.508840e-06,2.125000e-02
-4.500840e-06,-2.750000e-02
-4.492840e-06,1.625000e-02
-4.484840e-06,6.250000e-03
-4.476840e-06,3.750000e-03
-4.468840e-06,-2.500000e-02
-4.460840e-06,2.625000e-02
-4.452840e-06,-1.000000e-02
-4.444840e-06,1.875000e-02
-4.436840e-06,2.500000e-03
-4.428840e-06,3.250000e-02
-4.420840e-06,-8.750000e-03
-4.412840e-06,-3.750000e-03
-4.404840e-06,-4.000000e-02
-4.396840e-06,1.000000e-02
-4.388840e-06,-1.750000e-02
-4.380840e-06,-6.250000e-03
-4.372840e-06,-2.125000e-02
-4.364840e-06,2.000000e-02
-4.356840e-06,-5.000000e-03
-4.348840e-06,2.375000e-02
-4.340840e-06,-8.750000e-03
-4.332840e-06,5.000000e-03
-4.324840e-06,-3.875000e-02
-4.316840e-06,1.500000e-02
-4.308840e-06,-3.000000e-02
-4.300840e-06,2.000000e-02
-4.292840e-06,-2.750000e-02
-4.284840e-06,1.125000e-02
-4.276840e-06,-2.500000e-02
-4.268840e-06,-2.500000e-03
-4.260840e-06,-2.625000e-02
-4.252840e-06,2.250000e-02
-4.244840e-06,-3.250000e-02
-4.236840e-06,2.500000e-02
-4.228840e-06,-2.500000e-03
-4.220840e-06,2.500000e-02
-4.212840e-06,-3.125000e-02
-4.204840e-06,7.500000e-03
-4.196840e-06,-8.750000e-03
-4.188840e-06,2.500000e-03
-4.180840e-06,-2.500000e-02
-4.172840e-06,1.875000e-02
-4.164840e-06,-4.125000e-02
-4.156840e-06,1.875000e-02
-4.148840e-06,-2.375000e-02
-4.140840e-06,-2.500000e-03
-4.132840e-06,-2.625000e-02
-4.124840e-06,1.250000e-02
-4.116840e-06,-7.500000e-03
-4.108840e-06,1.250000e-02
-4.100840e-06,-7.500000e-03
-4.092840e-06,5.000000e-03
-4.084840e-06,-1.625000e-02
-4.076840e-06,5.000000e-03
-4.068840e-06,-2.375000e-02
-4.060840e-06,7.500000e-03
-4.052840e-06,-3.875000e-02
-4.044840e-06,1.625000e-02
-4.036840e-06,-2.375000e-02
-4.028840e-06,-7.500000e-03
-4.020840e-06,5.000000e-03
-4.012840e-06,1.250000e-03
-4.004840e-06,-2.625000e-02
-3.996840e-06,2.500000e-02
-3.988840e-06,-3.750000e-03
-3.980840e-06,1.625000e-02
-3.972840e-06,-1.500000e-02
-3.964840e-06,1.750000e-02
-3.956840e-06,-2.375000e-02
-3.948840e-06,1.875000e-02
-3.940840e-06,-1.250000e-02
-3.932840e-06,2.125000e-02
-3.924840e-06,-4.625000e-02
-3.916840e-06,2.875000e-02
-3.908840e-06,-3.000000e-02
-3.900840e-06,1.000000e-02
-3.892840e-06,-7.500000e-03
-3.884840e-06,1.500000e-02
-3.876840e-06,-7.500000e-03
-3.868840e-06,8.750000e-03
-3.860840e-06,-1.625000e-02
-3.852840e-06,1.125000e-02
-3.844840e-06,1.250000e-03
-3.836840e-06,1.375000e-02
-3.828840e-06,-3.375000e-02
-3.820840e-06,1.625000e-02
-3.812840e-06,-3.625000e-02
-3.804840e-06,2.500000e-03
-3.796840e-06,-2.250000e-02
-3.788840e-06,2.625000e-02
-3.780840e-06,-2.500000e-03
-3.772840e-06,2.125000e-02
-3.764840e-06,-1.250000e-02
-3.756840e-06,1.250000e-03
-3.748840e-06,-2.875000e-02
-3.740840e-06,3.750000e-03
-3.732840e-06,1.625000e-02
-3.724840e-06,2.250000e-02
-3.716840e-06,-1.500000e-02
-3.708840e-06,2.500000e-02
-3.700840e-06,-2.750000e-02
-3.692840e-06,1.875000e-02
-3.684840e-06,-1.125000e-02
-3.676840e-06,1.125000e-02
-3.668840e-06,-2.500000e-02
-3.660840e-06,2.000000e-02
-3.652840e-06,-2.625000e-02
-3.644840e-06,1.625000e-02
-3.636840e-06,-3.000000e-02
-3.628840e-06,2.500000e-03
-3.620840e-06,-2.250000e-02
-3.612840e-06,3.750000e-03
-3.604840e-06,-2.500000e-03
-3.596840e-06,2.875000e-02
-3.588840e-06,-1.125000e-02
-3.580840e-06,1.750000e-02
-3.572840e-06,-2.375000e-02
-3.564840e-06,1.125000e-02
-3.556840e-06,-2.750000e-02
-3.548840e-06,5.000000e-03
-3.540840e-06,-1.500000e-02
-3.532840e-06,1.250000e-02
-3.524840e-06,1.250000e-03
-3.516840e-06,1.125000e-02
-3.508840e-06,-2.750000e-02
-3.500840e-06,1.000000e-02
-3.492840e-06,-3.375000e-02
-3.484840e-06,1.250000e-02
-3.476840e-06,-2.625000e-02
-3.468840e-06,1.000000e-02
-3.460840e-06,-2.750000e-02
-3.452840e-06,2.125000e-02
-3.444840e-06,2.500000e-03
-3.436840e-06,-1.250000e-03
-3.428840e-06,-1.875000e-02
-3.420840e-06,-1.250000e-02
-3.412840e-06,-3.125000e-02
-3.404840e-06,3.625000e-02
-3.396840e-06,-1.875000e-02
-3.388840e-06,5.000000e-03
-3.380840e-06,-2.500000e-02
-3.372840e-06,1.250000e-03
-3.364840e-06,-1.750000e-02
-3.356840e-06,-6.250000e-03
-3.348840e-06,-1.375000e-02
-3.340840e-06,2.125000e-02
-3.332840e-06,-1.375000e-02
-3.324840e-06,2.500000e-02
-3.316840e-06,-1.250000e-02
-3.308840e-06,1.250000e-02
-3.300840e-06,-8.750000e-03
-3.292840e-06,1.875000e-02
-3.284840e-06,-2.500000e-03
-3.276840e-06,1.375000e-02
-3.268840e-06,-8.750000e-03
-3.260840e-06,1.875000e-02
-3.252840e-06,-2.000000e-02
-3.244840e-06,2.500000e-03
-3.236840e-06,-1.625000e-02
-3.228840e-06,7.500000e-03
-3.220840e-06,5.000000e-03
-3.212840e-06,2.625000e-02
-3.204840e-06,1.125000e-02
-3.196840e-06,8.750000e-03
-3.188840e-06,-2.500000e-03
-3.180840e-06,2.500000e-03
-3.172840e-06,-2.500000e-02
-3.164840e-06,1.250000e-03
-3.156840e-06,-3.500000e-02
-3.148840e-06,7.500000e-03
-3.140840e-06,5.000000e-03
-3.132840e-06,3.750000e-03
-3.124840e-06,-1.250000e-02
-3.116840e-06,-5.000000e-03
-3.108840e-06,-2.875000e-02
-3.100840e-06,-3.750000e-03
-3.092840e-06,6.250000e-03
-3.084840e-06,2.250000e-02
-3.076840e-06,-2.625000e-02
-3.068840e-06,8.750000e-03
-3.060840e-06,-3.125000e-02
-3.052840e-06,1.750000e-02
-3.044840e-06,-2.375000e-02
-3.036840e-06,2.250000e-02
-3.028840e-06,-3.250000e-02
-3.020840e-06,7.500000e-03
-3.012840e-06,-1.250000e-02
-3.004840e-06,8.750000e-03
-2.996840e-06,-5.000000e-03
-2.988840e-06,-1.250000e-03
-2.980840e-06,-6.250000e-03
-2.972840e-06,2.500000e-03
-2.964840e-06,-6.250000e-03
-2.956840e-06,2.250000e-02
-2.948840e-06,-2.000000e-02
-2.940840e-06,3.000000e-02
-2.932840e-06,-2.375000e-02
-2.924840e-06,7.500000e-03
-2.916840e-06,-1.000000e-02
-2.908840e-06,1.625000e-02
-2.900840e-06,-2.375000e-02
-2.892840e-06,2.625000e-02
-2.884840e-06,0.000000e+00
-2.876840e-06,2.750000e-02
-2.868840e-06,5.000000e-03
-2.860840e-06,5.000000e-03
-2.852840e-06,-2.000000e-02
-2.844840e-06,2.250000e-02
-2.836840e-06,-2.500000e-02
-2.828840e-06,1.875000e-02
-2.820840e-06,-2.000000e-02
-2.812840e-06,2.125000e-02
-2.804840e-06,-3.750000e-03
-2.796840e-06,-1.250000e-03
-2.788840e-06,-2.500000e-02
-2.780840e-06,2.500000e-03
-2.772840e-06,-2.875000e-02
-2.764840e-06,3.000000e-02
-2.756840e-06,-2.875000e-02
-2.748840e-06,1.375000e-02
-2.740840e-06,-3.000000e-02
-2.732840e-06,7.500000e-03
-2.724840e-06,-2.500000e-02
-2.716840e-06,1.875000e-02
-2.708840e-06,-1.250000e-03
-2.700840e-06,1.625000e-02
-2.692840e-06,-2.500000e-03
-2.684840e-06,1.250000e-02
-2.676840e-06,-2.750000e-02
-2.668840e-06,3.750000e-03
-2.660840e-06,-8.750000e-03
-2.652840e-06,1.000000e-02
-2.644840e-06,-1.000000e-02
-2.636840e-06,1.375000e-02
-2.628840e-06,-1.625000e-02
-2.620840e-06,2.875000e-02
-2.612840e-06,-2.125000e-02
-2.604840e-06,2.875000e-02
-2.596840e-06,-8.750000e-03
-2.588840e-06,2.875000e-02
-2.580840e-06,1.250000e-03
-2.572840e-06,1.375000e-02
-2.564840e-06,-2.500000e-03
-2.556840e-06,1.625000e-02
-2.548840e-06,-1.875000e-02
-2.540840e-06,6.250000e-03
-2.532840e-06,-8.750000e-03
-2.524840e-06,6.250000e-03
-2.516840e-06,-1.750000e-02
-2.508840e-06,0.000000e+00
-2.500840e-06,-2.000000e-02
-2.492840e-06,1.375000e-02
-2.484840e-06,-1.625000e-02
-2.476840e-06,1.875000e-02
-2.468840e-06,-1.875000e-02
-2.460840e-06,-7.500000e-03
-2.452840e-06,-1.500000e-02
-2.444840e-06,6.250000e-03
-2.436840e-06,-2.000000e-02
-2.428840e-06,-7.500000e-03
-2.420840e-06,-2.125000e-02
-2.412840e-06,-2.500000e-03
-2.404840e-06,-3.750000e-02
-2.396840e-06,1.750000e-02
-2.388840e-06,-1.750000e-02
-2.380840e-06,2.625000e-02
-2.372840e-06,-1.500000e-02
-2.364840e-06,-1.125000e-02
-2.356840e-06,-1.625000e-02
-2.348840e-06,2.000000e-02
-2.340840e-06,-3.875000e-02
-2.332840e-06,-1.250000e-03
-2.324840e-06,-2.375000e-02
-2.316840e-06,2.875000e-02
-2.308840e-06,-1.375000e-02
-2.300840e-06,1.125000e-02
-2.292840e-06,-1.875000e-02
-2.284840e-06,2.625000e-02
-2.276840e-06,-3.750000e-03
-2.268840e-06,2.125000e-02
-2.260840e-06,-3.875000e-02
-2.252840e-06,2.875000e-02
-2.244840e-06,-2.500000e-03
-2.236840e-06,1.250000e-02
-2.228840e-06,-5.000000e-03
-2.220840e-06,1.375000e-02
-2.212840e-06,-1.875000e-02
-2.204840e-06,4.125000e-02
-2.196840e-06,5.000000e-03
-2.188840e-06,-3.750000e-03
-2.180840e-06,7.500000e-03
-2.172840e-06,2.125000e-02
-2.164840e-06,-2.000000e-02
-2.156840e-06,5.000000e-03
-2.148840e-06,-2.000000e-02
-2.140840e-06,2.250000e-02
-2.132840e-06,-1.375000e-02
-2.124840e-06,4.625000e-02
-2.116840e-06,5.000000e-03
-2.108840e-06,6.250000e-03
-2.100840e-06,-2.125000e-02
-2.092840e-06,7.500000e-03
-2.084840e-06,-2.250000e-02
-2.076840e-06,1.375000e-02
-2.068840e-06,-7.500000e-03
-2.060840e-06,1.125000e-02
-2.052840e-06,-1.125000e-02
-2.044840e-06,-1.625000e-02
-2.036840e-06,-3.750000e-02
-2.028840e-06,1.000000e-02
-2.020840e-06,-3.625000e-02
-2.012840e-06,1.125000e-02
-2.004840e-06,-4.125000e-02
-1.996840e-06,4.125000e-02
-1.988840e-06,2.500000e-03
-1.980840e-06,1.125000e-02
-1.972840e-06,-2.375000e-02
-1.964840e-06,1.625000e-02
-1.956840e-06,-1.750000e-02
-1.948840e-06,1.125000e-02
-1.940840e-06,-6.250000e-03
-1.932840e-06,1.500000e-02
-1.924840e-06,5.000000e-03
-1.916840e-06,7.500000e-03
-1.908840e-06,-1.000000e-02
-1.900840e-06,1.125000e-02
-1.892840e-06,-1.875000e-02
-1.884840e-06,2.625000e-02
-1.876840e-06,-3.375000e-02
-1.868840e-06,2.500000e-02
-1.860840e-06,-3.625000e-02
-1.852840e-06,2.000000e-02
-1.844840e-06,-2.375000e-02
-1.836840e-06,3.375000e-02
-1.828840e-06,-6.250000e-03
-1.820840e-06,5.000000e-03
-1.812840e-06,0.000000e+00
-1.804840e-06,6.250000e-03
-1.796840e-06,-2.125000e-02
-1.788840e-06,1.000000e-02
-1.780840e-06,-1.750000e-02
-1.772840e-06,-6.250000e-03
-1.764840e-06,-5.125000e-02
-1.756840e-06,3.375000e-02
-1.748840e-06,-1.750000e-02
-1.740840e-06,3.250000e-02
-1.732840e-06,-1.625000e-02
-1.724840e-06,1.375000e-02
-1.716840e-06,-1.125000e-02
-1.708840e-06,1.875000e-02
-1.700840e-06,0.000000e+00
-1.692840e-06,8.750000e-03
-1.684840e-06,-1.375000e-02
-1.676840e-06,0.000000e+00
-1.668840e-06,0.000000e+00
-1.660840e-06,1.250000e-03
-1.652840e-06,-1.250000e-02
-1.644840e-06,2.750000e-02
-1.636840e-06,-2.000000e-02
-1.628840e-06,3.000000e-02
-1.620840e-06,-8.750000e-03
-1.612840e-06,3.125000e-02
-1.604840e-06,-2.250000e-02
-1.596840e-06,-5.000000e-03
-1.588840e-06,7.500000e-03
-1.580840e-06,8.750000e-03
-1.572840e-06,-2.375000e-02
-1.564840e-06,3.125000e-02
-1.556840e-06,1.500000e-02
-1.548840e-06,-6.250000e-03
-1.540840e-06,1.250000e-03
-1.532840e-06,3.750000e-03
-1.524840e-06,-1.125000e-02
-1.516840e-06,-1.250000e-03
-1.508840e-06,-4.000000e-02
-1.500840e-06,1.625000e-02
-1.492840e-06,-1.625000e-02
-1.484840e-06,4.375000e-02
-1.476840e-06,-3.750000e-03
-1.468840e-06,8.750000e-03
-1.460840e-06,-3.125000e-02
-1.452840e-06,1.750000e-02
-1.444840e-06,-7.500000e-03
-1.436840e-06,1.250000e-02
-1.428840e-06,2.500000e-03
-1.420840e-06,2.125000e-02
-1.412840e-06,1.000000e-02
-1.404840e-06,2.500000e-02
-1.396840e-06,-2.125000e-02
-1.388840e-06,2.375000e-02
-1.380840e-06,-3.500000e-02
-1.372840e-06,2.000000e-02
-1.364840e-06,-3.375000e-02
-1.356840e-06,2.250000e-02
-1.348840e-06,-2.125000e-02
-1.340840e-06,6.250000e-03
-1.332840e-06,1.250000e-02
-1.324840e-06,0.000000e+00
-1.316840e-06,-1.375000e-02
-1.308840e-06,1.375000e-02
-1.300840e-06,-3.750000e-03
-1.292840e-06,8.750000e-03
-1.284840e-06,1.500000e-02
-1.276840e-06,-2.125000e-02
-1.268840e-06,-6.250000e-03
-1.260840e-06,8.750000e-03
-1.252840e-06,-1.750000e-02
-1.244840e-06,1.125000e-02
-1.236840e-06,-2.000000e-02
-1.228840e-06,3.625000e-02
-1.220840e-06,-1.875000e-02
-1.212840e-06,-7.500000e-03
-1.204840e-06,-2.500000e-03
-1.196840e-06,-1.500000e-02
-1.188840e-06,-1.625000e-02
-1.180840e-06,8.750000e-03
-1.172840e-06,7.500000e-03
-1.164840e-06,2.625000e-02
-1.156840e-06,1.875000e-02
-1.148840e-06,1.250000e-02
-1.140840e-06,-1.375000e-02
-1.132840e-06,1.750000e-02
-1.124840e-06,-3.500000e-02
-1.116840e-06,1.625000e-02
-1.108840e-06,-2.250000e-02
-1.100840e-06,1.875000e-02
-1.092840e-06,-2.250000e-02
-1.084840e-06,5.000000e-03
-1.076840e-06,7.500000e-03
-1.068840e-06,1.250000e-02
-1.060840e-06,-2.375000e-02
-1.052840e-06,-7.500000e-03
-1.044840e-06,-8.750000e-03
-1.036840e-06,2.000000e-02
-1.028840e-06,-1.750000e-02
-1.020840e-06,0.000000e+00
-1.012840e-06,-2.000000e-02
-1.004840e-06,2.375000e-02
-9.968400e-07,-2.750000e-02
-9.888400e-07,0.000000e+00
-9.808400e-07,-3.000000e-02
-9.728400e-07,2.375000e-02
-9.648400e-07,-1.750000e-02
-9.568400e-07,6.250000e-03
-9.488400e-07,1.250000e-03
-9.408400e-07,1.000000e-02
-9.328400e-07,-2.625000e-02
-9.248400e-07,-7.500000e-03
-9.168400e-07,-6.250000e-03
-9.088400e-07,1.000000e-02
-9.008400e-07,-2.000000e-02
-8.928400e-07,7.500000e-03
-8.848400e-07,-2.250000e-02
-8.768400e-07,2.750000e-02
-8.688400e-07,-2.500000e-03
-8.608400e-07,3.750000e-03
-8.528400e-07,-3.750000e-03
-8.448400e-07,1.500000e-02
-8.368400e-07,-7.500000e-03
-8.288400e-07,7.500000e-03
-8.208400e-07,-7.500000e-03
-8.128400e-07,1.125000e-02
-8.048400e-07,-1.625000e-02
-7.968400e-07,2.750000e-02
-7.888400e-07,-1.750000e-02
-7.808400e-07,-8.750000e-03
-7.728400e-07,6.250000e-03
-7.648400e-07,-1.250000e-03
-7.568400e-07,-1.250000e-02
-7.488400e-07,-5.000000e-03
-7.408400e-07,-3.750000e-02
-7.328400e-07,1.750000e-02
-7.248400e-07,-2.000000e-02
-7.168400e-07,1.625000e-02
-7.088400e-07,-1.125000e-02
-7.008400e-07,7.500000e-03
-6.928400e-07,-1.250000e-02
-6.848400e-07,0.000000e+00
-6.768400e-07,-3.875000e-02
-6.688400e-07,2.125000e-02
-6.608400e-07,-5.000000e-03
-6.528400e-07,3.125000e-02
-6.448400e-07,-2.125000e-02
-6.368400e-07,3.750000e-03
-6.288400e-07,-8.750000e-03
-6.208400e-07,-6.250000e-03
-6.128400e-07,-2.375000e-02
-6.048400e-07,2.500000e-03
-5.968400e-07,-2.750000e-02
-5.888400e-07,4.125000e-02
-5.808400e-07,-4.250000e-02
-5.728400e-07,0.000000e+00
-5.648400e-07,-6.250000e-03
-5.568400e-07,2.500000e-02
-5.488400e-07,-8.750000e-03
-5.408400e-07,1.250000e-03
-5.328400e-07,5.000000e-03
-5.248400e-07,1.250000e-03
-5.168400e-07,-2.125000e-02
-5.088400e-07,1.000000e-02
-5.008400e-07,-2.125000e-02
-4.928400e-07,1.000000e-02
-4.848400e-07,-3.000000e-02
-4.768400e-07,1.875000e-02
-4.688400e-07,-2.250000e-02
-4.608400e-07,1.375000e-02
-4.528400e-07,-8.750000e-03
-4.448400e-07,1.250000e-02
-4.368400e-07,-1.000000e-02
-4.288400e-07,1.750000e-02
-4.208400e-07,-1.125000e-02
-4.128400e-07,2.250000e-02
-4.048400e-07,-8.750000e-03
-3.968400e-07,6.250000e-03
-3.888400e-07,-1.375000e-02
-3.808400e-07,-1.625000e-02
-3.728400e-07,-8.750000e-03
-3.648400e-07,1.500000e-02
-3.568400e-07,-4.000000e-02
-3.488400e-07,-1.000000e-02
-3.408400e-07,-3.875000e-02
-3.328400e-07,1.000000e-02
-3.248400e-07,-1.375000e-02
-3.168400e-07,2.875000e-02
-3.088400e-07,-1.125000e-02
-3.008400e-07,1.125000e-02
-2.928400e-07,-1.250000e-03
-2.848400e-07,7.500000e-03
-2.768400e-07,-8.750000e-03
-2.688400e-07,6.250000e-03
-2.608400e-07,2.500000e-03
-2.528400e-07,2.000000e-02
-2.448400e-07,-2.125000e-02
-2.368400e-07,-2.500000e-03
-2.288400e-07,-3.375000e-02
-2.208400e-07,2.500000e-02
-2.128400e-07,-3.000000e-02
-2.048400e-07,2.250000e-02
-1.968400e-07,-2.000000e-02
-1.888400e-07,3.750000e-03
-1.808400e-07,-2.625000e-02
-1.728400e-07,2.500000e-03
-1.648400e-07,-1.750000e-02
-1.568400e-07,6.250000e-03
-1.488400e-07,-1.750000e-02
-1.408400e-07,1.375000e-02
-1.328400e-07,-2.375000e-02
-1.248400e-07,2.000000e-02
-1.168400e-07,-2.375000e-02
-1.088400e-07,1.625000e-02
-1.008400e-07,-2.875000e-02
-9.284000e-08,-7.500000e-03
-8.484000e-08,7.500000e-03
-7.684000e-08,4.250000e-02
-6.884000e-08,-5.000000e-03
-6.084000e-08,1.250000e-03
-5.284000e-08,-1.375000e-02
-4.484000e-08,1.500000e-02
-3.684000e-08,-1.500000e-02
-2.884000e-08,-1.396250e+00
-2.084000e-08,-1.430000e+00
-1.284000e-08,-1.413750e+00
-4.840000e-09,-1.188125e+00
3.160000e-09,-1.250000e-03
1.116000e-08,-1.125000e-02
1.916000e-08,2.875000e-02
2.716000e-08,-3.750000e-03
3.516000e-08,3.125000e-02
4.316000e-08,-1.250000e-02
5.116000e-08,2.500000e-02
5.916000e-08,-1.500000e-02
6.716000e-08,1.250000e-02
7.516000e-08,-8.750000e-03
8.316000e-08,1.375000e-02
9.116000e-08,-2.625000e-02
9.916000e-08,2.625000e-02
1.071600e-07,-1.250000e-03
1.151600e-07,1.000000e-02
1.231600e-07,-1.625000e-02
1.311600e-07,2.125000e-02
1.391600e-07,-1.250000e-02
1.471600e-07,2.250000e-02
1.551600e-07,-2.875000e-02
1.631600e-07,1.625000e-02
1.711600e-07,-3.250000e-02
1.791600e-07,2.250000e-02
1.871600e-07,-3.750000e-03
1.951600e-07,-1.125000e-02
2.031600e-07,-1.500000e-02
2.111600e-07,1.000000e-02
2.191600e-07,-7.500000e-03
2.271600e-07,-3.750000e-03
2.351600e-07,-2.375000e-02
2.431600e-07,2.375000e-02
2.511600e-07,-6.250000e-03
2.591600e-07,1.125000e-02
2.671600e-07,-2.625000e-02
2.751600e-07,1.625000e-02
2.831600e-07,-1.625000e-02
2.911600e-07,2.375000e-02
2.991600e-07,-2.000000e-02
3.071600e-07,2.750000e-02
3.151600e-07,-1.375000e-02
3.231600e-07,0.000000e+00
3.311600e-07,-2.250000e-02
3.391600e-07,1.250000e-03
3.471600e-07,-3.250000e-02
3.551600e-07,1.125000e-02
3.631600e-07,-2.375000e-02
3.711600e-07,1.750000e-02
3.791600e-07,-2.500000e-03
3.871600e-07,1.250000e-02
3.951600e-07,-1.500000e-02
4.031600e-07,2.500000e-03
4.111600e-07,-2.125000e-02
4.191600e-07,1.625000e-02
4.271600e-07,-7.500000e-03
4.351600e-07,1.000000e-02
4.431600e-07,1.375000e-02
4.511600e-07,2.375000e-02
4.591600e-07,-5.000000e-03
4.671600e-07,1.375000e-02
4.751600e-07,-3.000000e-02
4.831600e-07,2.625000e-02
4.911600e-07,-5.000000e-03
4.991600e-07,3.000000e-02
5.071600e-07,-2.500000e-02
5.151600e-07,7.500000e-03
5.231600e-07,-2.125000e-02
5.311600e-07,6.250000e-03
5.391600e-07,-2.375000e-02
5.471600e-07,8.750000e-03
5.551600e-07,-3.000000e-02
5.631600e-07,2.250000e-02
5.711600e-07,-2.375000e-02
5.791600e-07,-1.250000e-03
5.871600e-07,-4.000000e-02
5.951600e-07,2.500000e-03
6.031600e-07,-1.500000e-02
6.111600e-07,1.875000e-02
6.191600e-07,-8.750000e-03
6.271600e-07,1.000000e-02
6.351600e-07,0.000000e+00
6.431600e-07,4.375000e-02
6.511600e-07,-2.375000e-02
6.591600e-07,2.375000e-02
6.671600e-07,-5.125000e-02
6.751600e-07,2.250000e-02
6.831600e-07,-1.625000e-02
6.911600e-07,3.875000e-02
6.991600e-07,-2.500000e-02
7.071600e-07,6.250000e-03
7.151600e-07,5.000000e-03
7.231600e-07,0.000000e+00
7.311600e-07,-3.625000e-02
7.391600e-07,1.750000e-02
7.471600e-07,-3.750000e-03
7.551600e-07,2.625000e-02
7.631600e-07,1.125000e-02
7.711600e-07,1.625000e-02
7.791600e-07,-2.875000e-02
7.871600e-07,3.250000e-02
7.951600e-07,-2.875000e-02
