run1/run1_ch3_20210318180154036.csv

Model,MSO64
Waveform Type,ANALOG
Horizontal Units,s
Sample Interval,8.000000e-09
Record Length,1250
Zero Index,624.162656
Vertical Units,V

TIME,CH3
-4.993301e-06,-7.528125e-01
-4.985301e-06,-7.490625e-01
-4.977301e-06,-7.531250e-01
-4.969301e-06,-7.331250e-01
-4.961301e-06,-7.462500e-01
-4.953301e-06,-7.234375e-01
-4.945301e-06,-7.337500e-01
-4.937301e-06,-7.256250e-01
-4.929301e-06,-7.459375e-01
-4.921301e-06,-7.321875e-01
-4.913301e-06,-7.568750e-01
-4.905301e-06,-7.318750e-01
-4.897301e-06,-7.556250e-01
-4.889301e-06,-7.409375e-01
-4.881301e-06,-7.487500e-01
-4.873301e-06,-7.459375e-01
-4.865301e-06,-7.456250e-01
-4.857301e-06,-7.478125e-01
-4.849301e-06,-7.534375e-01
-4.841301e-06,-7.246875e-01
-4.833301e-06,-7.543750e-01
-4.825301e-06,-7.287500e-01
-4.817301e-06,-7.456250e-01
-4.809301e-06,-7.375000e-01
-4.801301e-06,-7.600000e-01
-4.793301e-06,-7.306250e-01
-4.785301e-06,-7.490625e-01
-4.777301e-06,-7.443750e-01
-4.769301e-06,-7.509375e-01
-4.761301e-06,-7.296875e-01
-4.753301e-06,-7.506250e-01
-4.745301e-06,-7.500000e-01
-4.737301e-06,-7.403125e-01
-4.729301e-06,-7.406250e-01
-4.721301e-06,-7.656250e-01
-4.713301e-06,-7.362500e-01
-4.705301e-06,-7.453125e-01
-4.697301e-06,-7.440625e-01
-4.689301e-06,-7.356250e-01
-4.681301e-06,-7.465625e-01
-4.673301e-06,-7.515625e-01
-4.665301e-06,-7.534375e-01
-4.657301e-06,-7.525000e-01
-4.649301e-06,-7.325000e-01
-4.641301e-06,-7.512500e-01
-4.633301e-06,-7.278125e-01
-4.625301e-06,-7.540625e-01
-4.617301e-06,-7.300000e-01
-4.609301e-06,-7.484375e-01
-4.601301e-06,-7.371875e-01
-4.593301e-06,-7.503125e-01
-4.585301e-06,-7.296875e-01
-4.577301e-06,-7.456250e-01
-4.569301e-06,-7.390625e-01
-4.561301e-06,-7.306250e-01
-4.553301e-06,-7.350000e-01
-4.545301e-06,-7.503125e-01
-4.537301e-06,-7.325000e-01
-4.529301e-06,-7.534375e-01
-4.521301e-06,-7.346875e-01
-4.513301e-06,-7.506250e-01
-4.505301e-06,-7.187500e-01
-4.497301e-06,-7.537500e-01
-4.489301e-06,-7.356250e-01
-4.481301e-06,-7.515625e-01
-4.473301e-06,-7.490625e-01
-4.465301e-06,-7.428125e-01
-4.457301e-06,-7.390625e-01
-4.449301e-06,-7.512500e-01
-4.441301e-06,-7.243750e-01
-4.433301e-06,-7.425000e-01
-4.425301e-06,-7.437500e-01
-4.417301e-06,-7.425000e-01
-4.409301e-06,-7.281250e-01
-4.401301e-06,-7.559375e-01
-4.393301e-06,-7.243750e-01
-4.385301e-06,-7.300000e-01
-4.377301e-06,-7.390625e-01
-4.369301e-06,-7.437500e-01
-4.361301e-06,-7.471875e-01
-4.353301e-06,-7.565625e-01
-4.345301e-06,-7.368750e-01
-4.337301e-06,-7.553125e-01
-4.329301e-06,-7.478125e-01
-4.321301e-06,-7.506250e-01
-4.313301e-06,-7.378125e-01
-4.305301e-06,-7.465625e-01
-4.297301e-06,-7.275000e-01
-4.289301e-06,-7.593750e-01
-4.281301e-06,-7.325000e-01
-4.273301e-06,-7.465625e-01
-4.265301e-06,-7.371875e-01
-4.257301e-06,-7.293750e-01
-4.249301e-06,-7.259375e-01
-4.241301e-06,-7.600000e-01
-4.233301e-06,-7.318750e-01
-4.225301e-06,-7.381250e-01
-4.217301e-06,-7.353125e-01
-4.209301e-06,-7.593750e-01
-4.201301e-06,-7.365625e-01
-4.193301e-06,-7.415625e-01
-4.185301e-06,-7.321875e-01
-4.177301e-06,-7.312500e-01
-4.169301e-06,-7.365625e-01
-4.161301e-06,-7.446875e-01
-4.153301e-06,-7.250000e-01
-4.145301e-06,-7.450000e-01
-4.137301e-06,-7.375000e-01
-4.129301e-06,-7.400000e-01
-4.121301e-06,-7.228125e-01
-4.113301e-06,-7.543750e-01
-4.105301e-06,-7.481250e-01
-4.097301e-06,-7.540625e-01
-4.089301e-06,-7.384375e-01
-4.081301e-06,-7.500000e-01
-4.073301e-06,-7.281250e-01
-4.065301e-06,-7.437500e-01
-4.057301e-06,-7.325000e-01
-4.049301e-06,-7.390625e-01
-4.041301e-06,-7.415625e-01
-4.033301e-06,-7.537500e-01
-4.025301e-06,-7.328125e-01
-4.017301e-06,-7.493750e-01
-4.009301e-06,-7.321875e-01
-4.001301e-06,-7.518750e-01
-3.993301e-06,-7.159375e-01
-3.985301e-06,-7.434375e-01
-3.977301e-06,-7.525000e-01
-3.969301e-06,-7.459375e-01
-3.961301e-06,-7.356250e-01
-3.953301e-06,-7.565625e-01
-3.945301e-06,-7.256250e-01
-3.937301e-06,-7.500000e-01
-3.929301e-06,-7.368750e-01
-3.921301e-06,-7.356250e-01
-3.913301e-06,-7.490625e-01
-3.905301e-06,-7.537500e-01
-3.897301e-06,-7.356250e-01
-3.889301e-06,-7.550000e-01
-3.881301e-06,-7.250000e-01
-3.873301e-06,-7.406250e-01
-3.865301e-06,-7.234375e-01
-3.857301e-06,-7.493750e-01
-3.849301e-06,-7.475000e-01
-3.841301e-06,-7.540625e-01
-3.833301e-06,-7.475000e-01
-3.825301e-06,-7.550000e-01
-3.817301e-06,-7.196875e-01
-3.809301e-06,-7.484375e-01
-3.801301e-06,-7.246875e-01
-3.793301e-06,-7.384375e-01
-3.785301e-06,-7.325000e-01
-3.777301e-06,-7.534375e-01
-3.769301e-06,-7.353125e-01
-3.761301e-06,-7.515625e-01
-3.753301e-06,-7.287500e-01
-3.745301e-06,-7.446875e-01
-3.737301e-06,-7.259375e-01
-3.729301e-06,-7.550000e-01
-3.721301e-06,-7.443750e-01
-3.713301e-06,-7.471875e-01
-3.705301e-06,-7.325000e-01
-3.697301e-06,-7.518750e-01
-3.689301e-06,-7.328125e-01
-3.681301e-06,-7.337500e-01
-3.673301e-06,-7.215625e-01
-3.665301e-06,-7.409375e-01
-3.657301e-06,-7.265625e-01
-3.649301e-06,-7.671875e-01
-3.641301e-06,-7.350000e-01
-3.633301e-06,-7.471875e-01
-3.625301e-06,-7.306250e-01
-3.617301e-06,-7.443750e-01
-3.609301e-06,-7.243750e-01
-3.601301e-06,-7.500000e-01
-3.593301e-06,-7.456250e-01
-3.585301e-06,-7.525000e-01
-3.577301e-06,-7.425000e-01
-3.569301e-06,-7.512500e-01
-3.561301e-06,-7.237500e-01
-3.553301e-06,-7.456250e-01
-3.545301e-06,-7.284375e-01
-3.537301e-06,-7.506250e-01
-3.529301e-06,-7.331250e-01
-3.521301e-06,-7.506250e-01
-3.513301e-06,-7.243750e-01
-3.505301e-06,-7.475000e-01
-3.497301e-06,-7.275000e-01
-3.489301e-06,-7.443750e-01
-3.481301e-06,-7.178125e-01
-3.473301e-06,-7.543750e-01
-3.465301e-06,-7.437500e-01
-3.457301e-06,-7.553125e-01
-3.449301e-06,-7.368750e-01
-3.441301e-06,-7.556250e-01
-3.433301e-06,-7.331250e-01
-3.425301e-06,-7.537500e-01
-3.417301e-06,-7.262500e-01
-3.409301e-06,-7.415625e-01
-3.401301e-06,-7.428125e-01
-3.393301e-06,-7.550000e-01
-3.385301e-06,-7.312500e-01
-3.377301e-06,-7.675000e-01
-3.369301e-06,-7.256250e-01
-3.361301e-06,-7.621875e-01
-3.353301e-06,-7.156250e-01
-3.345301e-06,-7.431250e-01
-3.337301e-06,-7.453125e-01
-3.329301e-06,-7.506250e-01
-3.321301e-06,-7.431250e-01
-3.313301e-06,-7.487500e-01
-3.305301e-06,-7.312500e-01
-3.297301e-06,-7.481250e-01
-3.289301e-06,-7.265625e-01
-3.281301e-06,-7.384375e-01
-3.273301e-06,-7.343750e-01
-3.265301e-06,-7.493750e-01
-3.257301e-06,-7.256250e-01
-3.249301e-06,-7.503125e-01
-3.241301e-06,-7.365625e-01
-3.233301e-06,-7.400000e-01
-3.225301e-06,-7.271875e-01
-3.217301e-06,-7.490625e-01
-3.209301e-06,-7.387500e-01
-3.201301e-06,-7.353125e-01
-3.193301e-06,-7.350000e-01
-3.185301e-06,-7.656250e-01
-3.177301e-06,-7.378125e-01
-3.169301e-06,-7.415625e-01
-3.161301e-06,-7.309375e-01
-3.153301e-06,-7.428125e-01
-3.145301e-06,-7.253125e-01
-3.137301e-06,-7.637500e-01
-3.129301e-06,-7.465625e-01
-3.121301e-06,-7.471875e-01
-3.113301e-06,-7.375000e-01
-3.105301e-06,-7.556250e-01
-3.097301e-06,-7.306250e-01
-3.089301e-06,-7.581250e-01
-3.081301e-06,-7.415625e-01
-3.073301e-06,-7.515625e-01
-3.065301e-06,-7.350000e-01
-3.057301e-06,-7.543750e-01
-3.049301e-06,-7.234375e-01
-3.041301e-06,-7.412500e-01
-3.033301e-06,-7.456250e-01
-3.025301e-06,-7.525000e-01
-3.017301e-06,-7.387500e-01
-3.009301e-06,-7.537500e-01
-3.001301e-06,-7.318750e-01
-2.993301e-06,-7.543750e-01
-2.985301e-06,-7.278125e-01
-2.977301e-06,-7.356250e-01
-2.969301e-06,-7.281250e-01
-2.961301e-06,-7.506250e-01
-2.953301e-06,-7.343750e-01
-2.945301e-06,-7.562500e-01
-2.937301e-06,-7.362500e-01
-2.929301e-06,-7.506250e-01
-2.921301e-06,-7.362500e-01
-2.913301e-06,-7.478125e-01
-2.905301e-06,-7.306250e-01
-2.897301e-06,-7.434375e-01
-2.889301e-06,-7.434375e-01
-2.881301e-06,-7.506250e-01
-2.873301e-06,-7.431250e-01
-2.865301e-06,-7.643750e-01
-2.857301e-06,-7.443750e-01
-2.849301e-06,-7.362500e-01
-2.841301e-06,-7.303125e-01
-2.833301e-06,-7.612500e-01
-2.825301e-06,-7.490625e-01
-2.817301e-06,-7.471875e-01
-2.809301e-06,-7.418750e-01
-2.801301e-06,-7.596875e-01
-2.793301e-06,-7.425000e-01
-2.785301e-06,-7.625000e-01
-2.777301e-06,-7.331250e-01
-2.769301e-06,-7.381250e-01
-2.761301e-06,-7.368750e-01
-2.753301e-06,-7.562500e-01
-2.745301e-06,-7.331250e-01
-2.737301e-06,-7.531250e-01
-2.729301e-06,-7.315625e-01
-2.721301e-06,-7.521875e-01
-2.713301e-06,-7.256250e-01
-2.705301e-06,-7.493750e-01
-2.697301e-06,-7.390625e-01
-2.689301e-06,-7.446875e-01
-2.681301e-06,-7.350000e-01
-2.673301e-06,-7.471875e-01
-2.665301e-06,-7.375000e-01
-2.657301e-06,-7.412500e-01
-2.649301e-06,-7.296875e-01
-2.641301e-06,-7.343750e-01
-2.633301e-06,-7.325000e-01
-2.625301e-06,-7.600000e-01
-2.617301e-06,-7.400000e-01
-2.609301e-06,-7.540625e-01
-2.601301e-06,-7.378125e-01
-2.593301e-06,-7.518750e-01
-2.585301e-06,-7.175000e-01
-2.577301e-06,-7.431250e-01
-2.569301e-06,-7.515625e-01
-2.561301e-06,-7.528125e-01
-2.553301e-06,-7.265625e-01
-2.545301e-06,-7.587500e-01
-2.537301e-06,-7.287500e-01
-2.529301e-06,-7.503125e-01
-2.521301e-06,-7.237500e-01
-2.513301e-06,-7.434375e-01
-2.505301e-06,-7.375000e-01
-2.497301e-06,-7.581250e-01
-2.489301e-06,-7.225000e-01
-2.481301e-06,-7.531250e-01
-2.473301e-06,-7.303125e-01
-2.465301e-06,-7.368750e-01
-2.457301e-06,-7.287500e-01
-2.449301e-06,-7.512500e-01
-2.441301e-06,-7.387500e-01
-2.433301e-06,-7.534375e-01
-2.425301e-06,-7.421875e-01
-2.417301e-06,-7.362500e-01
-2.409301e-06,-7.293750e-01
-2.401301e-06,-7.465625e-01
-2.393301e-06,-7.168750e-01
-2.385301e-06,-7.493750e-01
-2.377301e-06,-7.287500e-01
-2.369301e-06,-7.575000e-01
-2.361301e-06,-7.281250e-01
-2.353301e-06,-7.459375e-01
-2.345301e-06,-7.400000e-01
-2.337301e-06,-7.453125e-01
-2.329301e-06,-7.206250e-01
-2.321301e-06,-7.453125e-01
-2.313301e-06,-7.462500e-01
-2.305301e-06,-7.512500e-01
-2.297301e-06,-7.443750e-01
-2.289301e-06,-7.678125e-01
-2.281301e-06,-7.309375e-01
-2.273301e-06,-7.371875e-01
-2.265301e-06,-7.218750e-01
-2.257301e-06,-7.368750e-01
-2.249301e-06,-7.275000e-01
-2.241301e-06,-7.456250e-01
-2.233301e-06,-7.318750e-01
-2.225301e-06,-7.643750e-01
-2.217301e-06,-7.212500e-01
-2.209301e-06,-7.456250e-01
-2.201301e-06,-7.156250e-01
-2.193301e-06,-7.346875e-01
-2.185301e-06,-7.571875e-01
-2.177301e-06,-7.556250e-01
-2.169301e-06,-7.465625e-01
-2.161301e-06,-7.512500e-01
-2.153301e-06,-7.181250e-01
-2.145301e-06,-7.481250e-01
-2.137301e-06,-7.215625e-01
-2.129301e-06,-7.381250e-01
-2.121301e-06,-7.484375e-01
-2.113301e-06,-7.631250e-01
-2.105301e-06,-7.471875e-01
-2.097301e-06,-7.540625e-01
-2.089301e-06,-7.331250e-01
-2.081301e-06,-7.431250e-01
-2.073301e-06,-7.284375e-01
-2.065301e-06,-7.503125e-01
-2.057301e-06,-7.559375e-01
-2.049301e-06,-7.496875e-01
-2.041301e-06,-7.496875e-01
-2.033301e-06,-7.518750e-01
-2.025301e-06,-7.253125e-01
-2.017301e-06,-7.312500e-01
-2.009301e-06,-7.375000e-01
-2.001301e-06,-7.475000e-01
-1.993301e-06,-7.325000e-01
-1.985301e-06,-7.556250e-01
-1.977301e-06,-7.268750e-01
-1.969301e-06,-7.615625e-01
-1.961301e-06,-7.287500e-01
-1.953301e-06,-7.487500e-01
-1.945301e-06,-7.218750e-01
-1.937301e-06,-7.481250e-01
-1.929301e-06,-7.384375e-01
-1.921301e-06,-7.637500e-01
-1.913301e-06,-7.393750e-01
-1.905301e-06,-7.440625e-01
-1.897301e-06,-7.306250e-01
-1.889301e-06,-7.443750e-01
-1.881301e-06,-7.375000e-01
-1.873301e-06,-7.471875e-01
-1.865301e-06,-7.334375e-01
-1.857301e-06,-7.403125e-01
-1.849301e-06,-7.293750e-01
-1.841301e-06,-7.575000e-01
-1.833301e-06,-7.409375e-01
-1.825301e-06,-7.506250e-01
-1.817301e-06,-7.306250e-01
-1.809301e-06,-7.543750e-01
-1.801301e-06,-7.418750e-01
-1.793301e-06,-7.606250e-01
-1.785301e-06,-7.384375e-01
-1.777301e-06,-7.393750e-01
-1.769301e-06,-7.178125e-01
-1.761301e-06,-7.425000e-01
-1.753301e-06,-7.353125e-01
-1.745301e-06,-7.537500e-01
-1.737301e-06,-7.375000e-01
-1.729301e-06,-7.687500e-01
-1.721301e-06,-7.356250e-01
-1.713301e-06,-7.568750e-01
-1.705301e-06,-7.350000e-01
-1.697301e-06,-7.343750e-01
-1.689301e-06,-7.240625e-01
-1.681301e-06,-7.390625e-01
-1.673301e-06,-7.512500e-01
-1.665301e-06,-7.537500e-01
-1.657301e-06,-7.462500e-01
-1.649301e-06,-7.600000e-01
-1.641301e-06,-7.262500e-01
-1.633301e-06,-7.493750e-01
-1.625301e-06,-7.284375e-01
-1.617301e-06,-7.306250e-01
-1.609301e-06,-7.300000e-01
-1.601301e-06,-7.506250e-01
-1.593301e-06,-7.431250e-01
-1.585301e-06,-7.503125e-01
-1.577301e-06,-7.350000e-01
-1.569301e-06,-7.340625e-01
-1.561301e-06,-7.162500e-01
-1.553301e-06,-7.359375e-01
-1.545301e-06,-7.343750e-01
-1.537301e-06,-7.318750e-01
-1.529301e-06,-7.375000e-01
-1.521301e-06,-7.528125e-01
-1.513301e-06,-7.343750e-01
-1.505301e-06,-7.543750e-01
-1.497301e-06,-7.168750e-01
-1.489301e-06,-7.331250e-01
-1.481301e-06,-7.278125e-01
-1.473301e-06,-7.509375e-01
-1.465301e-06,-7.331250e-01
-1.457301e-06,-7.356250e-01
-1.449301e-06,-7.343750e-01
-1.441301e-06,-7.493750e-01
-1.433301e-06,-7.300000e-01
-1.425301e-06,-7.518750e-01
-1.417301e-06,-7.475000e-01
-1.409301e-06,-7.446875e-01
-1.401301e-06,-7.384375e-01
-1.393301e-06,-7.550000e-01
-1.385301e-06,-7.312500e-01
-1.377301e-06,-7.409375e-01
-1.369301e-06,-7.237500e-01
-1.361301e-06,-7.431250e-01
-1.353301e-06,-7.318750e-01
-1.345301e-06,-7.468750e-01
-1.337301e-06,-7.215625e-01
-1.329301e-06,-7.528125e-01
-1.321301e-06,-7.293750e-01
-1.313301e-06,-7.368750e-01
-1.305301e-06,-7.253125e-01
-1.297301e-06,-7.462500e-01
-1.289301e-06,-7.525000e-01
-1.281301e-06,-7.471875e-01
-1.273301e-06,-7.337500e-01
-1.265301e-06,-7.459375e-01
-1.257301e-06,-7.250000e-01
-1.249301e-06,-7.368750e-01
-1.241301e-06,-7.375000e-01
-1.233301e-06,-7.462500e-01
-1.225301e-06,-7.200000e-01
-1.217301e-06,-7.537500e-01
-1.209301e-06,-7.281250e-01
-1.201301e-06,-7.568750e-01
-1.193301e-06,-7.312500e-01
-1.185301e-06,-7.393750e-01
-1.177301e-06,-7.312500e-01
-1.169301e-06,-7.428125e-01
-1.161301e-06,-7.481250e-01
-1.153301e-06,-7.365625e-01
-1.145301e-06,-7.418750e-01
-1.137301e-06,-7.490625e-01
-1.129301e-06,-7.331250e-01
-1.121301e-06,-7.375000e-01
-1.113301e-06,-7.287500e-01
-1.105301e-06,-7.306250e-01
-1.097301e-06,-7.268750e-01
-1.089301e-06,-7.384375e-01
-1.081301e-06,-7.275000e-01
-1.073301e-06,-7.484375e-01
-1.065301e-06,-7.356250e-01
-1.057301e-06,-7.343750e-01
-1.049301e-06,-7.190625e-01
-1.041301e-06,-7.475000e-01
-1.033301e-06,-7.531250e-01
-1.025301e-06,-7.550000e-01
-1.017301e-06,-7.453125e-01
-1.009301e-06,-7.546875e-01
-1.001301e-06,-7.328125e-01
-9.933013e-07,-7.356250e-01
-9.853013e-07,-7.221875e-01
-9.773013e-07,-7.284375e-01
-9.693013e-07,-7.268750e-01
-9.613013e-07,-7.646875e-01
-9.533013e-07,-7.331250e-01
-9.453013e-07,-7.540625e-01
-9.373013e-07,-7.431250e-01
-9.293013e-07,-7.387500e-01
-9.213013e-07,-7.306250e-01
-9.133013e-07,-7.450000e-01
-9.053013e-07,-7.368750e-01
-8.973013e-07,-7.462500e-01
-8.893013e-07,-7.418750e-01
-8.813013e-07,-7.509375e-01
-8.733013e-07,-7.343750e-01
-8.653013e-07,-7.390625e-01
-8.573013e-07,-7.337500e-01
-8.493013e-07,-7.462500e-01
-8.413013e-07,-7.303125e-01
-8.333013e-07,-7.425000e-01
-8.253013e-07,-7.371875e-01
-8.173013e-07,-7.506250e-01
-8.093013e-07,-7.315625e-01
-8.013013e-07,-7.368750e-01
-7.933013e-07,-7.303125e-01
-7.853013e-07,-7.446875e-01
-7.773013e-07,-7.481250e-01
-7.693013e-07,-7.528125e-01
-7.613013e-07,-7.484375e-01
-7.533013e-07,-7.550000e-01
-7.453013e-07,-7.250000e-01
-7.373013e-07,-7.481250e-01
-7.293013e-07,-7.284375e-01
-7.213013e-07,-7.475000e-01
-7.133013e-07,-7.437500e-01
-7.053013e-07,-7.590625e-01
-6.973013e-07,-7.246875e-01
-6.893013e-07,-7.553125e-01
-6.813013e-07,-7.328125e-01
-6.733013e-07,-7.512500e-01
-6.653013e-07,-7.225000e-01
-6.573013e-07,-7.487500e-01
-6.493013e-07,-7.468750e-01
-6.413013e-07,-7.503125e-01
-6.333013e-07,-7.337500e-01
-6.253013e-07,-7.581250e-01
-6.173013e-07,-7.259375e-01
-6.093013e-07,-7.456250e-01
-6.013013e-07,-7.350000e-01
-5.933013e-07,-7.440625e-01
-5.853013e-07,-7.375000e-01
-5.773013e-07,-7.612500e-01
-5.693013e-07,-7.412500e-01
-5.613013e-07,-7.637500e-01
-5.533013e-07,-7.390625e-01
-5.453013e-07,-7.434375e-01
-5.373013e-07,-7.203125e-01
-5.293013e-07,-7.431250e-01
-5.213013e-07,-7.331250e-01
-5.133013e-07,-7.568750e-01
-5.053013e-07,-7.346875e-01
-4.973013e-07,-7.443750e-01
-4.893013e-07,-7.234375e-01
-4.813013e-07,-7.512500e-01
-4.733013e-07,-7.171875e-01
-4.653013e-07,-7.462500e-01
-4.573013e-07,-7.331250e-01
-4.493013e-07,-7.440625e-01
-4.413013e-07,-7.340625e-01
-4.333013e-07,-7.540625e-01
-4.253013e-07,-7.343750e-01
-4.173013e-07,-7.481250e-01
-4.093013e-07,-7.300000e-01
-4.013013e-07,-7.415625e-01
-3.933013e-07,-7.437500e-01
-3.853013e-07,-7.484375e-01
-3.773013e-07,-7.503125e-01
-3.693013e-07,-7.503125e-01
-3.613013e-07,-7.221875e-01
-3.533013e-07,-7.368750e-01
-3.453013e-07,-7.303125e-01
-3.373013e-07,-7.312500e-01
-3.293013e-07,-7.365625e-01
-3.213013e-07,-7.506250e-01
-3.133013e-07,-7.437500e-01
-3.053013e-07,-7.540625e-01
-2.973013e-07,-7.475000e-01
-2.893013e-07,-7.475000e-01
-2.813013e-07,-7.240625e-01
-2.733013e-07,-7.409375e-01
-2.653013e-07,-7.421875e-01
-2.573013e-07,-7.528125e-01
-2.493013e-07,-7.259375e-01
-2.413013e-07,-7.493750e-01
-2.333013e-07,-7.306250e-01
-2.253013e-07,-7.425000e-01
-2.173013e-07,-7.256250e-01
-2.093013e-07,-7.368750e-01
-2.013013e-07,-7.250000e-01
-1.933013e-07,-7.496875e-01
-1.853013e-07,-7.418750e-01
-1.773013e-07,-7.650000e-01
-1.693013e-07,-7.346875e-01
-1.613013e-07,-7.487500e-01
-1.533013e-07,-7.218750e-01
-1.453013e-07,-7.471875e-01
-1.373013e-07,-7.459375e-01
-1.293013e-07,-7.518750e-01
-1.213013e-07,-7.446875e-01
-1.133013e-07,-7.618750e-01
-1.053013e-07,-7.309375e-01
-9.730125e-08,-7.509375e-01
-8.930125e-08,-7.284375e-01
-8.130125e-08,-7.321875e-01
-7.330125e-08,-7.325000e-01
-6.530125e-08,-7.543750e-01
-5.730125e-08,-7.312500e-01
-4.930125e-08,-7.628125e-01
-4.130125e-08,-7.381250e-01
-3.330125e-08,-7.431250e-01
-2.530125e-08,-7.178125e-01
-1.730125e-08,-7.537500e-01
-9.301250e-09,-7.443750e-01
-1.301250e-09,-7.334375e-01
6.698750e-09,-7.387500e-01
1.469875e-08,-7.496875e-01
2.269875e-08,-7.268750e-01
3.069875e-08,-7.562500e-01
3.869875e-08,-7.331250e-01
4.669875e-08,-7.440625e-01
5.469875e-08,-7.275000e-01
6.269875e-08,-7.587500e-01
7.069875e-08,-7.443750e-01
7.869875e-08,-7.484375e-01
8.669875e-08,-7.275000e-01
9.469875e-08,-7.428125e-01
1.026987e-07,-7.253125e-01
1.106987e-07,-7.593750e-01
1.186987e-07,-7.318750e-01
1.266987e-07,-7.465625e-01
1.346987e-07,-7.440625e-01
1.426987e-07,-7.515625e-01
1.506987e-07,-7.168750e-01
1.586987e-07,-7.368750e-01
1.666987e-07,-7.296875e-01
1.746987e-07,-7.415625e-01
1.826987e-07,-7.165625e-01
1.906987e-07,-7.493750e-01
1.986987e-07,-7.381250e-01
2.066987e-07,-7.525000e-01
2.146987e-07,-7.315625e-01
2.226987e-07,-7.450000e-01
2.306987e-07,-7.259375e-01
2.386987e-07,-7.600000e-01
2.466987e-07,-7.421875e-01
2.546987e-07,-7.493750e-01
2.626987e-07,-7.425000e-01
2.706987e-07,-7.581250e-01
2.786987e-07,-7.259375e-01
2.866987e-07,-7.337500e-01
2.946987e-07,-7.315625e-01
3.026987e-07,-7.359375e-01
3.106987e-07,-7.209375e-01
3.186987e-07,-7.587500e-01
3.266987e-07,-7.431250e-01
3.346987e-07,-7.515625e-01
3.426987e-07,-7.300000e-01
3.506987e-07,-7.475000e-01
3.586987e-07,-7.325000e-01
3.666987e-07,-7.600000e-01
3.746987e-07,-7.453125e-01
3.826987e-07,-7.487500e-01
3.906987e-07,-7.456250e-01
3.986987e-07,-7.534375e-01
4.066987e-07,-7.309375e-01
4.146987e-07,-7.543750e-01
4.226987e-07,-7.346875e-01
4.306987e-07,-7.478125e-01
4.386987e-07,-7.443750e-01
4.466987e-07,-7.509375e-01
4.546987e-07,-7.231250e-01
4.626987e-07,-7.584375e-01
4.706987e-07,-7.346875e-01
4.786987e-07,-7.384375e-01
4.866987e-07,-7.156250e-01
4.946987e-07,-7.428125e-01
5.026987e-07,-7.375000e-01
5.106987e-07,-7.446875e-01
5.186987e-07,-7.428125e-01
5.266987e-07,-7.503125e-01
5.346987e-07,-7.281250e-01
5.426987e-07,-7.318750e-01
5.506987e-07,-7.315625e-01
5.586987e-07,-7.365625e-01
5.666987e-07,-7.334375e-01
5.746987e-07,-7.496875e-01
5.826987e-07,-7.350000e-01
5.906987e-07,-7.437500e-01
5.986987e-07,-7.375000e-01
6.066987e-07,-7.462500e-01
6.146987e-07,-7.243750e-01
6.226987e-07,-7.559375e-01
6.306987e-07,-7.381250e-01
6.386987e-07,-7.450000e-01
6.466987e-07,-7.359375e-01
6.546987e-07,-7.606250e-01
6.626987e-07,-7.256250e-01
6.706987e-07,-7.468750e-01
6.786987e-07,-7.303125e-01
6.866987e-07,-7.318750e-01
6.946987e-07,-7.312500e-01
