run1/run1_ch1_20210318180249279.csv

Model,MSO64
Waveform Type,ANALOG
Horizontal Units,s
Sample Interval,8.000000e-09
Record Length,1250
Zero Index,624.675156
Vertical Units,V

TIME,CH1
-4.997401e-06,2.750000e-02
-4.989401e-06,-3.750000e-02
-4.981401e-06,2.500000e-02
-4.973401e-06,-1.375000e-02
-4.965401e-06,1.375000e-02
-4.957401e-06,-3.750000e-03
-4.949401e-06,8.750000e-03
-4.941401e-06,-1.375000e-02
-4.933401e-06,1.250000e-03
-4.925401e-06,-2.500000e-03
-4.917401e-06,1.875000e-02
-4.909401e-06,-2.375000e-02
-4.901401e-06,1.250000e-02
-4.893401e-06,-2.375000e-02
-4.885401e-06,2.125000e-02
-4.877401e-06,-1.375000e-02
-4.869401e-06,-3.750000e-03
-4.861401e-06,-1.625000e-02
-4.853401e-06,7.500000e-03
-4.845401e-06,-3.125000e-02
-4.837401e-06,1.250000e-02
-4.829401e-06,-1.250000e-02
-4.821401e-06,2.750000e-02
-4.813401e-06,-6.250000e-03
-4.805401e-06,2.875000e-02
-4.797401e-06,-1.125000e-02
-4.789401e-06,2.250000e-02
-4.781401e-06,-2.250000e-02
-4.773401e-06,8.750000e-03
-4.765401e-06,-1.875000e-02
-4.757401e-06,7.500000e-03
-4.749401e-06,-6.250000e-03
-4.741401e-06,2.250000e-02
-4.733401e-06,6.250000e-03
-4.725401e-06,2.625000e-02
-4.717401e-06,2.500000e-03
-4.709401e-06,1.000000e-02
-4.701401e-06,-5.000000e-03
-4.693401e-06,1.625000e-02
-4.685401e-06,-7.500000e-03
-4.677401e-06,3.125000e-02
-4.669401e-06,-5.000000e-03
-4.661401e-06,2.125000e-02
-4.653401e-06,-8.750000e-03
-4.645401e-06,2.000000e-02
-4.637401e-06,1.000000e-02
-4.629401e-06,2.875000e-02
-4.621401e-06,-1.750000e-02
-4.613401e-06,1.125000e-02
-4.605401e-06,1.750000e-02
-4.597401e-06,1.500000e-02
-4.589401e-06,5.000000e-03
-4.581401e-06,-3.750000e-03
-4.573401e-06,6.250000e-03
-4.565401e-06,2.625000e-02
-4.557401e-06,-1.250000e-02
-4.549401e-06,3.250000e-02
-4.541401e-06,1.625000e-02
-4.533401e-06,1.625000e-02
-4.525401e-06,-1.500000e-02
-4.517401e-06,1.625000e-02
-4.509401e-06,5.000000e-03
-4.501401e-06,1.375000e-02
-4.493401e-06,-7.500000e-03
-4.485401e-06,3.000000e-02
-4.477401e-06,-1.875000e-02
-4.469401e-06,2.750000e-02
-4.461401e-06,-5.000000e-03
-4.453401e-06,4.125000e-02
-4.445401e-06,-2.000000e-02
-4.437401e-06,1.875000e-02
-4.429401e-06,-1.875000e-02
-4.421401e-06,1.625000e-02
-4.413401e-06,-6.250000e-03
-4.405401e-06,-2.500000e-03
-4.397401e-06,-8.750000e-03
-4.389401e-06,5.000000e-03
-4.381401e-06,-3.000000e-02
-4.373401e-06,3.000000e-02
-4.365401e-06,-4.000000e-02
-4.357401e-06,-2.500000e-03
-4.349401e-06,1.250000e-03
-4.341401e-06,3.625000e-02
-4.333401e-06,-1.250000e-02
-4.325401e-06,1.750000e-02
-4.317401e-06,-1.500000e-02
-4.309401e-06,-1.250000e-02
-4.301401e-06,-1.250000e-03
-4.293401e-06,2.125000e-02
-4.285401e-06,-3.125000e-02
-4.277401e-06,1.625000e-02
-4.269401e-06,-1.250000e-02
-4.261401e-06,2.625000e-02
-4.253401e-06,-1.875000e-02
-4.245401e-06,1.750000e-02
-4.237401e-06,-2.500000e-02
-4.229401e-06,1.750000e-02
-4.221401e-06,1.250000e-02
-4.213401e-06,2.375000e-02
-4.205401e-06,-2.375000e-02
-4.197401e-06,1.500000e-02
-4.189401e-06,-2.500000e-02
-4.181401e-06,1.500000e-02
-4.173401e-06,-2.625000e-02
-4.165401e-06,2.875000e-02
-4.157401e-06,-1.375000e-02
-4.149401e-06,7.500000e-03
-4.141401e-06,1.625000e-02
-4.133401e-06,1.750000e-02
-4.125401e-06,-3.750000e-03
-4.117401e-06,1.250000e-03
-4.109401e-06,-2.750000e-02
-4.101401e-06,1.500000e-02
-4.093401e-06,0.000000e+00
-4.085401e-06,4.000000e-02
-4.077401e-06,2.500000e-03
-4.069401e-06,0.000000e+00
-4.061401e-06,-1.375000e-02
-4.053401e-06,2.375000e-02
-4.045401e-06,-1.625000e-02
-4.037401e-06,1.375000e-02
-4.029401e-06,-2.125000e-02
-4.021401e-06,4.375000e-02
-4.013401e-06,-2.500000e-02
-4.005401e-06,1.250000e-03
-3.997401e-06,-2.500000e-03
-3.989401e-06,3.250000e-02
-3.981401e-06,-1.375000e-02
-3.973401e-06,8.750000e-03
-3.965401e-06,-5.000000e-03
-3.957401e-06,1.625000e-02
-3.949401e-06,-1.250000e-03
-3.941401e-06,2.000000e-02
-3.933401e-06,-1.250000e-03
-3.925401e-06,2.625000e-02
-3.917401e-06,-2.000000e-02
-3.909401e-06,1.375000e-02
-3.901401e-06,-2.375000e-02
-3.893401e-06,3.375000e-02
-3.885401e-06,-2.125000e-02
-3.877401e-06,-2.500000e-03
-3.869401e-06,-5.000000e-03
-3.861401e-06,1.875000e-02
-3.853401e-06,-2.125000e-02
-3.845401e-06,5.000000e-03
-3.837401e-06,0.000000e+00
-3.829401e-06,2.375000e-02
-3.821401e-06,-1.875000e-02
-3.813401e-06,7.500000e-03
-3.805401e-06,-2.375000e-02
-3.797401e-06,7.500000e-03
-3.789401e-06,-3.375000e-02
-3.781401e-06,-6.250000e-03
-3.773401e-06,-2.625000e-02
-3.765401e-06,2.500000e-02
-3.757401e-06,-3.750000e-03
-3.749401e-06,1.500000e-02
-3.741401e-06,1.250000e-03
-3.733401e-06,8.750000e-03
-3.725401e-06,-6.250000e-03
-3.717401e-06,-8.750000e-03
-3.709401e-06,-3.750000e-03
-3.701401e-06,1.750000e-02
-3.693401e-06,-1.250000e-02
-3.685401e-06,5.000000e-03
-3.677401e-06,-2.750000e-02
-3.669401e-06,1.375000e-02
-3.661401e-06,1.250000e-02
-3.653401e-06,1.625000e-02
-3.645401e-06,-8.750000e-03
-3.637401e-06,3.000000e-02
-3.629401e-06,-2.500000e-03
-3.621401e-06,-3.750000e-03
-3.613401e-06,3.750000e-03
-3.605401e-06,-5.000000e-03
-3.597401e-06,3.750000e-03
-3.589401e-06,3.375000e-02
-3.581401e-06,-1.125000e-02
-3.573401e-06,-2.500000e-03
-3.565401e-06,-1.625000e-02
-3.557401e-06,2.750000e-02
-3.549401e-06,-1.250000e-02
-3.541401e-06,6.250000e-03
-3.533401e-06,-2.500000e-03
-3.525401e-06,1.250000e-02
-3.517401e-06,-2.000000e-02
-3.509401e-06,2.625000e-02
-3.501401e-06,-1.375000e-02
-3.493401e-06,1.125000e-02
-3.485401e-06,-2.875000e-02
-3.477401e-06,2.000000e-02
-3.469401e-06,-2.625000e-02
-3.461401e-06,1.750000e-02
-3.453401e-06,2.500000e-03
-3.445401e-06,3.125000e-02
-3.437401e-06,5.000000e-03
-3.429401e-06,3.625000e-02
-3.421401e-06,-1.250000e-02
-3.413401e-06,1.250000e-02
-3.405401e-06,-1.375000e-02
-3.397401e-06,1.625000e-02
-3.389401e-06,-1.625000e-02
-3.381401e-06,1.875000e-02
-3.373401e-06,-1.750000e-02
-3.365401e-06,3.750000e-02
-3.357401e-06,-1.000000e-02
-3.349401e-06,1.625000e-02
-3.341401e-06,-3.250000e-02
-3.333401e-06,2.625000e-02
-3.325401e-06,-2.500000e-03
-3.317401e-06,3.000000e-02
-3.309401e-06,1.875000e-02
-3.301401e-06,1.125000e-02
-3.293401e-06,1.125000e-02
-3.285401e-06,2.250000e-02
-3.277401e-06,-2.125000e-02
-3.269401e-06,2.125000e-02
-3.261401e-06,5.000000e-03
-3.253401e-06,2.500000e-02
-3.245401e-06,-1.000000e-02
-3.237401e-06,2.500000e-02
-3.229401e-06,1.625000e-02
-3.221401e-06,2.375000e-02
-3.213401e-06,3.750000e-03
-3.205401e-06,2.875000e-02
-3.197401e-06,1.250000e-03
-3.189401e-06,1.625000e-02
-3.181401e-06,1.125000e-02
-3.173401e-06,3.125000e-02
-3.165401e-06,-2.500000e-03
-3.157401e-06,2.750000e-02
-3.149401e-06,-8.750000e-03
-3.141401e-06,2.625000e-02
-3.133401e-06,-1.375000e-02
-3.125401e-06,3.000000e-02
-3.117401e-06,-5.000000e-03
-3.109401e-06,1.125000e-02
-3.101401e-06,5.000000e-03
-3.093401e-06,-1.000000e-02
-3.085401e-06,-2.125000e-02
-3.077401e-06,1.500000e-02
-3.069401e-06,-5.000000e-03
-3.061401e-06,3.625000e-02
-3.053401e-06,1.625000e-02
-3.045401e-06,6.250000e-03
-3.037401e-06,6.250000e-03
-3.029401e-06,1.500000e-02
-3.021401e-06,-1.000000e-02
-3.013401e-06,6.250000e-03
-3.005401e-06,0.000000e+00
-2.997401e-06,2.125000e-02
-2.989401e-06,8.750000e-03
-2.981401e-06,0.000000e+00
-2.973401e-06,-2.500000e-03
-2.965401e-06,1.375000e-02
-2.957401e-06,-3.000000e-02
-2.949401e-06,1.875000e-02
-2.941401e-06,1.125000e-02
-2.933401e-06,3.000000e-02
-2.925401e-06,-3.750000e-03
-2.917401e-06,2.375000e-02
-2.909401e-06,-1.750000e-02
-2.901401e-06,3.125000e-02
-2.893401e-06,-2.875000e-02
-2.885401e-06,3.125000e-02
-2.877401e-06,-1.000000e-02
-2.869401e-06,2.000000e-02
-2.861401e-06,0.000000e+00
-2.853401e-06,0.000000e+00
-2.845401e-06,-1.000000e-02
-2.837401e-06,-8.750000e-03
-2.829401e-06,-1.000000e-02
-2.821401e-06,5.000000e-03
-2.813401e-06,-6.250000e-03
-2.805401e-06,2.875000e-02
-2.797401e-06,5.000000e-03
-2.789401e-06,-3.750000e-03
-2.781401e-06,-1.125000e-02
-2.773401e-06,1.750000e-02
-2.765401e-06,-3.750000e-03
-2.757401e-06,2.875000e-02
-2.749401e-06,-2.500000e-03
-2.741401e-06,1.000000e-02
-2.733401e-06,6.250000e-03
-2.725401e-06,0.000000e+00
-2.717401e-06,-5.000000e-03
-2.709401e-06,7.500000e-03
-2.701401e-06,-3.250000e-02
-2.693401e-06,3.750000e-03
-2.685401e-06,-3.750000e-03
-2.677401e-06,4.000000e-02
-2.669401e-06,-1.500000e-02
-2.661401e-06,1.750000e-02
-2.653401e-06,-2.125000e-02
-2.645401e-06,1.750000e-02
-2.637401e-06,-2.625000e-02
-2.629401e-06,3.750000e-03
-2.621401e-06,-7.500000e-03
-2.613401e-06,1.375000e-02
-2.605401e-06,-1.250000e-03
-2.597401e-06,8.750000e-03
-2.589401e-06,-6.250000e-03
-2.581401e-06,1.375000e-02
-2.573401e-06,-2.125000e-02
-2.565401e-06,2.625000e-02
-2.557401e-06,1.875000e-02
-2.549401e-06,1.000000e-02
-2.541401e-06,0.000000e+00
-2.533401e-06,8.750000e-03
-2.525401e-06,-1.250000e-03
-2.517401e-06,1.250000e-02
-2.509401e-06,-2.750000e-02
-2.501401e-06,1.750000e-02
-2.493401e-06,1.125000e-02
-2.485401e-06,2.625000e-02
-2.477401e-06,-2.500000e-02
-2.469401e-06,3.750000e-03
-2.461401e-06,1.250000e-03
-2.453401e-06,2.000000e-02
-2.445401e-06,-2.500000e-03
-2.437401e-06,1.250000e-02
-2.429401e-06,2.500000e-03
-2.421401e-06,2.500000e-02
-2.413401e-06,-1.625000e-02
-2.405401e-06,1.125000e-02
-2.397401e-06,-1.250000e-03
-2.389401e-06,-8.750000e-03
-2.381401e-06,3.750000e-03
-2.373401e-06,3.000000e-02
-2.365401e-06,-2.000000e-02
-2.357401e-06,1.500000e-02
-2.349401e-06,-2.500000e-02
-2.341401e-06,1.750000e-02
-2.333401e-06,-2.625000e-02
-2.325401e-06,4.000000e-02
-2.317401e-06,-1.000000e-02
-2.309401e-06,1.125000e-02
-2.301401e-06,2.500000e-03
-2.293401e-06,3.250000e-02
-2.285401e-06,-3.500000e-02
-2.277401e-06,1.500000e-02
-2.269401e-06,-5.000000e-03
-2.261401e-06,-6.250000e-03
-2.253401e-06,-1.375000e-02
-2.245401e-06,2.500000e-02
-2.237401e-06,-1.500000e-02
-2.229401e-06,3.375000e-02
-2.221401e-06,7.500000e-03
-2.213401e-06,2.250000e-02
-2.205401e-06,-2.000000e-02
-2.197401e-06,1.875000e-02
-2.189401e-06,-6.250000e-03
-2.181401e-06,1.875000e-02
-2.173401e-06,-1.250000e-02
-2.165401e-06,6.250000e-03
-2.157401e-06,1.625000e-02
-2.149401e-06,1.875000e-02
-2.141401e-06,-1.250000e-02
-2.133401e-06,1.125000e-02
-2.125401e-06,-2.500000e-03
-2.117401e-06,1.000000e-02
-2.109401e-06,-3.750000e-03
-2.101401e-06,1.250000e-02
-2.093401e-06,-1.625000e-02
-2.085401e-06,2.000000e-02
-2.077401e-06,-1.250000e-02
-2.069401e-06,-8.750000e-03
-2.061401e-06,-4.375000e-02
-2.053401e-06,2.500000e-03
-2.045401e-06,2.500000e-03
-2.037401e-06,2.500000e-02
-2.029401e-06,1.250000e-03
-2.021401e-06,1.125000e-02
-2.013401e-06,3.750000e-03
-2.005401e-06,2.000000e-02
-1.997401e-06,-1.500000e-02
-1.989401e-06,-2.500000e-03
-1.981401e-06,-5.000000e-03
-1.973401e-06,1.875000e-02
-1.965401e-06,-3.750000e-03
-1.957401e-06,1.250000e-03
-1.949401e-06,3.750000e-03
-1.941401e-06,1.125000e-02
-1.933401e-06,-1.750000e-02
-1.925401e-06,1.750000e-02
-1.917401e-06,7.500000e-03
-1.909401e-06,2.125000e-02
-1.901401e-06,8.750000e-03
-1.893401e-06,3.250000e-02
-1.885401e-06,-2.000000e-02
-1.877401e-06,2.000000e-02
-1.869401e-06,-2.750000e-02
-1.861401e-06,2.000000e-02
-1.853401e-06,-3.875000e-02
-1.845401e-06,1.250000e-02
-1.837401e-06,-6.250000e-03
-1.829401e-06,1.375000e-02
-1.821401e-06,5.000000e-03
-1.813401e-06,1.500000e-02
-1.805401e-06,-1.875000e-02
-1.797401e-06,-8.750000e-03
-1.789401e-06,-7.500000e-03
-1.781401e-06,7.500000e-03
-1.773401e-06,-5.000000e-03
-1.765401e-06,2.875000e-02
-1.757401e-06,1.500000e-02
-1.749401e-06,3.625000e-02
-1.741401e-06,-1.250000e-03
-1.733401e-06,1.500000e-02
-1.725401e-06,5.000000e-03
-1.717401e-06,8.750000e-03
-1.709401e-06,-5.000000e-03
-1.701401e-06,2.500000e-03
-1.693401e-06,1.250000e-02
-1.685401e-06,8.750000e-03
-1.677401e-06,-1.125000e-02
-1.669401e-06,2.625000e-02
-1.661401e-06,-2.500000e-03
-1.653401e-06,2.375000e-02
-1.645401e-06,8.750000e-03
-1.637401e-06,1.500000e-02
-1.629401e-06,-1.250000e-02
-1.621401e-06,8.750000e-03
-1.613401e-06,-1.875000e-02
-1.605401e-06,1.500000e-02
-1.597401e-06,-1.000000e-02
-1.589401e-06,3.625000e-02
-1.581401e-06,3.750000e-03
-1.573401e-06,2.125000e-02
-1.565401e-06,2.875000e-02
-1.557401e-06,3.625000e-02
-1.549401e-06,-6.250000e-03
-1.541401e-06,2.125000e-02
-1.533401e-06,-1.375000e-02
-1.525401e-06,3.625000e-02
-1.517401e-06,-2.875000e-02
-1.509401e-06,2.750000e-02
-1.501401e-06,-1.250000e-02
-1.493401e-06,3.875000e-02
-1.485401e-06,-2.500000e-02
-1.477401e-06,3.750000e-03
-1.469401e-06,-1.625000e-02
-1.461401e-06,3.125000e-02
-1.453401e-06,-1.625000e-02
-1.445401e-06,-6.250000e-03
-1.437401e-06,-3.750000e-03
-1.429401e-06,4.125000e-02
-1.421401e-06,-7.500000e-03
-1.413401e-06,0.000000e+00
-1.405401e-06,1.250000e-03
-1.397401e-06,1.375000e-02
-1.389401e-06,-1.250000e-03
-1.381401e-06,1.750000e-02
-1.373401e-06,-1.250000e-02
-1.365401e-06,3.000000e-02
-1.357401e-06,3.750000e-03
-1.349401e-06,1.375000e-02
-1.341401e-06,-2.875000e-02
-1.333401e-06,2.750000e-02
-1.325401e-06,-1.500000e-02
-1.317401e-06,3.375000e-02
-1.309401e-06,5.000000e-03
-1.301401e-06,1.250000e-02
-1.293401e-06,-1.875000e-02
-1.285401e-06,-5.000000e-03
-1.277401e-06,6.250000e-03
-1.269401e-06,1.125000e-02
-1.261401e-06,1.250000e-02
-1.253401e-06,1.750000e-02
-1.245401e-06,-1.125000e-02
-1.237401e-06,1.875000e-02
-1.229401e-06,-1.875000e-02
-1.221401e-06,2.250000e-02
-1.213401e-06,-1.500000e-02
-1.205401e-06,8.750000e-03
-1.197401e-06,-1.250000e-02
-1.189401e-06,8.750000e-03
-1.181401e-06,-3.750000e-03
-1.173401e-06,2.750000e-02
-1.165401e-06,-2.250000e-02
-1.157401e-06,1.375000e-02
-1.149401e-06,3.750000e-03
-1.141401e-06,3.375000e-02
-1.133401e-06,7.500000e-03
-1.125401e-06,4.000000e-02
-1.117401e-06,-6.250000e-03
-1.109401e-06,1.250000e-02
-1.101401e-06,-2.500000e-03
-1.093401e-06,2.625000e-02
-1.085401e-06,-3.000000e-02
-1.077401e-06,2.375000e-02
-1.069401e-06,-2.250000e-02
-1.061401e-06,1.250000e-02
-1.053401e-06,-1.000000e-02
-1.045401e-06,2.500000e-02
-1.037401e-06,-1.000000e-02
-1.029401e-06,2.250000e-02
-1.021401e-06,6.250000e-03
-1.013401e-06,1.250000e-03
-1.005401e-06,2.500000e-03
-9.974013e-07,1.250000e-03
-9.894012e-07,-1.250000e-02
-9.814012e-07,3.375000e-02
-9.734012e-07,-2.750000e-02
-9.654012e-07,1.375000e-02
-9.574013e-07,-1.125000e-02
-9.494012e-07,3.625000e-02
-9.414012e-07,7.500000e-03
-9.334012e-07,7.500000e-03
-9.254012e-07,8.750000e-03
-9.174012e-07,5.000000e-03
-9.094012e-07,3.750000e-03
-9.014012e-07,0.000000e+00
-8.934012e-07,-3.750000e-03
-8.854012e-07,1.875000e-02
-8.774012e-07,0.000000e+00
-8.694012e-07,1.375000e-02
-8.614012e-07,-1.625000e-02
-8.534012e-07,1.375000e-02
-8.454012e-07,-1.625000e-02
-8.374012e-07,1.875000e-02
-8.294012e-07,-1.500000e-02
-8.214012e-07,1.375000e-02
-8.134012e-07,6.250000e-03
-8.054012e-07,-3.750000e-03
-7.974012e-07,7.500000e-03
-7.894012e-07,3.750000e-03
-7.814012e-07,-1.000000e-02
-7.734012e-07,1.500000e-02
-7.654012e-07,-8.750000e-03
-7.574012e-07,4.625000e-02
-7.494012e-07,-1.000000e-02
-7.414012e-07,1.500000e-02
-7.334012e-07,-3.750000e-03
-7.254012e-07,2.500000e-03
-7.174012e-07,-1.000000e-02
-7.094012e-07,-7.500000e-03
-7.014012e-07,5.000000e-03
-6.934012e-07,6.250000e-03
-6.854012e-07,7.500000e-03
-6.774012e-07,7.500000e-03
-6.694012e-07,-1.500000e-02
-6.614012e-07,1.125000e-02
-6.534012e-07,-1.375000e-02
-6.454012e-07,-2.500000e-03
-6.374012e-07,8.750000e-03
-6.294012e-07,1.375000e-02
-6.214012e-07,-3.625000e-02
-6.134012e-07,1.875000e-02
-6.054012e-07,-6.250000e-03
-5.974012e-07,2.500000e-03
-5.894012e-07,-2.625000e-02
-5.814012e-07,1.625000e-02
-5.734012e-07,-1.375000e-02
-5.654012e-07,7.500000e-03
-5.574012e-07,6.250000e-03
-5.494012e-07,2.125000e-02
-5.414012e-07,-1.125000e-02
-5.334012e-07,2.250000e-02
-5.254012e-07,-1.000000e-02
-5.174012e-07,3.750000e-03
-5.094012e-07,6.250000e-03
-5.014012e-07,1.750000e-02
-4.934012e-07,-1.375000e-02
-4.854012e-07,1.500000e-02
-4.774012e-07,-2.000000e-02
-4.694012e-07,4.125000e-02
-4.614012e-07,-8.750000e-03
-4.534012e-07,2.375000e-02
-4.454012e-07,1.250000e-03
-4.374012e-07,1.375000e-02
-4.294012e-07,0.000000e+00
-4.214012e-07,3.250000e-02
-4.134012e-07,-2.500000e-03
-4.054012e-07,2.375000e-02
-3.974012e-07,-4.500000e-02
-3.894012e-07,1.500000e-02
-3.814012e-07,-3.750000e-03
-3.734012e-07,1.375000e-02
-3.654012e-07,-3.750000e-03
-3.574012e-07,2.375000e-02
-3.494012e-07,-1.250000e-02
-3.414012e-07,3.125000e-02
-3.334012e-07,2.250000e-02
-3.254012e-07,8.750000e-03
-3.174012e-07,-1.500000e-02
-3.094012e-07,1.625000e-02
-3.014012e-07,-1.750000e-02
-2.934012e-07,2.375000e-02
-2.854012e-07,-1.875000e-02
-2.774012e-07,1.875000e-02
-2.694012e-07,1.250000e-03
-2.614012e-07,0.000000e+00
-2.534012e-07,2.500000e-03
-2.454012e-07,2.375000e-02
-2.374012e-07,1.000000e-02
-2.294012e-07,1.250000e-02
-2.214012e-07,-3.750000e-03
-2.134012e-07,1.750000e-02
-2.054012e-07,-3.750000e-03
-1.974012e-07,3.250000e-02
-1.894012e-07,8.750000e-03
-1.814012e-07,2.000000e-02
-1.734012e-07,-2.750000e-02
-1.654012e-07,1.125000e-02
-1.574012e-07,0.000000e+00
-1.494012e-07,3.125000e-02
-1.414012e-07,-2.625000e-02
-1.334012e-07,2.250000e-02
-1.254012e-07,1.250000e-03
-1.174012e-07,2.375000e-02
-1.094012e-07,-2.500000e-03
-1.014012e-07,2.000000e-02
-9.340125e-08,-7.500000e-03
-8.540125e-08,1.125000e-02
-7.740125e-08,-2.750000e-02
-6.940125e-08,7.500000e-03
-6.140125e-08,-1.125000e-02
-5.340125e-08,2.125000e-02
-4.540125e-08,-3.750000e-03
-3.740125e-08,3.125000e-02
-2.940125e-08,-2.625000e-02
-2.140125e-08,1.000000e-02
-1.340125e-08,-3.250000e-02
-5.401250e-09,6.250000e-03
2.598750e-09,-1.340000e+00
1.059875e-08,-1.398750e+00
1.859875e-08,-1.435000e+00
2.659875e-08,-1.378750e+00
3.459875e-08,-2.375000e-02
4.259875e-08,1.000000e-02
5.059875e-08,-2.750000e-02
5.859875e-08,1.375000e-02
6.659875e-08,-1.000000e-02
7.459875e-08,2.625000e-02
8.259875e-08,-2.625000e-02
9.059875e-08,3.000000e-02
9.859875e-08,-1.625000e-02
1.065988e-07,2.125000e-02
1.145988e-07,-2.000000e-02
1.225988e-07,1.875000e-02
1.305988e-07,-1.500000e-02
1.385988e-07,1.875000e-02
1.465988e-07,3.750000e-03
1.545988e-07,3.250000e-02
1.625988e-07,-8.750000e-03
1.705988e-07,1.125000e-02
1.785988e-07,-2.375000e-02
1.865988e-07,1.875000e-02
1.945988e-07,-6.250000e-03
2.025988e-07,1.750000e-02
2.105988e-07,-8.750000e-03
2.185988e-07,2.375000e-02
2.265988e-07,-2.500000e-03
2.345988e-07,3.750000e-03
2.425988e-07,-1.750000e-02
2.505988e-07,2.375000e-02
2.585988e-07,5.000000e-03
2.665988e-07,2.875000e-02
2.745988e-07,5.000000e-03
2.825988e-07,2.125000e-02
2.905988e-07,1.125000e-02
2.985988e-07,1.000000e-02
3.065988e-07,-7.500000e-03
3.145988e-07,-3.750000e-03
3.225988e-07,-5.000000e-03
3.305988e-07,2.375000e-02
3.385988e-07,3.750000e-03
3.465988e-07,-6.250000e-03
3.545988e-07,-8.750000e-03
3.625988e-07,2.875000e-02
3.705988e-07,-1.625000e-02
3.785988e-07,3.125000e-02
3.865988e-07,-2.250000e-02
3.945988e-07,2.500000e-02
4.025988e-07,-2.000000e-02
4.105988e-07,2.125000e-02
4.185988e-07,-1.250000e-02
4.265988e-07,2.125000e-02
4.345988e-07,-4.000000e-02
4.425988e-07,5.000000e-03
4.505988e-07,-3.000000e-02
4.585988e-07,1.500000e-02
4.665988e-07,-3.750000e-03
4.745988e-07,3.000000e-02
4.825988e-07,-1.625000e-02
4.905988e-07,2.375000e-02
4.985988e-07,-1.875000e-02
5.065988e-07,1.125000e-02
5.145988e-07,-3.750000e-03
5.225988e-07,2.250000e-02
5.305988e-07,-2.500000e-03
5.385988e-07,1.375000e-02
5.465988e-07,1.250000e-03
5.545988e-07,5.000000e-03
5.625988e-07,-2.125000e-02
5.705988e-07,1.500000e-02
5.785988e-07,-1.625000e-02
5.865988e-07,2.750000e-02
5.945988e-07,3.750000e-03
6.025988e-07,2.125000e-02
6.105988e-07,-6.250000e-03
6.185988e-07,7.500000e-03
6.265988e-07,5.000000e-03
6.345988e-07,1.625000e-02
6.425988e-07,6.250000e-03
6.505988e-07,2.750000e-02
6.585988e-07,-3.750000e-03
6.665988e-07,1.125000e-02
6.745988e-07,1.125000e-02
6.825988e-07,1.750000e-02
6.905988e-07,-3.000000e-02
6.985988e-07,1.000000e-02
7.065988e-07,-2.500000e-03
7.145988e-07,2.375000e-02
7.225988e-07,-3.750000e-03
7.305988e-07,1.000000e-02
7.385988e-07,-1.250000e-03
7.465988e-07,2.375000e-02
7.545988e-07,-1.250000e-03
7.625988e-07,-6.250000e-03
7.705988e-07,-2.500000e-02
7.785988e-07,2.125000e-02
7.865988e-07,2.250000e-02
7.945988e-07,1.625000e-02
8.025988e-07,-1.250000e-02
8.105988e-07,1.125000e-02
8.185988e-07,-1.250000e-02
