run1/run1_ch1_20210318180209974.csv

Model,MSO64
Waveform Type,ANALOG
Horizontal Units,s
Sample Interval,8.000000e-09
Record Length,1250
Zero Index,624.690000
Vertical Units,V

TIME,CH1
-4.997520e-06,-3.000000e-02
-4.989520e-06,1.125000e-02
-4.981520e-06,-3.375000e-02
-4.973520e-06,2.500000e-03
-4.965520e-06,-5.000000e-02
-4.957520e-06,2.125000e-02
-4.949520e-06,-1.500000e-02
-4.941520e-06,-6.250000e-03
-4.933520e-06,-2.500000e-02
-4.925520e-06,1.250000e-02
-4.917520e-06,2.500000e-03
-4.909520e-06,-5.000000e-03
-4.901520e-06,1.250000e-03
-4.893520e-06,2.125000e-02
-4.885520e-06,-2.875000e-02
-4.877520e-06,1.750000e-02
-4.869520e-06,2.500000e-03
-4.861520e-06,2.500000e-03
-4.853520e-06,-2.875000e-02
-4.845520e-06,6.250000e-03
-4.837520e-06,-2.250000e-02
-4.829520e-06,2.125000e-02
-4.821520e-06,-2.875000e-02
-4.813520e-06,6.250000e-03
-4.805520e-06,-1.375000e-02
-4.797520e-06,2.500000e-03
-4.789520e-06,-3.500000e-02
-4.781520e-06,8.750000e-03
-4.773520e-06,-6.250000e-03
-4.765520e-06,1.625000e-02
-4.757520e-06,2.500000e-02
-4.749520e-06,1.625000e-02
-4.741520e-06,-2.750000e-02
-4.733520e-06,6.250000e-03
-4.725520e-06,-3.000000e-02
-4.717520e-06,7.500000e-03
-4.709520e-06,-3.125000e-02
-4.701520e-06,3.375000e-02
-4.693520e-06,-3.750000e-03
-4.685520e-06,2.250000e-02
-4.677520e-06,-1.875000e-02
-4.669520e-06,2.375000e-02
-4.661520e-06,-7.500000e-03
-4.653520e-06,1.250000e-03
-4.645520e-06,8.750000e-03
-4.637520e-06,1.375000e-02
-4.629520e-06,-8.750000e-03
-4.621520e-06,3.000000e-02
-4.613520e-06,-2.000000e-02
-4.605520e-06,1.000000e-02
-4.597520e-06,-4.000000e-02
-4.589520e-06,-5.000000e-03
-4.581520e-06,-1.125000e-02
-4.573520e-06,2.625000e-02
-4.565520e-06,-7.500000e-03
-4.557520e-06,-6.250000e-03
-4.549520e-06,2.000000e-02
-4.541520e-06,2.125000e-02
-4.533520e-06,-1.875000e-02
-4.525520e-06,7.500000e-03
-4.517520e-06,-2.500000e-03
-4.509520e-06,4.125000e-02
-4.501520e-06,-6.250000e-03
-4.493520e-06,2.125000e-02
-4.485520e-06,-1.250000e-02
-4.477520e-06,1.875000e-02
-4.469520e-06,-2.500000e-02
-4.461520e-06,1.250000e-02
-4.453520e-06,-2.125000e-02
-4.445520e-06,2.875000e-02
-4.437520e-06,-1.250000e-03
-4.429520e-06,5.000000e-03
-4.421520e-06,-2.875000e-02
-4.413520e-06,2.625000e-02
-4.405520e-06,3.750000e-03
-4.397520e-06,1.125000e-02
-4.389520e-06,1.250000e-03
-4.381520e-06,2.125000e-02
-4.373520e-06,-1.250000e-02
-4.365520e-06,1.875000e-02
-4.357520e-06,-1.625000e-02
-4.349520e-06,1.250000e-03
-4.341520e-06,-1.250000e-02
-4.333520e-06,1.250000e-03
-4.325520e-06,-1.625000e-02
-4.317520e-06,2.750000e-02
-4.309520e-06,-3.500000e-02
-4.301520e-06,1.875000e-02
-4.293520e-06,-1.250000e-03
-4.285520e-06,-7.500000e-03
-4.277520e-06,-1.125000e-02
-4.269520e-06,1.250000e-02
-4.261520e-06,5.000000e-03
-4.253520e-06,2.250000e-02
-4.245520e-06,-6.250000e-03
-4.237520e-06,2.250000e-02
-4.229520e-06,-1.750000e-02
-4.221520e-06,1.375000e-02
-4.213520e-06,-1.875000e-02
-4.205520e-06,5.000000e-03
-4.197520e-06,-1.625000e-02
-4.189520e-06,1.375000e-02
-4.181520e-06,-1.250000e-03
-4.173520e-06,-1.375000e-02
-4.165520e-06,0.000000e+00
-4.157520e-06,5.000000e-03
-4.149520e-06,-3.750000e-03
-4.141520e-06,6.250000e-03
-4.133520e-06,-3.750000e-03
-4.125520e-06,1.750000e-02
-4.117520e-06,-2.500000e-03
-4.109520e-06,1.250000e-03
-4.101520e-06,-8.750000e-03
-4.093520e-06,2.500000e-03
-4.085520e-06,-2.250000e-02
-4.077520e-06,1.500000e-02
-4.069520e-06,-3.625000e-02
-4.061520e-06,3.625000e-02
-4.053520e-06,-1.125000e-02
-4.045520e-06,-1.250000e-02
-4.037520e-06,-5.000000e-02
-4.029520e-06,3.750000e-02
-4.021520e-06,-2.875000e-02
-4.013520e-06,2.375000e-02
-4.005520e-06,-1.000000e-02
-3.997520e-06,-2.500000e-03
-3.989520e-06,1.375000e-02
-3.981520e-06,7.500000e-03
-3.973520e-06,6.250000e-03
-3.965520e-06,2.000000e-02
-3.957520e-06,-1.750000e-02
-3.949520e-06,1.375000e-02
-3.941520e-06,-3.750000e-03
-3.933520e-06,1.625000e-02
-3.925520e-06,5.000000e-03
-3.917520e-06,2.500000e-02
-3.909520e-06,-2.375000e-02
-3.901520e-06,5.000000e-03
-3.893520e-06,-1.250000e-02
-3.885520e-06,1.250000e-02
-3.877520e-06,-1.625000e-02
-3.869520e-06,2.125000e-02
-3.861520e-06,-1.625000e-02
-3.853520e-06,3.250000e-02
-3.845520e-06,-2.250000e-02
-3.837520e-06,3.750000e-03
-3.829520e-06,-1.250000e-03
-3.821520e-06,3.750000e-03
-3.813520e-06,-3.750000e-03
-3.805520e-06,2.125000e-02
-3.797520e-06,-2.250000e-02
-3.789520e-06,2.125000e-02
-3.781520e-06,-5.000000e-03
-3.773520e-06,1.000000e-02
-3.765520e-06,-3.750000e-03
-3.757520e-06,1.750000e-02
-3.749520e-06,8.750000e-03
-3.741520e-06,3.000000e-02
-3.733520e-06,1.250000e-03
-3.725520e-06,1.125000e-02
-3.717520e-06,-1.125000e-02
-3.709520e-06,1.625000e-02
-3.701520e-06,-6.250000e-03
-3.693520e-06,4.125000e-02
-3.685520e-06,-2.625000e-02
-3.677520e-06,2.625000e-02
-3.669520e-06,-2.375000e-02
-3.661520e-06,2.125000e-02
-3.653520e-06,2.500000e-03
-3.645520e-06,3.000000e-02
-3.637520e-06,-1.250000e-02
-3.629520e-06,2.375000e-02
-3.621520e-06,-7.500000e-03
-3.613520e-06,1.750000e-02
-3.605520e-06,7.500000e-03
-3.597520e-06,-3.750000e-03
-3.589520e-06,-2.375000e-02
-3.581520e-06,2.000000e-02
-3.573520e-06,-3.750000e-03
-3.565520e-06,2.750000e-02
-3.557520e-06,-3.000000e-02
-3.549520e-06,1.500000e-02
-3.541520e-06,-6.250000e-03
-3.533520e-06,1.250000e-02
-3.525520e-06,-1.500000e-02
-3.517520e-06,2.125000e-02
-3.509520e-06,-2.375000e-02
-3.501520e-06,6.250000e-03
-3.493520e-06,-1.250000e-02
-3.485520e-06,1.625000e-02
-3.477520e-06,-4.625000e-02
-3.469520e-06,2.375000e-02
-3.461520e-06,-8.750000e-03
-3.453520e-06,2.750000e-02
-3.445520e-06,-3.250000e-02
-3.437520e-06,5.000000e-03
-3.429520e-06,-2.000000e-02
-3.421520e-06,-5.000000e-03
-3.413520e-06,-2.125000e-02
-3.405520e-06,7.500000e-03
-3.397520e-06,-2.500000e-02
-3.389520e-06,2.375000e-02
-3.381520e-06,-1.875000e-02
-3.373520e-06,1.500000e-02
-3.365520e-06,-5.000000e-03
-3.357520e-06,1.875000e-02
-3.349520e-06,-2.500000e-03
-3.341520e-06,2.000000e-02
-3.333520e-06,-6.250000e-03
-3.325520e-06,2.375000e-02
-3.317520e-06,-3.000000e-02
-3.309520e-06,1.625000e-02
-3.301520e-06,-1.125000e-02
-3.293520e-06,1.875000e-02
-3.285520e-06,-8.750000e-03
-3.277520e-06,2.125000e-02
-3.269520e-06,5.000000e-03
-3.261520e-06,1.625000e-02
-3.253520e-06,-3.250000e-02
-3.245520e-06,2.000000e-02
-3.237520e-06,-3.125000e-02
-3.229520e-06,3.375000e-02
-3.221520e-06,-1.375000e-02
-3.213520e-06,1.875000e-02
-3.205520e-06,-5.000000e-03
-3.197520e-06,2.000000e-02
-3.189520e-06,-3.625000e-02
-3.181520e-06,3.250000e-02
-3.173520e-06,-3.375000e-02
-3.165520e-06,4.125000e-02
-3.157520e-06,-2.625000e-02
-3.149520e-06,-2.250000e-02
-3.141520e-06,-1.250000e-03
-3.133520e-06,2.250000e-02
-3.125520e-06,-1.875000e-02
-3.117520e-06,2.125000e-02
-3.109520e-06,-1.250000e-02
-3.101520e-06,2.250000e-02
-3.093520e-06,-5.000000e-03
-3.085520e-06,1.250000e-02
-3.077520e-06,-1.250000e-02
-3.069520e-06,1.875000e-02
-3.061520e-06,-8.750000e-03
-3.053520e-06,1.250000e-03
-3.045520e-06,-3.750000e-03
-3.037520e-06,5.000000e-02
-3.029520e-06,-6.250000e-03
-3.021520e-06,1.250000e-02
-3.013520e-06,-1.750000e-02
-3.005520e-06,1.625000e-02
-2.997520e-06,-2.500000e-03
-2.989520e-06,1.875000e-02
-2.981520e-06,-2.875000e-02
-2.973520e-06,2.250000e-02
-2.965520e-06,7.500000e-03
-2.957520e-06,-3.750000e-03
-2.949520e-06,-2.750000e-02
-2.941520e-06,1.500000e-02
-2.933520e-06,-8.750000e-03
-2.925520e-06,2.125000e-02
-2.917520e-06,5.000000e-03
-2.909520e-06,3.375000e-02
-2.901520e-06,3.750000e-03
-2.893520e-06,3.375000e-02
-2.885520e-06,2.500000e-03
-2.877520e-06,3.250000e-02
-2.869520e-06,-3.125000e-02
-2.861520e-06,7.500000e-03
-2.853520e-06,-5.000000e-03
-2.845520e-06,6.250000e-03
-2.837520e-06,-1.375000e-02
-2.829520e-06,7.500000e-03
-2.821520e-06,-2.750000e-02
-2.813520e-06,1.375000e-02
-2.805520e-06,-2.500000e-02
-2.797520e-06,5.000000e-03
-2.789520e-06,-8.750000e-03
-2.781520e-06,4.125000e-02
-2.773520e-06,-1.750000e-02
-2.765520e-06,-6.250000e-03
-2.757520e-06,-1.625000e-02
-2.749520e-06,0.000000e+00
-2.741520e-06,-1.500000e-02
-2.733520e-06,1.500000e-02
-2.725520e-06,-2.625000e-02
-2.717520e-06,2.625000e-02
-2.709520e-06,-2.500000e-03
-2.701520e-06,1.500000e-02
-2.693520e-06,-2.000000e-02
-2.685520e-06,1.000000e-02
-2.677520e-06,-1.875000e-02
-2.669520e-06,3.125000e-02
-2.661520e-06,-1.875000e-02
-2.653520e-06,2.375000e-02
-2.645520e-06,-1.750000e-02
-2.637520e-06,2.000000e-02
-2.629520e-06,-6.250000e-03
-2.621520e-06,1.750000e-02
-2.613520e-06,-3.375000e-02
-2.605520e-06,3.000000e-02
-2.597520e-06,-1.000000e-02
-2.589520e-06,-6.250000e-03
-2.581520e-06,-5.000000e-03
-2.573520e-06,2.250000e-02
-2.565520e-06,-1.500000e-02
-2.557520e-06,1.750000e-02
-2.549520e-06,-2.000000e-02
-2.541520e-06,2.125000e-02
-2.533520e-06,-2.750000e-02
-2.525520e-06,2.000000e-02
-2.517520e-06,7.500000e-03
-2.509520e-06,-1.250000e-03
-2.501520e-06,-5.000000e-03
-2.493520e-06,2.500000e-03
-2.485520e-06,-1.125000e-02
-2.477520e-06,1.750000e-02
-2.469520e-06,-1.625000e-02
-2.461520e-06,3.125000e-02
-2.453520e-06,0.000000e+00
-2.445520e-06,1.875000e-02
-2.437520e-06,0.000000e+00
-2.429520e-06,2.000000e-02
-2.421520e-06,-2.875000e-02
-2.413520e-06,5.000000e-03
-2.405520e-06,-6.250000e-03
-2.397520e-06,1.000000e-02
-2.389520e-06,-1.750000e-02
-2.381520e-06,2.500000e-03
-2.373520e-06,-2.250000e-02
-2.365520e-06,1.125000e-02
-2.357520e-06,-8.750000e-03
-2.349520e-06,1.875000e-02
-2.341520e-06,-1.375000e-02
-2.333520e-06,1.875000e-02
-2.325520e-06,-7.500000e-03
-2.317520e-06,1.375000e-02
-2.309520e-06,-2.875000e-02
-2.301520e-06,2.375000e-02
-2.293520e-06,-3.625000e-02
-2.285520e-06,1.625000e-02
-2.277520e-06,8.750000e-03
-2.269520e-06,1.125000e-02
-2.261520e-06,6.250000e-03
-2.253520e-06,2.500000e-03
-2.245520e-06,-2.125000e-02
-2.237520e-06,1.875000e-02
-2.229520e-06,-1.500000e-02
-2.221520e-06,2.375000e-02
-2.213520e-06,-6.250000e-03
-2.205520e-06,2.250000e-02
-2.197520e-06,-2.500000e-02
-2.189520e-06,-1.250000e-03
-2.181520e-06,-2.500000e-03
-2.173520e-06,1.250000e-02
-2.165520e-06,-2.500000e-02
-2.157520e-06,2.875000e-02
-2.149520e-06,-1.375000e-02
-2.141520e-06,2.500000e-02
-2.133520e-06,1.750000e-02
-2.125520e-06,5.000000e-03
-2.117520e-06,-1.125000e-02
-2.109520e-06,6.250000e-03
-2.101520e-06,-1.000000e-02
-2.093520e-06,7.500000e-03
-2.085520e-06,-2.750000e-02
-2.077520e-06,3.750000e-03
-2.069520e-06,-8.750000e-03
-2.061520e-06,1.625000e-02
-2.053520e-06,-4.875000e-02
-2.045520e-06,2.500000e-03
-2.037520e-06,-3.000000e-02
-2.029520e-06,2.375000e-02
-2.021520e-06,-1.875000e-02
-2.013520e-06,2.375000e-02
-2.005520e-06,-5.000000e-03
-1.997520e-06,1.750000e-02
-1.989520e-06,-3.750000e-03
-1.981520e-06,2.500000e-03
-1.973520e-06,-2.625000e-02
-1.965520e-06,2.250000e-02
-1.957520e-06,3.750000e-03
-1.949520e-06,8.750000e-03
-1.941520e-06,-1.125000e-02
-1.933520e-06,1.625000e-02
-1.925520e-06,-3.000000e-02
-1.917520e-06,1.625000e-02
-1.909520e-06,-1.000000e-02
-1.901520e-06,2.500000e-03
-1.893520e-06,-2.375000e-02
-1.885520e-06,2.750000e-02
-1.877520e-06,-6.250000e-03
-1.869520e-06,-1.250000e-03
-1.861520e-06,-3.500000e-02
-1.853520e-06,3.000000e-02
-1.845520e-06,-1.625000e-02
-1.837520e-06,1.375000e-02
-1.829520e-06,-2.375000e-02
-1.821520e-06,2.125000e-02
-1.813520e-06,-5.000000e-03
-1.805520e-06,-1.250000e-03
-1.797520e-06,-2.500000e-02
-1.789520e-06,2.750000e-02
-1.781520e-06,-1.250000e-02
-1.773520e-06,2.750000e-02
-1.765520e-06,-2.250000e-02
-1.757520e-06,8.750000e-03
-1.749520e-06,-3.875000e-02
-1.741520e-06,2.500000e-03
-1.733520e-06,-2.500000e-02
-1.725520e-06,1.250000e-02
-1.717520e-06,-4.125000e-02
-1.709520e-06,-1.250000e-02
-1.701520e-06,-2.500000e-03
-1.693520e-06,3.375000e-02
-1.685520e-06,-1.250000e-02
-1.677520e-06,2.500000e-03
-1.669520e-06,-1.375000e-02
-1.661520e-06,3.875000e-02
-1.653520e-06,-2.500000e-02
-1.645520e-06,3.875000e-02
-1.637520e-06,-2.500000e-02
-1.629520e-06,1.000000e-02
-1.621520e-06,-3.250000e-02
-1.613520e-06,-6.250000e-03
-1.605520e-06,-1.625000e-02
-1.597520e-06,-1.000000e-02
-1.589520e-06,-2.250000e-02
-1.581520e-06,2.625000e-02
-1.573520e-06,-7.500000e-03
-1.565520e-06,1.625000e-02
-1.557520e-06,-1.000000e-02
-1.549520e-06,1.375000e-02
-1.541520e-06,-1.500000e-02
-1.533520e-06,1.250000e-02
-1.525520e-06,-2.375000e-02
-1.517520e-06,1.250000e-02
-1.509520e-06,-3.125000e-02
-1.501520e-06,1.500000e-02
-1.493520e-06,3.750000e-03
-1.485520e-06,1.625000e-02
-1.477520e-06,-2.125000e-02
-1.469520e-06,2.875000e-02
-1.461520e-06,-2.750000e-02
-1.453520e-06,1.625000e-02
-1.445520e-06,-1.125000e-02
-1.437520e-06,2.500000e-03
-1.429520e-06,1.250000e-02
-1.421520e-06,1.375000e-02
-1.413520e-06,0.000000e+00
-1.405520e-06,2.875000e-02
-1.397520e-06,-7.500000e-03
-1.389520e-06,8.750000e-03
-1.381520e-06,-1.625000e-02
-1.373520e-06,1.500000e-02
-1.365520e-06,-2.125000e-02
-1.357520e-06,0.000000e+00
-1.349520e-06,-2.625000e-02
-1.341520e-06,-1.000000e-02
-1.333520e-06,-7.500000e-03
-1.325520e-06,2.750000e-02
-1.317520e-06,-2.000000e-02
-1.309520e-06,1.500000e-02
-1.301520e-06,-2.000000e-02
-1.293520e-06,1.500000e-02
-1.285520e-06,-3.750000e-03
-1.277520e-06,-1.250000e-03
-1.269520e-06,-1.625000e-02
-1.261520e-06,8.750000e-03
-1.253520e-06,-1.875000e-02
-1.245520e-06,0.000000e+00
-1.237520e-06,-3.750000e-03
-1.229520e-06,7.500000e-03
-1.221520e-06,-8.750000e-03
-1.213520e-06,2.625000e-02
-1.205520e-06,-1.250000e-03
-1.197520e-06,1.500000e-02
-1.189520e-06,-1.500000e-02
-1.181520e-06,3.750000e-02
-1.173520e-06,-1.250000e-02
-1.165520e-06,1.250000e-02
-1.157520e-06,-7.500000e-03
-1.149520e-06,2.750000e-02
-1.141520e-06,-2.500000e-02
-1.133520e-06,1.375000e-02
-1.125520e-06,-3.250000e-02
-1.117520e-06,3.250000e-02
-1.109520e-06,-1.000000e-02
-1.101520e-06,1.125000e-02
-1.093520e-06,-6.250000e-03
-1.085520e-06,1.250000e-02
-1.077520e-06,-1.250000e-03
-1.069520e-06,0.000000e+00
-1.061520e-06,6.250000e-03
-1.053520e-06,1.500000e-02
-1.045520e-06,-3.250000e-02
-1.037520e-06,1.500000e-02
-1.029520e-06,-2.500000e-03
-1.021520e-06,1.625000e-02
-1.013520e-06,-4.125000e-02
-1.005520e-06,1.500000e-02
-9.975200e-07,-3.000000e-02
-9.895200e-07,8.750000e-03
-9.815200e-07,3.750000e-03
-9.735200e-07,1.750000e-02
-9.655200e-07,-1.250000e-02
-9.575200e-07,1.250000e-03
-9.495200e-07,-1.625000e-02
-9.415200e-07,8.750000e-03
-9.335200e-07,7.500000e-03
-9.255200e-07,-2.500000e-03
-9.175200e-07,-2.625000e-02
-9.095200e-07,1.000000e-02
-9.015200e-07,-1.125000e-02
-8.935200e-07,-2.500000e-03
-8.855200e-07,-1.000000e-02
-8.775200e-07,5.000000e-03
-8.695200e-07,-3.125000e-02
-8.615200e-07,2.625000e-02
-8.535200e-07,3.750000e-03
-8.455200e-07,3.750000e-03
-8.375200e-07,-1.000000e-02
-8.295200e-07,1.000000e-02
-8.215200e-07,-1.875000e-02
-8.135200e-07,7.500000e-03
-8.055200e-07,0.000000e+00
-7.975200e-07,1.500000e-02
-7.895200e-07,-1.125000e-02
-7.815200e-07,1.625000e-02
-7.735200e-07,-2.375000e-02
-7.655200e-07,1.750000e-02
-7.575200e-07,-2.500000e-02
-7.495200e-07,3.000000e-02
-7.415200e-07,-1.750000e-02
-7.335200e-07,3.250000e-02
-7.255200e-07,-4.125000e-02
-7.175200e-07,1.375000e-02
-7.095200e-07,-8.750000e-03
-7.015200e-07,3.125000e-02
-6.935200e-07,3.750000e-03
-6.855200e-07,4.000000e-02
-6.775200e-07,-1.250000e-02
-6.695200e-07,1.250000e-02
-6.615200e-07,6.250000e-03
-6.535200e-07,2.625000e-02
-6.455200e-07,-1.625000e-02
-6.375200e-07,1.375000e-02
-6.295200e-07,-4.375000e-02
-6.215200e-07,2.000000e-02
-6.135200e-07,3.750000e-03
-6.055200e-07,1.750000e-02
-5.975200e-07,-1.125000e-02
-5.895200e-07,5.000000e-03
-5.815200e-07,-3.625000e-02
-5.735200e-07,1.000000e-02
-5.655200e-07,-2.500000e-03
-5.575200e-07,2.875000e-02
-5.495200e-07,-1.375000e-02
-5.415200e-07,1.750000e-02
-5.335200e-07,-1.875000e-02
-5.255200e-07,3.125000e-02
-5.175200e-07,-3.750000e-03
-5.095200e-07,2.500000e-02
-5.015200e-07,-1.250000e-02
-4.935200e-07,2.375000e-02
-4.855200e-07,-2.000000e-02
-4.775200e-07,8.750000e-03
-4.695200e-07,-2.500000e-03
-4.615200e-07,-7.500000e-03
-4.535200e-07,-1.875000e-02
-4.455200e-07,1.375000e-02
-4.375200e-07,-8.750000e-03
-4.295200e-07,1.375000e-02
-4.215200e-07,-6.250000e-03
-4.135200e-07,3.250000e-02
-4.055200e-07,7.500000e-03
-3.975200e-07,1.875000e-02
-3.895200e-07,-2.500000e-03
-3.815200e-07,3.750000e-03
-3.735200e-07,-1.875000e-02
-3.655200e-07,1.500000e-02
-3.575200e-07,-2.250000e-02
-3.495200e-07,2.125000e-02
-3.415200e-07,-6.250000e-03
-3.335200e-07,3.750000e-03
-3.255200e-07,-2.375000e-02
-3.175200e-07,1.250000e-03
-3.095200e-07,-1.875000e-02
-3.015200e-07,3.000000e-02
-2.935200e-07,1.250000e-03
-2.855200e-07,6.250000e-03
-2.775200e-07,-7.500000e-03
-2.695200e-07,1.250000e-02
-2.615200e-07,-1.500000e-02
-2.535200e-07,7.500000e-03
-2.455200e-07,-2.625000e-02
-2.375200e-07,2.375000e-02
-2.295200e-07,-1.250000e-02
-2.215200e-07,1.750000e-02
-2.135200e-07,-2.875000e-02
-2.055200e-07,-6.250000e-03
-1.975200e-07,-8.750000e-03
-1.895200e-07,-7.500000e-03
-1.815200e-07,-6.250000e-03
-1.735200e-07,2.875000e-02
-1.655200e-07,-1.125000e-02
-1.575200e-07,1.000000e-02
-1.495200e-07,-2.500000e-03
-1.415200e-07,1.625000e-02
-1.335200e-07,-6.250000e-03
-1.255200e-07,2.625000e-02
-1.175200e-07,-3.250000e-02
-1.095200e-07,1.000000e-02
-1.015200e-07,-1.625000e-02
-9.352000e-08,1.500000e-02
-8.552000e-08,5.000000e-03
-7.752000e-08,3.750000e-03
-6.952000e-08,-1.375000e-02
-6.152000e-08,5.000000e-03
-5.352000e-08,-4.125000e-02
-4.552000e-08,3.750000e-03
-3.752000e-08,-6.250000e-03
-2.952000e-08,-1.373750e+00
-2.152000e-08,-1.428750e+00
-1.352000e-08,-1.376250e+00
-5.520000e-09,-8.500000e-01
2.480000e-09,-1.625000e-02
1.048000e-08,-6.250000e-03
1.848000e-08,2.125000e-02
2.648000e-08,-1.000000e-02
3.448000e-08,2.000000e-02
4.248000e-08,-2.500000e-02
5.048000e-08,2.250000e-02
5.848000e-08,-3.750000e-03
6.648000e-08,6.250000e-03
7.448000e-08,-1.250000e-03
8.248000e-08,1.000000e-02
9.048000e-08,2.500000e-02
9.848000e-08,2.125000e-02
1.064800e-07,-1.250000e-02
1.144800e-07,2.125000e-02
1.224800e-07,-1.375000e-02
1.304800e-07,-7.500000e-03
1.384800e-07,-5.000000e-02
1.464800e-07,3.375000e-02
1.544800e-07,-1.875000e-02
1.624800e-07,3.500000e-02
1.704800e-07,-1.125000e-02
1.784800e-07,7.500000e-03
1.864800e-07,-6.250000e-03
1.944800e-07,-2.500000e-03
2.024800e-07,0.000000e+00
2.104800e-07,2.500000e-02
2.184800e-07,-2.000000e-02
2.264800e-07,1.375000e-02
2.344800e-07,-1.125000e-02
2.424800e-07,1.500000e-02
2.504800e-07,-7.500000e-03
2.584800e-07,1.125000e-02
2.664800e-07,-5.000000e-03
2.744800e-07,7.500000e-03
2.824800e-07,-2.625000e-02
2.904800e-07,2.875000e-02
2.984800e-07,-2.500000e-03
3.064800e-07,2.000000e-02
3.144800e-07,-1.875000e-02
3.224800e-07,5.000000e-03
3.304800e-07,-2.000000e-02
3.384800e-07,2.875000e-02
3.464800e-07,-5.000000e-03
3.544800e-07,1.250000e-02
3.624800e-07,-8.750000e-03
3.704800e-07,2.750000e-02
3.784800e-07,-1.875000e-02
3.864800e-07,5.000000e-03
3.944800e-07,-1.875000e-02
4.024800e-07,0.000000e+00
4.104800e-07,-1.500000e-02
4.184800e-07,4.375000e-02
4.264800e-07,3.750000e-03
4.344800e-07,2.500000e-03
4.424800e-07,-6.250000e-03
4.504800e-07,1.125000e-02
4.584800e-07,-1.500000e-02
4.664800e-07,8.750000e-03
4.744800e-07,-5.000000e-03
4.824800e-07,2.250000e-02
4.904800e-07,0.000000e+00
4.984800e-07,2.375000e-02
5.064800e-07,-2.250000e-02
5.144800e-07,1.000000e-02
5.224800e-07,-1.750000e-02
5.304800e-07,8.750000e-03
5.384800e-07,0.000000e+00
5.464800e-07,2.000000e-02
5.544800e-07,-6.250000e-03
5.624800e-07,1.375000e-02
5.704800e-07,-1.000000e-02
5.784800e-07,-1.250000e-03
5.864800e-07,-1.500000e-02
5.944800e-07,1.250000e-02
6.024800e-07,-5.000000e-03
6.104800e-07,2.125000e-02
6.184800e-07,1.250000e-03
6.264800e-07,3.750000e-03
6.344800e-07,-8.750000e-03
6.424800e-07,8.750000e-03
6.504800e-07,-3.625000e-02
6.584800e-07,2.500000e-03
6.664800e-07,-3.125000e-02
6.744800e-07,1.125000e-02
6.824800e-07,5.000000e-03
6.904800e-07,5.000000e-03
6.984800e-07,-1.625000e-02
7.064800e-07,1.750000e-02
7.144800e-07,-1.250000e-03
7.224800e-07,3.750000e-03
7.304800e-07,-3.750000e-03
7.384800e-07,2.250000e-02
7.464800e-07,2.250000e-02
7.544800e-07,6.250000e-03
7.624800e-07,-2.125000e-02
7.704800e-07,3.750000e-03
7.784800e-07,-1.875000e-02
7.864800e-07,5.000000e-03
7.944800e-07,-1.000000e-02
8.024800e-07,2.500000e-02
