run1/run1_ch1_20210318180222280.csv

Model,MSO64
Waveform Type,ANALOG
Horizontal Units,s
Sample Interval,8.000000e-09
Record Length,1250
Zero Index,624.682656
Vertical Units,V

TIME,CH1
-4.997461e-06,-1.250000e-03
-4.989461e-06,3.500000e-02
-4.981461e-06,1.250000e-02
-4.973461e-06,1.750000e-02
-4.965461e-06,-6.250000e-03
-4.957461e-06,1.000000e-02
-4.949461e-06,-3.750000e-03
-4.941461e-06,5.000000e-03
-4.933461e-06,0.000000e+00
-4.925461e-06,2.750000e-02
-4.917461e-06,-2.000000e-02
-4.909461e-06,-1.250000e-03
-4.901461e-06,-2.500000e-02
-4.893461e-06,3.000000e-02
-4.885461e-06,-1.375000e-02
-4.877461e-06,2.500000e-02
-4.869461e-06,-2.500000e-03
-4.861461e-06,2.625000e-02
-4.853461e-06,-1.500000e-02
-4.845461e-06,1.750000e-02
-4.837461e-06,-1.000000e-02
-4.829461e-06,2.000000e-02
-4.821461e-06,-6.250000e-03
-4.813461e-06,1.125000e-02
-4.805461e-06,2.500000e-03
-4.797461e-06,1.375000e-02
-4.789461e-06,-2.500000e-02
-4.781461e-06,1.750000e-02
-4.773461e-06,-2.000000e-02
-4.765461e-06,3.250000e-02
-4.757461e-06,-2.875000e-02
-4.749461e-06,3.750000e-03
-4.741461e-06,-2.500000e-03
-4.733461e-06,1.750000e-02
-4.725461e-06,-2.000000e-02
-4.717461e-06,8.750000e-03
-4.709461e-06,5.000000e-03
-4.701461e-06,3.250000e-02
-4.693461e-06,7.500000e-03
-4.685461e-06,1.875000e-02
-4.677461e-06,-1.750000e-02
-4.669461e-06,1.125000e-02
-4.661461e-06,-1.750000e-02
-4.653461e-06,8.750000e-03
-4.645461e-06,-2.000000e-02
-4.637461e-06,1.750000e-02
-4.629461e-06,-1.250000e-02
-4.621461e-06,1.875000e-02
-4.613461e-06,-2.500000e-03
-4.605461e-06,6.250000e-03
-4.597461e-06,-1.125000e-02
-4.589461e-06,2.125000e-02
-4.581461e-06,-6.250000e-03
-4.573461e-06,3.625000e-02
-4.565461e-06,2.500000e-03
-4.557461e-06,1.000000e-02
-4.549461e-06,8.750000e-03
-4.541461e-06,1.500000e-02
-4.533461e-06,-7.500000e-03
-4.525461e-06,1.250000e-03
-4.517461e-06,-2.000000e-02
-4.509461e-06,2.250000e-02
-4.501461e-06,-1.000000e-02
-4.493461e-06,-1.500000e-02
-4.485461e-06,7.500000e-03
-4.477461e-06,3.125000e-02
-4.469461e-06,-2.875000e-02
-4.461461e-06,3.000000e-02
-4.453461e-06,-8.750000e-03
-4.445461e-06,1.500000e-02
-4.437461e-06,1.625000e-02
-4.429461e-06,3.750000e-02
-4.421461e-06,-1.250000e-02
-4.413461e-06,8.750000e-03
-4.405461e-06,-3.625000e-02
-4.397461e-06,2.375000e-02
-4.389461e-06,-1.000000e-02
-4.381461e-06,3.875000e-02
-4.373461e-06,-1.875000e-02
-4.365461e-06,6.250000e-03
-4.357461e-06,-8.750000e-03
-4.349461e-06,1.500000e-02
-4.341461e-06,-2.750000e-02
-4.333461e-06,1.750000e-02
-4.325461e-06,8.750000e-03
-4.317461e-06,2.125000e-02
-4.309461e-06,-1.125000e-02
-4.301461e-06,2.250000e-02
-4.293461e-06,-2.375000e-02
-4.285461e-06,2.500000e-02
-4.277461e-06,-4.625000e-02
-4.269461e-06,1.750000e-02
-4.261461e-06,-3.625000e-02
-4.253461e-06,2.125000e-02
-4.245461e-06,-5.000000e-03
-4.237461e-06,-1.250000e-03
-4.229461e-06,0.000000e+00
-4.221461e-06,2.125000e-02
-4.213461e-06,1.250000e-03
-4.205461e-06,5.000000e-03
-4.197461e-06,-1.000000e-02
-4.189461e-06,1.000000e-02
-4.181461e-06,-7.500000e-03
-4.173461e-06,1.875000e-02
-4.165461e-06,-1.125000e-02
-4.157461e-06,3.625000e-02
-4.149461e-06,-1.250000e-02
-4.141461e-06,1.250000e-02
-4.133461e-06,-2.000000e-02
-4.125461e-06,2.625000e-02
-4.117461e-06,1.250000e-02
-4.109461e-06,1.250000e-03
-4.101461e-06,-2.375000e-02
-4.093461e-06,2.500000e-02
-4.085461e-06,-3.750000e-03
-4.077461e-06,3.375000e-02
-4.069461e-06,-7.500000e-03
-4.061461e-06,3.625000e-02
-4.053461e-06,-1.500000e-02
-4.045461e-06,1.500000e-02
-4.037461e-06,-1.625000e-02
-4.029461e-06,4.000000e-02
-4.021461e-06,-1.375000e-02
-4.013461e-06,7.500000e-03
-4.005461e-06,-7.500000e-03
-3.997461e-06,2.750000e-02
-3.989461e-06,-1.375000e-02
-3.981461e-06,1.250000e-02
-3.973461e-06,-1.500000e-02
-3.965461e-06,1.125000e-02
-3.957461e-06,-2.375000e-02
-3.949461e-06,1.125000e-02
-3.941461e-06,-7.500000e-03
-3.933461e-06,1.250000e-03
-3.925461e-06,-5.000000e-03
-3.917461e-06,-8.750000e-03
-3.909461e-06,-5.000000e-03
-3.901461e-06,1.250000e-02
-3.893461e-06,-1.875000e-02
-3.885461e-06,1.250000e-02
-3.877461e-06,-1.625000e-02
-3.869461e-06,2.375000e-02
-3.861461e-06,-2.625000e-02
-3.853461e-06,1.250000e-02
-3.845461e-06,3.750000e-03
-3.837461e-06,1.500000e-02
-3.829461e-06,-3.875000e-02
-3.821461e-06,1.125000e-02
-3.813461e-06,-1.250000e-02
-3.805461e-06,4.625000e-02
-3.797461e-06,-1.000000e-02
-3.789461e-06,2.250000e-02
-3.781461e-06,-5.000000e-03
-3.773461e-06,6.250000e-03
-3.765461e-06,-2.875000e-02
-3.757461e-06,2.500000e-03
-3.749461e-06,-6.250000e-03
-3.741461e-06,3.875000e-02
-3.733461e-06,6.250000e-03
-3.725461e-06,1.625000e-02
-3.717461e-06,-6.250000e-03
-3.709461e-06,1.375000e-02
-3.701461e-06,-1.250000e-03
-3.693461e-06,0.000000e+00
-3.685461e-06,5.000000e-03
-3.677461e-06,6.250000e-03
-3.669461e-06,-1.250000e-02
-3.661461e-06,2.375000e-02
-3.653461e-06,-1.125000e-02
-3.645461e-06,6.250000e-03
-3.637461e-06,-1.750000e-02
-3.629461e-06,1.250000e-02
-3.621461e-06,-3.875000e-02
-3.613461e-06,2.625000e-02
-3.605461e-06,-2.125000e-02
-3.597461e-06,1.250000e-02
-3.589461e-06,-1.125000e-02
-3.581461e-06,5.000000e-03
-3.573461e-06,-1.750000e-02
-3.565461e-06,2.625000e-02
-3.557461e-06,-1.375000e-02
-3.549461e-06,5.000000e-03
-3.541461e-06,-7.500000e-03
-3.533461e-06,1.000000e-02
-3.525461e-06,2.500000e-03
-3.517461e-06,-5.000000e-03
-3.509461e-06,-1.875000e-02
-3.501461e-06,5.000000e-03
-3.493461e-06,-1.625000e-02
-3.485461e-06,2.000000e-02
-3.477461e-06,-2.125000e-02
-3.469461e-06,2.375000e-02
-3.461461e-06,-7.500000e-03
-3.453461e-06,1.500000e-02
-3.445461e-06,-2.625000e-02
-3.437461e-06,2.500000e-03
-3.429461e-06,-3.750000e-03
-3.421461e-06,2.250000e-02
-3.413461e-06,-4.125000e-02
-3.405461e-06,2.625000e-02
-3.397461e-06,-1.250000e-03
-3.389461e-06,0.000000e+00
-3.381461e-06,-3.125000e-02
-3.373461e-06,0.000000e+00
-3.365461e-06,2.500000e-03
-3.357461e-06,3.750000e-02
-3.349461e-06,3.750000e-03
-3.341461e-06,1.750000e-02
-3.333461e-06,-1.875000e-02
-3.325461e-06,1.250000e-03
-3.317461e-06,-1.625000e-02
-3.309461e-06,1.250000e-02
-3.301461e-06,2.500000e-02
-3.293461e-06,4.125000e-02
-3.285461e-06,1.000000e-02
-3.277461e-06,2.750000e-02
-3.269461e-06,-1.875000e-02
-3.261461e-06,1.750000e-02
-3.253461e-06,-1.750000e-02
-3.245461e-06,3.000000e-02
-3.237461e-06,-1.250000e-02
-3.229461e-06,4.625000e-02
-3.221461e-06,-4.250000e-02
-3.213461e-06,5.000000e-03
-3.205461e-06,-1.250000e-02
-3.197461e-06,8.750000e-03
-3.189461e-06,-1.625000e-02
-3.181461e-06,-3.750000e-03
-3.173461e-06,0.000000e+00
-3.165461e-06,1.250000e-03
-3.157461e-06,-2.500000e-02
-3.149461e-06,1.875000e-02
-3.141461e-06,-1.125000e-02
-3.133461e-06,2.000000e-02
-3.125461e-06,-3.750000e-02
-3.117461e-06,1.625000e-02
-3.109461e-06,-2.000000e-02
-3.101461e-06,3.750000e-02
-3.093461e-06,6.250000e-03
-3.085461e-06,5.000000e-03
-3.077461e-06,-1.250000e-02
-3.069461e-06,1.000000e-02
-3.061461e-06,-1.875000e-02
-3.053461e-06,-3.750000e-03
-3.045461e-06,1.250000e-03
-3.037461e-06,2.875000e-02
-3.029461e-06,3.750000e-03
-3.021461e-06,1.250000e-03
-3.013461e-06,-2.500000e-03
-3.005461e-06,1.750000e-02
-2.997461e-06,-2.500000e-02
-2.989461e-06,1.000000e-02
-2.981461e-06,-6.250000e-03
-2.973461e-06,2.000000e-02
-2.965461e-06,-1.500000e-02
-2.957461e-06,7.500000e-03
-2.949461e-06,-3.500000e-02
-2.941461e-06,7.500000e-03
-2.933461e-06,-2.000000e-02
-2.925461e-06,1.250000e-02
-2.917461e-06,1.250000e-03
-2.909461e-06,1.250000e-02
-2.901461e-06,-1.125000e-02
-2.893461e-06,3.750000e-03
-2.885461e-06,-2.000000e-02
-2.877461e-06,-1.250000e-03
-2.869461e-06,-1.750000e-02
-2.861461e-06,2.875000e-02
-2.853461e-06,-6.250000e-03
-2.845461e-06,3.750000e-03
-2.837461e-06,-1.000000e-02
-2.829461e-06,1.625000e-02
-2.821461e-06,-1.875000e-02
-2.813461e-06,-2.500000e-03
-2.805461e-06,-1.375000e-02
-2.797461e-06,2.250000e-02
-2.789461e-06,-1.250000e-03
-2.781461e-06,2.375000e-02
-2.773461e-06,5.000000e-03
-2.765461e-06,-1.250000e-02
-2.757461e-06,-1.250000e-02
-2.749461e-06,1.000000e-02
-2.741461e-06,-2.250000e-02
-2.733461e-06,1.750000e-02
-2.725461e-06,-1.875000e-02
-2.717461e-06,3.125000e-02
-2.709461e-06,1.250000e-03
-2.701461e-06,7.500000e-03
-2.693461e-06,-2.625000e-02
-2.685461e-06,5.000000e-03
-2.677461e-06,-1.125000e-02
-2.669461e-06,7.500000e-03
-2.661461e-06,2.125000e-02
-2.653461e-06,1.375000e-02
-2.645461e-06,-2.125000e-02
-2.637461e-06,1.125000e-02
-2.629461e-06,-1.250000e-02
-2.621461e-06,1.625000e-02
-2.613461e-06,-3.250000e-02
-2.605461e-06,2.000000e-02
-2.597461e-06,-2.375000e-02
-2.589461e-06,4.375000e-02
-2.581461e-06,-7.500000e-03
-2.573461e-06,1.750000e-02
-2.565461e-06,-2.500000e-02
-2.557461e-06,7.500000e-03
-2.549461e-06,-7.500000e-03
-2.541461e-06,2.625000e-02
-2.533461e-06,-2.500000e-02
-2.525461e-06,3.750000e-03
-2.517461e-06,-3.375000e-02
-2.509461e-06,2.625000e-02
-2.501461e-06,-1.375000e-02
-2.493461e-06,1.625000e-02
-2.485461e-06,-2.750000e-02
-2.477461e-06,2.250000e-02
-2.469461e-06,-1.250000e-02
-2.461461e-06,3.875000e-02
-2.453461e-06,-8.750000e-03
-2.445461e-06,2.125000e-02
-2.437461e-06,-2.500000e-03
-2.429461e-06,-1.250000e-02
-2.421461e-06,-2.625000e-02
-2.413461e-06,1.500000e-02
-2.405461e-06,6.250000e-03
-2.397461e-06,7.500000e-03
-2.389461e-06,-1.875000e-02
-2.381461e-06,2.000000e-02
-2.373461e-06,-2.625000e-02
-2.365461e-06,2.875000e-02
-2.357461e-06,-2.625000e-02
-2.349461e-06,-3.750000e-03
-2.341461e-06,-1.625000e-02
-2.333461e-06,3.875000e-02
-2.325461e-06,-2.125000e-02
-2.317461e-06,2.000000e-02
-2.309461e-06,-6.250000e-03
-2.301461e-06,0.000000e+00
-2.293461e-06,-1.375000e-02
-2.285461e-06,2.125000e-02
-2.277461e-06,-2.500000e-02
-2.269461e-06,1.125000e-02
-2.261461e-06,2.500000e-03
-2.253461e-06,-7.500000e-03
-2.245461e-06,-8.750000e-03
-2.237461e-06,1.125000e-02
-2.229461e-06,-2.125000e-02
-2.221461e-06,8.750000e-03
-2.213461e-06,-1.375000e-02
-2.205461e-06,2.750000e-02
-2.197461e-06,5.000000e-03
-2.189461e-06,2.000000e-02
-2.181461e-06,1.125000e-02
-2.173461e-06,-7.500000e-03
-2.165461e-06,-1.750000e-02
-2.157461e-06,1.250000e-03
-2.149461e-06,3.750000e-03
-2.141461e-06,2.625000e-02
-2.133461e-06,0.000000e+00
-2.125461e-06,1.750000e-02
-2.117461e-06,-2.500000e-02
-2.109461e-06,2.125000e-02
-2.101461e-06,-3.125000e-02
-2.093461e-06,1.500000e-02
-2.085461e-06,-2.750000e-02
-2.077461e-06,1.500000e-02
-2.069461e-06,-1.250000e-03
-2.061461e-06,-1.250000e-03
-2.053461e-06,-1.875000e-02
-2.045461e-06,-1.250000e-03
-2.037461e-06,-8.750000e-03
-2.029461e-06,3.125000e-02
-2.021461e-06,-3.750000e-03
-2.013461e-06,6.250000e-03
-2.005461e-06,-5.000000e-03
-1.997461e-06,2.875000e-02
-1.989461e-06,-2.625000e-02
-1.981461e-06,3.875000e-02
-1.973461e-06,-3.375000e-02
-1.965461e-06,2.500000e-02
-1.957461e-06,-2.000000e-02
-1.949461e-06,1.500000e-02
-1.941461e-06,-3.750000e-02
-1.933461e-06,3.750000e-03
-1.925461e-06,-2.375000e-02
-1.917461e-06,8.750000e-03
-1.909461e-06,-2.250000e-02
-1.901461e-06,2.000000e-02
-1.893461e-06,-8.750000e-03
-1.885461e-06,5.000000e-03
-1.877461e-06,3.750000e-03
-1.869461e-06,2.750000e-02
-1.861461e-06,-1.125000e-02
-1.853461e-06,2.500000e-02
-1.845461e-06,-3.250000e-02
-1.837461e-06,6.250000e-03
-1.829461e-06,-2.250000e-02
-1.821461e-06,3.125000e-02
-1.813461e-06,5.000000e-03
-1.805461e-06,2.000000e-02
-1.797461e-06,-2.250000e-02
-1.789461e-06,6.250000e-03
-1.781461e-06,-1.375000e-02
-1.773461e-06,1.875000e-02
-1.765461e-06,2.250000e-02
-1.757461e-06,1.000000e-02
-1.749461e-06,-2.000000e-02
-1.741461e-06,1.375000e-02
-1.733461e-06,2.500000e-03
-1.725461e-06,1.125000e-02
-1.717461e-06,-3.750000e-02
-1.709461e-06,2.500000e-02
-1.701461e-06,-1.250000e-02
-1.693461e-06,2.750000e-02
-1.685461e-06,-3.875000e-02
-1.677461e-06,2.250000e-02
-1.669461e-06,-1.500000e-02
-1.661461e-06,2.875000e-02
-1.653461e-06,-3.000000e-02
-1.645461e-06,2.500000e-03
-1.637461e-06,1.125000e-02
-1.629461e-06,1.750000e-02
-1.621461e-06,5.000000e-03
-1.613461e-06,2.125000e-02
-1.605461e-06,-2.500000e-02
-1.597461e-06,6.250000e-03
-1.589461e-06,-2.375000e-02
-1.581461e-06,1.625000e-02
-1.573461e-06,-3.500000e-02
-1.565461e-06,3.750000e-02
-1.557461e-06,-1.500000e-02
-1.549461e-06,1.375000e-02
-1.541461e-06,-1.750000e-02
-1.533461e-06,1.625000e-02
-1.525461e-06,-1.375000e-02
-1.517461e-06,1.750000e-02
-1.509461e-06,-7.500000e-03
-1.501461e-06,1.750000e-02
-1.493461e-06,2.500000e-03
-1.485461e-06,6.250000e-03
-1.477461e-06,-2.625000e-02
-1.469461e-06,1.125000e-02
-1.461461e-06,-3.250000e-02
-1.453461e-06,2.125000e-02
-1.445461e-06,-1.750000e-02
-1.437461e-06,3.250000e-02
-1.429461e-06,-1.000000e-02
-1.421461e-06,2.000000e-02
-1.413461e-06,-2.750000e-02
-1.405461e-06,2.250000e-02
-1.397461e-06,-3.125000e-02
-1.389461e-06,1.375000e-02
-1.381461e-06,6.250000e-03
-1.373461e-06,1.625000e-02
-1.365461e-06,-1.375000e-02
-1.357461e-06,1.250000e-03
-1.349461e-06,-3.500000e-02
-1.341461e-06,3.750000e-02
-1.333461e-06,-2.750000e-02
-1.325461e-06,-5.000000e-03
-1.317461e-06,-2.125000e-02
-1.309461e-06,1.500000e-02
-1.301461e-06,-5.000000e-03
-1.293461e-06,1.875000e-02
-1.285461e-06,-2.125000e-02
-1.277461e-06,-1.250000e-03
-1.269461e-06,-8.750000e-03
-1.261461e-06,1.750000e-02
-1.253461e-06,-6.250000e-03
-1.245461e-06,2.500000e-03
-1.237461e-06,1.500000e-02
-1.229461e-06,3.625000e-02
-1.221461e-06,-2.250000e-02
-1.213461e-06,1.875000e-02
-1.205461e-06,6.250000e-03
-1.197461e-06,8.750000e-03
-1.189461e-06,-2.250000e-02
-1.181461e-06,2.625000e-02
-1.173461e-06,-1.875000e-02
-1.165461e-06,1.750000e-02
-1.157461e-06,1.875000e-02
-1.149461e-06,1.125000e-02
-1.141461e-06,-1.375000e-02
-1.133461e-06,2.500000e-02
-1.125461e-06,-2.500000e-03
-1.117461e-06,6.250000e-03
-1.109461e-06,-3.750000e-03
-1.101461e-06,1.875000e-02
-1.093461e-06,-3.750000e-03
-1.085461e-06,1.750000e-02
-1.077461e-06,7.500000e-03
-1.069461e-06,2.125000e-02
-1.061461e-06,-3.000000e-02
-1.053461e-06,4.625000e-02
-1.045461e-06,-1.250000e-03
-1.037461e-06,1.000000e-02
-1.029461e-06,3.750000e-03
-1.021461e-06,2.250000e-02
-1.013461e-06,-3.750000e-03
-1.005461e-06,2.375000e-02
-9.974613e-07,0.000000e+00
-9.894613e-07,1.125000e-02
-9.814613e-07,-1.375000e-02
-9.734613e-07,1.125000e-02
-9.654613e-07,3.750000e-03
-9.574613e-07,3.250000e-02
-9.494613e-07,-1.250000e-03
-9.414613e-07,0.000000e+00
-9.334613e-07,-1.000000e-02
-9.254613e-07,3.375000e-02
-9.174613e-07,-1.000000e-02
-9.094613e-07,7.500000e-03
-9.014613e-07,-2.000000e-02
-8.934613e-07,1.250000e-03
-8.854613e-07,-8.750000e-03
-8.774613e-07,-2.500000e-03
-8.694613e-07,5.000000e-03
-8.614613e-07,1.625000e-02
-8.534613e-07,-1.250000e-02
-8.454613e-07,1.500000e-02
-8.374613e-07,8.750000e-03
-8.294613e-07,3.750000e-03
-8.214613e-07,-2.875000e-02
-8.134613e-07,8.750000e-03
-8.054613e-07,-1.000000e-02
-7.974613e-07,3.125000e-02
-7.894613e-07,-5.000000e-03
-7.814613e-07,-5.000000e-03
-7.734613e-07,0.000000e+00
-7.654613e-07,-1.000000e-02
-7.574613e-07,-3.500000e-02
-7.494613e-07,2.375000e-02
-7.414613e-07,-1.250000e-03
-7.334613e-07,1.875000e-02
-7.254613e-07,-1.125000e-02
-7.174613e-07,2.125000e-02
-7.094613e-07,-1.000000e-02
-7.014613e-07,-1.250000e-03
-6.934613e-07,-2.250000e-02
-6.854613e-07,-6.250000e-03
-6.774613e-07,-3.375000e-02
-6.694613e-07,2.625000e-02
-6.614613e-07,1.375000e-02
-6.534613e-07,2.500000e-03
-6.454613e-07,1.375000e-02
-6.374613e-07,1.875000e-02
-6.294613e-07,-3.750000e-03
-6.214613e-07,1.750000e-02
-6.134613e-07,1.250000e-03
-6.054613e-07,8.750000e-03
-5.974613e-07,-1.375000e-02
-5.894613e-07,2.375000e-02
-5.814613e-07,-1.625000e-02
-5.734613e-07,2.625000e-02
-5.654613e-07,-2.125000e-02
-5.574613e-07,0.000000e+00
-5.494613e-07,-2.625000e-02
-5.414613e-07,1.000000e-02
-5.334613e-07,-2.125000e-02
-5.254613e-07,2.000000e-02
-5.174613e-07,-2.000000e-02
-5.094613e-07,2.375000e-02
-5.014613e-07,-2.500000e-02
-4.934613e-07,2.000000e-02
-4.854613e-07,-3.750000e-03
-4.774613e-07,2.500000e-02
-4.694613e-07,-1.375000e-02
-4.614613e-07,6.250000e-03
-4.534613e-07,-1.250000e-02
-4.454613e-07,1.500000e-02
-4.374613e-07,-2.375000e-02
-4.294613e-07,2.000000e-02
-4.214613e-07,-6.250000e-03
-4.134613e-07,2.500000e-02
-4.054613e-07,-1.625000e-02
-3.974613e-07,7.500000e-03
-3.894613e-07,-7.500000e-03
-3.814613e-07,3.750000e-02
-3.734613e-07,-2.125000e-02
-3.654613e-07,1.375000e-02
-3.574613e-07,-1.000000e-02
-3.494613e-07,1.500000e-02
-3.414613e-07,-3.750000e-03
-3.334613e-07,2.500000e-02
-3.254613e-07,-5.000000e-03
-3.174613e-07,1.250000e-02
-3.094613e-07,-1.000000e-02
-3.014613e-07,5.000000e-03
-2.934613e-07,-1.250000e-02
-2.854613e-07,2.000000e-02
-2.774613e-07,-2.125000e-02
-2.694613e-07,-2.500000e-03
-2.614613e-07,-1.250000e-02
-2.534613e-07,7.500000e-03
-2.454613e-07,-2.125000e-02
-2.374613e-07,3.750000e-03
-2.294613e-07,1.250000e-03
-2.214613e-07,8.750000e-03
-2.134613e-07,2.500000e-03
-2.054613e-07,2.375000e-02
-1.974613e-07,-3.750000e-03
-1.894613e-07,1.750000e-02
-1.814613e-07,-1.125000e-02
-1.734613e-07,0.000000e+00
-1.654613e-07,-1.500000e-02
-1.574613e-07,1.375000e-02
-1.494613e-07,-2.625000e-02
-1.414613e-07,-1.750000e-02
-1.334613e-07,-1.125000e-02
-1.254613e-07,1.875000e-02
-1.174613e-07,-8.750000e-03
-1.094613e-07,1.250000e-02
-1.014613e-07,-5.000000e-03
-9.346125e-08,2.750000e-02
-8.546125e-08,0.000000e+00
-7.746125e-08,3.625000e-02
-6.946125e-08,-2.500000e-03
-6.146125e-08,3.750000e-03
-5.346125e-08,-2.875000e-02
-4.546125e-08,3.750000e-03
-3.746125e-08,-3.125000e-02
-2.946125e-08,-1.375000e+00
-2.146125e-08,-1.452500e+00
-1.346125e-08,-1.383750e+00
-5.461250e-09,-2.775000e-01
2.538750e-09,-1.125000e-02
1.053875e-08,1.250000e-02
1.853875e-08,2.250000e-02
2.653875e-08,-1.500000e-02
3.453875e-08,2.875000e-02
4.253875e-08,5.000000e-03
5.053875e-08,2.500000e-02
5.853875e-08,-8.750000e-03
6.653875e-08,7.500000e-03
7.453875e-08,-1.375000e-02
8.253875e-08,1.625000e-02
9.053875e-08,-7.500000e-03
9.853875e-08,2.375000e-02
1.065387e-07,-1.125000e-02
1.145387e-07,3.500000e-02
1.225387e-07,0.000000e+00
1.305387e-07,2.375000e-02
1.385387e-07,-6.250000e-03
1.465387e-07,1.750000e-02
1.545387e-07,-1.125000e-02
1.625387e-07,6.250000e-03
1.705387e-07,-1.625000e-02
1.785387e-07,2.375000e-02
1.865387e-07,-1.375000e-02
1.945387e-07,0.000000e+00
2.025387e-07,-2.625000e-02
2.105387e-07,1.625000e-02
2.185387e-07,-3.750000e-03
2.265387e-07,4.500000e-02
2.345387e-07,5.000000e-03
2.425387e-07,-5.000000e-03
2.505387e-07,-1.875000e-02
2.585387e-07,3.000000e-02
2.665387e-07,-1.000000e-02
2.745387e-07,2.875000e-02
2.825387e-07,-1.250000e-03
2.905387e-07,1.500000e-02
2.985387e-07,-1.250000e-03
3.065387e-07,3.750000e-03
3.145387e-07,-1.500000e-02
3.225387e-07,3.750000e-03
3.305387e-07,-2.250000e-02
3.385387e-07,6.250000e-03
3.465387e-07,-1.750000e-02
3.545387e-07,1.000000e-02
3.625387e-07,-1.000000e-02
3.705387e-07,1.500000e-02
3.785387e-07,-7.500000e-03
3.865387e-07,-5.000000e-03
3.945387e-07,-1.750000e-02
4.025387e-07,2.500000e-02
4.105387e-07,-1.000000e-02
4.185387e-07,3.375000e-02
4.265387e-07,-8.750000e-03
4.345387e-07,2.750000e-02
4.425387e-07,-3.125000e-02
4.505387e-07,1.500000e-02
4.585387e-07,-2.000000e-02
4.665387e-07,1.875000e-02
4.745387e-07,-1.875000e-02
4.825387e-07,1.875000e-02
4.905387e-07,-1.500000e-02
4.985387e-07,2.625000e-02
5.065387e-07,-8.750000e-03
5.145387e-07,8.750000e-03
5.225387e-07,-6.250000e-03
5.305387e-07,2.625000e-02
5.385387e-07,-1.875000e-02
5.465387e-07,2.750000e-02
5.545387e-07,-1.875000e-02
5.625387e-07,2.500000e-02
5.705387e-07,-5.000000e-03
5.785387e-07,3.250000e-02
5.865387e-07,-2.750000e-02
5.945387e-07,6.250000e-03
6.025387e-07,-1.375000e-02
6.105387e-07,2.125000e-02
6.185387e-07,-2.125000e-02
6.265387e-07,0.000000e+00
6.345387e-07,-7.500000e-03
6.425387e-07,2.375000e-02
6.505387e-07,-8.750000e-03
6.585387e-07,1.125000e-02
6.665387e-07,-1.250000e-02
6.745387e-07,1.625000e-02
6.825387e-07,-1.250000e-03
6.905387e-07,2.625000e-02
6.985387e-07,-1.875000e-02
7.065387e-07,3.750000e-03
7.145387e-07,-1.375000e-02
7.225387e-07,7.500000e-03
7.305387e-07,-2.375000e-02
7.385387e-07,2.500000e-02
7.465387e-07,-1.250000e-03
7.545387e-07,1.125000e-02
7.625387e-07,-1.625000e-02
7.705387e-07,-1.250000e-03
7.785387e-07,-3.625000e-02
7.865387e-07,8.750000e-03
7.945387e-07,-3.750000e-03
8.025387e-07,3.250000e-02
