run1/run1_ch1_20210318180312591.csv

Model,MSO64
Waveform Type,ANALOG
Horizontal Units,s
Sample Interval,8.000000e-09
Record Length,1250
Zero Index,624.860156
Vertical Units,V

TIME,CH1
-4.998881e-06,-1.375000e-02
-4.990881e-06,1.125000e-02
-4.982881e-06,-7.500000e-03
-4.974881e-06,1.750000e-02
-4.966881e-06,-1.250000e-02
-4.958881e-06,1.000000e-02
-4.950881e-06,-1.125000e-02
-4.942881e-06,2.125000e-02
-4.934881e-06,-1.500000e-02
-4.926881e-06,4.500000e-02
-4.918881e-06,-3.625000e-02
-4.910881e-06,1.375000e-02
-4.902881e-06,-1.000000e-02
-4.894881e-06,1.750000e-02
-4.886881e-06,5.000000e-03
-4.878881e-06,1.500000e-02
-4.870881e-06,-2.000000e-02
-4.862881e-06,1.750000e-02
-4.854881e-06,1.250000e-03
-4.846881e-06,1.875000e-02
-4.838881e-06,-2.125000e-02
-4.830881e-06,2.750000e-02
-4.822881e-06,-2.750000e-02
-4.814881e-06,2.875000e-02
-4.806881e-06,1.125000e-02
-4.798881e-06,3.125000e-02
-4.790881e-06,-1.750000e-02
-4.782881e-06,2.125000e-02
-4.774881e-06,-2.375000e-02
-4.766881e-06,3.125000e-02
-4.758881e-06,-1.750000e-02
-4.750881e-06,1.625000e-02
-4.742881e-06,-1.625000e-02
-4.734881e-06,3.750000e-03
-4.726881e-06,6.250000e-03
-4.718881e-06,1.625000e-02
-4.710881e-06,-1.625000e-02
-4.702881e-06,2.625000e-02
-4.694881e-06,-1.375000e-02
-4.686881e-06,1.500000e-02
-4.678881e-06,3.750000e-03
-4.670881e-06,1.250000e-03
-4.662881e-06,-2.375000e-02
-4.654881e-06,1.750000e-02
-4.646881e-06,-2.000000e-02
-4.638881e-06,1.125000e-02
-4.630881e-06,-4.000000e-02
-4.622881e-06,2.375000e-02
-4.614881e-06,-1.000000e-02
-4.606881e-06,3.375000e-02
-4.598881e-06,3.750000e-03
-4.590881e-06,-2.500000e-03
-4.582881e-06,-3.125000e-02
-4.574881e-06,2.875000e-02
-4.566881e-06,-1.000000e-02
-4.558881e-06,1.750000e-02
-4.550881e-06,7.500000e-03
-4.542881e-06,2.000000e-02
-4.534881e-06,-6.250000e-03
-4.526881e-06,2.500000e-02
-4.518881e-06,-2.000000e-02
-4.510881e-06,2.250000e-02
-4.502881e-06,-1.625000e-02
-4.494881e-06,1.875000e-02
-4.486881e-06,-2.375000e-02
-4.478881e-06,1.375000e-02
-4.470881e-06,-5.000000e-03
-4.462881e-06,1.125000e-02
-4.454881e-06,-1.750000e-02
-4.446881e-06,1.000000e-02
-4.438881e-06,-8.750000e-03
-4.430881e-06,3.750000e-03
-4.422881e-06,-1.125000e-02
-4.414881e-06,2.000000e-02
-4.406881e-06,-3.500000e-02
-4.398881e-06,8.750000e-03
-4.390881e-06,-8.750000e-03
-4.382881e-06,1.125000e-02
-4.374881e-06,-2.375000e-02
-4.366881e-06,3.125000e-02
-4.358881e-06,-3.000000e-02
-4.350881e-06,6.250000e-03
-4.342881e-06,-2.500000e-03
-4.334881e-06,1.250000e-02
-4.326881e-06,-1.250000e-03
-4.318881e-06,8.750000e-03
-4.310881e-06,3.750000e-03
-4.302881e-06,4.500000e-02
-4.294881e-06,-1.250000e-02
-4.286881e-06,2.750000e-02
-4.278881e-06,-1.625000e-02
-4.270881e-06,1.000000e-02
-4.262881e-06,-3.125000e-02
-4.254881e-06,4.750000e-02
-4.246881e-06,-1.250000e-02
-4.238881e-06,4.125000e-02
-4.230881e-06,-2.125000e-02
-4.222881e-06,1.125000e-02
-4.214881e-06,-7.500000e-03
-4.206881e-06,1.750000e-02
-4.198881e-06,-1.250000e-02
-4.190881e-06,1.875000e-02
-4.182881e-06,-1.500000e-02
-4.174881e-06,1.250000e-02
-4.166881e-06,-1.250000e-02
-4.158881e-06,1.125000e-02
-4.150881e-06,-2.500000e-02
-4.142881e-06,-1.250000e-03
-4.134881e-06,-8.750000e-03
-4.126881e-06,2.000000e-02
-4.118881e-06,-7.500000e-03
-4.110881e-06,0.000000e+00
-4.102881e-06,-1.125000e-02
-4.094881e-06,2.750000e-02
-4.086881e-06,-1.125000e-02
-4.078881e-06,1.000000e-02
-4.070881e-06,-2.375000e-02
-4.062881e-06,2.875000e-02
-4.054881e-06,-5.000000e-03
-4.046881e-06,2.250000e-02
-4.038881e-06,5.000000e-03
-4.030881e-06,1.625000e-02
-4.022881e-06,-1.375000e-02
-4.014881e-06,1.500000e-02
-4.006881e-06,-2.625000e-02
-3.998881e-06,3.250000e-02
-3.990881e-06,0.000000e+00
-3.982881e-06,3.125000e-02
-3.974881e-06,-2.500000e-02
-3.966881e-06,3.375000e-02
-3.958881e-06,5.000000e-03
-3.950881e-06,-7.500000e-03
-3.942881e-06,-3.000000e-02
-3.934881e-06,1.000000e-02
-3.926881e-06,-3.750000e-03
-3.918881e-06,2.625000e-02
-3.910881e-06,2.500000e-03
-3.902881e-06,1.250000e-02
-3.894881e-06,-1.375000e-02
-3.886881e-06,1.375000e-02
-3.878881e-06,-4.125000e-02
-3.870881e-06,7.500000e-03
-3.862881e-06,-1.750000e-02
-3.854881e-06,4.125000e-02
-3.846881e-06,-4.125000e-02
-3.838881e-06,2.750000e-02
-3.830881e-06,-2.250000e-02
-3.822881e-06,2.125000e-02
-3.814881e-06,-2.500000e-02
-3.806881e-06,2.000000e-02
-3.798881e-06,2.375000e-02
-3.790881e-06,1.000000e-02
-3.782881e-06,-1.625000e-02
-3.774881e-06,6.250000e-03
-3.766881e-06,-2.000000e-02
-3.758881e-06,5.000000e-03
-3.750881e-06,-2.750000e-02
-3.742881e-06,2.250000e-02
-3.734881e-06,-1.625000e-02
-3.726881e-06,3.375000e-02
-3.718881e-06,-3.250000e-02
-3.710881e-06,1.250000e-02
-3.702881e-06,-1.875000e-02
-3.694881e-06,2.250000e-02
-3.686881e-06,0.000000e+00
-3.678881e-06,1.500000e-02
-3.670881e-06,-1.000000e-02
-3.662881e-06,2.750000e-02
-3.654881e-06,-1.000000e-02
-3.646881e-06,2.125000e-02
-3.638881e-06,-1.625000e-02
-3.630881e-06,-2.500000e-03
-3.622881e-06,-2.875000e-02
-3.614881e-06,8.750000e-03
-3.606881e-06,-3.000000e-02
-3.598881e-06,3.000000e-02
-3.590881e-06,-1.500000e-02
-3.582881e-06,2.625000e-02
-3.574881e-06,-2.250000e-02
-3.566881e-06,1.375000e-02
-3.558881e-06,-2.250000e-02
-3.550881e-06,2.500000e-03
-3.542881e-06,-1.000000e-02
-3.534881e-06,2.500000e-03
-3.526881e-06,-2.250000e-02
-3.518881e-06,2.125000e-02
-3.510881e-06,-4.000000e-02
-3.502881e-06,1.750000e-02
-3.494881e-06,-3.500000e-02
-3.486881e-06,1.000000e-02
-3.478881e-06,-2.875000e-02
-3.470881e-06,2.875000e-02
-3.462881e-06,0.000000e+00
-3.454881e-06,1.500000e-02
-3.446881e-06,1.625000e-02
-3.438881e-06,1.500000e-02
-3.430881e-06,-4.250000e-02
-3.422881e-06,1.875000e-02
-3.414881e-06,1.250000e-03
-3.406881e-06,7.500000e-03
-3.398881e-06,5.000000e-03
-3.390881e-06,2.125000e-02
-3.382881e-06,-3.750000e-03
-3.374881e-06,-8.750000e-03
-3.366881e-06,-1.875000e-02
-3.358881e-06,2.000000e-02
-3.350881e-06,-5.000000e-03
-3.342881e-06,2.125000e-02
-3.334881e-06,-1.125000e-02
-3.326881e-06,1.500000e-02
-3.318881e-06,-2.000000e-02
-3.310881e-06,1.625000e-02
-3.302881e-06,-1.875000e-02
-3.294881e-06,2.750000e-02
-3.286881e-06,-1.000000e-02
-3.278881e-06,1.125000e-02
-3.270881e-06,8.750000e-03
-3.262881e-06,2.625000e-02
-3.254881e-06,-8.750000e-03
-3.246881e-06,5.000000e-03
-3.238881e-06,-4.125000e-02
-3.230881e-06,1.500000e-02
-3.222881e-06,-1.375000e-02
-3.214881e-06,2.500000e-02
-3.206881e-06,3.750000e-03
-3.198881e-06,3.250000e-02
-3.190881e-06,5.000000e-03
-3.182881e-06,1.375000e-02
-3.174881e-06,-1.375000e-02
-3.166881e-06,1.000000e-02
-3.158881e-06,1.125000e-02
-3.150881e-06,1.500000e-02
-3.142881e-06,-2.125000e-02
-3.134881e-06,-5.000000e-03
-3.126881e-06,-1.375000e-02
-3.118881e-06,2.500000e-03
-3.110881e-06,-2.750000e-02
-3.102881e-06,4.250000e-02
-3.094881e-06,-1.375000e-02
-3.086881e-06,-1.250000e-03
-3.078881e-06,-7.500000e-03
-3.070881e-06,-2.500000e-03
-3.062881e-06,-3.750000e-03
-3.054881e-06,3.250000e-02
-3.046881e-06,-3.250000e-02
-3.038881e-06,8.750000e-03
-3.030881e-06,-1.875000e-02
-3.022881e-06,2.500000e-02
-3.014881e-06,-1.250000e-03
-3.006881e-06,1.625000e-02
-2.998881e-06,-1.000000e-02
-2.990881e-06,2.500000e-02
-2.982881e-06,-2.000000e-02
-2.974881e-06,1.250000e-03
-2.966881e-06,-1.250000e-03
-2.958881e-06,1.250000e-03
-2.950881e-06,-7.500000e-03
-2.942881e-06,1.250000e-03
-2.934881e-06,3.750000e-03
-2.926881e-06,2.750000e-02
-2.918881e-06,-2.875000e-02
-2.910881e-06,-6.250000e-03
-2.902881e-06,-2.125000e-02
-2.894881e-06,1.875000e-02
-2.886881e-06,-1.500000e-02
-2.878881e-06,1.750000e-02
-2.870881e-06,-2.125000e-02
-2.862881e-06,1.250000e-02
-2.854881e-06,-1.500000e-02
-2.846881e-06,2.500000e-03
-2.838881e-06,-2.000000e-02
-2.830881e-06,2.500000e-02
-2.822881e-06,-2.000000e-02
-2.814881e-06,1.000000e-02
-2.806881e-06,-8.750000e-03
-2.798881e-06,1.875000e-02
-2.790881e-06,-2.250000e-02
-2.782881e-06,1.250000e-03
-2.774881e-06,-1.875000e-02
-2.766881e-06,1.000000e-02
-2.758881e-06,-5.000000e-03
-2.750881e-06,3.750000e-03
-2.742881e-06,-6.250000e-03
-2.734881e-06,5.000000e-03
-2.726881e-06,-1.375000e-02
-2.718881e-06,1.500000e-02
-2.710881e-06,-3.625000e-02
-2.702881e-06,1.625000e-02
-2.694881e-06,6.250000e-03
-2.686881e-06,4.250000e-02
-2.678881e-06,3.750000e-03
-2.670881e-06,1.500000e-02
-2.662881e-06,-1.000000e-02
-2.654881e-06,2.125000e-02
-2.646881e-06,5.000000e-03
-2.638881e-06,3.875000e-02
-2.630881e-06,-1.250000e-02
-2.622881e-06,6.250000e-03
-2.614881e-06,-2.375000e-02
-2.606881e-06,1.500000e-02
-2.598881e-06,-3.000000e-02
-2.590881e-06,2.000000e-02
-2.582881e-06,-1.500000e-02
-2.574881e-06,2.250000e-02
-2.566881e-06,-5.000000e-03
-2.558881e-06,3.000000e-02
-2.550881e-06,-2.250000e-02
-2.542881e-06,6.250000e-03
-2.534881e-06,-3.125000e-02
-2.526881e-06,2.125000e-02
-2.518881e-06,-7.500000e-03
-2.510881e-06,3.250000e-02
-2.502881e-06,-2.125000e-02
-2.494881e-06,1.250000e-02
-2.486881e-06,2.500000e-03
-2.478881e-06,1.625000e-02
-2.470881e-06,-1.000000e-02
-2.462881e-06,0.000000e+00
-2.454881e-06,-1.750000e-02
-2.446881e-06,1.250000e-02
-2.438881e-06,0.000000e+00
-2.430881e-06,2.375000e-02
-2.422881e-06,-1.250000e-03
-2.414881e-06,1.125000e-02
-2.406881e-06,-2.500000e-02
-2.398881e-06,1.625000e-02
-2.390881e-06,1.375000e-02
-2.382881e-06,2.375000e-02
-2.374881e-06,-6.250000e-03
-2.366881e-06,1.000000e-02
-2.358881e-06,-3.500000e-02
-2.350881e-06,2.000000e-02
-2.342881e-06,-2.250000e-02
-2.334881e-06,2.250000e-02
-2.326881e-06,-1.500000e-02
-2.318881e-06,3.000000e-02
-2.310881e-06,-7.500000e-03
-2.302881e-06,2.000000e-02
-2.294881e-06,-2.250000e-02
-2.286881e-06,3.125000e-02
-2.278881e-06,-1.250000e-02
-2.270881e-06,1.375000e-02
-2.262881e-06,-1.625000e-02
-2.254881e-06,2.500000e-02
-2.246881e-06,2.500000e-03
-2.238881e-06,1.500000e-02
-2.230881e-06,5.000000e-03
-2.222881e-06,6.250000e-03
-2.214881e-06,-2.625000e-02
-2.206881e-06,1.375000e-02
-2.198881e-06,-1.375000e-02
-2.190881e-06,3.625000e-02
-2.182881e-06,-1.625000e-02
-2.174881e-06,2.750000e-02
-2.166881e-06,-2.625000e-02
-2.158881e-06,3.250000e-02
-2.150881e-06,-7.500000e-03
-2.142881e-06,1.625000e-02
-2.134881e-06,-1.500000e-02
-2.126881e-06,2.125000e-02
-2.118881e-06,-1.375000e-02
-2.110881e-06,4.250000e-02
-2.102881e-06,-2.250000e-02
-2.094881e-06,3.000000e-02
-2.086881e-06,-2.875000e-02
-2.078881e-06,2.375000e-02
-2.070881e-06,-6.250000e-03
-2.062881e-06,4.375000e-02
-2.054881e-06,-8.750000e-03
-2.046881e-06,1.750000e-02
-2.038881e-06,-2.750000e-02
-2.030881e-06,3.250000e-02
-2.022881e-06,-3.000000e-02
-2.014881e-06,3.250000e-02
-2.006881e-06,-1.250000e-03
-1.998881e-06,2.500000e-02
-1.990881e-06,-7.500000e-03
-1.982881e-06,2.250000e-02
-1.974881e-06,-1.250000e-02
-1.966881e-06,1.125000e-02
-1.958881e-06,-4.625000e-02
-1.950881e-06,2.125000e-02
-1.942881e-06,-3.500000e-02
-1.934881e-06,1.000000e-02
-1.926881e-06,1.125000e-02
-1.918881e-06,1.250000e-02
-1.910881e-06,-2.750000e-02
-1.902881e-06,1.125000e-02
-1.894881e-06,-2.125000e-02
-1.886881e-06,-1.000000e-02
-1.878881e-06,-1.875000e-02
-1.870881e-06,3.250000e-02
-1.862881e-06,2.500000e-03
-1.854881e-06,7.500000e-03
-1.846881e-06,-1.000000e-02
-1.838881e-06,2.500000e-02
-1.830881e-06,-2.750000e-02
-1.822881e-06,2.125000e-02
-1.814881e-06,-1.250000e-02
-1.806881e-06,1.500000e-02
-1.798881e-06,-1.125000e-02
-1.790881e-06,1.125000e-02
-1.782881e-06,-1.250000e-02
-1.774881e-06,2.375000e-02
-1.766881e-06,-1.000000e-02
-1.758881e-06,5.000000e-03
-1.750881e-06,-3.125000e-02
-1.742881e-06,2.500000e-02
-1.734881e-06,-6.250000e-03
-1.726881e-06,1.250000e-03
-1.718881e-06,-1.875000e-02
-1.710881e-06,1.500000e-02
-1.702881e-06,-5.500000e-02
-1.694881e-06,2.500000e-02
-1.686881e-06,0.000000e+00
-1.678881e-06,2.625000e-02
-1.670881e-06,-1.375000e-02
-1.662881e-06,0.000000e+00
-1.654881e-06,-7.500000e-03
-1.646881e-06,1.250000e-02
-1.638881e-06,-3.125000e-02
-1.630881e-06,7.500000e-03
-1.622881e-06,-1.625000e-02
-1.614881e-06,1.750000e-02
-1.606881e-06,-1.250000e-02
-1.598881e-06,3.750000e-02
-1.590881e-06,8.750000e-03
-1.582881e-06,2.250000e-02
-1.574881e-06,-2.875000e-02
-1.566881e-06,3.750000e-03
-1.558881e-06,-3.125000e-02
-1.550881e-06,1.625000e-02
-1.542881e-06,-2.250000e-02
-1.534881e-06,6.250000e-03
-1.526881e-06,-1.000000e-02
-1.518881e-06,2.625000e-02
-1.510881e-06,-1.500000e-02
-1.502881e-06,3.000000e-02
-1.494881e-06,-2.500000e-03
-1.486881e-06,2.500000e-02
-1.478881e-06,-7.500000e-03
-1.470881e-06,1.875000e-02
-1.462881e-06,5.000000e-03
-1.454881e-06,3.500000e-02
-1.446881e-06,-2.125000e-02
-1.438881e-06,2.000000e-02
-1.430881e-06,-3.750000e-02
-1.422881e-06,3.750000e-02
-1.414881e-06,-1.875000e-02
-1.406881e-06,1.000000e-02
-1.398881e-06,-8.750000e-03
-1.390881e-06,1.750000e-02
-1.382881e-06,-8.750000e-03
-1.374881e-06,3.250000e-02
-1.366881e-06,1.000000e-02
-1.358881e-06,4.875000e-02
-1.350881e-06,-6.250000e-03
-1.342881e-06,4.625000e-02
-1.334881e-06,-5.000000e-03
-1.326881e-06,3.750000e-03
-1.318881e-06,-4.250000e-02
-1.310881e-06,2.625000e-02
-1.302881e-06,-1.625000e-02
-1.294881e-06,1.375000e-02
-1.286881e-06,-2.125000e-02
-1.278881e-06,1.625000e-02
-1.270881e-06,-3.625000e-02
-1.262881e-06,2.125000e-02
-1.254881e-06,-3.000000e-02
-1.246881e-06,2.625000e-02
-1.238881e-06,-1.250000e-03
-1.230881e-06,1.375000e-02
-1.222881e-06,-1.500000e-02
-1.214881e-06,3.125000e-02
-1.206881e-06,7.500000e-03
-1.198881e-06,2.000000e-02
-1.190881e-06,-2.750000e-02
-1.182881e-06,1.750000e-02
-1.174881e-06,-5.000000e-03
-1.166881e-06,3.250000e-02
-1.158881e-06,-2.250000e-02
-1.150881e-06,3.750000e-02
-1.142881e-06,5.000000e-03
-1.134881e-06,1.500000e-02
-1.126881e-06,-3.125000e-02
-1.118881e-06,1.375000e-02
-1.110881e-06,-5.000000e-03
-1.102881e-06,2.750000e-02
-1.094881e-06,-7.500000e-03
-1.086881e-06,3.750000e-03
-1.078881e-06,0.000000e+00
-1.070881e-06,1.250000e-03
-1.062881e-06,-3.375000e-02
-1.054881e-06,-1.000000e-02
-1.046881e-06,-1.875000e-02
-1.038881e-06,2.500000e-02
-1.030881e-06,6.250000e-03
-1.022881e-06,2.250000e-02
-1.014881e-06,-1.875000e-02
-1.006881e-06,1.125000e-02
-9.988813e-07,-8.750000e-03
-9.908813e-07,7.500000e-03
-9.828813e-07,-6.250000e-03
-9.748813e-07,2.500000e-02
-9.668813e-07,1.250000e-03
-9.588813e-07,2.500000e-02
-9.508813e-07,-1.250000e-02
-9.428813e-07,1.125000e-02
-9.348813e-07,-4.125000e-02
-9.268813e-07,3.500000e-02
-9.188813e-07,-2.500000e-02
-9.108813e-07,2.750000e-02
-9.028813e-07,-2.875000e-02
-8.948813e-07,3.000000e-02
-8.868813e-07,-3.750000e-02
-8.788813e-07,2.500000e-03
-8.708813e-07,-1.875000e-02
-8.628813e-07,1.250000e-02
-8.548813e-07,-3.000000e-02
-8.468813e-07,2.000000e-02
-8.388813e-07,-1.500000e-02
-8.308813e-07,2.375000e-02
-8.228813e-07,-1.375000e-02
-8.148813e-07,-1.250000e-03
-8.068813e-07,-8.750000e-03
-7.988813e-07,2.000000e-02
-7.908813e-07,-2.750000e-02
-7.828813e-07,6.250000e-03
-7.748813e-07,-2.750000e-02
-7.668813e-07,2.000000e-02
-7.588813e-07,-5.000000e-03
-7.508813e-07,3.750000e-02
-7.428813e-07,-8.750000e-03
-7.348813e-07,1.375000e-02
-7.268813e-07,-1.375000e-02
-7.188813e-07,2.375000e-02
-7.108813e-07,-2.125000e-02
-7.028813e-07,2.625000e-02
-6.948813e-07,-2.375000e-02
-6.868813e-07,3.750000e-03
-6.788813e-07,-1.875000e-02
-6.708813e-07,2.750000e-02
-6.628813e-07,-3.750000e-03
-6.548813e-07,2.000000e-02
-6.468813e-07,-3.125000e-02
-6.388813e-07,2.500000e-02
-6.308813e-07,-8.750000e-03
-6.228813e-07,1.750000e-02
-6.148813e-07,-2.875000e-02
-6.068813e-07,2.250000e-02
-5.988813e-07,0.000000e+00
-5.908813e-07,1.875000e-02
-5.828813e-07,-1.500000e-02
-5.748813e-07,2.000000e-02
-5.668813e-07,-1.375000e-02
-5.588813e-07,3.125000e-02
-5.508813e-07,-4.000000e-02
-5.428813e-07,3.250000e-02
-5.348813e-07,-3.125000e-02
-5.268813e-07,4.375000e-02
-5.188813e-07,-2.250000e-02
-5.108813e-07,3.250000e-02
-5.028813e-07,-1.250000e-02
-4.948813e-07,1.500000e-02
-4.868813e-07,-1.625000e-02
-4.788813e-07,8.750000e-03
-4.708813e-07,-1.250000e-02
-4.628813e-07,2.375000e-02
-4.548813e-07,-6.250000e-03
-4.468813e-07,1.375000e-02
-4.388813e-07,-2.500000e-03
-4.308813e-07,2.625000e-02
-4.228813e-07,-2.875000e-02
-4.148813e-07,1.750000e-02
-4.068813e-07,0.000000e+00
-3.988813e-07,1.625000e-02
-3.908813e-07,1.375000e-02
-3.828813e-07,2.500000e-03
-3.748813e-07,-2.625000e-02
-3.668813e-07,2.000000e-02
-3.588813e-07,-1.250000e-02
-3.508813e-07,1.625000e-02
-3.428813e-07,-1.625000e-02
-3.348813e-07,3.750000e-02
-3.268813e-07,-2.375000e-02
-3.188813e-07,5.000000e-03
-3.108813e-07,-2.125000e-02
-3.028813e-07,1.250000e-02
-2.948813e-07,-4.000000e-02
-2.868813e-07,8.750000e-03
-2.788813e-07,-5.000000e-03
-2.708813e-07,1.625000e-02
-2.628813e-07,-1.375000e-02
-2.548813e-07,2.625000e-02
-2.468813e-07,-2.000000e-02
-2.388813e-07,-2.500000e-03
-2.308813e-07,-1.500000e-02
-2.228813e-07,6.250000e-03
-2.148813e-07,-2.500000e-03
-2.068813e-07,1.000000e-02
-1.988813e-07,-3.750000e-03
-1.908813e-07,7.500000e-03
-1.828813e-07,-1.125000e-02
-1.748813e-07,2.500000e-02
-1.668813e-07,-4.000000e-02
-1.588813e-07,1.875000e-02
-1.508813e-07,-3.125000e-02
-1.428813e-07,1.250000e-02
-1.348813e-07,-1.500000e-02
-1.268813e-07,1.250000e-03
-1.188813e-07,-2.125000e-02
-1.108813e-07,1.500000e-02
-1.028813e-07,-2.375000e-02
-9.488125e-08,-5.000000e-03
-8.688125e-08,0.000000e+00
-7.888125e-08,3.375000e-02
-7.088125e-08,2.500000e-03
-6.288125e-08,8.750000e-03
-5.488125e-08,-3.875000e-02
-4.688125e-08,-2.500000e-03
-3.888125e-08,-2.750000e-02
-3.088125e-08,1.250000e-02
-2.288125e-08,-2.000000e-02
-1.488125e-08,1.625000e-02
-6.881250e-09,-1.250000e-02
1.118750e-09,-8.087500e-01
9.118750e-09,-1.402500e+00
1.711875e-08,-1.407500e+00
2.511875e-08,-1.430000e+00
3.311875e-08,3.750000e-03
4.111875e-08,-1.250000e-02
4.911875e-08,4.750000e-02
5.711875e-08,-1.500000e-02
6.511875e-08,5.000000e-03
7.311875e-08,-2.125000e-02
8.111875e-08,2.500000e-03
8.911875e-08,-3.500000e-02
9.711875e-08,2.000000e-02
1.051187e-07,-1.375000e-02
1.131187e-07,4.250000e-02
1.211187e-07,-2.250000e-02
1.291187e-07,2.625000e-02
1.371187e-07,3.750000e-03
1.451187e-07,1.000000e-02
1.531187e-07,-4.000000e-02
1.611187e-07,2.750000e-02
1.691187e-07,0.000000e+00
1.771187e-07,2.000000e-02
1.851187e-07,-2.250000e-02
1.931187e-07,2.625000e-02
2.011187e-07,-8.750000e-03
2.091187e-07,2.250000e-02
2.171187e-07,-2.000000e-02
2.251187e-07,1.125000e-02
2.331187e-07,-2.125000e-02
2.411187e-07,2.625000e-02
2.491187e-07,-3.500000e-02
2.571187e-07,6.250000e-03
2.651187e-07,-1.500000e-02
2.731187e-07,1.750000e-02
2.811187e-07,-1.875000e-02
2.891187e-07,2.000000e-02
2.971187e-07,-8.750000e-03
3.051187e-07,1.375000e-02
3.131187e-07,-1.875000e-02
3.211187e-07,3.625000e-02
3.291187e-07,-5.000000e-03
3.371187e-07,2.125000e-02
3.451187e-07,-1.750000e-02
3.531187e-07,6.250000e-03
3.611187e-07,-1.375000e-02
3.691187e-07,1.375000e-02
3.771187e-07,-3.750000e-03
3.851187e-07,2.750000e-02
3.931187e-07,-3.875000e-02
4.011187e-07,1.000000e-02
4.091187e-07,-2.000000e-02
4.171187e-07,8.750000e-03
4.251187e-07,0.000000e+00
4.331187e-07,-8.750000e-03
4.411187e-07,-1.250000e-03
4.491187e-07,1.375000e-02
4.571187e-07,-2.750000e-02
4.651187e-07,2.000000e-02
4.731187e-07,-3.500000e-02
4.811187e-07,1.875000e-02
4.891187e-07,-1.250000e-02
4.971187e-07,1.875000e-02
5.051187e-07,-1.125000e-02
5.131187e-07,1.375000e-02
5.211187e-07,-1.875000e-02
5.291187e-07,2.125000e-02
5.371187e-07,-2.125000e-02
5.451187e-07,2.750000e-02
5.531187e-07,-5.000000e-03
5.611187e-07,3.250000e-02
5.691187e-07,-2.250000e-02
5.771187e-07,1.125000e-02
5.851187e-07,-2.500000e-02
5.931187e-07,1.875000e-02
6.011187e-07,-4.625000e-02
6.091187e-07,1.375000e-02
6.171187e-07,-1.750000e-02
6.251187e-07,3.000000e-02
6.331187e-07,1.375000e-02
6.411187e-07,2.625000e-02
6.491187e-07,-1.125000e-02
6.571187e-07,3.000000e-02
6.651187e-07,-3.750000e-02
6.731187e-07,3.250000e-02
6.811187e-07,-2.125000e-02
6.891187e-07,1.875000e-02
6.971187e-07,-1.250000e-02
7.051187e-07,1.250000e-02
7.131187e-07,3.750000e-03
7.211187e-07,1.250000e-02
7.291187e-07,-8.750000e-03
7.371187e-07,1.875000e-02
7.451187e-07,-3.375000e-02
7.531187e-07,1.250000e-02
7.611187e-07,-2.250000e-02
7.691187e-07,1.375000e-02
7.771187e-07,-7.500000e-03
7.851187e-07,2.000000e-02
7.931187e-07,-2.500000e-02
8.011187e-07,3.375000e-02
