run1/run1_ch3_20210318180143136.csv

Model,MSO64
Waveform Type,ANALOG
Horizontal Units,s
Sample Interval,8.000000e-09
Record Length,1250
Zero Index,624.885000
Vertical Units,V

TIME,CH3
-4.999080e-06,-7.365625e-01
-4.991080e-06,-7.387500e-01
-4.983080e-06,-7.490625e-01
-4.975080e-06,-7.343750e-01
-4.967080e-06,-7.496875e-01
-4.959080e-06,-7.325000e-01
-4.951080e-06,-7.421875e-01
-4.943080e-06,-7.343750e-01
-4.935080e-06,-7.396875e-01
-4.927080e-06,-7.431250e-01
-4.919080e-06,-7.481250e-01
-4.911080e-06,-7.331250e-01
-4.903080e-06,-7.612500e-01
-4.895080e-06,-7.390625e-01
-4.887080e-06,-7.415625e-01
-4.879080e-06,-7.331250e-01
-4.871080e-06,-7.384375e-01
-4.863080e-06,-7.325000e-01
-4.855080e-06,-7.525000e-01
-4.847080e-06,-7.334375e-01
-4.839080e-06,-7.562500e-01
-4.831080e-06,-7.325000e-01
-4.823080e-06,-7.421875e-01
-4.815080e-06,-7.187500e-01
-4.807080e-06,-7.518750e-01
-4.799080e-06,-7.506250e-01
-4.791080e-06,-7.434375e-01
-4.783080e-06,-7.443750e-01
-4.775080e-06,-7.553125e-01
-4.767080e-06,-7.296875e-01
-4.759080e-06,-7.400000e-01
-4.751080e-06,-7.303125e-01
-4.743080e-06,-7.390625e-01
-4.735080e-06,-7.340625e-01
-4.727080e-06,-7.559375e-01
-4.719080e-06,-7.312500e-01
-4.711080e-06,-7.503125e-01
-4.703080e-06,-7.209375e-01
-4.695080e-06,-7.550000e-01
-4.687080e-06,-7.184375e-01
-4.679080e-06,-7.512500e-01
-4.671080e-06,-7.431250e-01
-4.663080e-06,-7.387500e-01
-4.655080e-06,-7.471875e-01
-4.647080e-06,-7.553125e-01
-4.639080e-06,-7.368750e-01
-4.631080e-06,-7.381250e-01
-4.623080e-06,-7.387500e-01
-4.615080e-06,-7.387500e-01
-4.607080e-06,-7.356250e-01
-4.599080e-06,-7.500000e-01
-4.591080e-06,-7.465625e-01
-4.583080e-06,-7.490625e-01
-4.575080e-06,-7.225000e-01
-4.567080e-06,-7.537500e-01
-4.559080e-06,-7.278125e-01
-4.551080e-06,-7.393750e-01
-4.543080e-06,-7.468750e-01
-4.535080e-06,-7.546875e-01
-4.527080e-06,-7.443750e-01
-4.519080e-06,-7.656250e-01
-4.511080e-06,-7.340625e-01
-4.503080e-06,-7.418750e-01
-4.495080e-06,-7.306250e-01
-4.487080e-06,-7.490625e-01
-4.479080e-06,-7.384375e-01
-4.471080e-06,-7.518750e-01
-4.463080e-06,-7.350000e-01
-4.455080e-06,-7.293750e-01
-4.447080e-06,-7.268750e-01
-4.439080e-06,-7.465625e-01
-4.431080e-06,-7.137500e-01
-4.423080e-06,-7.453125e-01
-4.415080e-06,-7.368750e-01
-4.407080e-06,-7.381250e-01
-4.399080e-06,-7.418750e-01
-4.391080e-06,-7.428125e-01
-4.383080e-06,-7.234375e-01
-4.375080e-06,-7.531250e-01
-4.367080e-06,-7.265625e-01
-4.359080e-06,-7.446875e-01
-4.351080e-06,-7.462500e-01
-4.343080e-06,-7.618750e-01
-4.335080e-06,-7.446875e-01
-4.327080e-06,-7.428125e-01
-4.319080e-06,-7.300000e-01
-4.311080e-06,-7.521875e-01
-4.303080e-06,-7.231250e-01
-4.295080e-06,-7.409375e-01
-4.287080e-06,-7.418750e-01
-4.279080e-06,-7.453125e-01
-4.271080e-06,-7.375000e-01
-4.263080e-06,-7.471875e-01
-4.255080e-06,-7.246875e-01
-4.247080e-06,-7.562500e-01
-4.239080e-06,-7.265625e-01
-4.231080e-06,-7.384375e-01
-4.223080e-06,-7.381250e-01
-4.215080e-06,-7.487500e-01
-4.207080e-06,-7.440625e-01
-4.199080e-06,-7.471875e-01
-4.191080e-06,-7.303125e-01
-4.183080e-06,-7.443750e-01
-4.175080e-06,-7.362500e-01
-4.167080e-06,-7.493750e-01
-4.159080e-06,-7.468750e-01
-4.151080e-06,-7.450000e-01
-4.143080e-06,-7.309375e-01
-4.135080e-06,-7.609375e-01
-4.127080e-06,-7.253125e-01
-4.119080e-06,-7.400000e-01
-4.111080e-06,-7.359375e-01
-4.103080e-06,-7.428125e-01
-4.095080e-06,-7.312500e-01
-4.087080e-06,-7.490625e-01
-4.079080e-06,-7.343750e-01
-4.071080e-06,-7.546875e-01
-4.063080e-06,-7.356250e-01
-4.055080e-06,-7.293750e-01
-4.047080e-06,-7.240625e-01
-4.039080e-06,-7.537500e-01
-4.031080e-06,-7.450000e-01
-4.023080e-06,-7.465625e-01
-4.015080e-06,-7.443750e-01
-4.007080e-06,-7.550000e-01
-3.999080e-06,-7.343750e-01
-3.991080e-06,-7.375000e-01
-3.983080e-06,-7.271875e-01
-3.975080e-06,-7.409375e-01
-3.967080e-06,-7.218750e-01
-3.959080e-06,-7.593750e-01
-3.951080e-06,-7.268750e-01
-3.943080e-06,-7.543750e-01
-3.935080e-06,-7.362500e-01
-3.927080e-06,-7.337500e-01
-3.919080e-06,-7.206250e-01
-3.911080e-06,-7.378125e-01
-3.903080e-06,-7.456250e-01
-3.895080e-06,-7.471875e-01
-3.887080e-06,-7.453125e-01
-3.879080e-06,-7.537500e-01
-3.871080e-06,-7.271875e-01
-3.863080e-06,-7.525000e-01
-3.855080e-06,-7.415625e-01
-3.847080e-06,-7.431250e-01
-3.839080e-06,-7.362500e-01
-3.831080e-06,-7.631250e-01
-3.823080e-06,-7.450000e-01
-3.815080e-06,-7.575000e-01
-3.807080e-06,-7.471875e-01
-3.799080e-06,-7.393750e-01
-3.791080e-06,-7.321875e-01
-3.783080e-06,-7.568750e-01
-3.775080e-06,-7.303125e-01
-3.767080e-06,-7.581250e-01
-3.759080e-06,-7.450000e-01
-3.751080e-06,-7.521875e-01
-3.743080e-06,-7.350000e-01
-3.735080e-06,-7.487500e-01
-3.727080e-06,-7.290625e-01
-3.719080e-06,-7.371875e-01
-3.711080e-06,-7.153125e-01
-3.703080e-06,-7.637500e-01
-3.695080e-06,-7.375000e-01
-3.687080e-06,-7.637500e-01
-3.679080e-06,-7.425000e-01
-3.671080e-06,-7.478125e-01
-3.663080e-06,-7.296875e-01
-3.655080e-06,-7.571875e-01
-3.647080e-06,-7.437500e-01
-3.639080e-06,-7.521875e-01
-3.631080e-06,-7.496875e-01
-3.623080e-06,-7.590625e-01
-3.615080e-06,-7.325000e-01
-3.607080e-06,-7.612500e-01
-3.599080e-06,-7.381250e-01
-3.591080e-06,-7.568750e-01
-3.583080e-06,-7.306250e-01
-3.575080e-06,-7.553125e-01
-3.567080e-06,-7.362500e-01
-3.559080e-06,-7.612500e-01
-3.551080e-06,-7.431250e-01
-3.543080e-06,-7.556250e-01
-3.535080e-06,-7.375000e-01
-3.527080e-06,-7.565625e-01
-3.519080e-06,-7.478125e-01
-3.511080e-06,-7.368750e-01
-3.503080e-06,-7.425000e-01
-3.495080e-06,-7.587500e-01
-3.487080e-06,-7.331250e-01
-3.479080e-06,-7.628125e-01
-3.471080e-06,-7.390625e-01
-3.463080e-06,-7.450000e-01
-3.455080e-06,-7.293750e-01
-3.447080e-06,-7.565625e-01
-3.439080e-06,-7.331250e-01
-3.431080e-06,-7.593750e-01
-3.423080e-06,-7.262500e-01
-3.415080e-06,-7.428125e-01
-3.407080e-06,-7.275000e-01
-3.399080e-06,-7.437500e-01
-3.391080e-06,-7.515625e-01
-3.383080e-06,-7.512500e-01
-3.375080e-06,-7.490625e-01
-3.367080e-06,-7.396875e-01
-3.359080e-06,-7.240625e-01
-3.351080e-06,-7.556250e-01
-3.343080e-06,-7.243750e-01
-3.335080e-06,-7.396875e-01
-3.327080e-06,-7.240625e-01
-3.319080e-06,-7.484375e-01
-3.311080e-06,-7.312500e-01
-3.303080e-06,-7.512500e-01
-3.295080e-06,-7.359375e-01
-3.287080e-06,-7.468750e-01
-3.279080e-06,-7.212500e-01
-3.271080e-06,-7.365625e-01
-3.263080e-06,-7.300000e-01
-3.255080e-06,-7.562500e-01
-3.247080e-06,-7.471875e-01
-3.239080e-06,-7.600000e-01
-3.231080e-06,-7.290625e-01
-3.223080e-06,-7.615625e-01
-3.215080e-06,-7.371875e-01
-3.207080e-06,-7.431250e-01
-3.199080e-06,-7.493750e-01
-3.191080e-06,-7.575000e-01
-3.183080e-06,-7.375000e-01
-3.175080e-06,-7.503125e-01
-3.167080e-06,-7.275000e-01
-3.159080e-06,-7.500000e-01
-3.151080e-06,-7.096875e-01
-3.143080e-06,-7.562500e-01
-3.135080e-06,-7.381250e-01
-3.127080e-06,-7.462500e-01
-3.119080e-06,-7.387500e-01
-3.111080e-06,-7.612500e-01
-3.103080e-06,-7.318750e-01
-3.095080e-06,-7.568750e-01
-3.087080e-06,-7.318750e-01
-3.079080e-06,-7.368750e-01
-3.071080e-06,-7.331250e-01
-3.063080e-06,-7.468750e-01
-3.055080e-06,-7.368750e-01
-3.047080e-06,-7.587500e-01
-3.039080e-06,-7.456250e-01
-3.031080e-06,-7.568750e-01
-3.023080e-06,-7.215625e-01
-3.015080e-06,-7.375000e-01
-3.007080e-06,-7.459375e-01
-2.999080e-06,-7.359375e-01
-2.991080e-06,-7.425000e-01
-2.983080e-06,-7.556250e-01
-2.975080e-06,-7.225000e-01
-2.967080e-06,-7.471875e-01
-2.959080e-06,-7.328125e-01
-2.951080e-06,-7.409375e-01
-2.943080e-06,-7.462500e-01
-2.935080e-06,-7.596875e-01
-2.927080e-06,-7.281250e-01
-2.919080e-06,-7.521875e-01
-2.911080e-06,-7.231250e-01
-2.903080e-06,-7.396875e-01
-2.895080e-06,-7.253125e-01
-2.887080e-06,-7.375000e-01
-2.879080e-06,-7.437500e-01
-2.871080e-06,-7.450000e-01
-2.863080e-06,-7.465625e-01
-2.855080e-06,-7.650000e-01
-2.847080e-06,-7.293750e-01
-2.839080e-06,-7.462500e-01
-2.831080e-06,-7.290625e-01
-2.823080e-06,-7.390625e-01
-2.815080e-06,-7.343750e-01
-2.807080e-06,-7.506250e-01
-2.799080e-06,-7.306250e-01
-2.791080e-06,-7.462500e-01
-2.783080e-06,-7.418750e-01
-2.775080e-06,-7.596875e-01
-2.767080e-06,-7.237500e-01
-2.759080e-06,-7.481250e-01
-2.751080e-06,-7.487500e-01
-2.743080e-06,-7.468750e-01
-2.735080e-06,-7.471875e-01
-2.727080e-06,-7.609375e-01
-2.719080e-06,-7.278125e-01
-2.711080e-06,-7.378125e-01
-2.703080e-06,-7.365625e-01
-2.695080e-06,-7.537500e-01
-2.687080e-06,-7.393750e-01
-2.679080e-06,-7.525000e-01
-2.671080e-06,-7.490625e-01
-2.663080e-06,-7.628125e-01
-2.655080e-06,-7.293750e-01
-2.647080e-06,-7.600000e-01
-2.639080e-06,-7.268750e-01
-2.631080e-06,-7.481250e-01
-2.623080e-06,-7.431250e-01
-2.615080e-06,-7.450000e-01
-2.607080e-06,-7.515625e-01
-2.599080e-06,-7.625000e-01
-2.591080e-06,-7.384375e-01
-2.583080e-06,-7.575000e-01
-2.575080e-06,-7.353125e-01
-2.567080e-06,-7.431250e-01
-2.559080e-06,-7.453125e-01
-2.551080e-06,-7.521875e-01
-2.543080e-06,-7.396875e-01
-2.535080e-06,-7.487500e-01
-2.527080e-06,-7.484375e-01
-2.519080e-06,-7.418750e-01
-2.511080e-06,-7.278125e-01
-2.503080e-06,-7.428125e-01
-2.495080e-06,-7.381250e-01
-2.487080e-06,-7.568750e-01
-2.479080e-06,-7.300000e-01
-2.471080e-06,-7.581250e-01
-2.463080e-06,-7.315625e-01
-2.455080e-06,-7.478125e-01
-2.447080e-06,-7.321875e-01
-2.439080e-06,-7.518750e-01
-2.431080e-06,-7.296875e-01
-2.423080e-06,-7.540625e-01
-2.415080e-06,-7.431250e-01
-2.407080e-06,-7.553125e-01
-2.399080e-06,-7.303125e-01
-2.391080e-06,-7.421875e-01
-2.383080e-06,-7.321875e-01
-2.375080e-06,-7.356250e-01
-2.367080e-06,-7.396875e-01
-2.359080e-06,-7.459375e-01
-2.351080e-06,-7.418750e-01
-2.343080e-06,-7.509375e-01
-2.335080e-06,-7.212500e-01
-2.327080e-06,-7.337500e-01
-2.319080e-06,-7.315625e-01
-2.311080e-06,-7.568750e-01
-2.303080e-06,-7.275000e-01
-2.295080e-06,-7.468750e-01
-2.287080e-06,-7.334375e-01
-2.279080e-06,-7.587500e-01
-2.271080e-06,-7.356250e-01
-2.263080e-06,-7.565625e-01
-2.255080e-06,-7.253125e-01
-2.247080e-06,-7.534375e-01
-2.239080e-06,-7.546875e-01
-2.231080e-06,-7.553125e-01
-2.223080e-06,-7.325000e-01
-2.215080e-06,-7.612500e-01
-2.207080e-06,-7.331250e-01
-2.199080e-06,-7.512500e-01
-2.191080e-06,-7.359375e-01
-2.183080e-06,-7.425000e-01
-2.175080e-06,-7.415625e-01
-2.167080e-06,-7.521875e-01
-2.159080e-06,-7.312500e-01
-2.151080e-06,-7.593750e-01
-2.143080e-06,-7.393750e-01
-2.135080e-06,-7.462500e-01
-2.127080e-06,-7.128125e-01
-2.119080e-06,-7.390625e-01
-2.111080e-06,-7.540625e-01
-2.103080e-06,-7.475000e-01
-2.095080e-06,-7.559375e-01
-2.087080e-06,-7.475000e-01
-2.079080e-06,-7.231250e-01
-2.071080e-06,-7.450000e-01
-2.063080e-06,-7.312500e-01
-2.055080e-06,-7.453125e-01
-2.047080e-06,-7.271875e-01
-2.039080e-06,-7.550000e-01
-2.031080e-06,-7.371875e-01
-2.023080e-06,-7.640625e-01
-2.015080e-06,-7.271875e-01
-2.007080e-06,-7.493750e-01
-1.999080e-06,-7.187500e-01
-1.991080e-06,-7.562500e-01
-1.983080e-06,-7.462500e-01
-1.975080e-06,-7.412500e-01
-1.967080e-06,-7.518750e-01
-1.959080e-06,-7.640625e-01
-1.951080e-06,-7.328125e-01
-1.943080e-06,-7.525000e-01
-1.935080e-06,-7.434375e-01
-1.927080e-06,-7.409375e-01
-1.919080e-06,-7.312500e-01
-1.911080e-06,-7.575000e-01
-1.903080e-06,-7.368750e-01
-1.895080e-06,-7.593750e-01
-1.887080e-06,-7.281250e-01
-1.879080e-06,-7.381250e-01
-1.871080e-06,-7.268750e-01
-1.863080e-06,-7.462500e-01
-1.855080e-06,-7.375000e-01
-1.847080e-06,-7.528125e-01
-1.839080e-06,-7.412500e-01
-1.831080e-06,-7.596875e-01
-1.823080e-06,-7.315625e-01
-1.815080e-06,-7.378125e-01
-1.807080e-06,-7.281250e-01
-1.799080e-06,-7.384375e-01
-1.791080e-06,-7.228125e-01
-1.783080e-06,-7.500000e-01
-1.775080e-06,-7.365625e-01
-1.767080e-06,-7.506250e-01
-1.759080e-06,-7.300000e-01
-1.751080e-06,-7.546875e-01
-1.743080e-06,-7.246875e-01
-1.735080e-06,-7.556250e-01
-1.727080e-06,-7.462500e-01
-1.719080e-06,-7.543750e-01
-1.711080e-06,-7.381250e-01
-1.703080e-06,-7.631250e-01
-1.695080e-06,-7.268750e-01
-1.687080e-06,-7.400000e-01
-1.679080e-06,-7.346875e-01
-1.671080e-06,-7.537500e-01
-1.663080e-06,-7.356250e-01
-1.655080e-06,-7.575000e-01
-1.647080e-06,-7.343750e-01
-1.639080e-06,-7.553125e-01
-1.631080e-06,-7.346875e-01
-1.623080e-06,-7.487500e-01
-1.615080e-06,-7.165625e-01
-1.607080e-06,-7.528125e-01
-1.599080e-06,-7.562500e-01
-1.591080e-06,-7.475000e-01
-1.583080e-06,-7.337500e-01
-1.575080e-06,-7.518750e-01
-1.567080e-06,-7.375000e-01
-1.559080e-06,-7.443750e-01
-1.551080e-06,-7.268750e-01
-1.543080e-06,-7.390625e-01
-1.535080e-06,-7.343750e-01
-1.527080e-06,-7.615625e-01
-1.519080e-06,-7.287500e-01
-1.511080e-06,-7.581250e-01
-1.503080e-06,-7.353125e-01
-1.495080e-06,-7.481250e-01
-1.487080e-06,-7.262500e-01
-1.479080e-06,-7.484375e-01
-1.471080e-06,-7.393750e-01
-1.463080e-06,-7.368750e-01
-1.455080e-06,-7.312500e-01
-1.447080e-06,-7.606250e-01
-1.439080e-06,-7.343750e-01
-1.431080e-06,-7.456250e-01
-1.423080e-06,-7.296875e-01
-1.415080e-06,-7.512500e-01
-1.407080e-06,-7.187500e-01
-1.399080e-06,-7.493750e-01
-1.391080e-06,-7.268750e-01
-1.383080e-06,-7.362500e-01
-1.375080e-06,-7.337500e-01
-1.367080e-06,-7.515625e-01
-1.359080e-06,-7.228125e-01
-1.351080e-06,-7.518750e-01
-1.343080e-06,-7.500000e-01
-1.335080e-06,-7.440625e-01
-1.327080e-06,-7.450000e-01
-1.319080e-06,-7.587500e-01
-1.311080e-06,-7.337500e-01
-1.303080e-06,-7.481250e-01
-1.295080e-06,-7.318750e-01
-1.287080e-06,-7.450000e-01
-1.279080e-06,-7.381250e-01
-1.271080e-06,-7.537500e-01
-1.263080e-06,-7.371875e-01
-1.255080e-06,-7.528125e-01
-1.247080e-06,-7.353125e-01
-1.239080e-06,-7.515625e-01
-1.231080e-06,-7.278125e-01
-1.223080e-06,-7.431250e-01
-1.215080e-06,-7.518750e-01
-1.207080e-06,-7.600000e-01
-1.199080e-06,-7.259375e-01
-1.191080e-06,-7.606250e-01
-1.183080e-06,-7.368750e-01
-1.175080e-06,-7.434375e-01
-1.167080e-06,-7.331250e-01
-1.159080e-06,-7.475000e-01
-1.151080e-06,-7.453125e-01
-1.143080e-06,-7.390625e-01
-1.135080e-06,-7.328125e-01
-1.127080e-06,-7.587500e-01
-1.119080e-06,-7.356250e-01
-1.111080e-06,-7.509375e-01
-1.103080e-06,-7.259375e-01
-1.095080e-06,-7.437500e-01
-1.087080e-06,-7.509375e-01
-1.079080e-06,-7.409375e-01
-1.071080e-06,-7.387500e-01
-1.063080e-06,-7.550000e-01
-1.055080e-06,-7.350000e-01
-1.047080e-06,-7.375000e-01
-1.039080e-06,-7.256250e-01
-1.031080e-06,-7.465625e-01
-1.023080e-06,-7.378125e-01
-1.015080e-06,-7.656250e-01
-1.007080e-06,-7.471875e-01
-9.990800e-07,-7.550000e-01
-9.910800e-07,-7.303125e-01
-9.830800e-07,-7.484375e-01
-9.750800e-07,-7.228125e-01
-9.670800e-07,-7.487500e-01
-9.590800e-07,-7.378125e-01
-9.510800e-07,-7.506250e-01
-9.430800e-07,-7.340625e-01
-9.350800e-07,-7.487500e-01
-9.270800e-07,-7.250000e-01
-9.190800e-07,-7.543750e-01
-9.110800e-07,-7.340625e-01
-9.030800e-07,-7.450000e-01
-8.950800e-07,-7.353125e-01
-8.870800e-07,-7.446875e-01
-8.790800e-07,-7.303125e-01
-8.710800e-07,-7.540625e-01
-8.630800e-07,-7.359375e-01
-8.550800e-07,-7.446875e-01
-8.470800e-07,-7.287500e-01
-8.390800e-07,-7.537500e-01
-8.310800e-07,-7.462500e-01
-8.230800e-07,-7.387500e-01
-8.150800e-07,-7.590625e-01
-8.070800e-07,-7.621875e-01
-7.990800e-07,-7.303125e-01
-7.910800e-07,-7.440625e-01
-7.830800e-07,-7.340625e-01
-7.750800e-07,-7.390625e-01
-7.670800e-07,-7.325000e-01
-7.590800e-07,-7.528125e-01
-7.510800e-07,-7.287500e-01
-7.430800e-07,-7.556250e-01
-7.350800e-07,-7.459375e-01
-7.270800e-07,-7.468750e-01
-7.190800e-07,-7.178125e-01
-7.110800e-07,-7.475000e-01
-7.030800e-07,-7.456250e-01
-6.950800e-07,-7.478125e-01
-6.870800e-07,-7.309375e-01
-6.790800e-07,-7.553125e-01
-6.710800e-07,-7.340625e-01
-6.630800e-07,-7.312500e-01
-6.550800e-07,-7.250000e-01
-6.470800e-07,-7.409375e-01
-6.390800e-07,-7.362500e-01
-6.310800e-07,-7.471875e-01
-6.230800e-07,-7.265625e-01
-6.150800e-07,-7.475000e-01
-6.070800e-07,-7.343750e-01
-5.990800e-07,-7.325000e-01
-5.910800e-07,-7.275000e-01
-5.830800e-07,-7.500000e-01
-5.750800e-07,-7.543750e-01
-5.670800e-07,-7.528125e-01
-5.590800e-07,-7.478125e-01
-5.510800e-07,-7.662500e-01
-5.430800e-07,-7.365625e-01
-5.350800e-07,-7.450000e-01
-5.270800e-07,-7.315625e-01
-5.190800e-07,-7.421875e-01
-5.110800e-07,-7.440625e-01
-5.030800e-07,-7.565625e-01
-4.950800e-07,-7.231250e-01
-4.870800e-07,-7.481250e-01
-4.790800e-07,-7.425000e-01
-4.710800e-07,-7.581250e-01
-4.630800e-07,-7.234375e-01
-4.550800e-07,-7.350000e-01
-4.470800e-07,-7.390625e-01
-4.390800e-07,-7.390625e-01
-4.310800e-07,-7.481250e-01
-4.230800e-07,-7.496875e-01
-4.150800e-07,-7.218750e-01
-4.070800e-07,-7.362500e-01
-3.990800e-07,-7.306250e-01
-3.910800e-07,-7.337500e-01
-3.830800e-07,-7.387500e-01
-3.750800e-07,-7.381250e-01
-3.670800e-07,-7.418750e-01
-3.590800e-07,-7.509375e-01
-3.510800e-07,-7.340625e-01
-3.430800e-07,-7.509375e-01
-3.350800e-07,-7.262500e-01
-3.270800e-07,-7.446875e-01
-3.190800e-07,-7.331250e-01
-3.110800e-07,-7.546875e-01
-3.030800e-07,-7.368750e-01
-2.950800e-07,-7.462500e-01
-2.870800e-07,-7.296875e-01
-2.790800e-07,-7.500000e-01
-2.710800e-07,-7.356250e-01
-2.630800e-07,-7.496875e-01
-2.550800e-07,-7.384375e-01
-2.470800e-07,-7.631250e-01
-2.390800e-07,-7.375000e-01
-2.310800e-07,-7.487500e-01
-2.230800e-07,-7.431250e-01
-2.150800e-07,-7.437500e-01
-2.070800e-07,-7.246875e-01
-1.990800e-07,-7.550000e-01
-1.910800e-07,-7.537500e-01
-1.830800e-07,-7.515625e-01
-1.750800e-07,-7.368750e-01
-1.670800e-07,-7.512500e-01
-1.590800e-07,-7.253125e-01
-1.510800e-07,-7.518750e-01
-1.430800e-07,-7.393750e-01
-1.350800e-07,-7.468750e-01
-1.270800e-07,-7.381250e-01
-1.190800e-07,-7.462500e-01
-1.110800e-07,-7.300000e-01
-1.030800e-07,-7.493750e-01
-9.508000e-08,-7.284375e-01
-8.708000e-08,-7.456250e-01
-7.908000e-08,-7.271875e-01
-7.108000e-08,-7.490625e-01
-6.308000e-08,-7.296875e-01
-5.508000e-08,-7.443750e-01
-4.708000e-08,-7.387500e-01
-3.908000e-08,-7.593750e-01
-3.108000e-08,-7.262500e-01
-2.308000e-08,-7.556250e-01
-1.508000e-08,-7.243750e-01
-7.080000e-09,-7.521875e-01
9.200000e-10,-7.256250e-01
8.920000e-09,-7.550000e-01
1.692000e-08,-7.275000e-01
2.492000e-08,-7.509375e-01
3.292000e-08,-7.206250e-01
4.092000e-08,-7.434375e-01
4.892000e-08,-7.221875e-01
5.692000e-08,-7.487500e-01
6.492000e-08,-7.368750e-01
7.292000e-08,-7.421875e-01
8.092000e-08,-7.381250e-01
8.892000e-08,-7.662500e-01
9.692000e-08,-7.259375e-01
1.049200e-07,-7.556250e-01
1.129200e-07,-7.296875e-01
1.209200e-07,-7.584375e-01
1.289200e-07,-7.356250e-01
1.369200e-07,-7.584375e-01
1.449200e-07,-7.375000e-01
1.529200e-07,-7.559375e-01
1.609200e-07,-7.325000e-01
1.689200e-07,-7.462500e-01
1.769200e-07,-7.268750e-01
1.849200e-07,-7.493750e-01
1.929200e-07,-7.428125e-01
2.009200e-07,-7.521875e-01
2.089200e-07,-7.450000e-01
2.169200e-07,-7.525000e-01
2.249200e-07,-7.290625e-01
2.329200e-07,-7.562500e-01
2.409200e-07,-7.334375e-01
2.489200e-07,-7.481250e-01
2.569200e-07,-7.415625e-01
2.649200e-07,-7.471875e-01
2.729200e-07,-7.418750e-01
2.809200e-07,-7.531250e-01
2.889200e-07,-7.396875e-01
2.969200e-07,-7.543750e-01
3.049200e-07,-7.293750e-01
3.129200e-07,-7.490625e-01
3.209200e-07,-7.512500e-01
3.289200e-07,-7.512500e-01
3.369200e-07,-7.337500e-01
3.449200e-07,-7.509375e-01
3.529200e-07,-7.253125e-01
3.609200e-07,-7.543750e-01
3.689200e-07,-7.334375e-01
3.769200e-07,-7.506250e-01
3.849200e-07,-7.378125e-01
3.929200e-07,-7.590625e-01
4.009200e-07,-7.343750e-01
4.089200e-07,-7.496875e-01
4.169200e-07,-7.368750e-01
4.249200e-07,-7.465625e-01
4.329200e-07,-7.175000e-01
4.409200e-07,-7.500000e-01
4.489200e-07,-7.381250e-01
4.569200e-07,-7.606250e-01
4.649200e-07,-7.481250e-01
4.729200e-07,-7.637500e-01
4.809200e-07,-7.218750e-01
4.889200e-07,-7.381250e-01
4.969200e-07,-7.262500e-01
5.049200e-07,-7.425000e-01
5.129200e-07,-7.256250e-01
5.209200e-07,-7.618750e-01
5.289200e-07,-7.459375e-01
5.369200e-07,-7.587500e-01
5.449200e-07,-7.306250e-01
5.529200e-07,-7.584375e-01
5.609200e-07,-7.331250e-01
5.689200e-07,-7.487500e-01
5.769200e-07,-7.481250e-01
5.849200e-07,-7.521875e-01
5.929200e-07,-7.428125e-01
6.009200e-07,-7.581250e-01
6.089200e-07,-7.328125e-01
6.169200e-07,-7.396875e-01
6.249200e-07,-7.421875e-01
6.329200e-07,-7.365625e-01
6.409200e-07,-7.418750e-01
6.489200e-07,-7.540625e-01
6.569200e-07,-7.293750e-01
6.649200e-07,-7.575000e-01
6.729200e-07,-7.371875e-01
6.809200e-07,-7.481250e-01
6.889200e-07,-7.334375e-01
