run1/run1_ch3_20210318180245264.csv

Model,MSO64
Waveform Type,ANALOG
Horizontal Units,s
Sample Interval,8.000000e-09
Record Length,1250
Zero Index,624.885156
Vertical Units,V

TIME,CH3
-4.999081e-06,-7.450000e-01
-4.991081e-06,-7.103125e-01
-4.983081e-06,-7.412500e-01
-4.975081e-06,-7.375000e-01
-4.967081e-06,-7.465625e-01
-4.959081e-06,-7.368750e-01
-4.951081e-06,-7.375000e-01
-4.943081e-06,-7.328125e-01
-4.935081e-06,-7.368750e-01
-4.927081e-06,-7.318750e-01
-4.919081e-06,-7.371875e-01
-4.911081e-06,-7.334375e-01
-4.903081e-06,-7.484375e-01
-4.895081e-06,-7.209375e-01
-4.887081e-06,-7.584375e-01
-4.879081e-06,-7.340625e-01
-4.871081e-06,-7.381250e-01
-4.863081e-06,-7.128125e-01
-4.855081e-06,-7.437500e-01
-4.847081e-06,-7.453125e-01
-4.839081e-06,-7.459375e-01
-4.831081e-06,-7.278125e-01
-4.823081e-06,-7.468750e-01
-4.815081e-06,-7.271875e-01
-4.807081e-06,-7.343750e-01
-4.799081e-06,-7.237500e-01
-4.791081e-06,-7.365625e-01
-4.783081e-06,-7.446875e-01
-4.775081e-06,-7.631250e-01
-4.767081e-06,-7.256250e-01
-4.759081e-06,-7.453125e-01
-4.751081e-06,-7.262500e-01
-4.743081e-06,-7.506250e-01
-4.735081e-06,-7.231250e-01
-4.727081e-06,-7.471875e-01
-4.719081e-06,-7.421875e-01
-4.711081e-06,-7.459375e-01
-4.703081e-06,-7.350000e-01
-4.695081e-06,-7.471875e-01
-4.687081e-06,-7.253125e-01
-4.679081e-06,-7.509375e-01
-4.671081e-06,-7.231250e-01
-4.663081e-06,-7.287500e-01
-4.655081e-06,-7.312500e-01
-4.647081e-06,-7.443750e-01
-4.639081e-06,-7.381250e-01
-4.631081e-06,-7.471875e-01
-4.623081e-06,-7.250000e-01
-4.615081e-06,-7.537500e-01
-4.607081e-06,-7.096875e-01
-4.599081e-06,-7.440625e-01
-4.591081e-06,-7.331250e-01
-4.583081e-06,-7.325000e-01
-4.575081e-06,-7.396875e-01
-4.567081e-06,-7.484375e-01
-4.559081e-06,-7.209375e-01
-4.551081e-06,-7.409375e-01
-4.543081e-06,-7.275000e-01
-4.535081e-06,-7.359375e-01
-4.527081e-06,-7.162500e-01
-4.519081e-06,-7.528125e-01
-4.511081e-06,-7.215625e-01
-4.503081e-06,-7.515625e-01
-4.495081e-06,-7.356250e-01
-4.487081e-06,-7.443750e-01
-4.479081e-06,-7.146875e-01
-4.471081e-06,-7.550000e-01
-4.463081e-06,-7.306250e-01
-4.455081e-06,-7.500000e-01
-4.447081e-06,-7.250000e-01
-4.439081e-06,-7.487500e-01
-4.431081e-06,-7.221875e-01
-4.423081e-06,-7.381250e-01
-4.415081e-06,-7.300000e-01
-4.407081e-06,-7.356250e-01
-4.399081e-06,-7.256250e-01
-4.391081e-06,-7.459375e-01
-4.383081e-06,-7.318750e-01
-4.375081e-06,-7.456250e-01
-4.367081e-06,-7.300000e-01
-4.359081e-06,-7.446875e-01
-4.351081e-06,-7.203125e-01
-4.343081e-06,-7.481250e-01
-4.335081e-06,-7.343750e-01
-4.327081e-06,-7.390625e-01
-4.319081e-06,-7.271875e-01
-4.311081e-06,-7.525000e-01
-4.303081e-06,-7.225000e-01
-4.295081e-06,-7.400000e-01
-4.287081e-06,-7.362500e-01
-4.279081e-06,-7.393750e-01
-4.271081e-06,-7.356250e-01
-4.263081e-06,-7.528125e-01
-4.255081e-06,-7.331250e-01
-4.247081e-06,-7.515625e-01
-4.239081e-06,-7.262500e-01
-4.231081e-06,-7.575000e-01
-4.223081e-06,-7.187500e-01
-4.215081e-06,-7.456250e-01
-4.207081e-06,-7.287500e-01
-4.199081e-06,-7.434375e-01
-4.191081e-06,-7.387500e-01
-4.183081e-06,-7.550000e-01
-4.175081e-06,-7.231250e-01
-4.167081e-06,-7.318750e-01
-4.159081e-06,-7.268750e-01
-4.151081e-06,-7.503125e-01
-4.143081e-06,-7.281250e-01
-4.135081e-06,-7.493750e-01
-4.127081e-06,-7.337500e-01
-4.119081e-06,-7.375000e-01
-4.111081e-06,-7.287500e-01
-4.103081e-06,-7.462500e-01
-4.095081e-06,-7.225000e-01
-4.087081e-06,-7.437500e-01
-4.079081e-06,-7.371875e-01
-4.071081e-06,-7.468750e-01
-4.063081e-06,-7.453125e-01
-4.055081e-06,-7.528125e-01
-4.047081e-06,-7.262500e-01
-4.039081e-06,-7.415625e-01
-4.031081e-06,-7.140625e-01
-4.023081e-06,-7.493750e-01
-4.015081e-06,-7.268750e-01
-4.007081e-06,-7.478125e-01
-3.999081e-06,-7.309375e-01
-3.991081e-06,-7.525000e-01
-3.983081e-06,-7.243750e-01
-3.975081e-06,-7.312500e-01
-3.967081e-06,-7.209375e-01
-3.959081e-06,-7.453125e-01
-3.951081e-06,-7.415625e-01
-3.943081e-06,-7.396875e-01
-3.935081e-06,-7.418750e-01
-3.927081e-06,-7.553125e-01
-3.919081e-06,-7.253125e-01
-3.911081e-06,-7.556250e-01
-3.903081e-06,-7.265625e-01
-3.895081e-06,-7.443750e-01
-3.887081e-06,-7.350000e-01
-3.879081e-06,-7.450000e-01
-3.871081e-06,-7.296875e-01
-3.863081e-06,-7.481250e-01
-3.855081e-06,-7.300000e-01
-3.847081e-06,-7.437500e-01
-3.839081e-06,-7.306250e-01
-3.831081e-06,-7.500000e-01
-3.823081e-06,-7.396875e-01
-3.815081e-06,-7.425000e-01
-3.807081e-06,-7.343750e-01
-3.799081e-06,-7.606250e-01
-3.791081e-06,-7.175000e-01
-3.783081e-06,-7.468750e-01
-3.775081e-06,-7.287500e-01
-3.767081e-06,-7.484375e-01
-3.759081e-06,-7.375000e-01
-3.751081e-06,-7.562500e-01
-3.743081e-06,-7.187500e-01
-3.735081e-06,-7.546875e-01
-3.727081e-06,-7.268750e-01
-3.719081e-06,-7.431250e-01
-3.711081e-06,-7.268750e-01
-3.703081e-06,-7.506250e-01
-3.695081e-06,-7.271875e-01
-3.687081e-06,-7.525000e-01
-3.679081e-06,-7.340625e-01
-3.671081e-06,-7.446875e-01
-3.663081e-06,-7.353125e-01
-3.655081e-06,-7.459375e-01
-3.647081e-06,-7.328125e-01
-3.639081e-06,-7.281250e-01
-3.631081e-06,-7.309375e-01
-3.623081e-06,-7.618750e-01
-3.615081e-06,-7.300000e-01
-3.607081e-06,-7.521875e-01
-3.599081e-06,-7.250000e-01
-3.591081e-06,-7.468750e-01
-3.583081e-06,-7.190625e-01
-3.575081e-06,-7.428125e-01
-3.567081e-06,-7.306250e-01
-3.559081e-06,-7.487500e-01
-3.551081e-06,-7.362500e-01
-3.543081e-06,-7.540625e-01
-3.535081e-06,-7.246875e-01
-3.527081e-06,-7.531250e-01
-3.519081e-06,-7.231250e-01
-3.511081e-06,-7.384375e-01
-3.503081e-06,-7.268750e-01
-3.495081e-06,-7.593750e-01
-3.487081e-06,-7.240625e-01
-3.479081e-06,-7.403125e-01
-3.471081e-06,-7.303125e-01
-3.463081e-06,-7.459375e-01
-3.455081e-06,-7.225000e-01
-3.447081e-06,-7.581250e-01
-3.439081e-06,-7.512500e-01
-3.431081e-06,-7.503125e-01
-3.423081e-06,-7.353125e-01
-3.415081e-06,-7.621875e-01
-3.407081e-06,-7.284375e-01
-3.399081e-06,-7.512500e-01
-3.391081e-06,-7.209375e-01
-3.383081e-06,-7.421875e-01
-3.375081e-06,-7.425000e-01
-3.367081e-06,-7.525000e-01
-3.359081e-06,-7.359375e-01
-3.351081e-06,-7.562500e-01
-3.343081e-06,-7.296875e-01
-3.335081e-06,-7.387500e-01
-3.327081e-06,-7.237500e-01
-3.319081e-06,-7.428125e-01
-3.311081e-06,-7.475000e-01
-3.303081e-06,-7.384375e-01
-3.295081e-06,-7.362500e-01
-3.287081e-06,-7.540625e-01
-3.279081e-06,-7.221875e-01
-3.271081e-06,-7.471875e-01
-3.263081e-06,-7.318750e-01
-3.255081e-06,-7.512500e-01
-3.247081e-06,-7.418750e-01
-3.239081e-06,-7.456250e-01
-3.231081e-06,-7.246875e-01
-3.223081e-06,-7.471875e-01
-3.215081e-06,-7.256250e-01
-3.207081e-06,-7.375000e-01
-3.199081e-06,-7.184375e-01
-3.191081e-06,-7.425000e-01
-3.183081e-06,-7.334375e-01
-3.175081e-06,-7.481250e-01
-3.167081e-06,-7.484375e-01
-3.159081e-06,-7.471875e-01
-3.151081e-06,-7.184375e-01
-3.143081e-06,-7.418750e-01
-3.135081e-06,-7.231250e-01
-3.127081e-06,-7.359375e-01
-3.119081e-06,-7.262500e-01
-3.111081e-06,-7.437500e-01
-3.103081e-06,-7.315625e-01
-3.095081e-06,-7.556250e-01
-3.087081e-06,-7.256250e-01
-3.079081e-06,-7.375000e-01
-3.071081e-06,-7.256250e-01
-3.063081e-06,-7.425000e-01
-3.055081e-06,-7.340625e-01
-3.047081e-06,-7.362500e-01
-3.039081e-06,-7.334375e-01
-3.031081e-06,-7.531250e-01
-3.023081e-06,-7.162500e-01
-3.015081e-06,-7.468750e-01
-3.007081e-06,-7.178125e-01
-2.999081e-06,-7.462500e-01
-2.991081e-06,-7.184375e-01
-2.983081e-06,-7.428125e-01
-2.975081e-06,-7.418750e-01
-2.967081e-06,-7.518750e-01
-2.959081e-06,-7.178125e-01
-2.951081e-06,-7.346875e-01
-2.943081e-06,-7.175000e-01
-2.935081e-06,-7.368750e-01
-2.927081e-06,-7.275000e-01
-2.919081e-06,-7.590625e-01
-2.911081e-06,-7.243750e-01
-2.903081e-06,-7.512500e-01
-2.895081e-06,-7.318750e-01
-2.887081e-06,-7.428125e-01
-2.879081e-06,-7.303125e-01
-2.871081e-06,-7.353125e-01
-2.863081e-06,-7.312500e-01
-2.855081e-06,-7.509375e-01
-2.847081e-06,-7.315625e-01
-2.839081e-06,-7.453125e-01
-2.831081e-06,-7.271875e-01
-2.823081e-06,-7.481250e-01
-2.815081e-06,-7.218750e-01
-2.807081e-06,-7.390625e-01
-2.799081e-06,-7.259375e-01
-2.791081e-06,-7.300000e-01
-2.783081e-06,-7.443750e-01
-2.775081e-06,-7.418750e-01
-2.767081e-06,-7.243750e-01
-2.759081e-06,-7.543750e-01
-2.751081e-06,-7.278125e-01
-2.743081e-06,-7.509375e-01
-2.735081e-06,-7.318750e-01
-2.727081e-06,-7.465625e-01
-2.719081e-06,-7.334375e-01
-2.711081e-06,-7.440625e-01
-2.703081e-06,-7.300000e-01
-2.695081e-06,-7.450000e-01
-2.687081e-06,-7.190625e-01
-2.679081e-06,-7.362500e-01
-2.671081e-06,-7.300000e-01
-2.663081e-06,-7.459375e-01
-2.655081e-06,-7.384375e-01
-2.647081e-06,-7.446875e-01
-2.639081e-06,-7.190625e-01
-2.631081e-06,-7.381250e-01
-2.623081e-06,-7.284375e-01
-2.615081e-06,-7.328125e-01
-2.607081e-06,-7.225000e-01
-2.599081e-06,-7.528125e-01
-2.591081e-06,-7.306250e-01
-2.583081e-06,-7.390625e-01
-2.575081e-06,-7.134375e-01
-2.567081e-06,-7.425000e-01
-2.559081e-06,-7.165625e-01
-2.551081e-06,-7.400000e-01
-2.543081e-06,-7.331250e-01
-2.535081e-06,-7.390625e-01
-2.527081e-06,-7.337500e-01
-2.519081e-06,-7.525000e-01
-2.511081e-06,-7.287500e-01
-2.503081e-06,-7.384375e-01
-2.495081e-06,-7.296875e-01
-2.487081e-06,-7.421875e-01
-2.479081e-06,-7.262500e-01
-2.471081e-06,-7.537500e-01
-2.463081e-06,-7.240625e-01
-2.455081e-06,-7.531250e-01
-2.447081e-06,-7.337500e-01
-2.439081e-06,-7.515625e-01
-2.431081e-06,-7.262500e-01
-2.423081e-06,-7.556250e-01
-2.415081e-06,-7.262500e-01
-2.407081e-06,-7.487500e-01
-2.399081e-06,-7.431250e-01
-2.391081e-06,-7.587500e-01
-2.383081e-06,-7.278125e-01
-2.375081e-06,-7.546875e-01
-2.367081e-06,-7.281250e-01
-2.359081e-06,-7.343750e-01
-2.351081e-06,-7.275000e-01
-2.343081e-06,-7.437500e-01
-2.335081e-06,-7.356250e-01
-2.327081e-06,-7.593750e-01
-2.319081e-06,-7.334375e-01
-2.311081e-06,-7.443750e-01
-2.303081e-06,-7.146875e-01
-2.295081e-06,-7.550000e-01
-2.287081e-06,-7.481250e-01
-2.279081e-06,-7.484375e-01
-2.271081e-06,-7.390625e-01
-2.263081e-06,-7.506250e-01
-2.255081e-06,-7.243750e-01
-2.247081e-06,-7.459375e-01
-2.239081e-06,-7.212500e-01
-2.231081e-06,-7.415625e-01
-2.223081e-06,-7.293750e-01
-2.215081e-06,-7.456250e-01
-2.207081e-06,-7.246875e-01
-2.199081e-06,-7.562500e-01
-2.191081e-06,-7.350000e-01
-2.183081e-06,-7.415625e-01
-2.175081e-06,-7.175000e-01
-2.167081e-06,-7.512500e-01
-2.159081e-06,-7.337500e-01
-2.151081e-06,-7.475000e-01
-2.143081e-06,-7.362500e-01
-2.135081e-06,-7.428125e-01
-2.127081e-06,-7.162500e-01
-2.119081e-06,-7.475000e-01
-2.111081e-06,-7.212500e-01
-2.103081e-06,-7.550000e-01
-2.095081e-06,-7.300000e-01
-2.087081e-06,-7.534375e-01
-2.079081e-06,-7.237500e-01
-2.071081e-06,-7.459375e-01
-2.063081e-06,-7.346875e-01
-2.055081e-06,-7.500000e-01
-2.047081e-06,-7.287500e-01
-2.039081e-06,-7.396875e-01
-2.031081e-06,-7.318750e-01
-2.023081e-06,-7.346875e-01
-2.015081e-06,-7.275000e-01
-2.007081e-06,-7.537500e-01
-1.999081e-06,-7.243750e-01
-1.991081e-06,-7.434375e-01
-1.983081e-06,-7.240625e-01
-1.975081e-06,-7.353125e-01
-1.967081e-06,-7.359375e-01
-1.959081e-06,-7.593750e-01
-1.951081e-06,-7.312500e-01
-1.943081e-06,-7.515625e-01
-1.935081e-06,-7.290625e-01
-1.927081e-06,-7.521875e-01
-1.919081e-06,-7.246875e-01
-1.911081e-06,-7.521875e-01
-1.903081e-06,-7.428125e-01
-1.895081e-06,-7.525000e-01
-1.887081e-06,-7.334375e-01
-1.879081e-06,-7.656250e-01
-1.871081e-06,-7.318750e-01
-1.863081e-06,-7.531250e-01
-1.855081e-06,-7.315625e-01
-1.847081e-06,-7.471875e-01
-1.839081e-06,-7.343750e-01
-1.831081e-06,-7.584375e-01
-1.823081e-06,-7.362500e-01
-1.815081e-06,-7.593750e-01
-1.807081e-06,-7.318750e-01
-1.799081e-06,-7.590625e-01
-1.791081e-06,-7.421875e-01
-1.783081e-06,-7.543750e-01
-1.775081e-06,-7.375000e-01
-1.767081e-06,-7.606250e-01
-1.759081e-06,-7.240625e-01
-1.751081e-06,-7.440625e-01
-1.743081e-06,-7.234375e-01
-1.735081e-06,-7.540625e-01
-1.727081e-06,-7.271875e-01
-1.719081e-06,-7.300000e-01
-1.711081e-06,-7.231250e-01
-1.703081e-06,-7.500000e-01
-1.695081e-06,-7.356250e-01
-1.687081e-06,-7.565625e-01
-1.679081e-06,-7.268750e-01
-1.671081e-06,-7.543750e-01
-1.663081e-06,-7.159375e-01
-1.655081e-06,-7.525000e-01
-1.647081e-06,-7.500000e-01
-1.639081e-06,-7.487500e-01
-1.631081e-06,-7.371875e-01
-1.623081e-06,-7.575000e-01
-1.615081e-06,-7.293750e-01
-1.607081e-06,-7.546875e-01
-1.599081e-06,-7.309375e-01
-1.591081e-06,-7.381250e-01
-1.583081e-06,-7.243750e-01
-1.575081e-06,-7.531250e-01
-1.567081e-06,-7.375000e-01
-1.559081e-06,-7.400000e-01
-1.551081e-06,-7.156250e-01
-1.543081e-06,-7.425000e-01
-1.535081e-06,-7.078125e-01
-1.527081e-06,-7.368750e-01
-1.519081e-06,-7.231250e-01
-1.511081e-06,-7.456250e-01
-1.503081e-06,-7.353125e-01
-1.495081e-06,-7.481250e-01
-1.487081e-06,-7.284375e-01
-1.479081e-06,-7.396875e-01
-1.471081e-06,-7.434375e-01
-1.463081e-06,-7.400000e-01
-1.455081e-06,-7.362500e-01
-1.447081e-06,-7.500000e-01
-1.439081e-06,-7.337500e-01
-1.431081e-06,-7.550000e-01
-1.423081e-06,-7.468750e-01
-1.415081e-06,-7.481250e-01
-1.407081e-06,-7.237500e-01
-1.399081e-06,-7.396875e-01
-1.391081e-06,-7.337500e-01
-1.383081e-06,-7.612500e-01
-1.375081e-06,-7.521875e-01
-1.367081e-06,-7.518750e-01
-1.359081e-06,-7.268750e-01
-1.351081e-06,-7.575000e-01
-1.343081e-06,-7.253125e-01
-1.335081e-06,-7.390625e-01
-1.327081e-06,-7.381250e-01
-1.319081e-06,-7.493750e-01
-1.311081e-06,-7.375000e-01
-1.303081e-06,-7.556250e-01
-1.295081e-06,-7.300000e-01
-1.287081e-06,-7.421875e-01
-1.279081e-06,-7.250000e-01
-1.271081e-06,-7.471875e-01
-1.263081e-06,-7.350000e-01
-1.255081e-06,-7.475000e-01
-1.247081e-06,-7.487500e-01
-1.239081e-06,-7.571875e-01
-1.231081e-06,-7.393750e-01
-1.223081e-06,-7.562500e-01
-1.215081e-06,-7.156250e-01
-1.207081e-06,-7.400000e-01
-1.199081e-06,-7.368750e-01
-1.191081e-06,-7.546875e-01
-1.183081e-06,-7.334375e-01
-1.175081e-06,-7.587500e-01
-1.167081e-06,-7.275000e-01
-1.159081e-06,-7.462500e-01
-1.151081e-06,-7.225000e-01
-1.143081e-06,-7.481250e-01
-1.135081e-06,-7.384375e-01
-1.127081e-06,-7.446875e-01
-1.119081e-06,-7.459375e-01
-1.111081e-06,-7.475000e-01
-1.103081e-06,-7.393750e-01
-1.095081e-06,-7.475000e-01
-1.087081e-06,-7.243750e-01
-1.079081e-06,-7.431250e-01
-1.071081e-06,-7.381250e-01
-1.063081e-06,-7.581250e-01
-1.055081e-06,-7.318750e-01
-1.047081e-06,-7.475000e-01
-1.039081e-06,-7.368750e-01
-1.031081e-06,-7.475000e-01
-1.023081e-06,-7.340625e-01
-1.015081e-06,-7.431250e-01
-1.007081e-06,-7.453125e-01
-9.990813e-07,-7.450000e-01
-9.910813e-07,-7.306250e-01
-9.830813e-07,-7.487500e-01
-9.750813e-07,-7.309375e-01
-9.670813e-07,-7.484375e-01
-9.590813e-07,-7.181250e-01
-9.510813e-07,-7.500000e-01
-9.430813e-07,-7.318750e-01
-9.350813e-07,-7.484375e-01
-9.270813e-07,-7.306250e-01
-9.190813e-07,-7.550000e-01
-9.110813e-07,-7.318750e-01
-9.030813e-07,-7.468750e-01
-8.950813e-07,-7.312500e-01
-8.870813e-07,-7.434375e-01
-8.790813e-07,-7.393750e-01
-8.710813e-07,-7.500000e-01
-8.630813e-07,-7.425000e-01
-8.550813e-07,-7.496875e-01
-8.470813e-07,-7.353125e-01
-8.390813e-07,-7.456250e-01
-8.310813e-07,-7.237500e-01
-8.230813e-07,-7.487500e-01
-8.150813e-07,-7.371875e-01
-8.070813e-07,-7.487500e-01
-7.990813e-07,-7.306250e-01
-7.910813e-07,-7.431250e-01
-7.830813e-07,-7.315625e-01
-7.750813e-07,-7.537500e-01
-7.670813e-07,-7.275000e-01
-7.590813e-07,-7.493750e-01
-7.510813e-07,-7.446875e-01
-7.430813e-07,-7.350000e-01
-7.350813e-07,-7.375000e-01
-7.270813e-07,-7.603125e-01
-7.190813e-07,-7.234375e-01
-7.110813e-07,-7.565625e-01
-7.030813e-07,-7.321875e-01
-6.950813e-07,-7.384375e-01
-6.870813e-07,-7.250000e-01
-6.790813e-07,-7.612500e-01
-6.710813e-07,-7.375000e-01
-6.630813e-07,-7.381250e-01
-6.550813e-07,-7.387500e-01
-6.470813e-07,-7.431250e-01
-6.390813e-07,-7.293750e-01
-6.310813e-07,-7.343750e-01
-6.230813e-07,-7.428125e-01
-6.150813e-07,-7.453125e-01
-6.070813e-07,-7.387500e-01
-5.990813e-07,-7.518750e-01
-5.910813e-07,-7.281250e-01
-5.830813e-07,-7.475000e-01
-5.750813e-07,-7.240625e-01
-5.670813e-07,-7.487500e-01
-5.590813e-07,-7.250000e-01
-5.510813e-07,-7.503125e-01
-5.430813e-07,-7.312500e-01
-5.350813e-07,-7.400000e-01
-5.270813e-07,-7.256250e-01
-5.190813e-07,-7.487500e-01
-5.110813e-07,-7.240625e-01
-5.030813e-07,-7.418750e-01
-4.950813e-07,-7.325000e-01
-4.870813e-07,-7.600000e-01
-4.790813e-07,-7.315625e-01
-4.710813e-07,-7.446875e-01
-4.630813e-07,-7.309375e-01
-4.550813e-07,-7.450000e-01
-4.470813e-07,-7.284375e-01
-4.390813e-07,-7.306250e-01
-4.310813e-07,-7.243750e-01
-4.230813e-07,-7.471875e-01
-4.150813e-07,-7.368750e-01
-4.070813e-07,-7.475000e-01
-3.990813e-07,-7.212500e-01
-3.910813e-07,-7.612500e-01
-3.830813e-07,-7.262500e-01
-3.750813e-07,-7.487500e-01
-3.670813e-07,-7.318750e-01
-3.590813e-07,-7.484375e-01
-3.510813e-07,-7.515625e-01
-3.430813e-07,-7.650000e-01
-3.350813e-07,-7.275000e-01
-3.270813e-07,-7.509375e-01
-3.190813e-07,-7.271875e-01
-3.110813e-07,-7.328125e-01
-3.030813e-07,-7.159375e-01
-2.950813e-07,-7.509375e-01
-2.870813e-07,-7.300000e-01
-2.790813e-07,-7.496875e-01
-2.710813e-07,-7.340625e-01
-2.630813e-07,-7.459375e-01
-2.550813e-07,-7.190625e-01
-2.470813e-07,-7.543750e-01
-2.390813e-07,-7.340625e-01
-2.310813e-07,-7.459375e-01
-2.230813e-07,-7.259375e-01
-2.150813e-07,-7.525000e-01
-2.070813e-07,-7.306250e-01
-1.990813e-07,-7.490625e-01
-1.910813e-07,-7.265625e-01
-1.830813e-07,-7.556250e-01
-1.750813e-07,-7.287500e-01
-1.670813e-07,-7.478125e-01
-1.590813e-07,-7.325000e-01
-1.510813e-07,-7.487500e-01
-1.430813e-07,-7.340625e-01
-1.350813e-07,-7.418750e-01
-1.270813e-07,-7.171875e-01
-1.190813e-07,-7.456250e-01
-1.110813e-07,-7.246875e-01
-1.030813e-07,-7.506250e-01
-9.508125e-08,-7.362500e-01
-8.708125e-08,-7.581250e-01
-7.908125e-08,-7.343750e-01
-7.108125e-08,-7.421875e-01
-6.308125e-08,-7.284375e-01
-5.508125e-08,-7.509375e-01
-4.708125e-08,-7.437500e-01
-3.908125e-08,-7.390625e-01
-3.108125e-08,-7.309375e-01
-2.308125e-08,-7.540625e-01
-1.508125e-08,-7.375000e-01
-7.081250e-09,-7.462500e-01
9.187500e-10,-7.168750e-01
8.918750e-09,-7.587500e-01
1.691875e-08,-7.431250e-01
2.491875e-08,-7.556250e-01
3.291875e-08,-7.440625e-01
4.091875e-08,-7.506250e-01
4.891875e-08,-7.206250e-01
5.691875e-08,-7.462500e-01
6.491875e-08,-7.337500e-01
7.291875e-08,-7.384375e-01
8.091875e-08,-7.418750e-01
8.891875e-08,-7.521875e-01
9.691875e-08,-7.356250e-01
1.049187e-07,-7.390625e-01
1.129187e-07,-7.312500e-01
1.209187e-07,-7.518750e-01
1.289187e-07,-7.250000e-01
1.369187e-07,-7.568750e-01
1.449187e-07,-7.390625e-01
1.529187e-07,-7.543750e-01
1.609187e-07,-7.293750e-01
1.689187e-07,-7.584375e-01
1.769187e-07,-7.253125e-01
1.849187e-07,-7.381250e-01
1.929187e-07,-7.362500e-01
2.009187e-07,-7.471875e-01
2.089187e-07,-7.331250e-01
2.169187e-07,-7.487500e-01
2.249187e-07,-7.300000e-01
2.329187e-07,-7.531250e-01
2.409187e-07,-7.296875e-01
2.489187e-07,-7.443750e-01
2.569187e-07,-7.218750e-01
2.649187e-07,-7.568750e-01
2.729187e-07,-7.390625e-01
2.809187e-07,-7.475000e-01
2.889187e-07,-7.300000e-01
2.969187e-07,-7.478125e-01
3.049187e-07,-7.268750e-01
3.129187e-07,-7.450000e-01
3.209187e-07,-7.243750e-01
3.289187e-07,-7.340625e-01
3.369187e-07,-7.215625e-01
3.449187e-07,-7.534375e-01
3.529187e-07,-7.293750e-01
3.609187e-07,-7.600000e-01
3.689187e-07,-7.231250e-01
3.769187e-07,-7.443750e-01
3.849187e-07,-7.137500e-01
3.929187e-07,-7.581250e-01
4.009187e-07,-7.459375e-01
4.089187e-07,-7.434375e-01
4.169187e-07,-7.396875e-01
4.249187e-07,-7.553125e-01
4.329187e-07,-7.262500e-01
4.409187e-07,-7.400000e-01
4.489187e-07,-7.271875e-01
4.569187e-07,-7.409375e-01
4.649187e-07,-7.203125e-01
4.729187e-07,-7.487500e-01
4.809187e-07,-7.246875e-01
4.889187e-07,-7.631250e-01
4.969187e-07,-7.306250e-01
5.049187e-07,-7.375000e-01
5.129187e-07,-7.290625e-01
5.209187e-07,-7.487500e-01
5.289187e-07,-7.418750e-01
5.369187e-07,-7.465625e-01
5.449187e-07,-7.228125e-01
5.529187e-07,-7.421875e-01
5.609187e-07,-7.175000e-01
5.689187e-07,-7.493750e-01
5.769187e-07,-7.187500e-01
5.849187e-07,-7.478125e-01
5.929187e-07,-7.337500e-01
6.009187e-07,-7.496875e-01
6.089187e-07,-7.312500e-01
6.169187e-07,-7.484375e-01
6.249187e-07,-7.378125e-01
6.329187e-07,-7.550000e-01
6.409187e-07,-7.190625e-01
6.489187e-07,-7.475000e-01
6.569187e-07,-7.378125e-01
6.649187e-07,-7.490625e-01
6.729187e-07,-7.475000e-01
6.809187e-07,-7.509375e-01
6.889187e-07,-7.225000e-01
