run1/run1_ch1_20210318180153485.csv

Model,MSO64
Waveform Type,ANALOG
Horizontal Units,s
Sample Interval,8.000000e-09
Record Length,1250
Zero Index,624.405000
Vertical Units,V

TIME,CH1
-4.995240e-06,2.125000e-02
-4.987240e-06,-4.625000e-02
-4.979240e-06,3.000000e-02
-4.971240e-06,-5.000000e-03
-4.963240e-06,-1.250000e-03
-4.955240e-06,-1.875000e-02
-4.947240e-06,1.875000e-02
-4.939240e-06,-2.500000e-03
-4.931240e-06,2.250000e-02
-4.923240e-06,1.375000e-02
-4.915240e-06,1.125000e-02
-4.907240e-06,-3.250000e-02
-4.899240e-06,1.875000e-02
-4.891240e-06,-7.500000e-03
-4.883240e-06,-5.000000e-03
-4.875240e-06,-2.000000e-02
-4.867240e-06,5.000000e-03
-4.859240e-06,-2.500000e-02
-4.851240e-06,3.375000e-02
-4.843240e-06,-1.000000e-02
-4.835240e-06,1.250000e-02
-4.827240e-06,-1.625000e-02
-4.819240e-06,1.125000e-02
-4.811240e-06,-1.250000e-02
-4.803240e-06,-1.000000e-02
-4.795240e-06,3.750000e-03
-4.787240e-06,2.250000e-02
-4.779240e-06,-6.250000e-03
-4.771240e-06,1.375000e-02
-4.763240e-06,-1.250000e-03
-4.755240e-06,2.125000e-02
-4.747240e-06,-3.625000e-02
-4.739240e-06,7.500000e-03
-4.731240e-06,-2.500000e-02
-4.723240e-06,2.375000e-02
-4.715240e-06,-2.375000e-02
-4.707240e-06,7.500000e-03
-4.699240e-06,-2.375000e-02
-4.691240e-06,3.125000e-02
-4.683240e-06,2.500000e-03
-4.675240e-06,1.250000e-03
-4.667240e-06,1.375000e-02
-4.659240e-06,7.500000e-03
-4.651240e-06,1.250000e-03
-4.643240e-06,2.125000e-02
-4.635240e-06,1.250000e-03
-4.627240e-06,-3.750000e-03
-4.619240e-06,-2.000000e-02
-4.611240e-06,2.625000e-02
-4.603240e-06,-2.500000e-03
-4.595240e-06,1.875000e-02
-4.587240e-06,-1.250000e-03
-4.579240e-06,-3.750000e-03
-4.571240e-06,-2.500000e-02
-4.563240e-06,1.375000e-02
-4.555240e-06,-1.125000e-02
-4.547240e-06,-1.250000e-02
-4.539240e-06,-1.250000e-03
-4.531240e-06,1.375000e-02
-4.523240e-06,-1.500000e-02
-4.515240e-06,1.250000e-02
-4.507240e-06,-1.125000e-02
-4.499240e-06,1.875000e-02
-4.491240e-06,-1.375000e-02
-4.483240e-06,3.750000e-03
-4.475240e-06,-3.750000e-02
-4.467240e-06,3.000000e-02
-4.459240e-06,5.000000e-03
-4.451240e-06,1.875000e-02
-4.443240e-06,-2.500000e-03
-4.435240e-06,1.500000e-02
-4.427240e-06,-2.000000e-02
-4.419240e-06,2.500000e-02
-4.411240e-06,-7.500000e-03
-4.403240e-06,3.500000e-02
-4.395240e-06,6.250000e-03
-4.387240e-06,2.000000e-02
-4.379240e-06,-2.125000e-02
-4.371240e-06,8.750000e-03
-4.363240e-06,-3.375000e-02
-4.355240e-06,2.125000e-02
-4.347240e-06,-1.625000e-02
-4.339240e-06,4.375000e-02
-4.331240e-06,-1.625000e-02
-4.323240e-06,-3.750000e-03
-4.315240e-06,-1.750000e-02
-4.307240e-06,1.750000e-02
-4.299240e-06,-2.125000e-02
-4.291240e-06,1.500000e-02
-4.283240e-06,-1.125000e-02
-4.275240e-06,3.750000e-02
-4.267240e-06,-8.750000e-03
-4.259240e-06,2.250000e-02
-4.251240e-06,-1.625000e-02
-4.243240e-06,1.000000e-02
-4.235240e-06,-1.625000e-02
-4.227240e-06,3.125000e-02
-4.219240e-06,-7.500000e-03
-4.211240e-06,1.750000e-02
-4.203240e-06,-1.500000e-02
-4.195240e-06,-3.750000e-03
-4.187240e-06,-2.000000e-02
-4.179240e-06,7.500000e-03
-4.171240e-06,-2.000000e-02
-4.163240e-06,-8.750000e-03
-4.155240e-06,3.750000e-03
-4.147240e-06,1.875000e-02
-4.139240e-06,-1.250000e-02
-4.131240e-06,-7.500000e-03
-4.123240e-06,-2.875000e-02
-4.115240e-06,1.750000e-02
-4.107240e-06,-3.125000e-02
-4.099240e-06,1.625000e-02
-4.091240e-06,-1.625000e-02
-4.083240e-06,3.750000e-03
-4.075240e-06,7.500000e-03
-4.067240e-06,5.000000e-03
-4.059240e-06,-5.000000e-03
-4.051240e-06,2.250000e-02
-4.043240e-06,-2.125000e-02
-4.035240e-06,2.125000e-02
-4.027240e-06,2.500000e-03
-4.019240e-06,1.125000e-02
-4.011240e-06,2.500000e-03
-4.003240e-06,1.125000e-02
-3.995240e-06,-5.000000e-03
-3.987240e-06,1.000000e-02
-3.979240e-06,-1.000000e-02
-3.971240e-06,-7.500000e-03
-3.963240e-06,-2.750000e-02
-3.955240e-06,2.375000e-02
-3.947240e-06,-1.875000e-02
-3.939240e-06,6.250000e-03
-3.931240e-06,-1.750000e-02
-3.923240e-06,3.750000e-03
-3.915240e-06,-3.750000e-03
-3.907240e-06,-6.250000e-03
-3.899240e-06,-8.750000e-03
-3.891240e-06,3.125000e-02
-3.883240e-06,1.250000e-03
-3.875240e-06,2.000000e-02
-3.867240e-06,-2.250000e-02
-3.859240e-06,1.750000e-02
-3.851240e-06,-4.875000e-02
-3.843240e-06,2.000000e-02
-3.835240e-06,-2.500000e-02
-3.827240e-06,1.875000e-02
-3.819240e-06,-1.500000e-02
-3.811240e-06,2.625000e-02
-3.803240e-06,-3.500000e-02
-3.795240e-06,2.625000e-02
-3.787240e-06,-3.125000e-02
-3.779240e-06,1.250000e-02
-3.771240e-06,-1.250000e-03
-3.763240e-06,1.000000e-02
-3.755240e-06,2.500000e-03
-3.747240e-06,2.125000e-02
-3.739240e-06,0.000000e+00
-3.731240e-06,1.250000e-02
-3.723240e-06,-2.625000e-02
-3.715240e-06,1.750000e-02
-3.707240e-06,-5.000000e-03
-3.699240e-06,2.750000e-02
-3.691240e-06,6.250000e-03
-3.683240e-06,1.250000e-02
-3.675240e-06,-2.750000e-02
-3.667240e-06,1.375000e-02
-3.659240e-06,-5.000000e-03
-3.651240e-06,2.125000e-02
-3.643240e-06,-6.250000e-03
-3.635240e-06,2.125000e-02
-3.627240e-06,3.750000e-03
-3.619240e-06,1.750000e-02
-3.611240e-06,-3.000000e-02
-3.603240e-06,-5.000000e-03
-3.595240e-06,-1.750000e-02
-3.587240e-06,2.375000e-02
-3.579240e-06,-2.500000e-02
-3.571240e-06,3.375000e-02
-3.563240e-06,-5.000000e-03
-3.555240e-06,2.500000e-02
-3.547240e-06,-1.250000e-03
-3.539240e-06,1.750000e-02
-3.531240e-06,-3.625000e-02
-3.523240e-06,1.125000e-02
-3.515240e-06,-2.875000e-02
-3.507240e-06,2.375000e-02
-3.499240e-06,-1.000000e-02
-3.491240e-06,1.375000e-02
-3.483240e-06,-3.750000e-03
-3.475240e-06,2.250000e-02
-3.467240e-06,-4.000000e-02
-3.459240e-06,7.500000e-03
-3.451240e-06,-3.625000e-02
-3.443240e-06,1.875000e-02
-3.435240e-06,6.250000e-03
-3.427240e-06,1.000000e-02
-3.419240e-06,-1.250000e-03
-3.411240e-06,1.625000e-02
-3.403240e-06,-1.500000e-02
-3.395240e-06,0.000000e+00
-3.387240e-06,-1.500000e-02
-3.379240e-06,3.125000e-02
-3.371240e-06,-8.750000e-03
-3.363240e-06,1.500000e-02
-3.355240e-06,-3.750000e-03
-3.347240e-06,7.500000e-03
-3.339240e-06,-1.250000e-02
-3.331240e-06,2.250000e-02
-3.323240e-06,-3.500000e-02
-3.315240e-06,2.875000e-02
-3.307240e-06,-1.250000e-03
-3.299240e-06,-1.250000e-03
-3.291240e-06,-1.000000e-02
-3.283240e-06,6.250000e-03
-3.275240e-06,0.000000e+00
-3.267240e-06,1.250000e-02
-3.259240e-06,-2.500000e-03
-3.251240e-06,1.875000e-02
-3.243240e-06,-2.250000e-02
-3.235240e-06,1.875000e-02
-3.227240e-06,-4.125000e-02
-3.219240e-06,1.875000e-02
-3.211240e-06,-2.125000e-02
-3.203240e-06,3.750000e-02
-3.195240e-06,-2.500000e-03
-3.187240e-06,1.500000e-02
-3.179240e-06,-1.125000e-02
-3.171240e-06,3.750000e-03
-3.163240e-06,-5.000000e-03
-3.155240e-06,2.125000e-02
-3.147240e-06,-1.500000e-02
-3.139240e-06,1.000000e-02
-3.131240e-06,-2.500000e-03
-3.123240e-06,8.750000e-03
-3.115240e-06,5.000000e-03
-3.107240e-06,1.250000e-02
-3.099240e-06,1.500000e-02
-3.091240e-06,3.125000e-02
-3.083240e-06,-2.000000e-02
-3.075240e-06,8.750000e-03
-3.067240e-06,-2.250000e-02
-3.059240e-06,1.625000e-02
-3.051240e-06,-8.750000e-03
-3.043240e-06,-7.500000e-03
-3.035240e-06,-1.000000e-02
-3.027240e-06,-2.500000e-03
-3.019240e-06,-3.250000e-02
-3.011240e-06,1.625000e-02
-3.003240e-06,-2.500000e-03
-2.995240e-06,2.625000e-02
-2.987240e-06,-2.125000e-02
-2.979240e-06,-2.500000e-03
-2.971240e-06,6.250000e-03
-2.963240e-06,2.125000e-02
-2.955240e-06,-2.000000e-02
-2.947240e-06,0.000000e+00
-2.939240e-06,-1.625000e-02
-2.931240e-06,5.375000e-02
-2.923240e-06,-1.125000e-02
-2.915240e-06,1.000000e-02
-2.907240e-06,1.250000e-03
-2.899240e-06,1.000000e-02
-2.891240e-06,-3.125000e-02
-2.883240e-06,3.375000e-02
-2.875240e-06,2.500000e-03
-2.867240e-06,1.125000e-02
-2.859240e-06,2.500000e-03
-2.851240e-06,2.625000e-02
-2.843240e-06,8.750000e-03
-2.835240e-06,2.000000e-02
-2.827240e-06,-3.875000e-02
-2.819240e-06,2.000000e-02
-2.811240e-06,-1.250000e-03
-2.803240e-06,2.000000e-02
-2.795240e-06,-2.000000e-02
-2.787240e-06,3.250000e-02
-2.779240e-06,-1.250000e-02
-2.771240e-06,6.250000e-03
-2.763240e-06,-2.625000e-02
-2.755240e-06,7.500000e-03
-2.747240e-06,-3.750000e-03
-2.739240e-06,1.250000e-02
-2.731240e-06,-3.500000e-02
-2.723240e-06,3.750000e-03
-2.715240e-06,-3.000000e-02
-2.707240e-06,1.250000e-02
-2.699240e-06,-2.500000e-02
-2.691240e-06,1.875000e-02
-2.683240e-06,-3.750000e-03
-2.675240e-06,4.875000e-02
-2.667240e-06,-2.000000e-02
-2.659240e-06,2.125000e-02
-2.651240e-06,-1.500000e-02
-2.643240e-06,-2.500000e-03
-2.635240e-06,-1.500000e-02
-2.627240e-06,2.125000e-02
-2.619240e-06,-8.750000e-03
-2.611240e-06,1.875000e-02
-2.603240e-06,-6.250000e-03
-2.595240e-06,2.250000e-02
-2.587240e-06,-1.250000e-02
-2.579240e-06,1.000000e-02
-2.571240e-06,-3.375000e-02
-2.563240e-06,1.875000e-02
-2.555240e-06,-1.500000e-02
-2.547240e-06,3.250000e-02
-2.539240e-06,-2.750000e-02
-2.531240e-06,2.500000e-02
-2.523240e-06,-1.375000e-02
-2.515240e-06,2.375000e-02
-2.507240e-06,-1.125000e-02
-2.499240e-06,2.250000e-02
-2.491240e-06,-7.500000e-03
-2.483240e-06,2.625000e-02
-2.475240e-06,-3.750000e-03
-2.467240e-06,2.000000e-02
-2.459240e-06,-3.750000e-03
-2.451240e-06,1.000000e-02
-2.443240e-06,-2.125000e-02
-2.435240e-06,2.375000e-02
-2.427240e-06,-2.500000e-02
-2.419240e-06,3.375000e-02
-2.411240e-06,-6.250000e-03
-2.403240e-06,2.375000e-02
-2.395240e-06,-2.500000e-02
-2.387240e-06,1.375000e-02
-2.379240e-06,-3.750000e-02
-2.371240e-06,1.125000e-02
-2.363240e-06,-2.250000e-02
-2.355240e-06,8.750000e-03
-2.347240e-06,-2.000000e-02
-2.339240e-06,1.500000e-02
-2.331240e-06,-2.375000e-02
-2.323240e-06,4.125000e-02
-2.315240e-06,-2.375000e-02
-2.307240e-06,1.000000e-02
-2.299240e-06,-2.250000e-02
-2.291240e-06,2.250000e-02
-2.283240e-06,-2.750000e-02
-2.275240e-06,6.250000e-03
-2.267240e-06,-2.500000e-02
-2.259240e-06,1.375000e-02
-2.251240e-06,-2.125000e-02
-2.243240e-06,1.250000e-03
-2.235240e-06,3.750000e-03
-2.227240e-06,1.250000e-03
-2.219240e-06,5.000000e-03
-2.211240e-06,2.625000e-02
-2.203240e-06,-2.625000e-02
-2.195240e-06,2.625000e-02
-2.187240e-06,-4.000000e-02
-2.179240e-06,8.750000e-03
-2.171240e-06,-2.375000e-02
-2.163240e-06,3.250000e-02
-2.155240e-06,1.250000e-02
-2.147240e-06,5.000000e-03
-2.139240e-06,-7.500000e-03
-2.131240e-06,-1.000000e-02
-2.123240e-06,-2.375000e-02
-2.115240e-06,6.250000e-03
-2.107240e-06,-1.250000e-02
-2.099240e-06,5.000000e-03
-2.091240e-06,-8.750000e-03
-2.083240e-06,3.500000e-02
-2.075240e-06,-2.000000e-02
-2.067240e-06,8.750000e-03
-2.059240e-06,-3.625000e-02
-2.051240e-06,6.250000e-03
-2.043240e-06,-2.625000e-02
-2.035240e-06,3.125000e-02
-2.027240e-06,-1.125000e-02
-2.019240e-06,5.000000e-03
-2.011240e-06,-3.750000e-03
-2.003240e-06,1.000000e-02
-1.995240e-06,-2.125000e-02
-1.987240e-06,2.250000e-02
-1.979240e-06,-5.000000e-03
-1.971240e-06,1.625000e-02
-1.963240e-06,-8.750000e-03
-1.955240e-06,3.750000e-03
-1.947240e-06,-2.500000e-02
-1.939240e-06,1.000000e-02
-1.931240e-06,6.250000e-03
-1.923240e-06,7.500000e-03
-1.915240e-06,-1.500000e-02
-1.907240e-06,2.500000e-02
-1.899240e-06,-3.750000e-03
-1.891240e-06,1.625000e-02
-1.883240e-06,-1.125000e-02
-1.875240e-06,1.500000e-02
-1.867240e-06,-1.250000e-02
-1.859240e-06,8.750000e-03
-1.851240e-06,5.000000e-03
-1.843240e-06,2.000000e-02
-1.835240e-06,-7.500000e-03
-1.827240e-06,1.500000e-02
-1.819240e-06,-3.625000e-02
-1.811240e-06,4.000000e-02
-1.803240e-06,-2.875000e-02
-1.795240e-06,1.250000e-02
-1.787240e-06,-2.500000e-03
-1.779240e-06,1.500000e-02
-1.771240e-06,-1.375000e-02
-1.763240e-06,1.250000e-02
-1.755240e-06,-2.375000e-02
-1.747240e-06,1.000000e-02
-1.739240e-06,-2.625000e-02
-1.731240e-06,2.125000e-02
-1.723240e-06,2.250000e-02
-1.715240e-06,-3.750000e-03
-1.707240e-06,-7.500000e-03
-1.699240e-06,-8.750000e-03
-1.691240e-06,-2.500000e-02
-1.683240e-06,1.250000e-03
-1.675240e-06,-3.000000e-02
-1.667240e-06,2.375000e-02
-1.659240e-06,-1.500000e-02
-1.651240e-06,2.000000e-02
-1.643240e-06,-1.875000e-02
-1.635240e-06,2.625000e-02
-1.627240e-06,-1.125000e-02
-1.619240e-06,-1.250000e-03
-1.611240e-06,1.000000e-02
-1.603240e-06,-5.000000e-03
-1.595240e-06,-2.500000e-03
-1.587240e-06,1.875000e-02
-1.579240e-06,-2.125000e-02
-1.571240e-06,1.375000e-02
-1.563240e-06,0.000000e+00
-1.555240e-06,3.750000e-03
-1.547240e-06,-4.750000e-02
-1.539240e-06,1.625000e-02
-1.531240e-06,-7.500000e-03
-1.523240e-06,2.875000e-02
-1.515240e-06,-1.000000e-02
-1.507240e-06,0.000000e+00
-1.499240e-06,-2.000000e-02
-1.491240e-06,1.250000e-02
-1.483240e-06,-2.625000e-02
-1.475240e-06,1.125000e-02
-1.467240e-06,-2.375000e-02
-1.459240e-06,1.625000e-02
-1.451240e-06,-2.625000e-02
-1.443240e-06,2.250000e-02
-1.435240e-06,-7.500000e-03
-1.427240e-06,1.625000e-02
-1.419240e-06,-3.500000e-02
-1.411240e-06,-2.500000e-03
-1.403240e-06,-3.250000e-02
-1.395240e-06,5.000000e-03
-1.387240e-06,-2.500000e-03
-1.379240e-06,2.500000e-02
-1.371240e-06,-1.500000e-02
-1.363240e-06,1.750000e-02
-1.355240e-06,-1.625000e-02
-1.347240e-06,1.750000e-02
-1.339240e-06,-1.000000e-02
-1.331240e-06,3.625000e-02
-1.323240e-06,-1.500000e-02
-1.315240e-06,1.750000e-02
-1.307240e-06,-1.750000e-02
-1.299240e-06,1.625000e-02
-1.291240e-06,-1.875000e-02
-1.283240e-06,1.750000e-02
-1.275240e-06,-2.000000e-02
-1.267240e-06,3.250000e-02
-1.259240e-06,-1.625000e-02
-1.251240e-06,1.000000e-02
-1.243240e-06,-3.625000e-02
-1.235240e-06,1.750000e-02
-1.227240e-06,-4.625000e-02
-1.219240e-06,1.000000e-02
-1.211240e-06,1.250000e-03
-1.203240e-06,2.375000e-02
-1.195240e-06,-1.000000e-02
-1.187240e-06,-3.750000e-03
-1.179240e-06,-3.000000e-02
-1.171240e-06,2.375000e-02
-1.163240e-06,-2.375000e-02
-1.155240e-06,1.625000e-02
-1.147240e-06,-8.750000e-03
-1.139240e-06,1.500000e-02
-1.131240e-06,-1.250000e-02
-1.123240e-06,3.750000e-03
-1.115240e-06,-3.750000e-03
-1.107240e-06,1.500000e-02
-1.099240e-06,-2.250000e-02
-1.091240e-06,8.750000e-03
-1.083240e-06,-3.000000e-02
-1.075240e-06,1.875000e-02
-1.067240e-06,1.250000e-03
-1.059240e-06,0.000000e+00
-1.051240e-06,-1.625000e-02
-1.043240e-06,1.500000e-02
-1.035240e-06,-5.000000e-03
-1.027240e-06,1.000000e-02
-1.019240e-06,-2.500000e-03
-1.011240e-06,8.750000e-03
-1.003240e-06,-1.375000e-02
-9.952400e-07,-3.750000e-03
-9.872400e-07,-6.250000e-03
-9.792400e-07,1.125000e-02
-9.712400e-07,-1.125000e-02
-9.632400e-07,7.500000e-03
-9.552400e-07,3.750000e-03
-9.472400e-07,1.250000e-02
-9.392400e-07,-2.500000e-02
-9.312400e-07,6.250000e-03
-9.232400e-07,3.750000e-03
-9.152400e-07,1.625000e-02
-9.072400e-07,-3.000000e-02
-8.992400e-07,1.125000e-02
-8.912400e-07,-2.500000e-02
-8.832400e-07,1.250000e-02
-8.752400e-07,-1.250000e-02
-8.672400e-07,-2.500000e-03
-8.592400e-07,-1.500000e-02
-8.512400e-07,1.250000e-03
-8.432400e-07,-1.625000e-02
-8.352400e-07,2.000000e-02
-8.272400e-07,2.500000e-03
-8.192400e-07,5.000000e-03
-8.112400e-07,3.750000e-03
-8.032400e-07,7.500000e-03
-7.952400e-07,-1.250000e-03
-7.872400e-07,1.250000e-02
-7.792400e-07,-2.125000e-02
-7.712400e-07,2.625000e-02
-7.632400e-07,-2.125000e-02
-7.552400e-07,1.375000e-02
-7.472400e-07,-8.750000e-03
-7.392400e-07,1.250000e-03
-7.312400e-07,-1.500000e-02
-7.232400e-07,6.250000e-03
-7.152400e-07,-2.375000e-02
-7.072400e-07,5.000000e-03
-6.992400e-07,-8.750000e-03
-6.912400e-07,3.625000e-02
-6.832400e-07,-2.500000e-02
-6.752400e-07,7.500000e-03
-6.672400e-07,-1.250000e-02
-6.592400e-07,-2.500000e-03
-6.512400e-07,-4.375000e-02
-6.432400e-07,1.750000e-02
-6.352400e-07,-2.625000e-02
-6.272400e-07,2.625000e-02
-6.192400e-07,-5.000000e-03
-6.112400e-07,7.500000e-03
-6.032400e-07,-2.500000e-03
-5.952400e-07,8.750000e-03
-5.872400e-07,-1.875000e-02
-5.792400e-07,-8.750000e-03
-5.712400e-07,-1.250000e-03
-5.632400e-07,3.750000e-03
-5.552400e-07,5.000000e-03
-5.472400e-07,3.750000e-03
-5.392400e-07,-1.500000e-02
-5.312400e-07,7.500000e-03
-5.232400e-07,-2.000000e-02
-5.152400e-07,3.375000e-02
-5.072400e-07,-8.750000e-03
-4.992400e-07,1.125000e-02
-4.912400e-07,-2.125000e-02
-4.832400e-07,1.125000e-02
-4.752400e-07,-1.750000e-02
-4.672400e-07,-1.375000e-02
-4.592400e-07,-3.500000e-02
-4.512400e-07,-6.250000e-03
-4.432400e-07,-5.000000e-03
-4.352400e-07,2.250000e-02
-4.272400e-07,-2.125000e-02
-4.192400e-07,3.000000e-02
-4.112400e-07,-8.750000e-03
-4.032400e-07,2.750000e-02
-3.952400e-07,-3.125000e-02
-3.872400e-07,1.750000e-02
-3.792400e-07,-1.250000e-02
-3.712400e-07,1.750000e-02
-3.632400e-07,-1.375000e-02
-3.552400e-07,1.250000e-02
-3.472400e-07,-2.125000e-02
-3.392400e-07,1.375000e-02
-3.312400e-07,-5.000000e-03
-3.232400e-07,1.875000e-02
-3.152400e-07,-2.500000e-03
-3.072400e-07,1.875000e-02
-2.992400e-07,-1.375000e-02
-2.912400e-07,2.000000e-02
-2.832400e-07,-8.750000e-03
-2.752400e-07,3.875000e-02
-2.672400e-07,-3.625000e-02
-2.592400e-07,2.125000e-02
-2.512400e-07,-2.750000e-02
-2.432400e-07,2.875000e-02
-2.352400e-07,-2.750000e-02
-2.272400e-07,2.625000e-02
-2.192400e-07,2.500000e-03
-2.112400e-07,5.000000e-03
-2.032400e-07,-3.500000e-02
-1.952400e-07,2.375000e-02
-1.872400e-07,-5.000000e-03
-1.792400e-07,1.625000e-02
-1.712400e-07,-1.375000e-02
-1.632400e-07,0.000000e+00
-1.552400e-07,-3.750000e-03
-1.472400e-07,2.250000e-02
-1.392400e-07,-1.750000e-02
-1.312400e-07,6.250000e-03
-1.232400e-07,-2.625000e-02
-1.152400e-07,5.000000e-03
-1.072400e-07,-6.250000e-03
-9.924000e-08,-1.000000e-02
-9.124000e-08,-6.250000e-03
-8.324000e-08,-5.000000e-03
-7.524000e-08,-3.750000e-02
-6.724000e-08,1.875000e-02
-5.924000e-08,0.000000e+00
-5.124000e-08,2.250000e-02
-4.324000e-08,-8.750000e-03
-3.524000e-08,8.750000e-03
-2.724000e-08,-1.426250e+00
-1.924000e-08,-1.412500e+00
-1.124000e-08,-1.442500e+00
-3.240000e-09,-1.250000e-01
4.760000e-09,-2.750000e-02
1.276000e-08,4.250000e-02
2.076000e-08,-1.000000e-02
2.876000e-08,3.000000e-02
3.676000e-08,8.750000e-03
4.476000e-08,1.250000e-03
5.276000e-08,-2.375000e-02
6.076000e-08,1.500000e-02
6.876000e-08,1.500000e-02
7.676000e-08,3.125000e-02
8.476000e-08,-5.000000e-03
9.276000e-08,1.000000e-02
1.007600e-07,-1.750000e-02
1.087600e-07,1.125000e-02
1.167600e-07,-4.125000e-02
1.247600e-07,1.250000e-02
1.327600e-07,-3.000000e-02
1.407600e-07,3.375000e-02
1.487600e-07,-2.500000e-03
1.567600e-07,1.375000e-02
1.647600e-07,-8.750000e-03
1.727600e-07,1.625000e-02
1.807600e-07,-7.500000e-03
1.887600e-07,1.250000e-02
1.967600e-07,-1.375000e-02
2.047600e-07,1.125000e-02
2.127600e-07,3.750000e-03
2.207600e-07,1.000000e-02
2.287600e-07,-6.250000e-03
2.367600e-07,3.750000e-02
2.447600e-07,-3.625000e-02
2.527600e-07,2.875000e-02
2.607600e-07,-2.500000e-02
2.687600e-07,2.500000e-02
2.767600e-07,8.750000e-03
2.847600e-07,-1.250000e-03
2.927600e-07,-3.250000e-02
3.007600e-07,1.875000e-02
3.087600e-07,2.125000e-02
3.167600e-07,1.125000e-02
3.247600e-07,1.250000e-03
3.327600e-07,1.125000e-02
3.407600e-07,-1.625000e-02
3.487600e-07,-8.750000e-03
3.567600e-07,-1.875000e-02
3.647600e-07,1.250000e-02
3.727600e-07,-1.875000e-02
3.807600e-07,1.375000e-02
3.887600e-07,-1.875000e-02
3.967600e-07,2.625000e-02
4.047600e-07,-1.875000e-02
4.127600e-07,5.000000e-03
4.207600e-07,-2.500000e-03
4.287600e-07,2.875000e-02
4.367600e-07,-1.000000e-02
4.447600e-07,2.875000e-02
4.527600e-07,-1.125000e-02
4.607600e-07,3.125000e-02
4.687600e-07,1.250000e-03
4.767600e-07,-2.500000e-03
4.847600e-07,-2.625000e-02
4.927600e-07,2.000000e-02
5.007600e-07,-1.500000e-02
5.087600e-07,-3.750000e-03
5.167600e-07,-3.625000e-02
5.247600e-07,2.125000e-02
5.327600e-07,-1.625000e-02
5.407600e-07,-6.250000e-03
5.487600e-07,-5.000000e-03
5.567600e-07,1.750000e-02
5.647600e-07,-1.500000e-02
5.727600e-07,-1.000000e-02
5.807600e-07,-8.750000e-03
5.887600e-07,6.250000e-03
5.967600e-07,-3.750000e-03
6.047600e-07,2.375000e-02
6.127600e-07,-1.500000e-02
6.207600e-07,3.375000e-02
6.287600e-07,-3.625000e-02
6.367600e-07,1.250000e-03
6.447600e-07,-2.500000e-03
6.527600e-07,2.000000e-02
6.607600e-07,-1.125000e-02
6.687600e-07,1.125000e-02
6.767600e-07,-1.000000e-02
6.847600e-07,5.000000e-03
6.927600e-07,-1.500000e-02
7.007600e-07,1.250000e-03
7.087600e-07,-2.500000e-03
7.167600e-07,1.375000e-02
7.247600e-07,-3.750000e-02
7.327600e-07,2.875000e-02
7.407600e-07,-1.500000e-02
7.487600e-07,2.125000e-02
7.567600e-07,-5.000000e-02
7.647600e-07,7.500000e-03
7.727600e-07,-2.375000e-02
7.807600e-07,1.125000e-02
7.887600e-07,-1.250000e-02
7.967600e-07,0.000000e+00
