run1/run1_ch1_20210318180217915.csv

Model,MSO64
Waveform Type,ANALOG
Horizontal Units,s
Sample Interval,8.000000e-09
Record Length,1250
Zero Index,624.365000
Vertical Units,V

TIME,CH1
-4.994920e-06,2.500000e-03
-4.986920e-06,1.750000e-02
-4.978920e-06,-2.500000e-02
-4.970920e-06,2.375000e-02
-4.962920e-06,-1.125000e-02
-4.954920e-06,1.125000e-02
-4.946920e-06,-1.750000e-02
-4.938920e-06,1.500000e-02
-4.930920e-06,-2.375000e-02
-4.922920e-06,2.250000e-02
-4.914920e-06,-1.250000e-02
-4.906920e-06,-3.750000e-03
-4.898920e-06,-1.250000e-03
-4.890920e-06,2.500000e-02
-4.882920e-06,0.000000e+00
-4.874920e-06,3.375000e-02
-4.866920e-06,-2.750000e-02
-4.858920e-06,2.750000e-02
-4.850920e-06,2.125000e-02
-4.842920e-06,2.750000e-02
-4.834920e-06,-1.375000e-02
-4.826920e-06,6.250000e-03
-4.818920e-06,-2.375000e-02
-4.810920e-06,2.875000e-02
-4.802920e-06,-2.875000e-02
-4.794920e-06,3.125000e-02
-4.786920e-06,-1.000000e-02
-4.778920e-06,1.375000e-02
-4.770920e-06,-8.750000e-03
-4.762920e-06,3.750000e-03
-4.754920e-06,-7.500000e-03
-4.746920e-06,1.000000e-02
-4.738920e-06,2.500000e-03
-4.730920e-06,1.375000e-02
-4.722920e-06,-1.250000e-02
-4.714920e-06,2.125000e-02
-4.706920e-06,-7.500000e-03
-4.698920e-06,3.000000e-02
-4.690920e-06,-1.250000e-02
-4.682920e-06,2.375000e-02
-4.674920e-06,-2.250000e-02
-4.666920e-06,2.625000e-02
-4.658920e-06,-1.000000e-02
-4.650920e-06,1.250000e-02
-4.642920e-06,-8.750000e-03
-4.634920e-06,1.250000e-03
-4.626920e-06,-2.000000e-02
-4.618920e-06,1.250000e-03
-4.610920e-06,6.250000e-03
-4.602920e-06,3.875000e-02
-4.594920e-06,-2.500000e-03
-4.586920e-06,1.250000e-02
-4.578920e-06,-4.125000e-02
-4.570920e-06,1.000000e-02
-4.562920e-06,-1.875000e-02
-4.554920e-06,2.625000e-02
-4.546920e-06,-7.500000e-03
-4.538920e-06,2.250000e-02
-4.530920e-06,-1.250000e-02
-4.522920e-06,1.000000e-02
-4.514920e-06,-1.500000e-02
-4.506920e-06,3.750000e-03
-4.498920e-06,5.000000e-03
-4.490920e-06,2.375000e-02
-4.482920e-06,-2.500000e-03
-4.474920e-06,2.250000e-02
-4.466920e-06,-3.750000e-03
-4.458920e-06,8.750000e-03
-4.450920e-06,-2.000000e-02
-4.442920e-06,3.125000e-02
-4.434920e-06,-3.125000e-02
-4.426920e-06,0.000000e+00
-4.418920e-06,-1.750000e-02
-4.410920e-06,2.625000e-02
-4.402920e-06,-1.000000e-02
-4.394920e-06,3.000000e-02
-4.386920e-06,-2.500000e-02
-4.378920e-06,1.250000e-03
-4.370920e-06,-2.625000e-02
-4.362920e-06,8.750000e-03
-4.354920e-06,-8.750000e-03
-4.346920e-06,1.750000e-02
-4.338920e-06,-1.125000e-02
-4.330920e-06,-1.250000e-03
-4.322920e-06,-1.625000e-02
-4.314920e-06,1.750000e-02
-4.306920e-06,-3.000000e-02
-4.298920e-06,2.500000e-02
-4.290920e-06,-1.625000e-02
-4.282920e-06,3.375000e-02
-4.274920e-06,-1.250000e-03
-4.266920e-06,1.500000e-02
-4.258920e-06,1.125000e-02
-4.250920e-06,2.375000e-02
-4.242920e-06,-2.875000e-02
-4.234920e-06,1.125000e-02
-4.226920e-06,-1.250000e-02
-4.218920e-06,2.125000e-02
-4.210920e-06,1.000000e-02
-4.202920e-06,2.375000e-02
-4.194920e-06,-1.750000e-02
-4.186920e-06,2.000000e-02
-4.178920e-06,-2.000000e-02
-4.170920e-06,1.250000e-02
-4.162920e-06,-8.750000e-03
-4.154920e-06,3.125000e-02
-4.146920e-06,6.250000e-03
-4.138920e-06,-2.500000e-03
-4.130920e-06,-2.500000e-03
-4.122920e-06,1.250000e-02
-4.114920e-06,-2.500000e-03
-4.106920e-06,1.750000e-02
-4.098920e-06,-1.875000e-02
-4.090920e-06,2.625000e-02
-4.082920e-06,7.500000e-03
-4.074920e-06,2.375000e-02
-4.066920e-06,-3.750000e-03
-4.058920e-06,3.125000e-02
-4.050920e-06,-2.250000e-02
-4.042920e-06,2.625000e-02
-4.034920e-06,-1.000000e-02
-4.026920e-06,2.375000e-02
-4.018920e-06,-1.125000e-02
-4.010920e-06,3.750000e-03
-4.002920e-06,-2.500000e-02
-3.994920e-06,1.750000e-02
-3.986920e-06,-2.000000e-02
-3.978920e-06,2.125000e-02
-3.970920e-06,-3.750000e-03
-3.962920e-06,4.625000e-02
-3.954920e-06,-1.750000e-02
-3.946920e-06,1.750000e-02
-3.938920e-06,-7.500000e-03
-3.930920e-06,0.000000e+00
-3.922920e-06,-1.375000e-02
-3.914920e-06,6.250000e-03
-3.906920e-06,-1.000000e-02
-3.898920e-06,1.875000e-02
-3.890920e-06,-1.375000e-02
-3.882920e-06,-6.250000e-03
-3.874920e-06,-7.500000e-03
-3.866920e-06,6.250000e-03
-3.858920e-06,-1.250000e-02
-3.850920e-06,3.125000e-02
-3.842920e-06,-5.000000e-03
-3.834920e-06,2.625000e-02
-3.826920e-06,1.250000e-03
-3.818920e-06,-3.750000e-03
-3.810920e-06,-7.500000e-03
-3.802920e-06,-2.500000e-03
-3.794920e-06,-1.875000e-02
-3.786920e-06,1.750000e-02
-3.778920e-06,-1.750000e-02
-3.770920e-06,1.750000e-02
-3.762920e-06,-6.250000e-03
-3.754920e-06,1.875000e-02
-3.746920e-06,5.000000e-03
-3.738920e-06,1.125000e-02
-3.730920e-06,-1.875000e-02
-3.722920e-06,5.000000e-03
-3.714920e-06,8.750000e-03
-3.706920e-06,1.500000e-02
-3.698920e-06,5.000000e-03
-3.690920e-06,1.375000e-02
-3.682920e-06,-6.250000e-03
-3.674920e-06,1.125000e-02
-3.666920e-06,-2.875000e-02
-3.658920e-06,3.875000e-02
-3.650920e-06,-1.875000e-02
-3.642920e-06,2.000000e-02
-3.634920e-06,-1.625000e-02
-3.626920e-06,1.625000e-02
-3.618920e-06,-1.125000e-02
-3.610920e-06,6.250000e-03
-3.602920e-06,-5.000000e-03
-3.594920e-06,1.250000e-02
-3.586920e-06,-3.750000e-03
-3.578920e-06,2.000000e-02
-3.570920e-06,-6.250000e-03
-3.562920e-06,1.625000e-02
-3.554920e-06,-3.750000e-03
-3.546920e-06,3.250000e-02
-3.538920e-06,-4.750000e-02
-3.530920e-06,2.500000e-02
-3.522920e-06,-5.000000e-03
-3.514920e-06,1.750000e-02
-3.506920e-06,-5.000000e-03
-3.498920e-06,3.125000e-02
-3.490920e-06,-1.750000e-02
-3.482920e-06,1.500000e-02
-3.474920e-06,-3.750000e-03
-3.466920e-06,-1.250000e-03
-3.458920e-06,-1.250000e-03
-3.450920e-06,1.125000e-02
-3.442920e-06,-1.250000e-03
-3.434920e-06,4.500000e-02
-3.426920e-06,-2.500000e-02
-3.418920e-06,2.750000e-02
-3.410920e-06,-7.500000e-03
-3.402920e-06,1.375000e-02
-3.394920e-06,-1.625000e-02
-3.386920e-06,1.000000e-02
-3.378920e-06,-1.125000e-02
-3.370920e-06,6.250000e-03
-3.362920e-06,-1.750000e-02
-3.354920e-06,8.750000e-03
-3.346920e-06,-1.500000e-02
-3.338920e-06,1.125000e-02
-3.330920e-06,-2.500000e-03
-3.322920e-06,3.000000e-02
-3.314920e-06,-3.750000e-03
-3.306920e-06,2.375000e-02
-3.298920e-06,-5.000000e-03
-3.290920e-06,3.750000e-02
-3.282920e-06,-1.875000e-02
-3.274920e-06,2.000000e-02
-3.266920e-06,1.250000e-03
-3.258920e-06,2.250000e-02
-3.250920e-06,-8.750000e-03
-3.242920e-06,1.625000e-02
-3.234920e-06,-7.500000e-03
-3.226920e-06,2.875000e-02
-3.218920e-06,5.000000e-03
-3.210920e-06,1.125000e-02
-3.202920e-06,-1.750000e-02
-3.194920e-06,8.750000e-03
-3.186920e-06,-7.500000e-03
-3.178920e-06,4.000000e-02
-3.170920e-06,-1.625000e-02
-3.162920e-06,1.250000e-02
-3.154920e-06,-1.000000e-02
-3.146920e-06,5.000000e-03
-3.138920e-06,-2.500000e-03
-3.130920e-06,4.625000e-02
-3.122920e-06,-1.500000e-02
-3.114920e-06,3.000000e-02
-3.106920e-06,-1.125000e-02
-3.098920e-06,7.500000e-03
-3.090920e-06,-7.500000e-03
-3.082920e-06,1.250000e-03
-3.074920e-06,2.500000e-03
-3.066920e-06,2.250000e-02
-3.058920e-06,3.750000e-03
-3.050920e-06,4.375000e-02
-3.042920e-06,-3.750000e-03
-3.034920e-06,1.750000e-02
-3.026920e-06,-2.000000e-02
-3.018920e-06,2.375000e-02
-3.010920e-06,1.250000e-03
-3.002920e-06,2.000000e-02
-2.994920e-06,0.000000e+00
-2.986920e-06,2.250000e-02
-2.978920e-06,-7.500000e-03
-2.970920e-06,3.625000e-02
-2.962920e-06,-7.500000e-03
-2.954920e-06,3.000000e-02
-2.946920e-06,-1.500000e-02
-2.938920e-06,1.125000e-02
-2.930920e-06,-1.375000e-02
-2.922920e-06,-2.500000e-03
-2.914920e-06,-2.375000e-02
-2.906920e-06,3.250000e-02
-2.898920e-06,-3.750000e-03
-2.890920e-06,1.375000e-02
-2.882920e-06,-2.375000e-02
-2.874920e-06,3.125000e-02
-2.866920e-06,-1.250000e-03
-2.858920e-06,-2.500000e-03
-2.850920e-06,-1.625000e-02
-2.842920e-06,5.000000e-03
-2.834920e-06,-1.125000e-02
-2.826920e-06,1.500000e-02
-2.818920e-06,-1.125000e-02
-2.810920e-06,3.125000e-02
-2.802920e-06,3.750000e-03
-2.794920e-06,2.625000e-02
-2.786920e-06,-3.250000e-02
-2.778920e-06,1.750000e-02
-2.770920e-06,-2.125000e-02
-2.762920e-06,-3.750000e-03
-2.754920e-06,-1.125000e-02
-2.746920e-06,1.125000e-02
-2.738920e-06,-1.750000e-02
-2.730920e-06,1.625000e-02
-2.722920e-06,-2.500000e-02
-2.714920e-06,2.000000e-02
-2.706920e-06,-1.625000e-02
-2.698920e-06,2.750000e-02
-2.690920e-06,-7.500000e-03
-2.682920e-06,5.000000e-03
-2.674920e-06,-1.375000e-02
-2.666920e-06,1.750000e-02
-2.658920e-06,-2.750000e-02
-2.650920e-06,-1.250000e-03
-2.642920e-06,-4.125000e-02
-2.634920e-06,3.750000e-03
-2.626920e-06,-1.375000e-02
-2.618920e-06,3.750000e-02
-2.610920e-06,1.000000e-02
-2.602920e-06,8.750000e-03
-2.594920e-06,-2.250000e-02
-2.586920e-06,1.000000e-02
-2.578920e-06,-1.875000e-02
-2.570920e-06,2.250000e-02
-2.562920e-06,-7.500000e-03
-2.554920e-06,3.750000e-03
-2.546920e-06,-7.500000e-03
-2.538920e-06,1.875000e-02
-2.530920e-06,-8.750000e-03
-2.522920e-06,7.500000e-03
-2.514920e-06,-4.125000e-02
-2.506920e-06,6.250000e-03
-2.498920e-06,-8.750000e-03
-2.490920e-06,6.250000e-03
-2.482920e-06,-8.750000e-03
-2.474920e-06,1.500000e-02
-2.466920e-06,-6.250000e-03
-2.458920e-06,1.500000e-02
-2.450920e-06,-1.500000e-02
-2.442920e-06,1.875000e-02
-2.434920e-06,1.875000e-02
-2.426920e-06,1.875000e-02
-2.418920e-06,-2.625000e-02
-2.410920e-06,2.750000e-02
-2.402920e-06,-7.500000e-03
-2.394920e-06,2.000000e-02
-2.386920e-06,5.000000e-03
-2.378920e-06,2.125000e-02
-2.370920e-06,-8.750000e-03
-2.362920e-06,2.500000e-02
-2.354920e-06,-2.000000e-02
-2.346920e-06,2.125000e-02
-2.338920e-06,-1.375000e-02
-2.330920e-06,3.750000e-03
-2.322920e-06,-2.500000e-03
-2.314920e-06,1.750000e-02
-2.306920e-06,5.000000e-03
-2.298920e-06,1.875000e-02
-2.290920e-06,-5.000000e-03
-2.282920e-06,2.500000e-03
-2.274920e-06,-7.500000e-03
-2.266920e-06,1.625000e-02
-2.258920e-06,-3.500000e-02
-2.250920e-06,7.500000e-03
-2.242920e-06,-1.250000e-02
-2.234920e-06,3.250000e-02
-2.226920e-06,-7.500000e-03
-2.218920e-06,7.500000e-03
-2.210920e-06,-2.500000e-02
-2.202920e-06,2.500000e-03
-2.194920e-06,-2.875000e-02
-2.186920e-06,2.625000e-02
-2.178920e-06,3.750000e-03
-2.170920e-06,3.125000e-02
-2.162920e-06,-1.250000e-02
-2.154920e-06,1.875000e-02
-2.146920e-06,-3.750000e-03
-2.138920e-06,-3.750000e-03
-2.130920e-06,-1.250000e-02
-2.122920e-06,2.250000e-02
-2.114920e-06,-1.250000e-02
-2.106920e-06,3.250000e-02
-2.098920e-06,-2.000000e-02
-2.090920e-06,1.500000e-02
-2.082920e-06,-2.250000e-02
-2.074920e-06,-1.250000e-03
-2.066920e-06,-1.375000e-02
-2.058920e-06,1.625000e-02
-2.050920e-06,-5.000000e-03
-2.042920e-06,2.375000e-02
-2.034920e-06,1.000000e-02
-2.026920e-06,1.375000e-02
-2.018920e-06,3.750000e-03
-2.010920e-06,-6.250000e-03
-2.002920e-06,-3.125000e-02
-1.994920e-06,2.500000e-02
-1.986920e-06,-1.000000e-02
-1.978920e-06,3.000000e-02
-1.970920e-06,-7.500000e-03
-1.962920e-06,1.000000e-02
-1.954920e-06,-8.750000e-03
-1.946920e-06,6.250000e-03
-1.938920e-06,-1.500000e-02
-1.930920e-06,2.000000e-02
-1.922920e-06,3.750000e-03
-1.914920e-06,2.625000e-02
-1.906920e-06,-1.250000e-03
-1.898920e-06,1.750000e-02
-1.890920e-06,-2.500000e-03
-1.882920e-06,1.625000e-02
-1.874920e-06,-2.750000e-02
-1.866920e-06,3.750000e-02
-1.858920e-06,-3.250000e-02
-1.850920e-06,2.500000e-02
-1.842920e-06,-1.250000e-02
-1.834920e-06,-8.750000e-03
-1.826920e-06,-1.125000e-02
-1.818920e-06,2.375000e-02
-1.810920e-06,-1.250000e-02
-1.802920e-06,2.000000e-02
-1.794920e-06,5.000000e-03
-1.786920e-06,6.250000e-03
-1.778920e-06,1.125000e-02
-1.770920e-06,3.750000e-02
-1.762920e-06,-6.250000e-03
-1.754920e-06,0.000000e+00
-1.746920e-06,-5.000000e-02
-1.738920e-06,1.750000e-02
-1.730920e-06,-2.000000e-02
-1.722920e-06,2.625000e-02
-1.714920e-06,-2.125000e-02
-1.706920e-06,1.250000e-03
-1.698920e-06,-7.500000e-03
-1.690920e-06,2.750000e-02
-1.682920e-06,-7.500000e-03
-1.674920e-06,6.250000e-03
-1.666920e-06,2.500000e-03
-1.658920e-06,7.500000e-03
-1.650920e-06,-2.250000e-02
-1.642920e-06,2.750000e-02
-1.634920e-06,-8.750000e-03
-1.626920e-06,1.250000e-02
-1.618920e-06,-2.000000e-02
-1.610920e-06,2.375000e-02
-1.602920e-06,-3.625000e-02
-1.594920e-06,2.250000e-02
-1.586920e-06,-2.500000e-03
-1.578920e-06,1.625000e-02
-1.570920e-06,-2.000000e-02
-1.562920e-06,1.875000e-02
-1.554920e-06,0.000000e+00
-1.546920e-06,1.875000e-02
-1.538920e-06,-6.250000e-03
-1.530920e-06,1.000000e-02
-1.522920e-06,5.000000e-03
-1.514920e-06,2.125000e-02
-1.506920e-06,-1.625000e-02
-1.498920e-06,1.500000e-02
-1.490920e-06,-2.500000e-02
-1.482920e-06,1.500000e-02
-1.474920e-06,-7.500000e-03
-1.466920e-06,2.375000e-02
-1.458920e-06,-1.125000e-02
-1.450920e-06,7.500000e-03
-1.442920e-06,-7.500000e-03
-1.434920e-06,1.750000e-02
-1.426920e-06,-3.125000e-02
-1.418920e-06,1.250000e-03
-1.410920e-06,-5.000000e-03
-1.402920e-06,8.750000e-03
-1.394920e-06,-2.500000e-03
-1.386920e-06,1.125000e-02
-1.378920e-06,-8.750000e-03
-1.370920e-06,8.750000e-03
-1.362920e-06,-4.750000e-02
-1.354920e-06,2.750000e-02
-1.346920e-06,-2.375000e-02
-1.338920e-06,2.125000e-02
-1.330920e-06,-2.250000e-02
-1.322920e-06,2.125000e-02
-1.314920e-06,1.125000e-02
-1.306920e-06,3.000000e-02
-1.298920e-06,-8.750000e-03
-1.290920e-06,1.375000e-02
-1.282920e-06,2.375000e-02
-1.274920e-06,-3.750000e-03
-1.266920e-06,0.000000e+00
-1.258920e-06,7.500000e-03
-1.250920e-06,-1.000000e-02
-1.242920e-06,3.750000e-03
-1.234920e-06,-2.625000e-02
-1.226920e-06,2.625000e-02
-1.218920e-06,-5.000000e-03
-1.210920e-06,3.750000e-02
-1.202920e-06,3.750000e-03
-1.194920e-06,0.000000e+00
-1.186920e-06,1.250000e-02
-1.178920e-06,1.250000e-03
-1.170920e-06,-3.250000e-02
-1.162920e-06,-7.500000e-03
-1.154920e-06,1.750000e-02
-1.146920e-06,1.875000e-02
-1.138920e-06,1.000000e-02
-1.130920e-06,2.500000e-02
-1.122920e-06,1.125000e-02
-1.114920e-06,1.625000e-02
-1.106920e-06,-5.000000e-03
-1.098920e-06,7.500000e-03
-1.090920e-06,-2.250000e-02
-1.082920e-06,3.000000e-02
-1.074920e-06,-3.750000e-03
-1.066920e-06,7.500000e-03
-1.058920e-06,-1.500000e-02
-1.050920e-06,-2.500000e-03
-1.042920e-06,2.500000e-03
-1.034920e-06,7.500000e-03
-1.026920e-06,1.250000e-03
-1.018920e-06,1.625000e-02
-1.010920e-06,-7.500000e-03
-1.002920e-06,1.500000e-02
-9.949200e-07,-3.750000e-02
-9.869200e-07,1.375000e-02
-9.789200e-07,8.750000e-03
-9.709200e-07,2.625000e-02
-9.629200e-07,-2.250000e-02
-9.549200e-07,3.875000e-02
-9.469200e-07,-2.875000e-02
-9.389200e-07,1.250000e-02
-9.309200e-07,-2.125000e-02
-9.229200e-07,2.250000e-02
-9.149200e-07,1.125000e-02
-9.069200e-07,1.875000e-02
-8.989200e-07,-1.000000e-02
-8.909200e-07,1.375000e-02
-8.829200e-07,1.125000e-02
-8.749200e-07,1.000000e-02
-8.669200e-07,-2.500000e-03
-8.589200e-07,2.625000e-02
-8.509200e-07,-1.250000e-02
-8.429200e-07,2.125000e-02
-8.349200e-07,2.500000e-03
-8.269200e-07,3.125000e-02
-8.189200e-07,-1.750000e-02
-8.109200e-07,2.750000e-02
-8.029200e-07,-1.875000e-02
-7.949200e-07,-1.500000e-02
-7.869200e-07,-2.125000e-02
-7.789200e-07,1.250000e-02
-7.709200e-07,-1.375000e-02
-7.629200e-07,2.125000e-02
-7.549200e-07,7.500000e-03
-7.469200e-07,2.500000e-03
-7.389200e-07,-2.500000e-03
-7.309200e-07,2.000000e-02
-7.229200e-07,-1.500000e-02
-7.149200e-07,1.625000e-02
-7.069200e-07,-1.875000e-02
-6.989200e-07,1.000000e-02
-6.909200e-07,-1.125000e-02
-6.829200e-07,1.500000e-02
-6.749200e-07,-1.000000e-02
-6.669200e-07,1.750000e-02
-6.589200e-07,-1.375000e-02
-6.509200e-07,5.000000e-03
-6.429200e-07,-8.750000e-03
-6.349200e-07,2.000000e-02
-6.269200e-07,-1.000000e-02
-6.189200e-07,1.375000e-02
-6.109200e-07,-1.250000e-03
-6.029200e-07,1.750000e-02
-5.949200e-07,-2.500000e-02
-5.869200e-07,2.750000e-02
-5.789200e-07,-1.375000e-02
-5.709200e-07,2.625000e-02
-5.629200e-07,-8.750000e-03
-5.549200e-07,7.500000e-03
-5.469200e-07,-1.125000e-02
-5.389200e-07,6.250000e-03
-5.309200e-07,-1.875000e-02
-5.229200e-07,8.750000e-03
-5.149200e-07,-1.250000e-02
-5.069200e-07,5.125000e-02
-4.989200e-07,5.000000e-03
-4.909200e-07,8.750000e-03
-4.829200e-07,-5.000000e-03
-4.749200e-07,3.250000e-02
-4.669200e-07,-3.000000e-02
-4.589200e-07,2.125000e-02
-4.509200e-07,0.000000e+00
-4.429200e-07,2.750000e-02
-4.349200e-07,-2.250000e-02
-4.269200e-07,-3.750000e-03
-4.189200e-07,-3.750000e-03
-4.109200e-07,1.125000e-02
-4.029200e-07,-2.500000e-02
-3.949200e-07,2.250000e-02
-3.869200e-07,1.875000e-02
-3.789200e-07,2.750000e-02
-3.709200e-07,-1.250000e-03
-3.629200e-07,1.000000e-02
-3.549200e-07,-2.250000e-02
-3.469200e-07,2.000000e-02
-3.389200e-07,-1.625000e-02
-3.309200e-07,1.500000e-02
-3.229200e-07,-1.750000e-02
-3.149200e-07,3.875000e-02
-3.069200e-07,-1.625000e-02
-2.989200e-07,3.750000e-03
-2.909200e-07,-1.500000e-02
-2.829200e-07,3.250000e-02
-2.749200e-07,1.250000e-03
-2.669200e-07,2.375000e-02
-2.589200e-07,1.000000e-02
-2.509200e-07,2.000000e-02
-2.429200e-07,2.500000e-03
-2.349200e-07,7.500000e-03
-2.269200e-07,-2.500000e-02
-2.189200e-07,8.750000e-03
-2.109200e-07,-7.500000e-03
-2.029200e-07,7.500000e-03
-1.949200e-07,-2.125000e-02
-1.869200e-07,3.875000e-02
-1.789200e-07,2.500000e-03
-1.709200e-07,1.750000e-02
-1.629200e-07,-2.500000e-02
-1.549200e-07,1.000000e-02
-1.469200e-07,-5.000000e-03
-1.389200e-07,1.000000e-02
-1.309200e-07,-1.625000e-02
-1.229200e-07,6.250000e-03
-1.149200e-07,0.000000e+00
-1.069200e-07,1.250000e-02
-9.892000e-08,-1.500000e-02
-9.092000e-08,2.375000e-02
-8.292000e-08,-1.500000e-02
-7.492000e-08,1.250000e-03
-6.692000e-08,-1.750000e-02
-5.892000e-08,2.250000e-02
-5.092000e-08,-7.500000e-03
-4.292000e-08,2.000000e-02
-3.492000e-08,-3.500000e-02
-2.692000e-08,-1.418750e+00
-1.892000e-08,-1.427500e+00
-1.092000e-08,-1.415000e+00
-2.920000e-09,-1.050000e-01
5.080000e-09,1.250000e-03
1.308000e-08,7.500000e-03
2.108000e-08,3.375000e-02
2.908000e-08,6.250000e-03
3.708000e-08,5.000000e-03
4.508000e-08,-3.250000e-02
5.308000e-08,1.250000e-02
6.108000e-08,-1.125000e-02
6.908000e-08,2.000000e-02
7.708000e-08,0.000000e+00
8.508000e-08,2.625000e-02
9.308000e-08,-2.375000e-02
1.010800e-07,2.750000e-02
1.090800e-07,-7.500000e-03
1.170800e-07,1.250000e-02
1.250800e-07,6.250000e-03
1.330800e-07,1.375000e-02
1.410800e-07,-2.500000e-02
1.490800e-07,1.875000e-02
1.570800e-07,-1.625000e-02
1.650800e-07,-1.875000e-02
1.730800e-07,-2.250000e-02
1.810800e-07,1.000000e-02
1.890800e-07,-1.000000e-02
1.970800e-07,2.000000e-02
2.050800e-07,3.750000e-03
2.130800e-07,3.750000e-03
2.210800e-07,-1.625000e-02
2.290800e-07,2.250000e-02
2.370800e-07,-2.000000e-02
2.450800e-07,2.375000e-02
2.530800e-07,8.750000e-03
2.610800e-07,3.875000e-02
2.690800e-07,5.000000e-03
2.770800e-07,3.875000e-02
2.850800e-07,-1.000000e-02
2.930800e-07,1.250000e-02
3.010800e-07,-7.500000e-03
3.090800e-07,1.875000e-02
3.170800e-07,-1.250000e-03
3.250800e-07,2.625000e-02
3.330800e-07,-2.000000e-02
3.410800e-07,1.750000e-02
3.490800e-07,2.500000e-03
3.570800e-07,3.750000e-03
3.650800e-07,-1.250000e-03
3.730800e-07,2.625000e-02
3.810800e-07,-1.375000e-02
3.890800e-07,1.875000e-02
3.970800e-07,0.000000e+00
4.050800e-07,5.000000e-03
4.130800e-07,-2.375000e-02
4.210800e-07,1.875000e-02
4.290800e-07,-8.750000e-03
4.370800e-07,1.375000e-02
4.450800e-07,-6.250000e-03
4.530800e-07,2.875000e-02
4.610800e-07,-1.250000e-03
4.690800e-07,1.250000e-02
4.770800e-07,2.000000e-02
4.850800e-07,7.500000e-03
4.930800e-07,-1.250000e-02
5.010800e-07,1.625000e-02
5.090800e-07,-2.500000e-03
5.170800e-07,1.750000e-02
5.250800e-07,-1.250000e-02
5.330800e-07,1.125000e-02
5.410800e-07,-8.750000e-03
5.490800e-07,2.375000e-02
5.570800e-07,-2.250000e-02
5.650800e-07,1.250000e-03
5.730800e-07,-6.250000e-03
5.810800e-07,2.375000e-02
5.890800e-07,-2.500000e-02
5.970800e-07,1.625000e-02
6.050800e-07,-6.250000e-03
6.130800e-07,1.000000e-02
6.210800e-07,-6.250000e-03
6.290800e-07,2.500000e-02
6.370800e-07,-1.875000e-02
6.450800e-07,1.500000e-02
6.530800e-07,-3.750000e-03
6.610800e-07,2.500000e-02
6.690800e-07,-1.875000e-02
6.770800e-07,2.750000e-02
6.850800e-07,-8.750000e-03
6.930800e-07,5.000000e-03
7.010800e-07,-1.000000e-02
7.090800e-07,3.625000e-02
7.170800e-07,-8.750000e-03
7.250800e-07,3.750000e-03
7.330800e-07,-1.375000e-02
7.410800e-07,1.250000e-03
7.490800e-07,-3.000000e-02
7.570800e-07,1.500000e-02
7.650800e-07,-1.375000e-02
7.730800e-07,3.000000e-02
7.810800e-07,1.375000e-02
7.890800e-07,1.500000e-02
7.970800e-07,-2.500000e-03
8.050800e-07,2.875000e-02
8.130800e-07,-3.625000e-02
