run1/run1_ch1_20210318180246570.csv

Model,MSO64
Waveform Type,ANALOG
Horizontal Units,s
Sample Interval,8.000000e-09
Record Length,1250
Zero Index,624.640156
Vertical Units,V

TIME,CH1
-4.997121e-06,-3.500000e-02
-4.989121e-06,1.500000e-02
-4.981121e-06,-1.000000e-02
-4.973121e-06,1.375000e-02
-4.965121e-06,2.000000e-02
-4.957121e-06,7.500000e-03
-4.949121e-06,-1.375000e-02
-4.941121e-06,2.250000e-02
-4.933121e-06,-4.000000e-02
-4.925121e-06,2.500000e-03
-4.917121e-06,-4.625000e-02
-4.909121e-06,6.250000e-03
-4.901121e-06,-1.125000e-02
-4.893121e-06,1.375000e-02
-4.885121e-06,-1.250000e-03
-4.877121e-06,2.375000e-02
-4.869121e-06,-1.500000e-02
-4.861121e-06,1.250000e-02
-4.853121e-06,-1.000000e-02
-4.845121e-06,8.750000e-03
-4.837121e-06,-1.375000e-02
-4.829121e-06,1.500000e-02
-4.821121e-06,-1.875000e-02
-4.813121e-06,-5.000000e-03
-4.805121e-06,-8.750000e-03
-4.797121e-06,-5.000000e-03
-4.789121e-06,-8.750000e-03
-4.781121e-06,1.000000e-02
-4.773121e-06,7.500000e-03
-4.765121e-06,2.750000e-02
-4.757121e-06,0.000000e+00
-4.749121e-06,1.500000e-02
-4.741121e-06,1.250000e-03
-4.733121e-06,1.000000e-02
-4.725121e-06,7.500000e-03
-4.717121e-06,2.125000e-02
-4.709121e-06,-3.750000e-03
-4.701121e-06,1.375000e-02
-4.693121e-06,-8.750000e-03
-4.685121e-06,2.250000e-02
-4.677121e-06,-1.375000e-02
-4.669121e-06,2.625000e-02
-4.661121e-06,-3.000000e-02
-4.653121e-06,2.750000e-02
-4.645121e-06,-3.625000e-02
-4.637121e-06,2.750000e-02
-4.629121e-06,-7.500000e-03
-4.621121e-06,1.000000e-02
-4.613121e-06,-2.125000e-02
-4.605121e-06,6.250000e-03
-4.597121e-06,3.750000e-03
-4.589121e-06,3.375000e-02
-4.581121e-06,-5.000000e-03
-4.573121e-06,2.625000e-02
-4.565121e-06,-1.375000e-02
-4.557121e-06,6.250000e-03
-4.549121e-06,-3.000000e-02
-4.541121e-06,2.375000e-02
-4.533121e-06,-7.500000e-03
-4.525121e-06,2.500000e-03
-4.517121e-06,-3.000000e-02
-4.509121e-06,1.875000e-02
-4.501121e-06,1.000000e-02
-4.493121e-06,3.375000e-02
-4.485121e-06,-1.250000e-02
-4.477121e-06,1.750000e-02
-4.469121e-06,-1.375000e-02
-4.461121e-06,1.375000e-02
-4.453121e-06,-1.250000e-03
-4.445121e-06,1.625000e-02
-4.437121e-06,-2.500000e-02
-4.429121e-06,2.125000e-02
-4.421121e-06,-5.375000e-02
-4.413121e-06,1.500000e-02
-4.405121e-06,-1.500000e-02
-4.397121e-06,3.000000e-02
-4.389121e-06,-1.750000e-02
-4.381121e-06,-5.000000e-03
-4.373121e-06,-1.000000e-02
-4.365121e-06,-5.000000e-03
-4.357121e-06,-2.000000e-02
-4.349121e-06,-3.750000e-03
-4.341121e-06,-3.750000e-03
-4.333121e-06,-8.750000e-03
-4.325121e-06,-1.750000e-02
-4.317121e-06,-8.750000e-03
-4.309121e-06,6.250000e-03
-4.301121e-06,2.250000e-02
-4.293121e-06,-3.750000e-03
-4.285121e-06,0.000000e+00
-4.277121e-06,-2.625000e-02
-4.269121e-06,1.750000e-02
-4.261121e-06,-1.500000e-02
-4.253121e-06,1.250000e-03
-4.245121e-06,-2.375000e-02
-4.237121e-06,2.125000e-02
-4.229121e-06,-2.500000e-03
-4.221121e-06,8.750000e-03
-4.213121e-06,-3.750000e-03
-4.205121e-06,2.500000e-02
-4.197121e-06,-2.500000e-02
-4.189121e-06,1.500000e-02
-4.181121e-06,-2.000000e-02
-4.173121e-06,6.250000e-03
-4.165121e-06,-3.125000e-02
-4.157121e-06,1.000000e-02
-4.149121e-06,-2.000000e-02
-4.141121e-06,2.500000e-03
-4.133121e-06,-2.000000e-02
-4.125121e-06,2.500000e-03
-4.117121e-06,-1.000000e-02
-4.109121e-06,5.000000e-03
-4.101121e-06,-8.750000e-03
-4.093121e-06,6.250000e-03
-4.085121e-06,2.500000e-03
-4.077121e-06,3.375000e-02
-4.069121e-06,-5.000000e-03
-4.061121e-06,1.000000e-02
-4.053121e-06,-8.750000e-03
-4.045121e-06,1.875000e-02
-4.037121e-06,-2.875000e-02
-4.029121e-06,8.750000e-03
-4.021121e-06,-3.375000e-02
-4.013121e-06,2.500000e-02
-4.005121e-06,-1.625000e-02
-3.997121e-06,1.250000e-02
-3.989121e-06,-3.875000e-02
-3.981121e-06,-1.500000e-02
-3.973121e-06,-1.875000e-02
-3.965121e-06,5.000000e-03
-3.957121e-06,-6.250000e-03
-3.949121e-06,2.000000e-02
-3.941121e-06,3.750000e-03
-3.933121e-06,7.500000e-03
-3.925121e-06,-3.125000e-02
-3.917121e-06,2.125000e-02
-3.909121e-06,-2.750000e-02
-3.901121e-06,8.750000e-03
-3.893121e-06,-4.500000e-02
-3.885121e-06,2.750000e-02
-3.877121e-06,2.500000e-03
-3.869121e-06,0.000000e+00
-3.861121e-06,-2.000000e-02
-3.853121e-06,1.625000e-02
-3.845121e-06,-7.500000e-03
-3.837121e-06,1.625000e-02
-3.829121e-06,2.500000e-03
-3.821121e-06,2.375000e-02
-3.813121e-06,-1.250000e-02
-3.805121e-06,3.750000e-02
-3.797121e-06,-3.000000e-02
-3.789121e-06,8.750000e-03
-3.781121e-06,-8.750000e-03
-3.773121e-06,1.750000e-02
-3.765121e-06,-1.875000e-02
-3.757121e-06,1.375000e-02
-3.749121e-06,-1.875000e-02
-3.741121e-06,1.250000e-03
-3.733121e-06,-3.750000e-02
-3.725121e-06,7.500000e-03
-3.717121e-06,-2.500000e-03
-3.709121e-06,3.750000e-03
-3.701121e-06,0.000000e+00
-3.693121e-06,1.875000e-02
-3.685121e-06,-1.875000e-02
-3.677121e-06,1.375000e-02
-3.669121e-06,-1.125000e-02
-3.661121e-06,2.375000e-02
-3.653121e-06,-1.750000e-02
-3.645121e-06,-7.500000e-03
-3.637121e-06,-3.875000e-02
-3.629121e-06,1.750000e-02
-3.621121e-06,3.750000e-03
-3.613121e-06,1.500000e-02
-3.605121e-06,0.000000e+00
-3.597121e-06,-3.750000e-03
-3.589121e-06,-8.750000e-03
-3.581121e-06,2.250000e-02
-3.573121e-06,-1.125000e-02
-3.565121e-06,1.125000e-02
-3.557121e-06,-2.125000e-02
-3.549121e-06,3.875000e-02
-3.541121e-06,2.500000e-03
-3.533121e-06,2.500000e-03
-3.525121e-06,-1.625000e-02
-3.517121e-06,2.125000e-02
-3.509121e-06,7.500000e-03
-3.501121e-06,3.250000e-02
-3.493121e-06,-2.000000e-02
-3.485121e-06,1.000000e-02
-3.477121e-06,3.750000e-03
-3.469121e-06,-1.000000e-02
-3.461121e-06,-8.750000e-03
-3.453121e-06,1.750000e-02
-3.445121e-06,-2.000000e-02
-3.437121e-06,-1.250000e-03
-3.429121e-06,-8.750000e-03
-3.421121e-06,0.000000e+00
-3.413121e-06,-3.750000e-03
-3.405121e-06,1.125000e-02
-3.397121e-06,-2.250000e-02
-3.389121e-06,2.375000e-02
-3.381121e-06,-2.125000e-02
-3.373121e-06,3.000000e-02
-3.365121e-06,3.750000e-03
-3.357121e-06,-1.125000e-02
-3.349121e-06,-1.250000e-02
-3.341121e-06,1.875000e-02
-3.333121e-06,-2.875000e-02
-3.325121e-06,5.000000e-03
-3.317121e-06,7.500000e-03
-3.309121e-06,2.500000e-02
-3.301121e-06,-1.250000e-02
-3.293121e-06,2.250000e-02
-3.285121e-06,-3.625000e-02
-3.277121e-06,-8.750000e-03
-3.269121e-06,-2.875000e-02
-3.261121e-06,1.125000e-02
-3.253121e-06,-2.375000e-02
-3.245121e-06,1.375000e-02
-3.237121e-06,5.000000e-03
-3.229121e-06,-3.750000e-03
-3.221121e-06,-1.125000e-02
-3.213121e-06,-7.500000e-03
-3.205121e-06,-2.250000e-02
-3.197121e-06,-6.250000e-03
-3.189121e-06,1.125000e-02
-3.181121e-06,2.250000e-02
-3.173121e-06,1.250000e-03
-3.165121e-06,-1.125000e-02
-3.157121e-06,-2.500000e-03
-3.149121e-06,3.750000e-03
-3.141121e-06,-3.750000e-02
-3.133121e-06,8.750000e-03
-3.125121e-06,-2.875000e-02
-3.117121e-06,3.000000e-02
-3.109121e-06,-1.750000e-02
-3.101121e-06,1.125000e-02
-3.093121e-06,0.000000e+00
-3.085121e-06,1.375000e-02
-3.077121e-06,-2.500000e-02
-3.069121e-06,1.500000e-02
-3.061121e-06,-6.250000e-03
-3.053121e-06,8.750000e-03
-3.045121e-06,-1.125000e-02
-3.037121e-06,7.500000e-03
-3.029121e-06,-1.625000e-02
-3.021121e-06,1.375000e-02
-3.013121e-06,-1.750000e-02
-3.005121e-06,1.000000e-02
-2.997121e-06,-1.500000e-02
-2.989121e-06,2.500000e-02
-2.981121e-06,-1.125000e-02
-2.973121e-06,1.500000e-02
-2.965121e-06,3.750000e-03
-2.957121e-06,1.750000e-02
-2.949121e-06,-2.500000e-02
-2.941121e-06,8.750000e-03
-2.933121e-06,1.250000e-03
-2.925121e-06,8.750000e-03
-2.917121e-06,-1.250000e-02
-2.909121e-06,1.375000e-02
-2.901121e-06,-1.125000e-02
-2.893121e-06,2.875000e-02
-2.885121e-06,-3.625000e-02
-2.877121e-06,6.250000e-03
-2.869121e-06,-1.875000e-02
-2.861121e-06,1.625000e-02
-2.853121e-06,-7.500000e-03
-2.845121e-06,1.500000e-02
-2.837121e-06,-3.000000e-02
-2.829121e-06,-7.500000e-03
-2.821121e-06,-2.750000e-02
-2.813121e-06,8.750000e-03
-2.805121e-06,-8.750000e-03
-2.797121e-06,1.000000e-02
-2.789121e-06,-1.250000e-03
-2.781121e-06,7.500000e-03
-2.773121e-06,-3.500000e-02
-2.765121e-06,2.500000e-02
-2.757121e-06,-1.750000e-02
-2.749121e-06,1.125000e-02
-2.741121e-06,-3.625000e-02
-2.733121e-06,2.500000e-02
-2.725121e-06,-1.500000e-02
-2.717121e-06,1.125000e-02
-2.709121e-06,-2.875000e-02
-2.701121e-06,1.125000e-02
-2.693121e-06,-1.125000e-02
-2.685121e-06,1.250000e-02
-2.677121e-06,6.250000e-03
-2.669121e-06,3.750000e-03
-2.661121e-06,5.000000e-03
-2.653121e-06,8.750000e-03
-2.645121e-06,-1.250000e-02
-2.637121e-06,1.750000e-02
-2.629121e-06,-2.375000e-02
-2.621121e-06,2.625000e-02
-2.613121e-06,-1.250000e-02
-2.605121e-06,1.875000e-02
-2.597121e-06,-1.250000e-02
-2.589121e-06,-1.375000e-02
-2.581121e-06,-5.000000e-03
-2.573121e-06,-1.375000e-02
-2.565121e-06,-1.375000e-02
-2.557121e-06,3.750000e-03
-2.549121e-06,-8.750000e-03
-2.541121e-06,2.500000e-02
-2.533121e-06,-1.625000e-02
-2.525121e-06,2.250000e-02
-2.517121e-06,-4.125000e-02
-2.509121e-06,-2.500000e-03
-2.501121e-06,-5.000000e-03
-2.493121e-06,2.500000e-03
-2.485121e-06,-8.750000e-03
-2.477121e-06,2.125000e-02
-2.469121e-06,-1.000000e-02
-2.461121e-06,-3.750000e-03
-2.453121e-06,-1.500000e-02
-2.445121e-06,1.625000e-02
-2.437121e-06,-2.500000e-02
-2.429121e-06,8.750000e-03
-2.421121e-06,6.250000e-03
-2.413121e-06,2.500000e-03
-2.405121e-06,-3.000000e-02
-2.397121e-06,7.500000e-03
-2.389121e-06,-8.750000e-03
-2.381121e-06,1.500000e-02
-2.373121e-06,-1.500000e-02
-2.365121e-06,2.625000e-02
-2.357121e-06,-3.125000e-02
-2.349121e-06,5.000000e-03
-2.341121e-06,-2.125000e-02
-2.333121e-06,1.875000e-02
-2.325121e-06,-2.750000e-02
-2.317121e-06,1.625000e-02
-2.309121e-06,2.500000e-03
-2.301121e-06,3.125000e-02
-2.293121e-06,-1.625000e-02
-2.285121e-06,2.125000e-02
-2.277121e-06,-1.500000e-02
-2.269121e-06,0.000000e+00
-2.261121e-06,-2.375000e-02
-2.253121e-06,2.250000e-02
-2.245121e-06,-1.250000e-02
-2.237121e-06,8.750000e-03
-2.229121e-06,-2.500000e-03
-2.221121e-06,2.125000e-02
-2.213121e-06,-2.125000e-02
-2.205121e-06,-6.250000e-03
-2.197121e-06,-2.750000e-02
-2.189121e-06,6.250000e-03
-2.181121e-06,-3.875000e-02
-2.173121e-06,3.750000e-03
-2.165121e-06,-1.125000e-02
-2.157121e-06,1.375000e-02
-2.149121e-06,-6.250000e-03
-2.141121e-06,-1.000000e-02
-2.133121e-06,-2.625000e-02
-2.125121e-06,1.750000e-02
-2.117121e-06,-4.125000e-02
-2.109121e-06,2.625000e-02
-2.101121e-06,-8.750000e-03
-2.093121e-06,1.750000e-02
-2.085121e-06,1.250000e-03
-2.077121e-06,3.000000e-02
-2.069121e-06,-1.875000e-02
-2.061121e-06,1.250000e-02
-2.053121e-06,1.000000e-02
-2.045121e-06,2.500000e-03
-2.037121e-06,-6.250000e-03
-2.029121e-06,6.250000e-03
-2.021121e-06,-3.750000e-03
-2.013121e-06,2.625000e-02
-2.005121e-06,-3.125000e-02
-1.997121e-06,6.250000e-03
-1.989121e-06,-2.750000e-02
-1.981121e-06,8.750000e-03
-1.973121e-06,-8.750000e-03
-1.965121e-06,3.250000e-02
-1.957121e-06,-1.125000e-02
-1.949121e-06,7.500000e-03
-1.941121e-06,-2.375000e-02
-1.933121e-06,7.500000e-03
-1.925121e-06,-3.625000e-02
-1.917121e-06,5.000000e-03
-1.909121e-06,2.500000e-03
-1.901121e-06,1.125000e-02
-1.893121e-06,-6.250000e-03
-1.885121e-06,1.375000e-02
-1.877121e-06,-1.500000e-02
-1.869121e-06,7.500000e-03
-1.861121e-06,-3.500000e-02
-1.853121e-06,2.750000e-02
-1.845121e-06,-1.500000e-02
-1.837121e-06,2.125000e-02
-1.829121e-06,-4.500000e-02
-1.821121e-06,-5.000000e-03
-1.813121e-06,-5.750000e-02
-1.805121e-06,-2.250000e-02
-1.797121e-06,-1.125000e-02
-1.789121e-06,2.125000e-02
-1.781121e-06,-1.125000e-02
-1.773121e-06,3.125000e-02
-1.765121e-06,-2.125000e-02
-1.757121e-06,1.375000e-02
-1.749121e-06,-8.750000e-03
-1.741121e-06,-2.500000e-03
-1.733121e-06,-1.875000e-02
-1.725121e-06,6.250000e-03
-1.717121e-06,-1.500000e-02
-1.709121e-06,7.500000e-03
-1.701121e-06,-2.000000e-02
-1.693121e-06,2.125000e-02
-1.685121e-06,-2.250000e-02
-1.677121e-06,1.750000e-02
-1.669121e-06,-7.500000e-03
-1.661121e-06,3.250000e-02
-1.653121e-06,-7.500000e-03
-1.645121e-06,1.625000e-02
-1.637121e-06,0.000000e+00
-1.629121e-06,1.750000e-02
-1.621121e-06,-8.750000e-03
-1.613121e-06,7.500000e-03
-1.605121e-06,-4.000000e-02
-1.597121e-06,3.250000e-02
-1.589121e-06,-1.250000e-03
-1.581121e-06,2.500000e-02
-1.573121e-06,-1.250000e-03
-1.565121e-06,0.000000e+00
-1.557121e-06,-2.000000e-02
-1.549121e-06,1.500000e-02
-1.541121e-06,-2.375000e-02
-1.533121e-06,-2.500000e-03
-1.525121e-06,8.750000e-03
-1.517121e-06,6.250000e-03
-1.509121e-06,2.500000e-03
-1.501121e-06,-5.000000e-03
-1.493121e-06,-3.500000e-02
-1.485121e-06,1.250000e-02
-1.477121e-06,-2.625000e-02
-1.469121e-06,7.500000e-03
-1.461121e-06,-5.000000e-03
-1.453121e-06,2.250000e-02
-1.445121e-06,-1.250000e-02
-1.437121e-06,1.875000e-02
-1.429121e-06,-3.250000e-02
-1.421121e-06,-2.000000e-02
-1.413121e-06,-1.250000e-02
-1.405121e-06,1.750000e-02
-1.397121e-06,1.000000e-02
-1.389121e-06,7.500000e-03
-1.381121e-06,-6.250000e-03
-1.373121e-06,2.875000e-02
-1.365121e-06,-1.375000e-02
-1.357121e-06,1.875000e-02
-1.349121e-06,-2.750000e-02
-1.341121e-06,0.000000e+00
-1.333121e-06,-2.125000e-02
-1.325121e-06,2.375000e-02
-1.317121e-06,-1.250000e-02
-1.309121e-06,2.250000e-02
-1.301121e-06,-1.500000e-02
-1.293121e-06,1.875000e-02
-1.285121e-06,-1.750000e-02
-1.277121e-06,2.125000e-02
-1.269121e-06,-1.750000e-02
-1.261121e-06,2.500000e-02
-1.253121e-06,-1.250000e-02
-1.245121e-06,1.875000e-02
-1.237121e-06,-3.375000e-02
-1.229121e-06,1.625000e-02
-1.221121e-06,-2.375000e-02
-1.213121e-06,6.250000e-03
-1.205121e-06,-2.500000e-02
-1.197121e-06,1.000000e-02
-1.189121e-06,-1.750000e-02
-1.181121e-06,6.250000e-03
-1.173121e-06,3.750000e-03
-1.165121e-06,6.250000e-03
-1.157121e-06,-2.500000e-03
-1.149121e-06,1.250000e-02
-1.141121e-06,-1.125000e-02
-1.133121e-06,2.750000e-02
-1.125121e-06,-1.250000e-03
-1.117121e-06,2.125000e-02
-1.109121e-06,-1.875000e-02
-1.101121e-06,1.250000e-02
-1.093121e-06,-2.875000e-02
-1.085121e-06,1.000000e-02
-1.077121e-06,-2.375000e-02
-1.069121e-06,2.500000e-02
-1.061121e-06,-1.625000e-02
-1.053121e-06,6.250000e-03
-1.045121e-06,-1.625000e-02
-1.037121e-06,8.750000e-03
-1.029121e-06,-3.750000e-02
-1.021121e-06,2.750000e-02
-1.013121e-06,-1.875000e-02
-1.005121e-06,2.000000e-02
-9.971213e-07,5.000000e-03
-9.891213e-07,-2.500000e-03
-9.811213e-07,-7.500000e-03
-9.731213e-07,2.875000e-02
-9.651213e-07,-1.375000e-02
-9.571213e-07,2.375000e-02
-9.491213e-07,-8.750000e-03
-9.411213e-07,1.375000e-02
-9.331213e-07,1.250000e-03
-9.251213e-07,-8.750000e-03
-9.171213e-07,-1.000000e-02
-9.091213e-07,2.375000e-02
-9.011213e-07,-2.625000e-02
-8.931213e-07,5.000000e-03
-8.851213e-07,-1.250000e-03
-8.771213e-07,2.000000e-02
-8.691213e-07,-3.750000e-03
-8.611213e-07,-2.500000e-03
-8.531213e-07,2.500000e-03
-8.451213e-07,-2.500000e-03
-8.371213e-07,-2.625000e-02
-8.291213e-07,2.125000e-02
-8.211213e-07,-1.375000e-02
-8.131213e-07,3.750000e-02
-8.051213e-07,1.250000e-03
-7.971213e-07,-6.250000e-03
-7.891213e-07,-1.875000e-02
-7.811213e-07,1.375000e-02
-7.731213e-07,-2.500000e-02
-7.651213e-07,-1.250000e-02
-7.571213e-07,1.250000e-03
-7.491213e-07,1.000000e-02
-7.411213e-07,7.500000e-03
-7.331213e-07,0.000000e+00
-7.251213e-07,-1.750000e-02
-7.171213e-07,2.500000e-03
-7.091213e-07,-2.375000e-02
-7.011213e-07,1.375000e-02
-6.931213e-07,-2.125000e-02
-6.851213e-07,8.750000e-03
-6.771213e-07,0.000000e+00
-6.691213e-07,3.625000e-02
-6.611213e-07,1.000000e-02
-6.531213e-07,-2.500000e-03
-6.451213e-07,-3.625000e-02
-6.371213e-07,2.500000e-03
-6.291213e-07,-1.000000e-02
-6.211213e-07,2.875000e-02
-6.131213e-07,1.250000e-03
-6.051213e-07,6.250000e-03
-5.971213e-07,-1.500000e-02
-5.891213e-07,1.500000e-02
-5.811213e-07,-3.375000e-02
-5.731213e-07,5.000000e-03
-5.651213e-07,0.000000e+00
-5.571213e-07,2.875000e-02
-5.491213e-07,-1.250000e-03
-5.411213e-07,7.500000e-03
-5.331213e-07,-1.000000e-02
-5.251213e-07,-5.000000e-03
-5.171213e-07,-2.125000e-02
-5.091213e-07,1.875000e-02
-5.011213e-07,-2.500000e-03
-4.931213e-07,1.750000e-02
-4.851213e-07,2.500000e-03
-4.771213e-07,1.250000e-02
-4.691213e-07,-6.250000e-03
-4.611213e-07,8.750000e-03
-4.531213e-07,-3.750000e-02
-4.451213e-07,2.500000e-02
-4.371213e-07,-1.875000e-02
-4.291213e-07,2.000000e-02
-4.211213e-07,-1.500000e-02
-4.131213e-07,2.500000e-03
-4.051213e-07,-1.375000e-02
-3.971213e-07,3.750000e-03
-3.891213e-07,-3.750000e-03
-3.811213e-07,7.500000e-03
-3.731213e-07,-1.375000e-02
-3.651213e-07,2.500000e-03
-3.571213e-07,-1.500000e-02
-3.491213e-07,2.250000e-02
-3.411213e-07,-4.250000e-02
-3.331213e-07,2.500000e-03
-3.251213e-07,-2.500000e-02
-3.171213e-07,1.250000e-03
-3.091213e-07,-2.500000e-03
-3.011213e-07,1.500000e-02
-2.931213e-07,-1.250000e-02
-2.851213e-07,3.750000e-03
-2.771213e-07,-3.250000e-02
-2.691213e-07,1.750000e-02
-2.611213e-07,-1.875000e-02
-2.531213e-07,7.500000e-03
-2.451213e-07,1.000000e-02
-2.371213e-07,4.000000e-02
-2.291213e-07,1.250000e-03
-2.211213e-07,-3.750000e-03
-2.131213e-07,-1.375000e-02
-2.051213e-07,3.750000e-03
-1.971213e-07,-8.750000e-03
-1.891213e-07,1.625000e-02
-1.811213e-07,-1.250000e-02
-1.731213e-07,2.875000e-02
-1.651213e-07,1.250000e-03
-1.571213e-07,0.000000e+00
-1.491213e-07,-2.125000e-02
-1.411213e-07,2.750000e-02
-1.331213e-07,-2.500000e-02
-1.251213e-07,2.625000e-02
-1.171213e-07,3.625000e-02
-1.091213e-07,2.625000e-02
-1.011213e-07,5.000000e-03
-9.312125e-08,3.500000e-02
-8.512125e-08,-3.750000e-03
-7.712125e-08,6.250000e-03
-6.912125e-08,-2.125000e-02
-6.112125e-08,-3.750000e-03
-5.312125e-08,-2.500000e-02
-4.512125e-08,1.375000e-02
-3.712125e-08,6.250000e-03
-2.912125e-08,1.250000e-03
-2.112125e-08,8.750000e-03
-1.312125e-08,2.375000e-02
-5.121250e-09,-1.875000e-02
2.878750e-09,-1.336250e+00
1.087875e-08,-1.426250e+00
1.887875e-08,-1.408750e+00
2.687875e-08,-1.402500e+00
3.487875e-08,3.750000e-03
4.287875e-08,-4.500000e-02
5.087875e-08,1.125000e-02
5.887875e-08,-8.750000e-03
6.687875e-08,1.625000e-02
7.487875e-08,7.500000e-03
8.287875e-08,2.000000e-02
9.087875e-08,-1.250000e-02
9.887875e-08,3.750000e-03
1.068787e-07,-2.375000e-02
1.148787e-07,1.250000e-03
1.228787e-07,-1.375000e-02
1.308787e-07,3.750000e-03
1.388787e-07,-2.000000e-02
1.468787e-07,2.000000e-02
1.548787e-07,-1.125000e-02
1.628787e-07,-5.000000e-03
1.708787e-07,-6.250000e-03
1.788787e-07,7.500000e-03
1.868787e-07,-1.250000e-03
1.948787e-07,0.000000e+00
2.028787e-07,-1.250000e-02
2.108787e-07,3.000000e-02
2.188787e-07,-3.750000e-03
2.268787e-07,3.750000e-03
2.348787e-07,-2.875000e-02
2.428787e-07,3.250000e-02
2.508787e-07,-3.750000e-03
2.588787e-07,1.750000e-02
2.668787e-07,-1.500000e-02
2.748787e-07,2.875000e-02
2.828787e-07,1.250000e-03
2.908787e-07,8.750000e-03
2.988787e-07,-8.750000e-03
3.068787e-07,7.500000e-03
3.148787e-07,-2.750000e-02
3.228787e-07,5.000000e-03
3.308787e-07,-5.000000e-03
3.388787e-07,2.750000e-02
3.468787e-07,-2.625000e-02
3.548787e-07,1.875000e-02
3.628787e-07,-1.250000e-02
3.708787e-07,-1.250000e-02
3.788787e-07,-2.625000e-02
3.868787e-07,8.750000e-03
3.948787e-07,-1.125000e-02
4.028787e-07,3.500000e-02
4.108787e-07,0.000000e+00
4.188787e-07,7.500000e-03
4.268787e-07,-1.500000e-02
4.348787e-07,2.125000e-02
4.428787e-07,-2.250000e-02
4.508787e-07,8.750000e-03
4.588787e-07,8.750000e-03
4.668787e-07,3.750000e-02
4.748787e-07,-1.500000e-02
4.828787e-07,3.500000e-02
4.908787e-07,0.000000e+00
4.988787e-07,5.000000e-03
5.068787e-07,-2.125000e-02
5.148787e-07,-1.250000e-03
5.228787e-07,-1.375000e-02
5.308787e-07,3.750000e-03
5.388787e-07,-1.750000e-02
5.468787e-07,2.500000e-02
5.548787e-07,-1.625000e-02
5.628787e-07,2.375000e-02
5.708787e-07,-1.625000e-02
5.788787e-07,2.000000e-02
5.868787e-07,-1.250000e-03
5.948787e-07,2.125000e-02
6.028787e-07,-3.125000e-02
6.108787e-07,0.000000e+00
6.188787e-07,-2.625000e-02
6.268787e-07,0.000000e+00
6.348787e-07,-3.750000e-03
6.428787e-07,2.125000e-02
6.508787e-07,-1.625000e-02
6.588787e-07,2.000000e-02
6.668787e-07,-2.625000e-02
6.748787e-07,2.000000e-02
6.828787e-07,-1.250000e-02
6.908787e-07,-2.500000e-03
6.988787e-07,-8.750000e-03
7.068787e-07,5.000000e-03
7.148787e-07,-1.500000e-02
7.228787e-07,2.750000e-02
7.308787e-07,-7.500000e-03
7.388787e-07,1.250000e-03
7.468787e-07,-2.750000e-02
7.548787e-07,-6.250000e-03
7.628787e-07,-2.750000e-02
7.708787e-07,3.750000e-03
7.788787e-07,-8.750000e-03
7.868787e-07,7.500000e-03
7.948787e-07,-1.000000e-02
8.028787e-07,2.750000e-02
