run1/run1_ch1_20210318180344798.csv

Model,MSO64
Waveform Type,ANALOG
Horizontal Units,s
Sample Interval,8.000000e-09
Record Length,1250
Zero Index,624.375000
Vertical Units,V

TIME,CH1
-4.995000e-06,-1.875000e-02
-4.987000e-06,3.375000e-02
-4.979000e-06,-1.125000e-02
-4.971000e-06,-3.750000e-03
-4.963000e-06,-2.250000e-02
-4.955000e-06,1.625000e-02
-4.947000e-06,-2.750000e-02
-4.939000e-06,1.375000e-02
-4.931000e-06,-2.500000e-02
-4.923000e-06,1.750000e-02
-4.915000e-06,-1.250000e-02
-4.907000e-06,1.500000e-02
-4.899000e-06,-1.750000e-02
-4.891000e-06,8.750000e-03
-4.883000e-06,-1.250000e-02
-4.875000e-06,1.125000e-02
-4.867000e-06,-3.250000e-02
-4.859000e-06,1.250000e-03
-4.851000e-06,1.250000e-03
-4.843000e-06,2.125000e-02
-4.835000e-06,-5.000000e-03
-4.827000e-06,2.125000e-02
-4.819000e-06,-2.625000e-02
-4.811000e-06,1.250000e-02
-4.803000e-06,-1.375000e-02
-4.795000e-06,1.500000e-02
-4.787000e-06,-1.000000e-02
-4.779000e-06,1.125000e-02
-4.771000e-06,-8.750000e-03
-4.763000e-06,-7.500000e-03
-4.755000e-06,3.750000e-03
-4.747000e-06,8.750000e-03
-4.739000e-06,-1.000000e-02
-4.731000e-06,3.750000e-03
-4.723000e-06,-7.500000e-03
-4.715000e-06,1.875000e-02
-4.707000e-06,2.500000e-03
-4.699000e-06,-2.500000e-03
-4.691000e-06,-3.375000e-02
-4.683000e-06,3.750000e-02
-4.675000e-06,-3.125000e-02
-4.667000e-06,7.500000e-03
-4.659000e-06,-2.750000e-02
-4.651000e-06,3.250000e-02
-4.643000e-06,1.250000e-03
-4.635000e-06,1.000000e-02
-4.627000e-06,-3.750000e-03
-4.619000e-06,7.500000e-03
-4.611000e-06,-1.875000e-02
-4.603000e-06,2.500000e-02
-4.595000e-06,-3.750000e-03
-4.587000e-06,2.500000e-02
-4.579000e-06,-2.000000e-02
-4.571000e-06,3.000000e-02
-4.563000e-06,-1.125000e-02
-4.555000e-06,2.500000e-03
-4.547000e-06,-8.750000e-03
-4.539000e-06,3.000000e-02
-4.531000e-06,-1.500000e-02
-4.523000e-06,2.500000e-03
-4.515000e-06,-7.500000e-03
-4.507000e-06,3.500000e-02
-4.499000e-06,-3.875000e-02
-4.491000e-06,1.000000e-02
-4.483000e-06,2.500000e-03
-4.475000e-06,1.000000e-02
-4.467000e-06,1.125000e-02
-4.459000e-06,-5.000000e-03
-4.451000e-06,-3.250000e-02
-4.443000e-06,1.500000e-02
-4.435000e-06,-1.250000e-02
-4.427000e-06,6.250000e-03
-4.419000e-06,-4.875000e-02
-4.411000e-06,1.625000e-02
-4.403000e-06,-1.000000e-02
-4.395000e-06,5.000000e-03
-4.387000e-06,-1.000000e-02
-4.379000e-06,5.000000e-03
-4.371000e-06,-3.875000e-02
-4.363000e-06,1.125000e-02
-4.355000e-06,-3.750000e-03
-4.347000e-06,1.000000e-02
-4.339000e-06,-2.500000e-03
-4.331000e-06,7.500000e-03
-4.323000e-06,-2.125000e-02
-4.315000e-06,1.000000e-02
-4.307000e-06,-4.625000e-02
-4.299000e-06,-1.250000e-03
-4.291000e-06,-1.500000e-02
-4.283000e-06,1.750000e-02
-4.275000e-06,-8.750000e-03
-4.267000e-06,1.750000e-02
-4.259000e-06,-8.750000e-03
-4.251000e-06,8.750000e-03
-4.243000e-06,-1.500000e-02
-4.235000e-06,1.750000e-02
-4.227000e-06,2.500000e-03
-4.219000e-06,1.625000e-02
-4.211000e-06,-2.000000e-02
-4.203000e-06,2.250000e-02
-4.195000e-06,-2.875000e-02
-4.187000e-06,-1.375000e-02
-4.179000e-06,-2.875000e-02
-4.171000e-06,8.750000e-03
-4.163000e-06,-1.500000e-02
-4.155000e-06,8.750000e-03
-4.147000e-06,-2.375000e-02
-4.139000e-06,1.375000e-02
-4.131000e-06,-2.500000e-02
-4.123000e-06,4.625000e-02
-4.115000e-06,-1.750000e-02
-4.107000e-06,1.875000e-02
-4.099000e-06,-1.250000e-02
-4.091000e-06,2.375000e-02
-4.083000e-06,1.250000e-03
-4.075000e-06,1.250000e-03
-4.067000e-06,-6.250000e-03
-4.059000e-06,1.750000e-02
-4.051000e-06,-2.125000e-02
-4.043000e-06,1.500000e-02
-4.035000e-06,-1.125000e-02
-4.027000e-06,1.750000e-02
-4.019000e-06,-2.250000e-02
-4.011000e-06,1.000000e-02
-4.003000e-06,8.750000e-03
-3.995000e-06,-1.375000e-02
-3.987000e-06,-2.375000e-02
-3.979000e-06,8.750000e-03
-3.971000e-06,-2.375000e-02
-3.963000e-06,3.250000e-02
-3.955000e-06,-1.625000e-02
-3.947000e-06,6.250000e-03
-3.939000e-06,-2.250000e-02
-3.931000e-06,1.000000e-02
-3.923000e-06,-3.000000e-02
-3.915000e-06,1.250000e-02
-3.907000e-06,-4.000000e-02
-3.899000e-06,1.250000e-02
-3.891000e-06,-5.000000e-03
-3.883000e-06,5.000000e-03
-3.875000e-06,2.500000e-03
-3.867000e-06,-6.250000e-03
-3.859000e-06,-7.500000e-03
-3.851000e-06,2.500000e-03
-3.843000e-06,-8.750000e-03
-3.835000e-06,1.125000e-02
-3.827000e-06,-1.250000e-03
-3.819000e-06,1.375000e-02
-3.811000e-06,-1.375000e-02
-3.803000e-06,1.125000e-02
-3.795000e-06,-1.125000e-02
-3.787000e-06,1.375000e-02
-3.779000e-06,-3.875000e-02
-3.771000e-06,4.250000e-02
-3.763000e-06,-2.500000e-03
-3.755000e-06,2.500000e-02
-3.747000e-06,-1.625000e-02
-3.739000e-06,2.875000e-02
-3.731000e-06,-1.250000e-02
-3.723000e-06,2.000000e-02
-3.715000e-06,-3.750000e-03
-3.707000e-06,8.750000e-03
-3.699000e-06,1.250000e-03
-3.691000e-06,1.375000e-02
-3.683000e-06,-1.375000e-02
-3.675000e-06,2.125000e-02
-3.667000e-06,-4.125000e-02
-3.659000e-06,1.000000e-02
-3.651000e-06,-1.125000e-02
-3.643000e-06,3.375000e-02
-3.635000e-06,-1.125000e-02
-3.627000e-06,2.125000e-02
-3.619000e-06,-2.125000e-02
-3.611000e-06,1.250000e-02
-3.603000e-06,-8.750000e-03
-3.595000e-06,-1.250000e-03
-3.587000e-06,-3.125000e-02
-3.579000e-06,2.500000e-02
-3.571000e-06,-5.000000e-03
-3.563000e-06,6.250000e-03
-3.555000e-06,-1.375000e-02
-3.547000e-06,5.000000e-03
-3.539000e-06,-1.250000e-02
-3.531000e-06,1.250000e-03
-3.523000e-06,-2.625000e-02
-3.515000e-06,2.875000e-02
-3.507000e-06,-8.750000e-03
-3.499000e-06,3.375000e-02
-3.491000e-06,-1.375000e-02
-3.483000e-06,8.750000e-03
-3.475000e-06,-1.375000e-02
-3.467000e-06,2.000000e-02
-3.459000e-06,1.250000e-02
-3.451000e-06,2.625000e-02
-3.443000e-06,1.250000e-03
-3.435000e-06,-6.250000e-03
-3.427000e-06,-2.000000e-02
-3.419000e-06,-1.250000e-03
-3.411000e-06,-2.000000e-02
-3.403000e-06,3.250000e-02
-3.395000e-06,-2.125000e-02
-3.387000e-06,3.250000e-02
-3.379000e-06,-2.500000e-03
-3.371000e-06,1.625000e-02
-3.363000e-06,-1.875000e-02
-3.355000e-06,-5.000000e-03
-3.347000e-06,-1.125000e-02
-3.339000e-06,1.625000e-02
-3.331000e-06,-1.875000e-02
-3.323000e-06,4.000000e-02
-3.315000e-06,1.500000e-02
-3.307000e-06,1.625000e-02
-3.299000e-06,-2.500000e-02
-3.291000e-06,1.375000e-02
-3.283000e-06,-2.125000e-02
-3.275000e-06,1.125000e-02
-3.267000e-06,-1.125000e-02
-3.259000e-06,1.750000e-02
-3.251000e-06,-1.500000e-02
-3.243000e-06,-1.000000e-02
-3.235000e-06,-2.500000e-03
-3.227000e-06,8.750000e-03
-3.219000e-06,-1.750000e-02
-3.211000e-06,-2.500000e-03
-3.203000e-06,1.250000e-03
-3.195000e-06,1.500000e-02
-3.187000e-06,0.000000e+00
-3.179000e-06,-1.250000e-03
-3.171000e-06,-1.000000e-02
-3.163000e-06,2.000000e-02
-3.155000e-06,-1.625000e-02
-3.147000e-06,7.500000e-03
-3.139000e-06,-1.250000e-02
-3.131000e-06,1.750000e-02
-3.123000e-06,3.750000e-03
-3.115000e-06,2.750000e-02
-3.107000e-06,-2.000000e-02
-3.099000e-06,1.000000e-02
-3.091000e-06,-1.875000e-02
-3.083000e-06,5.000000e-03
-3.075000e-06,8.750000e-03
-3.067000e-06,2.625000e-02
-3.059000e-06,-2.125000e-02
-3.051000e-06,1.875000e-02
-3.043000e-06,-7.500000e-03
-3.035000e-06,1.125000e-02
-3.027000e-06,-2.250000e-02
-3.019000e-06,2.000000e-02
-3.011000e-06,-6.250000e-03
-3.003000e-06,2.500000e-02
-2.995000e-06,-2.750000e-02
-2.987000e-06,2.625000e-02
-2.979000e-06,-6.250000e-03
-2.971000e-06,2.000000e-02
-2.963000e-06,-2.500000e-03
-2.955000e-06,1.000000e-02
-2.947000e-06,-1.000000e-02
-2.939000e-06,1.875000e-02
-2.931000e-06,-2.500000e-02
-2.923000e-06,2.000000e-02
-2.915000e-06,-4.375000e-02
-2.907000e-06,1.250000e-03
-2.899000e-06,-2.875000e-02
-2.891000e-06,1.750000e-02
-2.883000e-06,-1.625000e-02
-2.875000e-06,1.250000e-02
-2.867000e-06,-7.500000e-03
-2.859000e-06,3.625000e-02
-2.851000e-06,-1.625000e-02
-2.843000e-06,2.375000e-02
-2.835000e-06,-7.500000e-03
-2.827000e-06,3.750000e-03
-2.819000e-06,-2.000000e-02
-2.811000e-06,1.875000e-02
-2.803000e-06,-2.500000e-03
-2.795000e-06,8.750000e-03
-2.787000e-06,-3.000000e-02
-2.779000e-06,2.500000e-02
-2.771000e-06,-3.750000e-03
-2.763000e-06,1.250000e-02
-2.755000e-06,-1.750000e-02
-2.747000e-06,2.500000e-02
-2.739000e-06,-1.625000e-02
-2.731000e-06,-1.250000e-03
-2.723000e-06,3.750000e-03
-2.715000e-06,2.500000e-03
-2.707000e-06,-2.000000e-02
-2.699000e-06,-3.750000e-03
-2.691000e-06,-3.000000e-02
-2.683000e-06,3.750000e-03
-2.675000e-06,1.250000e-03
-2.667000e-06,2.250000e-02
-2.659000e-06,-1.875000e-02
-2.651000e-06,1.875000e-02
-2.643000e-06,-3.125000e-02
-2.635000e-06,1.500000e-02
-2.627000e-06,-2.875000e-02
-2.619000e-06,5.375000e-02
-2.611000e-06,-3.000000e-02
-2.603000e-06,1.750000e-02
-2.595000e-06,-2.500000e-03
-2.587000e-06,1.125000e-02
-2.579000e-06,-1.125000e-02
-2.571000e-06,2.500000e-03
-2.563000e-06,-1.250000e-03
-2.555000e-06,2.000000e-02
-2.547000e-06,-3.750000e-03
-2.539000e-06,-2.500000e-03
-2.531000e-06,-1.250000e-02
-2.523000e-06,3.250000e-02
-2.515000e-06,-3.250000e-02
-2.507000e-06,8.750000e-03
-2.499000e-06,-2.500000e-02
-2.491000e-06,2.000000e-02
-2.483000e-06,-7.500000e-03
-2.475000e-06,1.625000e-02
-2.467000e-06,-1.500000e-02
-2.459000e-06,4.000000e-02
-2.451000e-06,-1.875000e-02
-2.443000e-06,1.000000e-02
-2.435000e-06,-5.000000e-03
-2.427000e-06,1.750000e-02
-2.419000e-06,1.375000e-02
-2.411000e-06,1.375000e-02
-2.403000e-06,-2.375000e-02
-2.395000e-06,1.250000e-02
-2.387000e-06,-1.625000e-02
-2.379000e-06,1.125000e-02
-2.371000e-06,-3.250000e-02
-2.363000e-06,3.250000e-02
-2.355000e-06,-7.500000e-03
-2.347000e-06,-2.500000e-03
-2.339000e-06,-2.500000e-03
-2.331000e-06,2.375000e-02
-2.323000e-06,-3.000000e-02
-2.315000e-06,8.750000e-03
-2.307000e-06,-3.750000e-03
-2.299000e-06,1.625000e-02
-2.291000e-06,-1.000000e-02
-2.283000e-06,3.750000e-02
-2.275000e-06,8.750000e-03
-2.267000e-06,1.625000e-02
-2.259000e-06,-2.375000e-02
-2.251000e-06,1.250000e-02
-2.243000e-06,-3.000000e-02
-2.235000e-06,2.625000e-02
-2.227000e-06,7.500000e-03
-2.219000e-06,0.000000e+00
-2.211000e-06,-7.500000e-03
-2.203000e-06,8.750000e-03
-2.195000e-06,-2.875000e-02
-2.187000e-06,1.000000e-02
-2.179000e-06,1.125000e-02
-2.171000e-06,1.250000e-03
-2.163000e-06,-6.250000e-03
-2.155000e-06,7.500000e-03
-2.147000e-06,-1.375000e-02
-2.139000e-06,1.250000e-02
-2.131000e-06,-6.250000e-03
-2.123000e-06,2.875000e-02
-2.115000e-06,-2.750000e-02
-2.107000e-06,1.750000e-02
-2.099000e-06,-1.375000e-02
-2.091000e-06,3.000000e-02
-2.083000e-06,-1.125000e-02
-2.075000e-06,3.750000e-03
-2.067000e-06,-5.000000e-03
-2.059000e-06,1.875000e-02
-2.051000e-06,2.500000e-03
-2.043000e-06,3.000000e-02
-2.035000e-06,6.250000e-03
-2.027000e-06,1.250000e-02
-2.019000e-06,1.125000e-02
-2.011000e-06,3.000000e-02
-2.003000e-06,-4.000000e-02
-1.995000e-06,1.000000e-02
-1.987000e-06,-2.500000e-02
-1.979000e-06,3.000000e-02
-1.971000e-06,-1.125000e-02
-1.963000e-06,1.125000e-02
-1.955000e-06,-2.250000e-02
-1.947000e-06,2.125000e-02
-1.939000e-06,-1.625000e-02
-1.931000e-06,-3.750000e-03
-1.923000e-06,-1.000000e-02
-1.915000e-06,1.125000e-02
-1.907000e-06,8.750000e-03
-1.899000e-06,2.000000e-02
-1.891000e-06,0.000000e+00
-1.883000e-06,1.750000e-02
-1.875000e-06,-2.250000e-02
-1.867000e-06,1.250000e-02
-1.859000e-06,-1.750000e-02
-1.851000e-06,4.125000e-02
-1.843000e-06,-1.125000e-02
-1.835000e-06,2.625000e-02
-1.827000e-06,0.000000e+00
-1.819000e-06,2.750000e-02
-1.811000e-06,-2.500000e-03
-1.803000e-06,2.875000e-02
-1.795000e-06,-1.375000e-02
-1.787000e-06,6.250000e-03
-1.779000e-06,3.750000e-03
-1.771000e-06,1.000000e-02
-1.763000e-06,-1.125000e-02
-1.755000e-06,2.500000e-02
-1.747000e-06,-3.750000e-02
-1.739000e-06,1.875000e-02
-1.731000e-06,-1.875000e-02
-1.723000e-06,2.375000e-02
-1.715000e-06,2.500000e-03
-1.707000e-06,1.250000e-03
-1.699000e-06,6.250000e-03
-1.691000e-06,2.000000e-02
-1.683000e-06,-1.375000e-02
-1.675000e-06,1.250000e-02
-1.667000e-06,-1.375000e-02
-1.659000e-06,1.125000e-02
-1.651000e-06,2.500000e-03
-1.643000e-06,1.125000e-02
-1.635000e-06,-1.000000e-02
-1.627000e-06,1.000000e-02
-1.619000e-06,-1.250000e-02
-1.611000e-06,1.125000e-02
-1.603000e-06,-3.750000e-03
-1.595000e-06,2.375000e-02
-1.587000e-06,3.750000e-03
-1.579000e-06,1.250000e-02
-1.571000e-06,0.000000e+00
-1.563000e-06,7.500000e-03
-1.555000e-06,-1.375000e-02
-1.547000e-06,1.000000e-02
-1.539000e-06,-2.500000e-03
-1.531000e-06,2.500000e-03
-1.523000e-06,2.500000e-03
-1.515000e-06,1.250000e-02
-1.507000e-06,-1.250000e-02
-1.499000e-06,1.375000e-02
-1.491000e-06,-3.875000e-02
-1.483000e-06,1.750000e-02
-1.475000e-06,-4.000000e-02
-1.467000e-06,1.250000e-02
-1.459000e-06,-1.125000e-02
-1.451000e-06,1.875000e-02
-1.443000e-06,-3.750000e-03
-1.435000e-06,2.750000e-02
-1.427000e-06,5.000000e-03
-1.419000e-06,-1.750000e-02
-1.411000e-06,-1.000000e-02
-1.403000e-06,8.750000e-03
-1.395000e-06,-1.000000e-02
-1.387000e-06,8.750000e-03
-1.379000e-06,-1.250000e-02
-1.371000e-06,2.500000e-03
-1.363000e-06,-2.000000e-02
-1.355000e-06,2.750000e-02
-1.347000e-06,-3.750000e-03
-1.339000e-06,2.000000e-02
-1.331000e-06,-2.500000e-02
-1.323000e-06,1.250000e-03
-1.315000e-06,-1.250000e-02
-1.307000e-06,1.625000e-02
-1.299000e-06,-7.500000e-03
-1.291000e-06,3.125000e-02
-1.283000e-06,-3.750000e-03
-1.275000e-06,0.000000e+00
-1.267000e-06,1.000000e-02
-1.259000e-06,1.250000e-02
-1.251000e-06,-1.250000e-02
-1.243000e-06,2.250000e-02
-1.235000e-06,0.000000e+00
-1.227000e-06,1.000000e-02
-1.219000e-06,-2.250000e-02
-1.211000e-06,8.750000e-03
-1.203000e-06,-1.250000e-03
-1.195000e-06,-8.750000e-03
-1.187000e-06,-7.500000e-03
-1.179000e-06,1.000000e-02
-1.171000e-06,-5.000000e-03
-1.163000e-06,1.000000e-02
-1.155000e-06,-3.125000e-02
-1.147000e-06,2.750000e-02
-1.139000e-06,-1.125000e-02
-1.131000e-06,7.500000e-03
-1.123000e-06,-5.000000e-03
-1.115000e-06,1.250000e-02
-1.107000e-06,-2.875000e-02
-1.099000e-06,1.125000e-02
-1.091000e-06,-2.250000e-02
-1.083000e-06,7.500000e-03
-1.075000e-06,-1.125000e-02
-1.067000e-06,2.375000e-02
-1.059000e-06,-2.875000e-02
-1.051000e-06,7.500000e-03
-1.043000e-06,-3.250000e-02
-1.035000e-06,3.750000e-03
-1.027000e-06,-2.000000e-02
-1.019000e-06,2.375000e-02
-1.011000e-06,2.500000e-03
-1.003000e-06,1.750000e-02
-9.950000e-07,-1.500000e-02
-9.870000e-07,7.500000e-03
-9.790000e-07,-3.500000e-02
-9.710000e-07,3.750000e-03
-9.630000e-07,-3.375000e-02
-9.550000e-07,3.250000e-02
-9.470000e-07,-8.750000e-03
-9.390000e-07,2.250000e-02
-9.310000e-07,-8.750000e-03
-9.230000e-07,2.375000e-02
-9.150000e-07,0.000000e+00
-9.070000e-07,2.125000e-02
-8.990000e-07,-1.750000e-02
-8.910000e-07,-5.000000e-03
-8.830000e-07,-1.625000e-02
-8.750000e-07,3.250000e-02
-8.670000e-07,0.000000e+00
-8.590000e-07,5.000000e-03
-8.510000e-07,-3.125000e-02
-8.430000e-07,2.250000e-02
-8.350000e-07,-2.875000e-02
-8.270000e-07,3.375000e-02
-8.190000e-07,0.000000e+00
-8.110000e-07,3.500000e-02
-8.030000e-07,2.500000e-03
-7.950000e-07,2.250000e-02
-7.870000e-07,-2.250000e-02
-7.790000e-07,1.250000e-03
-7.710000e-07,-7.500000e-03
-7.630000e-07,1.375000e-02
-7.550000e-07,-2.250000e-02
-7.470000e-07,1.625000e-02
-7.390000e-07,-1.375000e-02
-7.310000e-07,8.750000e-03
-7.230000e-07,-2.000000e-02
-7.150000e-07,1.625000e-02
-7.070000e-07,-2.375000e-02
-6.990000e-07,3.500000e-02
-6.910000e-07,-2.250000e-02
-6.830000e-07,2.500000e-03
-6.750000e-07,-1.875000e-02
-6.670000e-07,8.750000e-03
-6.590000e-07,-1.500000e-02
-6.510000e-07,8.750000e-03
-6.430000e-07,3.750000e-03
-6.350000e-07,2.750000e-02
-6.270000e-07,-5.000000e-03
-6.190000e-07,2.375000e-02
-6.110000e-07,0.000000e+00
-6.030000e-07,2.250000e-02
-5.950000e-07,-2.375000e-02
-5.870000e-07,3.375000e-02
-5.790000e-07,-1.625000e-02
-5.710000e-07,1.625000e-02
-5.630000e-07,-2.125000e-02
-5.550000e-07,2.000000e-02
-5.470000e-07,-1.375000e-02
-5.390000e-07,1.500000e-02
-5.310000e-07,-2.125000e-02
-5.230000e-07,6.250000e-03
-5.150000e-07,-6.250000e-03
-5.070000e-07,2.000000e-02
-4.990000e-07,5.000000e-03
-4.910000e-07,2.500000e-03
-4.830000e-07,-1.875000e-02
-4.750000e-07,2.750000e-02
-4.670000e-07,-3.375000e-02
-4.590000e-07,2.125000e-02
-4.510000e-07,-1.375000e-02
-4.430000e-07,2.250000e-02
-4.350000e-07,-2.375000e-02
-4.270000e-07,-3.750000e-03
-4.190000e-07,-2.500000e-03
-4.110000e-07,7.500000e-03
-4.030000e-07,-3.000000e-02
-3.950000e-07,1.500000e-02
-3.870000e-07,0.000000e+00
-3.790000e-07,1.625000e-02
-3.710000e-07,-2.500000e-03
-3.630000e-07,2.250000e-02
-3.550000e-07,-2.875000e-02
-3.470000e-07,1.625000e-02
-3.390000e-07,-2.875000e-02
-3.310000e-07,1.750000e-02
-3.230000e-07,-2.625000e-02
-3.150000e-07,-6.250000e-03
-3.070000e-07,-2.500000e-02
-2.990000e-07,1.250000e-03
-2.910000e-07,0.000000e+00
-2.830000e-07,3.500000e-02
-2.750000e-07,-2.000000e-02
-2.670000e-07,5.000000e-03
-2.590000e-07,-8.750000e-03
-2.510000e-07,1.625000e-02
-2.430000e-07,1.250000e-03
-2.350000e-07,6.250000e-03
-2.270000e-07,-1.250000e-02
-2.190000e-07,2.125000e-02
-2.110000e-07,-2.125000e-02
-2.030000e-07,3.000000e-02
-1.950000e-07,-1.750000e-02
-1.870000e-07,1.500000e-02
-1.790000e-07,1.125000e-02
-1.710000e-07,6.250000e-03
-1.630000e-07,1.250000e-03
-1.550000e-07,-1.375000e-02
-1.470000e-07,-2.250000e-02
-1.390000e-07,1.375000e-02
-1.310000e-07,-2.125000e-02
-1.230000e-07,1.250000e-02
-1.150000e-07,-1.500000e-02
-1.070000e-07,2.250000e-02
-9.900000e-08,-2.125000e-02
-9.100000e-08,1.500000e-02
-8.300000e-08,-2.625000e-02
-7.500000e-08,3.750000e-03
-6.700000e-08,-1.875000e-02
-5.900000e-08,7.500000e-03
-5.100000e-08,-3.750000e-03
-4.300000e-08,1.375000e-02
-3.500000e-08,-3.750000e-03
-2.700000e-08,1.125000e-02
-1.900000e-08,-2.500000e-02
-1.100000e-08,0.000000e+00
-3.000000e-09,-7.500000e-03
5.000000e-09,-1.396250e+00
1.300000e-08,-1.413750e+00
2.100000e-08,-1.390000e+00
2.900000e-08,-9.512500e-01
3.700000e-08,-1.250000e-03
4.500000e-08,-1.375000e-02
5.300000e-08,5.500000e-02
6.100000e-08,-6.250000e-03
6.900000e-08,1.125000e-02
7.700000e-08,-1.250000e-02
8.500000e-08,-8.750000e-03
9.300000e-08,6.250000e-03
1.010000e-07,1.875000e-02
1.090000e-07,-7.500000e-03
1.170000e-07,2.875000e-02
1.250000e-07,6.250000e-03
1.330000e-07,1.875000e-02
1.410000e-07,1.125000e-02
1.490000e-07,1.875000e-02
1.570000e-07,-2.125000e-02
1.650000e-07,1.000000e-02
1.730000e-07,-8.750000e-03
1.810000e-07,2.500000e-02
1.890000e-07,-3.375000e-02
1.970000e-07,2.875000e-02
2.050000e-07,1.250000e-03
2.130000e-07,1.625000e-02
2.210000e-07,-1.250000e-02
2.290000e-07,-3.750000e-03
2.370000e-07,-1.000000e-02
2.450000e-07,-1.250000e-03
2.530000e-07,-1.250000e-02
2.610000e-07,2.250000e-02
2.690000e-07,1.875000e-02
2.770000e-07,2.125000e-02
2.850000e-07,-1.125000e-02
2.930000e-07,2.500000e-02
3.010000e-07,-2.125000e-02
3.090000e-07,1.875000e-02
3.170000e-07,-8.750000e-03
3.250000e-07,3.125000e-02
3.330000e-07,-1.125000e-02
3.410000e-07,5.000000e-03
3.490000e-07,-7.500000e-03
3.570000e-07,-8.750000e-03
3.650000e-07,-1.375000e-02
3.730000e-07,0.000000e+00
3.810000e-07,-1.125000e-02
3.890000e-07,3.500000e-02
3.970000e-07,-1.000000e-02
4.050000e-07,1.000000e-02
4.130000e-07,-1.250000e-02
4.210000e-07,1.125000e-02
4.290000e-07,-1.250000e-02
4.370000e-07,3.375000e-02
4.450000e-07,-1.750000e-02
4.530000e-07,1.625000e-02
4.610000e-07,2.500000e-03
4.690000e-07,1.250000e-02
4.770000e-07,-1.000000e-02
4.850000e-07,-2.500000e-03
4.930000e-07,-1.625000e-02
5.010000e-07,3.750000e-03
5.090000e-07,-1.000000e-02
5.170000e-07,1.750000e-02
5.250000e-07,-1.250000e-02
5.330000e-07,3.250000e-02
5.410000e-07,-1.375000e-02
5.490000e-07,-7.500000e-03
5.570000e-07,-1.875000e-02
5.650000e-07,4.125000e-02
5.730000e-07,-6.250000e-03
5.810000e-07,2.750000e-02
5.890000e-07,-8.750000e-03
5.970000e-07,2.375000e-02
6.050000e-07,-3.000000e-02
6.130000e-07,1.250000e-02
6.210000e-07,-3.000000e-02
6.290000e-07,1.250000e-03
6.370000e-07,1.000000e-02
6.450000e-07,1.875000e-02
6.530000e-07,5.000000e-03
6.610000e-07,-6.250000e-03
6.690000e-07,-3.750000e-03
6.770000e-07,3.750000e-03
6.850000e-07,-1.750000e-02
6.930000e-07,1.375000e-02
7.010000e-07,-8.750000e-03
7.090000e-07,3.250000e-02
7.170000e-07,-1.000000e-02
7.250000e-07,1.625000e-02
7.330000e-07,-1.375000e-02
7.410000e-07,6.250000e-03
7.490000e-07,-3.750000e-03
7.570000e-07,2.250000e-02
7.650000e-07,-8.750000e-03
7.730000e-07,-1.250000e-03
7.810000e-07,1.500000e-02
7.890000e-07,8.750000e-03
7.970000e-07,-1.750000e-02
8.050000e-07,2.500000e-02
