run1/run1_ch1_20210318180138293.csv

Model,MSO64
Waveform Type,ANALOG
Horizontal Units,s
Sample Interval,8.000000e-09
Record Length,1250
Zero Index,624.132656
Vertical Units,V

TIME,CH1
-4.993061e-06,1.250000e-02
-4.985061e-06,3.500000e-02
-4.977061e-06,-1.125000e-02
-4.969061e-06,1.500000e-02
-4.961061e-06,-2.625000e-02
-4.953061e-06,1.500000e-02
-4.945061e-06,-1.625000e-02
-4.937061e-06,1.000000e-02
-4.929061e-06,-2.500000e-03
-4.921061e-06,2.750000e-02
-4.913061e-06,-1.750000e-02
-4.905061e-06,-2.500000e-03
-4.897061e-06,-5.000000e-03
-4.889061e-06,2.125000e-02
-4.881061e-06,-3.000000e-02
-4.873061e-06,2.750000e-02
-4.865061e-06,-2.125000e-02
-4.857061e-06,1.250000e-02
-4.849061e-06,-3.000000e-02
-4.841061e-06,-2.000000e-02
-4.833061e-06,-1.250000e-02
-4.825061e-06,2.375000e-02
-4.817061e-06,-3.000000e-02
-4.809061e-06,-3.750000e-03
-4.801061e-06,-1.125000e-02
-4.793061e-06,2.500000e-03
-4.785061e-06,-6.250000e-03
-4.777061e-06,8.750000e-03
-4.769061e-06,-6.250000e-03
-4.761061e-06,2.750000e-02
-4.753061e-06,-1.000000e-02
-4.745061e-06,2.125000e-02
-4.737061e-06,-2.250000e-02
-4.729061e-06,2.250000e-02
-4.721061e-06,-2.375000e-02
-4.713061e-06,1.375000e-02
-4.705061e-06,-3.000000e-02
-4.697061e-06,4.000000e-02
-4.689061e-06,-2.250000e-02
-4.681061e-06,2.500000e-03
-4.673061e-06,-1.875000e-02
-4.665061e-06,1.125000e-02
-4.657061e-06,-2.125000e-02
-4.649061e-06,-1.250000e-03
-4.641061e-06,-8.750000e-03
-4.633061e-06,1.250000e-02
-4.625061e-06,-3.750000e-03
-4.617061e-06,-2.500000e-03
-4.609061e-06,-2.250000e-02
-4.601061e-06,1.875000e-02
-4.593061e-06,-1.500000e-02
-4.585061e-06,1.125000e-02
-4.577061e-06,-1.750000e-02
-4.569061e-06,1.250000e-02
-4.561061e-06,-2.125000e-02
-4.553061e-06,2.625000e-02
-4.545061e-06,-1.375000e-02
-4.537061e-06,1.250000e-02
-4.529061e-06,-2.125000e-02
-4.521061e-06,1.375000e-02
-4.513061e-06,-5.000000e-03
-4.505061e-06,3.375000e-02
-4.497061e-06,-1.500000e-02
-4.489061e-06,1.625000e-02
-4.481061e-06,-1.500000e-02
-4.473061e-06,1.375000e-02
-4.465061e-06,-3.375000e-02
-4.457061e-06,1.125000e-02
-4.449061e-06,-2.500000e-02
-4.441061e-06,1.375000e-02
-4.433061e-06,-1.000000e-02
-4.425061e-06,7.500000e-03
-4.417061e-06,-2.000000e-02
-4.409061e-06,1.750000e-02
-4.401061e-06,-1.375000e-02
-4.393061e-06,2.750000e-02
-4.385061e-06,-1.125000e-02
-4.377061e-06,1.625000e-02
-4.369061e-06,-1.000000e-02
-4.361061e-06,-1.250000e-03
-4.353061e-06,-3.000000e-02
-4.345061e-06,1.125000e-02
-4.337061e-06,-1.125000e-02
-4.329061e-06,5.000000e-03
-4.321061e-06,-1.000000e-02
-4.313061e-06,2.000000e-02
-4.305061e-06,-1.625000e-02
-4.297061e-06,2.125000e-02
-4.289061e-06,-3.750000e-03
-4.281061e-06,3.750000e-03
-4.273061e-06,-3.875000e-02
-4.265061e-06,3.750000e-03
-4.257061e-06,8.750000e-03
-4.249061e-06,2.750000e-02
-4.241061e-06,7.500000e-03
-4.233061e-06,1.625000e-02
-4.225061e-06,-3.000000e-02
-4.217061e-06,8.750000e-03
-4.209061e-06,-1.625000e-02
-4.201061e-06,1.250000e-03
-4.193061e-06,-4.375000e-02
-4.185061e-06,4.000000e-02
-4.177061e-06,-3.000000e-02
-4.169061e-06,-6.250000e-03
-4.161061e-06,-2.375000e-02
-4.153061e-06,1.375000e-02
-4.145061e-06,2.500000e-03
-4.137061e-06,2.750000e-02
-4.129061e-06,-1.750000e-02
-4.121061e-06,1.375000e-02
-4.113061e-06,-2.500000e-03
-4.105061e-06,1.125000e-02
-4.097061e-06,-2.625000e-02
-4.089061e-06,2.500000e-03
-4.081061e-06,-3.375000e-02
-4.073061e-06,3.250000e-02
-4.065061e-06,-2.625000e-02
-4.057061e-06,2.250000e-02
-4.049061e-06,-6.250000e-03
-4.041061e-06,2.000000e-02
-4.033061e-06,-2.500000e-03
-4.025061e-06,2.375000e-02
-4.017061e-06,-1.875000e-02
-4.009061e-06,1.875000e-02
-4.001061e-06,1.250000e-02
-3.993061e-06,1.250000e-03
-3.985061e-06,-1.250000e-02
-3.977061e-06,3.500000e-02
-3.969061e-06,-1.750000e-02
-3.961061e-06,3.750000e-03
-3.953061e-06,-2.500000e-02
-3.945061e-06,2.000000e-02
-3.937061e-06,-1.250000e-03
-3.929061e-06,1.250000e-02
-3.921061e-06,-1.000000e-02
-3.913061e-06,2.000000e-02
-3.905061e-06,-3.750000e-03
-3.897061e-06,1.625000e-02
-3.889061e-06,-3.375000e-02
-3.881061e-06,1.375000e-02
-3.873061e-06,2.500000e-03
-3.865061e-06,2.250000e-02
-3.857061e-06,7.500000e-03
-3.849061e-06,1.000000e-02
-3.841061e-06,-2.375000e-02
-3.833061e-06,-2.500000e-03
-3.825061e-06,-2.750000e-02
-3.817061e-06,1.125000e-02
-3.809061e-06,-2.250000e-02
-3.801061e-06,2.500000e-02
-3.793061e-06,1.000000e-02
-3.785061e-06,1.750000e-02
-3.777061e-06,-2.250000e-02
-3.769061e-06,1.625000e-02
-3.761061e-06,-2.500000e-03
-3.753061e-06,1.875000e-02
-3.745061e-06,-7.500000e-03
-3.737061e-06,1.500000e-02
-3.729061e-06,-2.750000e-02
-3.721061e-06,1.250000e-02
-3.713061e-06,-1.875000e-02
-3.705061e-06,5.000000e-03
-3.697061e-06,-1.250000e-02
-3.689061e-06,1.125000e-02
-3.681061e-06,-1.000000e-02
-3.673061e-06,2.875000e-02
-3.665061e-06,-7.500000e-03
-3.657061e-06,-2.500000e-03
-3.649061e-06,5.000000e-03
-3.641061e-06,1.000000e-02
-3.633061e-06,-2.000000e-02
-3.625061e-06,2.625000e-02
-3.617061e-06,6.250000e-03
-3.609061e-06,7.500000e-03
-3.601061e-06,-6.250000e-03
-3.593061e-06,2.500000e-03
-3.585061e-06,-1.875000e-02
-3.577061e-06,1.875000e-02
-3.569061e-06,-3.875000e-02
-3.561061e-06,8.750000e-03
-3.553061e-06,7.500000e-03
-3.545061e-06,2.625000e-02
-3.537061e-06,-1.875000e-02
-3.529061e-06,0.000000e+00
-3.521061e-06,-3.625000e-02
-3.513061e-06,5.000000e-03
-3.505061e-06,-7.500000e-03
-3.497061e-06,2.875000e-02
-3.489061e-06,-8.750000e-03
-3.481061e-06,1.625000e-02
-3.473061e-06,-1.625000e-02
-3.465061e-06,1.250000e-03
-3.457061e-06,-1.750000e-02
-3.449061e-06,1.250000e-02
-3.441061e-06,-4.625000e-02
-3.433061e-06,3.125000e-02
-3.425061e-06,-1.625000e-02
-3.417061e-06,3.000000e-02
-3.409061e-06,-4.125000e-02
-3.401061e-06,3.000000e-02
-3.393061e-06,-5.000000e-03
-3.385061e-06,1.250000e-02
-3.377061e-06,-2.375000e-02
-3.369061e-06,1.250000e-03
-3.361061e-06,-1.000000e-02
-3.353061e-06,7.500000e-03
-3.345061e-06,-2.125000e-02
-3.337061e-06,2.875000e-02
-3.329061e-06,-1.000000e-02
-3.321061e-06,1.000000e-02
-3.313061e-06,-1.375000e-02
-3.305061e-06,2.500000e-02
-3.297061e-06,-2.500000e-03
-3.289061e-06,2.500000e-03
-3.281061e-06,-3.750000e-03
-3.273061e-06,1.250000e-03
-3.265061e-06,-3.750000e-03
-3.257061e-06,2.500000e-03
-3.249061e-06,-2.500000e-02
-3.241061e-06,1.125000e-02
-3.233061e-06,-3.250000e-02
-3.225061e-06,3.000000e-02
-3.217061e-06,-8.750000e-03
-3.209061e-06,1.375000e-02
-3.201061e-06,0.000000e+00
-3.193061e-06,5.000000e-03
-3.185061e-06,-2.750000e-02
-3.177061e-06,1.500000e-02
-3.169061e-06,-3.250000e-02
-3.161061e-06,3.125000e-02
-3.153061e-06,-1.250000e-02
-3.145061e-06,2.500000e-03
-3.137061e-06,-2.750000e-02
-3.129061e-06,1.250000e-02
-3.121061e-06,-8.750000e-03
-3.113061e-06,1.375000e-02
-3.105061e-06,-3.750000e-03
-3.097061e-06,2.875000e-02
-3.089061e-06,-5.000000e-03
-3.081061e-06,1.250000e-02
-3.073061e-06,-1.625000e-02
-3.065061e-06,1.625000e-02
-3.057061e-06,-2.125000e-02
-3.049061e-06,1.000000e-02
-3.041061e-06,-2.250000e-02
-3.033061e-06,1.250000e-02
-3.025061e-06,-1.500000e-02
-3.017061e-06,0.000000e+00
-3.009061e-06,-2.875000e-02
-3.001061e-06,-1.250000e-03
-2.993061e-06,-1.875000e-02
-2.985061e-06,2.750000e-02
-2.977061e-06,-1.125000e-02
-2.969061e-06,1.125000e-02
-2.961061e-06,-1.125000e-02
-2.953061e-06,6.250000e-03
-2.945061e-06,7.500000e-03
-2.937061e-06,2.750000e-02
-2.929061e-06,-4.500000e-02
-2.921061e-06,1.000000e-02
-2.913061e-06,-8.750000e-03
-2.905061e-06,1.375000e-02
-2.897061e-06,6.250000e-03
-2.889061e-06,2.250000e-02
-2.881061e-06,-2.250000e-02
-2.873061e-06,1.875000e-02
-2.865061e-06,-1.875000e-02
-2.857061e-06,1.125000e-02
-2.849061e-06,-1.250000e-03
-2.841061e-06,4.125000e-02
-2.833061e-06,-1.250000e-03
-2.825061e-06,2.250000e-02
-2.817061e-06,-1.250000e-02
-2.809061e-06,1.875000e-02
-2.801061e-06,-4.000000e-02
-2.793061e-06,2.000000e-02
-2.785061e-06,-3.000000e-02
-2.777061e-06,3.250000e-02
-2.769061e-06,-2.500000e-02
-2.761061e-06,3.750000e-03
-2.753061e-06,-1.125000e-02
-2.745061e-06,-1.250000e-03
-2.737061e-06,-2.375000e-02
-2.729061e-06,1.125000e-02
-2.721061e-06,0.000000e+00
-2.713061e-06,3.125000e-02
-2.705061e-06,-5.000000e-03
-2.697061e-06,1.500000e-02
-2.689061e-06,7.500000e-03
-2.681061e-06,1.500000e-02
-2.673061e-06,-2.750000e-02
-2.665061e-06,1.500000e-02
-2.657061e-06,-1.000000e-02
-2.649061e-06,2.250000e-02
-2.641061e-06,-2.750000e-02
-2.633061e-06,0.000000e+00
-2.625061e-06,-2.125000e-02
-2.617061e-06,-8.750000e-03
-2.609061e-06,-2.250000e-02
-2.601061e-06,1.500000e-02
-2.593061e-06,-3.750000e-03
-2.585061e-06,3.250000e-02
-2.577061e-06,-1.375000e-02
-2.569061e-06,1.875000e-02
-2.561061e-06,-8.750000e-03
-2.553061e-06,2.250000e-02
-2.545061e-06,-2.625000e-02
-2.537061e-06,1.500000e-02
-2.529061e-06,-2.000000e-02
-2.521061e-06,-3.750000e-03
-2.513061e-06,2.500000e-03
-2.505061e-06,1.000000e-02
-2.497061e-06,-1.875000e-02
-2.489061e-06,5.000000e-03
-2.481061e-06,-1.250000e-03
-2.473061e-06,1.750000e-02
-2.465061e-06,-2.750000e-02
-2.457061e-06,3.750000e-02
-2.449061e-06,-8.750000e-03
-2.441061e-06,1.375000e-02
-2.433061e-06,-1.375000e-02
-2.425061e-06,2.750000e-02
-2.417061e-06,-4.750000e-02
-2.409061e-06,3.000000e-02
-2.401061e-06,-2.750000e-02
-2.393061e-06,8.750000e-03
-2.385061e-06,-6.250000e-03
-2.377061e-06,1.000000e-02
-2.369061e-06,-1.625000e-02
-2.361061e-06,1.875000e-02
-2.353061e-06,-2.500000e-03
-2.345061e-06,2.375000e-02
-2.337061e-06,-5.000000e-03
-2.329061e-06,1.875000e-02
-2.321061e-06,-3.750000e-03
-2.313061e-06,5.000000e-03
-2.305061e-06,-5.000000e-03
-2.297061e-06,2.750000e-02
-2.289061e-06,-2.250000e-02
-2.281061e-06,1.625000e-02
-2.273061e-06,-1.625000e-02
-2.265061e-06,2.000000e-02
-2.257061e-06,-2.000000e-02
-2.249061e-06,2.250000e-02
-2.241061e-06,-2.000000e-02
-2.233061e-06,2.250000e-02
-2.225061e-06,-8.750000e-03
-2.217061e-06,2.500000e-02
-2.209061e-06,6.250000e-03
-2.201061e-06,3.000000e-02
-2.193061e-06,-1.250000e-03
-2.185061e-06,1.000000e-02
-2.177061e-06,-2.500000e-02
-2.169061e-06,1.500000e-02
-2.161061e-06,-2.750000e-02
-2.153061e-06,1.875000e-02
-2.145061e-06,-2.000000e-02
-2.137061e-06,7.500000e-03
-2.129061e-06,-2.250000e-02
-2.121061e-06,3.750000e-03
-2.113061e-06,-1.000000e-02
-2.105061e-06,2.500000e-03
-2.097061e-06,-1.250000e-02
-2.089061e-06,1.750000e-02
-2.081061e-06,1.000000e-02
-2.073061e-06,3.125000e-02
-2.065061e-06,-2.500000e-03
-2.057061e-06,2.500000e-03
-2.049061e-06,-2.125000e-02
-2.041061e-06,7.500000e-03
-2.033061e-06,-1.875000e-02
-2.025061e-06,2.250000e-02
-2.017061e-06,-3.500000e-02
-2.009061e-06,3.000000e-02
-2.001061e-06,-1.625000e-02
-1.993061e-06,-1.250000e-02
-1.985061e-06,-2.125000e-02
-1.977061e-06,7.500000e-03
-1.969061e-06,-2.125000e-02
-1.961061e-06,2.000000e-02
-1.953061e-06,-1.250000e-03
-1.945061e-06,2.500000e-02
-1.937061e-06,-2.000000e-02
-1.929061e-06,3.750000e-03
-1.921061e-06,8.750000e-03
-1.913061e-06,2.500000e-02
-1.905061e-06,-5.250000e-02
-1.897061e-06,2.500000e-03
-1.889061e-06,-3.750000e-03
-1.881061e-06,3.625000e-02
-1.873061e-06,-1.250000e-02
-1.865061e-06,1.375000e-02
-1.857061e-06,-1.500000e-02
-1.849061e-06,2.625000e-02
-1.841061e-06,-2.375000e-02
-1.833061e-06,1.250000e-02
-1.825061e-06,2.500000e-02
-1.817061e-06,2.500000e-02
-1.809061e-06,-1.250000e-03
-1.801061e-06,1.000000e-02
-1.793061e-06,-2.250000e-02
-1.785061e-06,2.250000e-02
-1.777061e-06,-2.000000e-02
-1.769061e-06,2.125000e-02
-1.761061e-06,-2.375000e-02
-1.753061e-06,2.375000e-02
-1.745061e-06,-2.875000e-02
-1.737061e-06,1.000000e-02
-1.729061e-06,2.500000e-03
-1.721061e-06,1.500000e-02
-1.713061e-06,-1.250000e-02
-1.705061e-06,1.125000e-02
-1.697061e-06,-8.750000e-03
-1.689061e-06,6.250000e-03
-1.681061e-06,2.375000e-02
-1.673061e-06,2.375000e-02
-1.665061e-06,-1.125000e-02
-1.657061e-06,-1.250000e-03
-1.649061e-06,-2.375000e-02
-1.641061e-06,-5.000000e-03
-1.633061e-06,-1.500000e-02
-1.625061e-06,1.000000e-02
-1.617061e-06,-2.375000e-02
-1.609061e-06,5.000000e-03
-1.601061e-06,-2.500000e-03
-1.593061e-06,-6.250000e-03
-1.585061e-06,-1.250000e-02
-1.577061e-06,1.250000e-03
-1.569061e-06,-1.250000e-03
-1.561061e-06,8.750000e-03
-1.553061e-06,-8.750000e-03
-1.545061e-06,8.750000e-03
-1.537061e-06,-2.125000e-02
-1.529061e-06,2.000000e-02
-1.521061e-06,-2.625000e-02
-1.513061e-06,7.500000e-03
-1.505061e-06,-8.750000e-03
-1.497061e-06,1.500000e-02
-1.489061e-06,-2.000000e-02
-1.481061e-06,0.000000e+00
-1.473061e-06,-2.875000e-02
-1.465061e-06,5.000000e-03
-1.457061e-06,-2.500000e-03
-1.449061e-06,6.250000e-03
-1.441061e-06,-3.750000e-03
-1.433061e-06,-3.750000e-03
-1.425061e-06,-2.500000e-03
-1.417061e-06,1.625000e-02
-1.409061e-06,-3.375000e-02
-1.401061e-06,2.000000e-02
-1.393061e-06,-2.750000e-02
-1.385061e-06,1.875000e-02
-1.377061e-06,-2.125000e-02
-1.369061e-06,2.750000e-02
-1.361061e-06,-5.000000e-03
-1.353061e-06,-7.500000e-03
-1.345061e-06,-8.750000e-03
-1.337061e-06,3.750000e-03
-1.329061e-06,-1.750000e-02
-1.321061e-06,3.875000e-02
-1.313061e-06,5.000000e-03
-1.305061e-06,1.250000e-02
-1.297061e-06,1.000000e-02
-1.289061e-06,1.250000e-02
-1.281061e-06,-2.000000e-02
-1.273061e-06,-1.250000e-02
-1.265061e-06,-3.250000e-02
-1.257061e-06,4.000000e-02
-1.249061e-06,-6.250000e-03
-1.241061e-06,2.750000e-02
-1.233061e-06,-2.125000e-02
-1.225061e-06,1.750000e-02
-1.217061e-06,-1.500000e-02
-1.209061e-06,1.375000e-02
-1.201061e-06,-8.750000e-03
-1.193061e-06,2.500000e-03
-1.185061e-06,-6.250000e-03
-1.177061e-06,7.500000e-03
-1.169061e-06,-5.000000e-03
-1.161061e-06,1.125000e-02
-1.153061e-06,-1.625000e-02
-1.145061e-06,1.500000e-02
-1.137061e-06,-2.750000e-02
-1.129061e-06,1.750000e-02
-1.121061e-06,-2.500000e-02
-1.113061e-06,2.500000e-02
-1.105061e-06,1.000000e-02
-1.097061e-06,2.125000e-02
-1.089061e-06,-1.250000e-02
-1.081061e-06,1.000000e-02
-1.073061e-06,-2.500000e-02
-1.065061e-06,2.000000e-02
-1.057061e-06,-2.500000e-02
-1.049061e-06,3.125000e-02
-1.041061e-06,-2.375000e-02
-1.033061e-06,2.375000e-02
-1.025061e-06,-2.000000e-02
-1.017061e-06,-1.250000e-03
-1.009061e-06,-2.750000e-02
-1.001061e-06,7.500000e-03
-9.930612e-07,-5.000000e-03
-9.850612e-07,-2.500000e-03
-9.770612e-07,-2.000000e-02
-9.690612e-07,-2.500000e-03
-9.610612e-07,-2.375000e-02
-9.530612e-07,-1.250000e-03
-9.450612e-07,-2.000000e-02
-9.370612e-07,1.250000e-03
-9.290612e-07,-3.750000e-03
-9.210612e-07,5.000000e-03
-9.130612e-07,1.375000e-02
-9.050612e-07,1.375000e-02
-8.970612e-07,-1.625000e-02
-8.890612e-07,0.000000e+00
-8.810612e-07,-2.125000e-02
-8.730612e-07,2.875000e-02
-8.650612e-07,-8.750000e-03
-8.570612e-07,2.500000e-02
-8.490612e-07,-1.875000e-02
-8.410612e-07,8.750000e-03
-8.330612e-07,-1.375000e-02
-8.250612e-07,-6.250000e-03
-8.170612e-07,-7.500000e-03
-8.090612e-07,3.250000e-02
-8.010612e-07,-1.875000e-02
-7.930612e-07,2.500000e-02
-7.850612e-07,-5.000000e-03
-7.770612e-07,1.000000e-02
-7.690612e-07,-2.500000e-02
-7.610612e-07,1.625000e-02
-7.530612e-07,-3.625000e-02
-7.450612e-07,1.375000e-02
-7.370612e-07,-7.500000e-03
-7.290612e-07,1.625000e-02
-7.210612e-07,-3.750000e-03
-7.130612e-07,5.000000e-03
-7.050612e-07,-7.500000e-03
-6.970612e-07,-1.125000e-02
-6.890612e-07,-1.000000e-02
-6.810612e-07,1.875000e-02
-6.730612e-07,-1.125000e-02
-6.650612e-07,1.375000e-02
-6.570612e-07,5.000000e-03
-6.490612e-07,-2.500000e-03
-6.410612e-07,-2.750000e-02
-6.330612e-07,0.000000e+00
-6.250612e-07,-6.250000e-03
-6.170612e-07,1.625000e-02
-6.090612e-07,-4.750000e-02
-6.010612e-07,3.125000e-02
-5.930612e-07,5.000000e-03
-5.850612e-07,3.750000e-03
-5.770612e-07,-1.250000e-02
-5.690612e-07,8.750000e-03
-5.610612e-07,-2.000000e-02
-5.530612e-07,2.750000e-02
-5.450612e-07,-1.875000e-02
-5.370612e-07,3.125000e-02
-5.290612e-07,-1.750000e-02
-5.210612e-07,3.750000e-03
-5.130612e-07,-2.375000e-02
-5.050612e-07,1.375000e-02
-4.970612e-07,-3.375000e-02
-4.890612e-07,0.000000e+00
-4.810612e-07,-2.750000e-02
-4.730612e-07,2.125000e-02
-4.650612e-07,-1.125000e-02
-4.570612e-07,2.500000e-03
-4.490612e-07,-3.000000e-02
-4.410612e-07,2.750000e-02
-4.330612e-07,-4.000000e-02
-4.250612e-07,2.500000e-03
-4.170612e-07,1.500000e-02
-4.090612e-07,1.250000e-02
-4.010612e-07,3.750000e-03
-3.930612e-07,-2.500000e-03
-3.850612e-07,-3.375000e-02
-3.770612e-07,3.000000e-02
-3.690612e-07,-3.375000e-02
-3.610612e-07,3.750000e-03
-3.530612e-07,-2.000000e-02
-3.450612e-07,3.500000e-02
-3.370612e-07,8.750000e-03
-3.290612e-07,8.750000e-03
-3.210612e-07,-2.500000e-03
-3.130612e-07,-1.250000e-03
-3.050612e-07,-3.625000e-02
-2.970612e-07,2.875000e-02
-2.890612e-07,-5.000000e-03
-2.810612e-07,1.875000e-02
-2.730612e-07,2.500000e-02
-2.650612e-07,1.125000e-02
-2.570612e-07,-1.125000e-02
-2.490612e-07,-3.750000e-03
-2.410612e-07,-1.750000e-02
-2.330612e-07,6.250000e-03
-2.250612e-07,-2.375000e-02
-2.170612e-07,-1.250000e-03
-2.090612e-07,-1.750000e-02
-2.010612e-07,-2.500000e-03
-1.930612e-07,-1.125000e-02
-1.850612e-07,8.750000e-03
-1.770612e-07,-3.000000e-02
-1.690612e-07,1.500000e-02
-1.610612e-07,-2.000000e-02
-1.530612e-07,0.000000e+00
-1.450612e-07,-5.000000e-03
-1.370612e-07,3.375000e-02
-1.290612e-07,-5.000000e-03
-1.210612e-07,3.125000e-02
-1.130612e-07,-1.375000e-02
-1.050612e-07,1.375000e-02
-9.706125e-08,-1.750000e-02
-8.906125e-08,3.125000e-02
-8.106125e-08,-2.375000e-02
-7.306125e-08,1.000000e-02
-6.506125e-08,-4.500000e-02
-5.706125e-08,2.875000e-02
-4.906125e-08,-1.875000e-02
-4.106125e-08,1.250000e-03
-3.306125e-08,-1.377500e+00
-2.506125e-08,-1.420000e+00
-1.706125e-08,-1.418750e+00
-9.061250e-09,-1.388750e+00
-1.061250e-09,-2.250000e-02
6.938750e-09,0.000000e+00
1.493875e-08,-1.125000e-02
2.293875e-08,1.625000e-02
3.093875e-08,0.000000e+00
3.893875e-08,2.500000e-02
4.693875e-08,0.000000e+00
5.493875e-08,3.625000e-02
6.293875e-08,2.500000e-03
7.093875e-08,4.125000e-02
7.893875e-08,-3.750000e-03
8.693875e-08,3.750000e-03
9.493875e-08,-1.000000e-02
1.029388e-07,1.375000e-02
1.109388e-07,-7.500000e-03
1.189388e-07,1.250000e-02
1.269388e-07,-1.125000e-02
1.349388e-07,1.750000e-02
1.429388e-07,-3.000000e-02
1.509388e-07,2.125000e-02
1.589388e-07,-2.500000e-02
1.669388e-07,2.625000e-02
1.749388e-07,-3.000000e-02
1.829388e-07,1.500000e-02
1.909388e-07,-1.125000e-02
1.989388e-07,1.125000e-02
2.069388e-07,-3.000000e-02
2.149388e-07,1.250000e-03
2.229388e-07,-1.000000e-02
2.309388e-07,3.000000e-02
2.389388e-07,-7.500000e-03
2.469388e-07,1.000000e-02
2.549388e-07,-2.500000e-02
2.629388e-07,1.750000e-02
2.709388e-07,-3.500000e-02
2.789388e-07,2.250000e-02
2.869388e-07,-8.750000e-03
2.949388e-07,3.750000e-02
3.029388e-07,-2.750000e-02
3.109388e-07,1.875000e-02
3.189388e-07,3.750000e-03
3.269388e-07,1.500000e-02
3.349388e-07,-1.375000e-02
3.429388e-07,3.375000e-02
3.509388e-07,-6.250000e-03
3.589388e-07,3.500000e-02
3.669388e-07,-1.500000e-02
3.749388e-07,1.375000e-02
3.829388e-07,-3.250000e-02
3.909388e-07,2.500000e-03
3.989388e-07,-4.125000e-02
4.069388e-07,1.250000e-02
4.149388e-07,-3.750000e-02
4.229388e-07,1.000000e-02
4.309388e-07,-2.500000e-03
4.389388e-07,2.500000e-02
4.469388e-07,-2.500000e-02
4.549388e-07,1.250000e-03
4.629388e-07,-2.125000e-02
4.709388e-07,6.250000e-03
4.789388e-07,-1.375000e-02
4.869388e-07,3.000000e-02
4.949388e-07,-7.500000e-03
5.029388e-07,-5.000000e-03
5.109388e-07,-2.000000e-02
5.189388e-07,5.000000e-03
5.269388e-07,-4.375000e-02
5.349388e-07,1.375000e-02
5.429388e-07,-2.875000e-02
5.509388e-07,2.750000e-02
5.589388e-07,-1.000000e-02
5.669388e-07,2.375000e-02
5.749388e-07,-1.875000e-02
5.829388e-07,2.000000e-02
5.909388e-07,-2.625000e-02
5.989388e-07,2.000000e-02
6.069388e-07,-2.875000e-02
6.149388e-07,1.000000e-02
6.229388e-07,-2.500000e-02
6.309388e-07,2.500000e-03
6.389388e-07,-7.500000e-03
6.469388e-07,-8.750000e-03
6.549388e-07,-1.875000e-02
6.629388e-07,2.375000e-02
6.709388e-07,-1.250000e-02
6.789388e-07,2.625000e-02
6.869388e-07,-2.250000e-02
6.949388e-07,8.750000e-03
7.029388e-07,-1.375000e-02
7.109388e-07,8.750000e-03
7.189388e-07,-3.500000e-02
7.269388e-07,1.500000e-02
7.349388e-07,5.000000e-03
7.429388e-07,2.000000e-02
7.509388e-07,-3.750000e-03
7.589388e-07,3.750000e-03
7.669388e-07,-2.000000e-02
7.749388e-07,1.375000e-02
7.829388e-07,-2.625000e-02
7.909388e-07,3.250000e-02
7.989388e-07,-3.875000e-02
