run1/run1_ch1_20210318180341747.csv

Model,MSO64
Waveform Type,ANALOG
Horizontal Units,s
Sample Interval,8.000000e-09
Record Length,1250
Zero Index,624.585156
Vertical Units,V

TIME,CH1
-4.996681e-06,3.250000e-02
-4.988681e-06,-1.250000e-03
-4.980681e-06,1.750000e-02
-4.972681e-06,-3.875000e-02
-4.964681e-06,7.500000e-03
-4.956681e-06,-5.500000e-02
-4.948681e-06,7.500000e-03
-4.940681e-06,0.000000e+00
-4.932681e-06,3.000000e-02
-4.924681e-06,-1.250000e-02
-4.916681e-06,1.375000e-02
-4.908681e-06,-2.375000e-02
-4.900681e-06,-2.500000e-03
-4.892681e-06,-1.250000e-03
-4.884681e-06,1.750000e-02
-4.876681e-06,-1.000000e-02
-4.868681e-06,3.375000e-02
-4.860681e-06,8.750000e-03
-4.852681e-06,7.500000e-03
-4.844681e-06,-6.250000e-03
-4.836681e-06,1.250000e-02
-4.828681e-06,-3.375000e-02
-4.820681e-06,2.625000e-02
-4.812681e-06,-3.375000e-02
-4.804681e-06,2.125000e-02
-4.796681e-06,-1.375000e-02
-4.788681e-06,1.750000e-02
-4.780681e-06,-2.250000e-02
-4.772681e-06,3.125000e-02
-4.764681e-06,-2.000000e-02
-4.756681e-06,1.500000e-02
-4.748681e-06,-1.500000e-02
-4.740681e-06,2.625000e-02
-4.732681e-06,-1.250000e-03
-4.724681e-06,-2.500000e-03
-4.716681e-06,-3.750000e-03
-4.708681e-06,-2.500000e-03
-4.700681e-06,-3.750000e-03
-4.692681e-06,1.125000e-02
-4.684681e-06,-3.000000e-02
-4.676681e-06,4.375000e-02
-4.668681e-06,-2.125000e-02
-4.660681e-06,-1.250000e-03
-4.652681e-06,-1.125000e-02
-4.644681e-06,2.625000e-02
-4.636681e-06,-2.000000e-02
-4.628681e-06,2.625000e-02
-4.620681e-06,6.250000e-03
-4.612681e-06,7.500000e-03
-4.604681e-06,2.500000e-02
-4.596681e-06,-6.250000e-03
-4.588681e-06,-6.250000e-03
-4.580681e-06,3.750000e-03
-4.572681e-06,-2.000000e-02
-4.564681e-06,1.750000e-02
-4.556681e-06,-2.500000e-02
-4.548681e-06,3.625000e-02
-4.540681e-06,-6.250000e-03
-4.532681e-06,1.000000e-02
-4.524681e-06,-1.250000e-02
-4.516681e-06,8.750000e-03
-4.508681e-06,-1.500000e-02
-4.500681e-06,1.250000e-02
-4.492681e-06,3.250000e-02
-4.484681e-06,4.375000e-02
-4.476681e-06,-2.250000e-02
-4.468681e-06,3.125000e-02
-4.460681e-06,-2.375000e-02
-4.452681e-06,1.125000e-02
-4.444681e-06,-3.750000e-03
-4.436681e-06,8.750000e-03
-4.428681e-06,-2.000000e-02
-4.420681e-06,2.875000e-02
-4.412681e-06,-1.000000e-02
-4.404681e-06,1.625000e-02
-4.396681e-06,-3.125000e-02
-4.388681e-06,1.875000e-02
-4.380681e-06,-1.500000e-02
-4.372681e-06,1.250000e-03
-4.364681e-06,-3.750000e-03
-4.356681e-06,4.750000e-02
-4.348681e-06,-1.125000e-02
-4.340681e-06,1.375000e-02
-4.332681e-06,-2.625000e-02
-4.324681e-06,2.875000e-02
-4.316681e-06,-1.000000e-02
-4.308681e-06,2.125000e-02
-4.300681e-06,-1.250000e-03
-4.292681e-06,-1.250000e-03
-4.284681e-06,-8.750000e-03
-4.276681e-06,1.500000e-02
-4.268681e-06,-1.000000e-02
-4.260681e-06,1.750000e-02
-4.252681e-06,-2.250000e-02
-4.244681e-06,6.250000e-03
-4.236681e-06,1.125000e-02
-4.228681e-06,3.375000e-02
-4.220681e-06,-1.625000e-02
-4.212681e-06,1.250000e-02
-4.204681e-06,-1.250000e-03
-4.196681e-06,-6.250000e-03
-4.188681e-06,-3.125000e-02
-4.180681e-06,1.250000e-02
-4.172681e-06,-3.250000e-02
-4.164681e-06,2.375000e-02
-4.156681e-06,-1.250000e-03
-4.148681e-06,-3.750000e-03
-4.140681e-06,-3.000000e-02
-4.132681e-06,5.000000e-03
-4.124681e-06,-2.000000e-02
-4.116681e-06,1.625000e-02
-4.108681e-06,-1.500000e-02
-4.100681e-06,1.375000e-02
-4.092681e-06,2.500000e-03
-4.084681e-06,6.250000e-03
-4.076681e-06,-2.750000e-02
-4.068681e-06,1.250000e-02
-4.060681e-06,-3.375000e-02
-4.052681e-06,2.375000e-02
-4.044681e-06,-3.000000e-02
-4.036681e-06,1.500000e-02
-4.028681e-06,-3.000000e-02
-4.020681e-06,1.500000e-02
-4.012681e-06,-2.375000e-02
-4.004681e-06,1.250000e-03
-3.996681e-06,-7.500000e-03
-3.988681e-06,2.250000e-02
-3.980681e-06,-7.500000e-03
-3.972681e-06,2.250000e-02
-3.964681e-06,7.500000e-03
-3.956681e-06,2.125000e-02
-3.948681e-06,-1.000000e-02
-3.940681e-06,1.875000e-02
-3.932681e-06,-1.625000e-02
-3.924681e-06,1.625000e-02
-3.916681e-06,-2.875000e-02
-3.908681e-06,1.250000e-02
-3.900681e-06,-2.000000e-02
-3.892681e-06,1.750000e-02
-3.884681e-06,-6.250000e-03
-3.876681e-06,1.875000e-02
-3.868681e-06,-1.875000e-02
-3.860681e-06,6.250000e-03
-3.852681e-06,-2.000000e-02
-3.844681e-06,3.125000e-02
-3.836681e-06,-8.750000e-03
-3.828681e-06,2.625000e-02
-3.820681e-06,-2.625000e-02
-3.812681e-06,-2.500000e-03
-3.804681e-06,-1.750000e-02
-3.796681e-06,-8.750000e-03
-3.788681e-06,-2.500000e-02
-3.780681e-06,7.500000e-03
-3.772681e-06,-1.875000e-02
-3.764681e-06,1.250000e-02
-3.756681e-06,-7.500000e-03
-3.748681e-06,8.750000e-03
-3.740681e-06,-2.125000e-02
-3.732681e-06,2.500000e-03
-3.724681e-06,5.000000e-03
-3.716681e-06,3.250000e-02
-3.708681e-06,0.000000e+00
-3.700681e-06,8.750000e-03
-3.692681e-06,-3.125000e-02
-3.684681e-06,1.875000e-02
-3.676681e-06,-4.250000e-02
-3.668681e-06,1.625000e-02
-3.660681e-06,-3.500000e-02
-3.652681e-06,1.625000e-02
-3.644681e-06,-1.000000e-02
-3.636681e-06,1.250000e-02
-3.628681e-06,3.750000e-03
-3.620681e-06,1.500000e-02
-3.612681e-06,-2.375000e-02
-3.604681e-06,2.875000e-02
-3.596681e-06,-3.750000e-03
-3.588681e-06,3.375000e-02
-3.580681e-06,-5.000000e-03
-3.572681e-06,7.500000e-03
-3.564681e-06,-2.125000e-02
-3.556681e-06,2.625000e-02
-3.548681e-06,-1.750000e-02
-3.540681e-06,3.000000e-02
-3.532681e-06,-2.000000e-02
-3.524681e-06,1.875000e-02
-3.516681e-06,-1.250000e-02
-3.508681e-06,1.625000e-02
-3.500681e-06,-1.750000e-02
-3.492681e-06,2.750000e-02
-3.484681e-06,-3.000000e-02
-3.476681e-06,5.000000e-03
-3.468681e-06,0.000000e+00
-3.460681e-06,2.625000e-02
-3.452681e-06,1.250000e-03
-3.444681e-06,6.250000e-03
-3.436681e-06,-2.875000e-02
-3.428681e-06,2.375000e-02
-3.420681e-06,-3.750000e-03
-3.412681e-06,1.375000e-02
-3.404681e-06,-8.750000e-03
-3.396681e-06,3.375000e-02
-3.388681e-06,0.000000e+00
-3.380681e-06,1.500000e-02
-3.372681e-06,-3.375000e-02
-3.364681e-06,1.625000e-02
-3.356681e-06,-3.250000e-02
-3.348681e-06,1.250000e-02
-3.340681e-06,-1.250000e-03
-3.332681e-06,2.625000e-02
-3.324681e-06,-3.250000e-02
-3.316681e-06,1.250000e-02
-3.308681e-06,-4.250000e-02
-3.300681e-06,2.250000e-02
-3.292681e-06,-2.125000e-02
-3.284681e-06,3.125000e-02
-3.276681e-06,-1.375000e-02
-3.268681e-06,7.500000e-03
-3.260681e-06,-8.750000e-03
-3.252681e-06,3.875000e-02
-3.244681e-06,-1.500000e-02
-3.236681e-06,3.375000e-02
-3.228681e-06,-7.500000e-03
-3.220681e-06,1.375000e-02
-3.212681e-06,-1.250000e-02
-3.204681e-06,2.250000e-02
-3.196681e-06,-2.500000e-03
-3.188681e-06,1.125000e-02
-3.180681e-06,-3.500000e-02
-3.172681e-06,2.375000e-02
-3.164681e-06,-2.375000e-02
-3.156681e-06,1.625000e-02
-3.148681e-06,-1.000000e-02
-3.140681e-06,2.375000e-02
-3.132681e-06,-1.625000e-02
-3.124681e-06,2.500000e-02
-3.116681e-06,-8.750000e-03
-3.108681e-06,1.000000e-02
-3.100681e-06,-1.500000e-02
-3.092681e-06,1.750000e-02
-3.084681e-06,5.000000e-03
-3.076681e-06,1.625000e-02
-3.068681e-06,-1.625000e-02
-3.060681e-06,2.250000e-02
-3.052681e-06,6.250000e-03
-3.044681e-06,3.250000e-02
-3.036681e-06,-3.750000e-03
-3.028681e-06,2.000000e-02
-3.020681e-06,-1.250000e-02
-3.012681e-06,1.250000e-02
-3.004681e-06,1.250000e-03
-2.996681e-06,-1.375000e-02
-2.988681e-06,-1.875000e-02
-2.980681e-06,3.875000e-02
-2.972681e-06,-1.000000e-02
-2.964681e-06,5.000000e-03
-2.956681e-06,-5.500000e-02
-2.948681e-06,1.500000e-02
-2.940681e-06,-1.375000e-02
-2.932681e-06,3.000000e-02
-2.924681e-06,1.125000e-02
-2.916681e-06,2.000000e-02
-2.908681e-06,-2.250000e-02
-2.900681e-06,1.250000e-02
-2.892681e-06,-1.375000e-02
-2.884681e-06,1.375000e-02
-2.876681e-06,-1.625000e-02
-2.868681e-06,8.750000e-03
-2.860681e-06,-8.750000e-03
-2.852681e-06,1.250000e-02
-2.844681e-06,-3.500000e-02
-2.836681e-06,2.250000e-02
-2.828681e-06,-3.500000e-02
-2.820681e-06,-1.250000e-03
-2.812681e-06,-7.500000e-03
-2.804681e-06,2.375000e-02
-2.796681e-06,-2.875000e-02
-2.788681e-06,1.500000e-02
-2.780681e-06,-3.875000e-02
-2.772681e-06,2.000000e-02
-2.764681e-06,-2.375000e-02
-2.756681e-06,1.000000e-02
-2.748681e-06,-1.250000e-02
-2.740681e-06,3.750000e-03
-2.732681e-06,-2.500000e-03
-2.724681e-06,-5.000000e-03
-2.716681e-06,-1.875000e-02
-2.708681e-06,3.125000e-02
-2.700681e-06,2.500000e-03
-2.692681e-06,1.750000e-02
-2.684681e-06,-7.500000e-03
-2.676681e-06,2.250000e-02
-2.668681e-06,-3.500000e-02
-2.660681e-06,0.000000e+00
-2.652681e-06,-2.625000e-02
-2.644681e-06,2.500000e-02
-2.636681e-06,-1.500000e-02
-2.628681e-06,3.750000e-03
-2.620681e-06,-1.125000e-02
-2.612681e-06,1.125000e-02
-2.604681e-06,-8.750000e-03
-2.596681e-06,3.750000e-03
-2.588681e-06,-7.500000e-03
-2.580681e-06,3.750000e-03
-2.572681e-06,2.500000e-03
-2.564681e-06,3.500000e-02
-2.556681e-06,-3.750000e-03
-2.548681e-06,1.625000e-02
-2.540681e-06,-4.875000e-02
-2.532681e-06,1.250000e-02
-2.524681e-06,-1.625000e-02
-2.516681e-06,1.500000e-02
-2.508681e-06,-5.000000e-03
-2.500681e-06,2.500000e-02
-2.492681e-06,8.750000e-03
-2.484681e-06,3.750000e-02
-2.476681e-06,5.000000e-03
-2.468681e-06,1.750000e-02
-2.460681e-06,7.500000e-03
-2.452681e-06,1.125000e-02
-2.444681e-06,-7.500000e-03
-2.436681e-06,2.500000e-03
-2.428681e-06,-3.750000e-03
-2.420681e-06,0.000000e+00
-2.412681e-06,-3.750000e-03
-2.404681e-06,1.125000e-02
-2.396681e-06,-3.000000e-02
-2.388681e-06,1.000000e-02
-2.380681e-06,-3.250000e-02
-2.372681e-06,3.250000e-02
-2.364681e-06,-4.375000e-02
-2.356681e-06,-3.750000e-03
-2.348681e-06,-1.375000e-02
-2.340681e-06,8.750000e-03
-2.332681e-06,-2.875000e-02
-2.324681e-06,0.000000e+00
-2.316681e-06,1.250000e-03
-2.308681e-06,2.375000e-02
-2.300681e-06,-2.125000e-02
-2.292681e-06,2.500000e-02
-2.284681e-06,-1.000000e-02
-2.276681e-06,6.250000e-03
-2.268681e-06,-3.750000e-03
-2.260681e-06,1.000000e-02
-2.252681e-06,-1.500000e-02
-2.244681e-06,3.250000e-02
-2.236681e-06,5.000000e-03
-2.228681e-06,1.875000e-02
-2.220681e-06,3.750000e-03
-2.212681e-06,1.125000e-02
-2.204681e-06,-1.000000e-02
-2.196681e-06,3.750000e-03
-2.188681e-06,1.875000e-02
-2.180681e-06,-5.000000e-03
-2.172681e-06,-1.000000e-02
-2.164681e-06,-7.500000e-03
-2.156681e-06,-2.375000e-02
-2.148681e-06,1.750000e-02
-2.140681e-06,-2.750000e-02
-2.132681e-06,2.625000e-02
-2.124681e-06,-2.875000e-02
-2.116681e-06,3.750000e-03
-2.108681e-06,-2.500000e-03
-2.100681e-06,2.500000e-02
-2.092681e-06,-1.250000e-02
-2.084681e-06,2.375000e-02
-2.076681e-06,-3.875000e-02
-2.068681e-06,2.500000e-02
-2.060681e-06,-1.250000e-02
-2.052681e-06,2.125000e-02
-2.044681e-06,-1.625000e-02
-2.036681e-06,1.750000e-02
-2.028681e-06,-6.250000e-03
-2.020681e-06,1.000000e-02
-2.012681e-06,-1.625000e-02
-2.004681e-06,3.750000e-02
-1.996681e-06,-3.250000e-02
-1.988681e-06,2.625000e-02
-1.980681e-06,-7.500000e-03
-1.972681e-06,5.000000e-03
-1.964681e-06,-1.500000e-02
-1.956681e-06,7.500000e-03
-1.948681e-06,-5.000000e-03
-1.940681e-06,1.750000e-02
-1.932681e-06,1.625000e-02
-1.924681e-06,2.875000e-02
-1.916681e-06,-7.500000e-03
-1.908681e-06,1.875000e-02
-1.900681e-06,-3.875000e-02
-1.892681e-06,0.000000e+00
-1.884681e-06,-4.375000e-02
-1.876681e-06,1.625000e-02
-1.868681e-06,-1.000000e-02
-1.860681e-06,2.500000e-02
-1.852681e-06,-2.625000e-02
-1.844681e-06,6.250000e-03
-1.836681e-06,5.000000e-03
-1.828681e-06,2.000000e-02
-1.820681e-06,-4.375000e-02
-1.812681e-06,1.250000e-03
-1.804681e-06,6.250000e-03
-1.796681e-06,2.125000e-02
-1.788681e-06,-2.500000e-03
-1.780681e-06,6.250000e-03
-1.772681e-06,-1.125000e-02
-1.764681e-06,5.000000e-03
-1.756681e-06,-1.250000e-02
-1.748681e-06,1.625000e-02
-1.740681e-06,-3.750000e-03
-1.732681e-06,1.375000e-02
-1.724681e-06,-2.000000e-02
-1.716681e-06,1.500000e-02
-1.708681e-06,-5.000000e-03
-1.700681e-06,2.125000e-02
-1.692681e-06,-8.750000e-03
-1.684681e-06,1.750000e-02
-1.676681e-06,2.000000e-02
-1.668681e-06,2.875000e-02
-1.660681e-06,-3.250000e-02
-1.652681e-06,1.875000e-02
-1.644681e-06,3.750000e-03
-1.636681e-06,-3.750000e-03
-1.628681e-06,-1.375000e-02
-1.620681e-06,3.625000e-02
-1.612681e-06,-1.250000e-03
-1.604681e-06,2.500000e-02
-1.596681e-06,-3.750000e-03
-1.588681e-06,4.625000e-02
-1.580681e-06,-3.000000e-02
-1.572681e-06,6.250000e-03
-1.564681e-06,-2.000000e-02
-1.556681e-06,1.625000e-02
-1.548681e-06,-1.250000e-03
-1.540681e-06,1.125000e-02
-1.532681e-06,-2.250000e-02
-1.524681e-06,1.750000e-02
-1.516681e-06,2.500000e-03
-1.508681e-06,-1.625000e-02
-1.500681e-06,-3.250000e-02
-1.492681e-06,1.250000e-02
-1.484681e-06,-2.125000e-02
-1.476681e-06,1.250000e-02
-1.468681e-06,-1.875000e-02
-1.460681e-06,-1.250000e-02
-1.452681e-06,-2.250000e-02
-1.444681e-06,2.000000e-02
-1.436681e-06,-1.250000e-02
-1.428681e-06,2.500000e-02
-1.420681e-06,-1.000000e-02
-1.412681e-06,1.750000e-02
-1.404681e-06,-1.250000e-02
-1.396681e-06,8.750000e-03
-1.388681e-06,3.750000e-03
-1.380681e-06,-3.750000e-03
-1.372681e-06,-2.875000e-02
-1.364681e-06,5.000000e-03
-1.356681e-06,-3.250000e-02
-1.348681e-06,1.125000e-02
-1.340681e-06,-7.500000e-03
-1.332681e-06,2.500000e-03
-1.324681e-06,-3.000000e-02
-1.316681e-06,1.000000e-02
-1.308681e-06,-2.125000e-02
-1.300681e-06,2.000000e-02
-1.292681e-06,3.750000e-03
-1.284681e-06,1.750000e-02
-1.276681e-06,-2.500000e-03
-1.268681e-06,2.375000e-02
-1.260681e-06,-1.375000e-02
-1.252681e-06,1.250000e-02
-1.244681e-06,-2.000000e-02
-1.236681e-06,3.750000e-03
-1.228681e-06,-7.500000e-03
-1.220681e-06,1.750000e-02
-1.212681e-06,-2.250000e-02
-1.204681e-06,-3.750000e-03
-1.196681e-06,-1.625000e-02
-1.188681e-06,5.000000e-03
-1.180681e-06,2.500000e-03
-1.172681e-06,1.000000e-02
-1.164681e-06,-1.000000e-02
-1.156681e-06,1.500000e-02
-1.148681e-06,5.000000e-03
-1.140681e-06,-1.375000e-02
-1.132681e-06,-6.250000e-03
-1.124681e-06,1.125000e-02
-1.116681e-06,-2.750000e-02
-1.108681e-06,2.500000e-02
-1.100681e-06,-2.250000e-02
-1.092681e-06,3.750000e-03
-1.084681e-06,-1.250000e-03
-1.076681e-06,5.000000e-03
-1.068681e-06,7.500000e-03
-1.060681e-06,5.000000e-03
-1.052681e-06,-1.750000e-02
-1.044681e-06,3.750000e-03
-1.036681e-06,1.125000e-02
-1.028681e-06,2.750000e-02
-1.020681e-06,-2.500000e-02
-1.012681e-06,5.000000e-03
-1.004681e-06,-3.125000e-02
-9.966812e-07,1.000000e-02
-9.886812e-07,-1.125000e-02
-9.806812e-07,7.500000e-03
-9.726812e-07,-1.500000e-02
-9.646812e-07,8.750000e-03
-9.566812e-07,-8.750000e-03
-9.486812e-07,2.250000e-02
-9.406812e-07,-2.125000e-02
-9.326812e-07,2.500000e-03
-9.246812e-07,-2.375000e-02
-9.166812e-07,2.500000e-02
-9.086812e-07,-3.750000e-03
-9.006812e-07,2.750000e-02
-8.926812e-07,-3.000000e-02
-8.846812e-07,-1.250000e-03
-8.766812e-07,-3.500000e-02
-8.686812e-07,0.000000e+00
-8.606812e-07,-2.750000e-02
-8.526812e-07,1.125000e-02
-8.446812e-07,-1.500000e-02
-8.366812e-07,-2.500000e-03
-8.286812e-07,-2.500000e-02
-8.206812e-07,1.625000e-02
-8.126812e-07,-1.625000e-02
-8.046812e-07,1.000000e-02
-7.966812e-07,-2.250000e-02
-7.886812e-07,2.500000e-02
-7.806812e-07,-1.250000e-02
-7.726812e-07,8.750000e-03
-7.646812e-07,1.250000e-03
-7.566812e-07,3.875000e-02
-7.486812e-07,-1.500000e-02
-7.406812e-07,3.375000e-02
-7.326812e-07,-5.000000e-03
-7.246812e-07,1.750000e-02
-7.166812e-07,-2.750000e-02
-7.086812e-07,3.500000e-02
-7.006812e-07,-2.250000e-02
-6.926812e-07,2.500000e-03
-6.846812e-07,-1.000000e-02
-6.766812e-07,1.375000e-02
-6.686812e-07,1.250000e-03
-6.606812e-07,1.500000e-02
-6.526812e-07,-1.000000e-02
-6.446812e-07,1.250000e-02
-6.366812e-07,-7.500000e-03
-6.286812e-07,1.500000e-02
-6.206812e-07,-1.750000e-02
-6.126812e-07,2.250000e-02
-6.046812e-07,-1.000000e-02
-5.966812e-07,1.125000e-02
-5.886812e-07,-1.875000e-02
-5.806812e-07,3.750000e-03
-5.726812e-07,-1.250000e-02
-5.646812e-07,1.250000e-02
-5.566812e-07,-1.250000e-02
-5.486812e-07,2.875000e-02
-5.406812e-07,-1.750000e-02
-5.326812e-07,2.750000e-02
-5.246812e-07,-2.375000e-02
-5.166812e-07,4.000000e-02
-5.086812e-07,5.000000e-03
-5.006812e-07,3.375000e-02
-4.926812e-07,-2.250000e-02
-4.846812e-07,2.625000e-02
-4.766812e-07,-7.500000e-03
-4.686812e-07,5.000000e-03
-4.606812e-07,-3.875000e-02
-4.526812e-07,6.250000e-03
-4.446812e-07,-1.375000e-02
-4.366812e-07,-1.250000e-03
-4.286812e-07,-1.375000e-02
-4.206812e-07,2.500000e-03
-4.126812e-07,-6.250000e-03
-4.046812e-07,1.500000e-02
-3.966812e-07,-2.250000e-02
-3.886812e-07,1.125000e-02
-3.806812e-07,-5.000000e-03
-3.726812e-07,1.000000e-02
-3.646812e-07,-1.625000e-02
-3.566812e-07,2.000000e-02
-3.486812e-07,-2.500000e-02
-3.406812e-07,3.750000e-02
-3.326812e-07,-1.250000e-02
-3.246812e-07,2.125000e-02
-3.166812e-07,-7.500000e-03
-3.086812e-07,2.000000e-02
-3.006812e-07,-3.000000e-02
-2.926812e-07,1.750000e-02
-2.846812e-07,-1.625000e-02
-2.766812e-07,6.250000e-03
-2.686812e-07,-6.250000e-03
-2.606812e-07,3.125000e-02
-2.526812e-07,-2.625000e-02
-2.446812e-07,1.375000e-02
-2.366812e-07,-6.250000e-03
-2.286812e-07,2.500000e-02
-2.206812e-07,-3.250000e-02
-2.126812e-07,1.750000e-02
-2.046812e-07,-1.500000e-02
-1.966812e-07,3.125000e-02
-1.886812e-07,-1.750000e-02
-1.806812e-07,8.750000e-03
-1.726812e-07,-6.250000e-03
-1.646812e-07,6.250000e-03
-1.566812e-07,-2.125000e-02
-1.486812e-07,3.750000e-03
-1.406812e-07,-3.750000e-03
-1.326812e-07,5.000000e-03
-1.246812e-07,-1.375000e-02
-1.166812e-07,1.625000e-02
-1.086812e-07,-1.250000e-02
-1.006812e-07,1.250000e-02
-9.268125e-08,-1.750000e-02
-8.468125e-08,1.500000e-02
-7.668125e-08,-3.125000e-02
-6.868125e-08,2.000000e-02
-6.068125e-08,-2.000000e-02
-5.268125e-08,8.750000e-03
-4.468125e-08,-1.500000e-02
-3.668125e-08,2.500000e-02
-2.868125e-08,-2.000000e-02
-2.068125e-08,1.500000e-02
-1.268125e-08,-1.250000e-03
-4.681250e-09,3.250000e-02
3.318750e-09,-1.380000e+00
1.131875e-08,-1.397500e+00
1.931875e-08,-1.432500e+00
2.731875e-08,-1.373750e+00
3.531875e-08,-3.250000e-02
4.331875e-08,1.000000e-02
5.131875e-08,7.500000e-03
5.931875e-08,3.875000e-02
6.731875e-08,-1.250000e-03
7.531875e-08,1.750000e-02
8.331875e-08,-3.750000e-03
9.131875e-08,2.500000e-02
9.931875e-08,-1.375000e-02
1.073188e-07,8.750000e-03
1.153188e-07,-1.250000e-03
1.233188e-07,2.375000e-02
1.313188e-07,1.250000e-03
1.393188e-07,2.500000e-02
1.473188e-07,-1.000000e-02
1.553188e-07,3.500000e-02
1.633188e-07,-3.250000e-02
1.713188e-07,1.875000e-02
1.793188e-07,-1.250000e-02
1.873188e-07,-6.250000e-03
1.953188e-07,-1.375000e-02
2.033188e-07,1.375000e-02
2.113188e-07,0.000000e+00
2.193188e-07,-1.250000e-02
2.273188e-07,-1.250000e-02
2.353188e-07,1.625000e-02
2.433188e-07,-8.750000e-03
2.513188e-07,2.875000e-02
2.593188e-07,-1.125000e-02
2.673188e-07,1.500000e-02
2.753188e-07,-1.625000e-02
2.833188e-07,2.625000e-02
2.913188e-07,-1.125000e-02
2.993188e-07,2.500000e-03
3.073188e-07,-1.375000e-02
3.153188e-07,2.125000e-02
3.233188e-07,-5.000000e-03
3.313188e-07,-3.750000e-03
3.393188e-07,-1.500000e-02
3.473188e-07,2.875000e-02
3.553188e-07,5.000000e-03
3.633188e-07,1.875000e-02
3.713188e-07,-2.500000e-03
3.793188e-07,1.750000e-02
3.873188e-07,0.000000e+00
3.953188e-07,1.125000e-02
4.033188e-07,-1.500000e-02
4.113188e-07,3.750000e-03
4.193188e-07,-7.500000e-03
4.273188e-07,1.000000e-02
4.353188e-07,-1.750000e-02
4.433188e-07,1.750000e-02
4.513188e-07,-2.125000e-02
4.593188e-07,-1.250000e-03
4.673188e-07,-2.500000e-03
4.753188e-07,8.750000e-03
4.833188e-07,-1.125000e-02
4.913188e-07,3.250000e-02
4.993188e-07,-1.125000e-02
5.073188e-07,2.250000e-02
5.153188e-07,5.000000e-03
5.233188e-07,1.750000e-02
5.313188e-07,-3.125000e-02
5.393188e-07,1.000000e-02
5.473188e-07,-2.375000e-02
5.553188e-07,3.500000e-02
5.633188e-07,-1.125000e-02
5.713188e-07,5.000000e-03
5.793188e-07,-1.750000e-02
5.873188e-07,2.250000e-02
5.953188e-07,-1.375000e-02
6.033188e-07,1.125000e-02
6.113188e-07,-2.875000e-02
6.193188e-07,-3.750000e-03
6.273188e-07,2.500000e-03
6.353188e-07,1.875000e-02
6.433188e-07,1.000000e-02
6.513188e-07,2.875000e-02
6.593188e-07,-3.750000e-03
6.673188e-07,2.500000e-02
6.753188e-07,0.000000e+00
6.833188e-07,1.000000e-02
6.913188e-07,-3.000000e-02
6.993188e-07,1.625000e-02
7.073188e-07,-1.125000e-02
7.153188e-07,8.750000e-03
7.233188e-07,1.250000e-03
7.313188e-07,2.000000e-02
7.393188e-07,-1.625000e-02
7.473188e-07,2.500000e-02
7.553188e-07,1.250000e-03
7.633188e-07,2.000000e-02
7.713188e-07,1.250000e-03
7.793188e-07,1.250000e-03
7.873188e-07,-2.125000e-02
7.953188e-07,3.750000e-02
8.033188e-07,-5.000000e-03
