run1/run1_ch1_20210318180228783.csv

Model,MSO64
Waveform Type,ANALOG
Horizontal Units,s
Sample Interval,8.000000e-09
Record Length,1250
Zero Index,624.880000
Vertical Units,V

TIME,CH1
-4.999040e-06,2.750000e-02
-4.991040e-06,-3.625000e-02
-4.983040e-06,2.500000e-02
-4.975040e-06,-1.250000e-02
-4.967040e-06,0.000000e+00
-4.959040e-06,-2.250000e-02
-4.951040e-06,2.625000e-02
-4.943040e-06,-2.500000e-03
-4.935040e-06,7.500000e-03
-4.927040e-06,-2.250000e-02
-4.919040e-06,3.625000e-02
-4.911040e-06,-1.250000e-02
-4.903040e-06,-7.500000e-03
-4.895040e-06,-1.625000e-02
-4.887040e-06,1.000000e-02
-4.879040e-06,-2.625000e-02
-4.871040e-06,1.875000e-02
-4.863040e-06,-4.625000e-02
-4.855040e-06,2.500000e-03
-4.847040e-06,5.000000e-03
-4.839040e-06,1.125000e-02
-4.831040e-06,3.750000e-03
-4.823040e-06,1.250000e-02
-4.815040e-06,1.250000e-03
-4.807040e-06,2.000000e-02
-4.799040e-06,-5.000000e-03
-4.791040e-06,3.000000e-02
-4.783040e-06,-1.250000e-03
-4.775040e-06,3.875000e-02
-4.767040e-06,-1.750000e-02
-4.759040e-06,2.625000e-02
-4.751040e-06,-1.375000e-02
-4.743040e-06,2.125000e-02
-4.735040e-06,-2.250000e-02
-4.727040e-06,-6.250000e-03
-4.719040e-06,-2.500000e-03
-4.711040e-06,6.250000e-03
-4.703040e-06,-6.250000e-03
-4.695040e-06,2.500000e-02
-4.687040e-06,-2.125000e-02
-4.679040e-06,1.500000e-02
-4.671040e-06,-1.250000e-02
-4.663040e-06,1.875000e-02
-4.655040e-06,-2.375000e-02
-4.647040e-06,3.750000e-03
-4.639040e-06,-1.500000e-02
-4.631040e-06,2.000000e-02
-4.623040e-06,-1.375000e-02
-4.615040e-06,1.375000e-02
-4.607040e-06,-1.875000e-02
-4.599040e-06,4.000000e-02
-4.591040e-06,-2.875000e-02
-4.583040e-06,3.750000e-03
-4.575040e-06,-3.250000e-02
-4.567040e-06,3.750000e-03
-4.559040e-06,2.500000e-03
-4.551040e-06,7.500000e-03
-4.543040e-06,1.250000e-03
-4.535040e-06,1.625000e-02
-4.527040e-06,5.000000e-03
-4.519040e-06,7.500000e-03
-4.511040e-06,-6.250000e-03
-4.503040e-06,1.000000e-02
-4.495040e-06,-1.250000e-02
-4.487040e-06,-2.500000e-03
-4.479040e-06,-7.500000e-03
-4.471040e-06,2.500000e-02
-4.463040e-06,-1.250000e-03
-4.455040e-06,-1.250000e-03
-4.447040e-06,-1.750000e-02
-4.439040e-06,1.875000e-02
-4.431040e-06,-1.125000e-02
-4.423040e-06,8.750000e-03
-4.415040e-06,-2.750000e-02
-4.407040e-06,7.500000e-03
-4.399040e-06,-1.500000e-02
-4.391040e-06,1.875000e-02
-4.383040e-06,-2.000000e-02
-4.375040e-06,1.375000e-02
-4.367040e-06,-2.375000e-02
-4.359040e-06,2.125000e-02
-4.351040e-06,-1.000000e-02
-4.343040e-06,1.750000e-02
-4.335040e-06,-3.000000e-02
-4.327040e-06,2.000000e-02
-4.319040e-06,2.500000e-03
-4.311040e-06,1.000000e-02
-4.303040e-06,-3.000000e-02
-4.295040e-06,2.625000e-02
-4.287040e-06,6.250000e-03
-4.279040e-06,1.750000e-02
-4.271040e-06,-1.000000e-02
-4.263040e-06,8.750000e-03
-4.255040e-06,-5.000000e-03
-4.247040e-06,2.500000e-02
-4.239040e-06,-3.750000e-02
-4.231040e-06,2.625000e-02
-4.223040e-06,-1.250000e-02
-4.215040e-06,1.625000e-02
-4.207040e-06,-2.500000e-03
-4.199040e-06,1.375000e-02
-4.191040e-06,-2.500000e-03
-4.183040e-06,2.375000e-02
-4.175040e-06,-1.000000e-02
-4.167040e-06,1.750000e-02
-4.159040e-06,-1.375000e-02
-4.151040e-06,1.500000e-02
-4.143040e-06,-2.500000e-03
-4.135040e-06,2.250000e-02
-4.127040e-06,-7.500000e-03
-4.119040e-06,-6.250000e-03
-4.111040e-06,-2.125000e-02
-4.103040e-06,1.250000e-03
-4.095040e-06,-2.375000e-02
-4.087040e-06,1.500000e-02
-4.079040e-06,0.000000e+00
-4.071040e-06,1.250000e-03
-4.063040e-06,-2.500000e-03
-4.055040e-06,1.250000e-03
-4.047040e-06,-2.250000e-02
-4.039040e-06,0.000000e+00
-4.031040e-06,-1.375000e-02
-4.023040e-06,2.875000e-02
-4.015040e-06,-2.125000e-02
-4.007040e-06,2.875000e-02
-3.999040e-06,2.500000e-03
-3.991040e-06,1.125000e-02
-3.983040e-06,-3.250000e-02
-3.975040e-06,3.125000e-02
-3.967040e-06,-2.125000e-02
-3.959040e-06,7.500000e-03
-3.951040e-06,-1.500000e-02
-3.943040e-06,1.000000e-02
-3.935040e-06,7.500000e-03
-3.927040e-06,1.500000e-02
-3.919040e-06,-2.125000e-02
-3.911040e-06,3.750000e-03
-3.903040e-06,8.750000e-03
-3.895040e-06,2.000000e-02
-3.887040e-06,-1.375000e-02
-3.879040e-06,1.875000e-02
-3.871040e-06,-1.125000e-02
-3.863040e-06,1.250000e-03
-3.855040e-06,-1.875000e-02
-3.847040e-06,-1.500000e-02
-3.839040e-06,-1.750000e-02
-3.831040e-06,1.250000e-02
-3.823040e-06,-1.000000e-02
-3.815040e-06,-1.125000e-02
-3.807040e-06,-7.500000e-03
-3.799040e-06,5.000000e-03
-3.791040e-06,-1.000000e-02
-3.783040e-06,2.000000e-02
-3.775040e-06,1.625000e-02
-3.767040e-06,3.500000e-02
-3.759040e-06,-6.250000e-03
-3.751040e-06,1.375000e-02
-3.743040e-06,-6.250000e-03
-3.735040e-06,-1.500000e-02
-3.727040e-06,-3.625000e-02
-3.719040e-06,-1.250000e-03
-3.711040e-06,-7.500000e-03
-3.703040e-06,3.000000e-02
-3.695040e-06,1.625000e-02
-3.687040e-06,-5.000000e-03
-3.679040e-06,-1.750000e-02
-3.671040e-06,1.250000e-02
-3.663040e-06,-3.750000e-03
-3.655040e-06,1.500000e-02
-3.647040e-06,-1.625000e-02
-3.639040e-06,3.000000e-02
-3.631040e-06,-2.125000e-02
-3.623040e-06,1.375000e-02
-3.615040e-06,-1.375000e-02
-3.607040e-06,7.500000e-03
-3.599040e-06,-2.375000e-02
-3.591040e-06,7.500000e-03
-3.583040e-06,-1.875000e-02
-3.575040e-06,2.750000e-02
-3.567040e-06,-6.250000e-03
-3.559040e-06,1.250000e-02
-3.551040e-06,-1.250000e-02
-3.543040e-06,2.750000e-02
-3.535040e-06,-3.250000e-02
-3.527040e-06,7.500000e-03
-3.519040e-06,-1.250000e-03
-3.511040e-06,6.250000e-03
-3.503040e-06,2.500000e-03
-3.495040e-06,1.250000e-02
-3.487040e-06,-7.500000e-03
-3.479040e-06,1.625000e-02
-3.471040e-06,-3.750000e-02
-3.463040e-06,1.250000e-02
-3.455040e-06,-1.500000e-02
-3.447040e-06,4.625000e-02
-3.439040e-06,-1.250000e-03
-3.431040e-06,2.250000e-02
-3.423040e-06,5.000000e-03
-3.415040e-06,5.000000e-03
-3.407040e-06,-1.500000e-02
-3.399040e-06,1.875000e-02
-3.391040e-06,-5.000000e-03
-3.383040e-06,8.750000e-03
-3.375040e-06,5.000000e-03
-3.367040e-06,-6.250000e-03
-3.359040e-06,-1.125000e-02
-3.351040e-06,7.500000e-03
-3.343040e-06,-3.750000e-03
-3.335040e-06,2.250000e-02
-3.327040e-06,-3.125000e-02
-3.319040e-06,1.375000e-02
-3.311040e-06,-2.500000e-02
-3.303040e-06,5.000000e-03
-3.295040e-06,-1.500000e-02
-3.287040e-06,-2.000000e-02
-3.279040e-06,-3.125000e-02
-3.271040e-06,7.500000e-03
-3.263040e-06,-1.500000e-02
-3.255040e-06,-1.250000e-03
-3.247040e-06,1.250000e-03
-3.239040e-06,1.250000e-02
-3.231040e-06,-1.875000e-02
-3.223040e-06,2.000000e-02
-3.215040e-06,-4.500000e-02
-3.207040e-06,2.625000e-02
-3.199040e-06,-1.125000e-02
-3.191040e-06,2.250000e-02
-3.183040e-06,-1.250000e-03
-3.175040e-06,0.000000e+00
-3.167040e-06,-3.750000e-03
-3.159040e-06,1.500000e-02
-3.151040e-06,-3.750000e-03
-3.143040e-06,1.250000e-02
-3.135040e-06,-1.750000e-02
-3.127040e-06,2.375000e-02
-3.119040e-06,1.500000e-02
-3.111040e-06,5.000000e-03
-3.103040e-06,-1.375000e-02
-3.095040e-06,1.750000e-02
-3.087040e-06,-3.000000e-02
-3.079040e-06,2.500000e-03
-3.071040e-06,-2.000000e-02
-3.063040e-06,2.000000e-02
-3.055040e-06,6.250000e-03
-3.047040e-06,1.500000e-02
-3.039040e-06,3.750000e-03
-3.031040e-06,1.750000e-02
-3.023040e-06,2.625000e-02
-3.015040e-06,7.500000e-03
-3.007040e-06,-1.000000e-02
-2.999040e-06,1.375000e-02
-2.991040e-06,6.250000e-03
-2.983040e-06,7.500000e-03
-2.975040e-06,-3.375000e-02
-2.967040e-06,0.000000e+00
-2.959040e-06,-1.750000e-02
-2.951040e-06,-5.000000e-03
-2.943040e-06,1.250000e-03
-2.935040e-06,2.250000e-02
-2.927040e-06,0.000000e+00
-2.919040e-06,3.750000e-03
-2.911040e-06,-1.250000e-03
-2.903040e-06,1.375000e-02
-2.895040e-06,-3.250000e-02
-2.887040e-06,1.250000e-03
-2.879040e-06,-7.500000e-03
-2.871040e-06,-6.250000e-03
-2.863040e-06,-7.500000e-03
-2.855040e-06,2.500000e-03
-2.847040e-06,-2.250000e-02
-2.839040e-06,1.250000e-02
-2.831040e-06,-2.625000e-02
-2.823040e-06,3.750000e-02
-2.815040e-06,-1.250000e-02
-2.807040e-06,0.000000e+00
-2.799040e-06,-1.250000e-02
-2.791040e-06,1.250000e-03
-2.783040e-06,-3.750000e-02
-2.775040e-06,2.750000e-02
-2.767040e-06,-2.625000e-02
-2.759040e-06,-3.750000e-03
-2.751040e-06,1.500000e-02
-2.743040e-06,2.125000e-02
-2.735040e-06,-1.000000e-02
-2.727040e-06,1.125000e-02
-2.719040e-06,-8.750000e-03
-2.711040e-06,1.500000e-02
-2.703040e-06,-2.875000e-02
-2.695040e-06,8.750000e-03
-2.687040e-06,-1.625000e-02
-2.679040e-06,1.250000e-02
-2.671040e-06,-1.250000e-03
-2.663040e-06,-5.000000e-03
-2.655040e-06,-2.375000e-02
-2.647040e-06,1.000000e-02
-2.639040e-06,-7.500000e-03
-2.631040e-06,1.125000e-02
-2.623040e-06,-2.125000e-02
-2.615040e-06,1.000000e-02
-2.607040e-06,-1.000000e-02
-2.599040e-06,2.500000e-03
-2.591040e-06,-1.250000e-02
-2.583040e-06,2.500000e-03
-2.575040e-06,-2.375000e-02
-2.567040e-06,-2.500000e-03
-2.559040e-06,-3.125000e-02
-2.551040e-06,2.000000e-02
-2.543040e-06,-1.000000e-02
-2.535040e-06,1.250000e-03
-2.527040e-06,-6.250000e-03
-2.519040e-06,0.000000e+00
-2.511040e-06,-1.500000e-02
-2.503040e-06,3.000000e-02
-2.495040e-06,-7.500000e-03
-2.487040e-06,7.500000e-03
-2.479040e-06,6.250000e-03
-2.471040e-06,5.000000e-03
-2.463040e-06,-1.750000e-02
-2.455040e-06,3.750000e-02
-2.447040e-06,-1.375000e-02
-2.439040e-06,2.500000e-03
-2.431040e-06,2.500000e-03
-2.423040e-06,1.875000e-02
-2.415040e-06,-1.125000e-02
-2.407040e-06,-6.250000e-03
-2.399040e-06,-8.750000e-03
-2.391040e-06,-1.250000e-03
-2.383040e-06,-1.250000e-02
-2.375040e-06,2.375000e-02
-2.367040e-06,-3.750000e-03
-2.359040e-06,2.250000e-02
-2.351040e-06,2.500000e-03
-2.343040e-06,7.500000e-03
-2.335040e-06,-8.750000e-03
-2.327040e-06,7.500000e-03
-2.319040e-06,-3.125000e-02
-2.311040e-06,1.750000e-02
-2.303040e-06,-2.750000e-02
-2.295040e-06,3.250000e-02
-2.287040e-06,-1.750000e-02
-2.279040e-06,-8.750000e-03
-2.271040e-06,-1.625000e-02
-2.263040e-06,-2.500000e-03
-2.255040e-06,-2.500000e-03
-2.247040e-06,3.250000e-02
-2.239040e-06,-1.250000e-02
-2.231040e-06,7.500000e-03
-2.223040e-06,0.000000e+00
-2.215040e-06,1.500000e-02
-2.207040e-06,-8.750000e-03
-2.199040e-06,8.750000e-03
-2.191040e-06,-3.000000e-02
-2.183040e-06,1.500000e-02
-2.175040e-06,-5.500000e-02
-2.167040e-06,1.750000e-02
-2.159040e-06,-1.875000e-02
-2.151040e-06,3.750000e-03
-2.143040e-06,-2.000000e-02
-2.135040e-06,2.375000e-02
-2.127040e-06,-5.000000e-03
-2.119040e-06,5.000000e-03
-2.111040e-06,1.250000e-03
-2.103040e-06,2.000000e-02
-2.095040e-06,-6.250000e-03
-2.087040e-06,1.250000e-02
-2.079040e-06,-1.750000e-02
-2.071040e-06,3.750000e-03
-2.063040e-06,-2.000000e-02
-2.055040e-06,7.500000e-03
-2.047040e-06,-8.750000e-03
-2.039040e-06,3.500000e-02
-2.031040e-06,1.000000e-02
-2.023040e-06,2.000000e-02
-2.015040e-06,-8.750000e-03
-2.007040e-06,2.500000e-03
-1.999040e-06,-2.500000e-03
-1.991040e-06,1.125000e-02
-1.983040e-06,6.250000e-03
-1.975040e-06,1.625000e-02
-1.967040e-06,-1.625000e-02
-1.959040e-06,2.875000e-02
-1.951040e-06,-2.125000e-02
-1.943040e-06,1.375000e-02
-1.935040e-06,-2.625000e-02
-1.927040e-06,2.125000e-02
-1.919040e-06,-3.000000e-02
-1.911040e-06,-2.500000e-03
-1.903040e-06,-3.250000e-02
-1.895040e-06,1.000000e-02
-1.887040e-06,-1.750000e-02
-1.879040e-06,2.000000e-02
-1.871040e-06,-2.250000e-02
-1.863040e-06,1.250000e-03
-1.855040e-06,-1.000000e-02
-1.847040e-06,2.875000e-02
-1.839040e-06,-1.750000e-02
-1.831040e-06,1.125000e-02
-1.823040e-06,-1.625000e-02
-1.815040e-06,0.000000e+00
-1.807040e-06,-2.375000e-02
-1.799040e-06,1.750000e-02
-1.791040e-06,-6.250000e-03
-1.783040e-06,7.500000e-03
-1.775040e-06,-1.125000e-02
-1.767040e-06,1.250000e-02
-1.759040e-06,-2.500000e-03
-1.751040e-06,7.500000e-03
-1.743040e-06,-7.500000e-03
-1.735040e-06,5.000000e-03
-1.727040e-06,3.750000e-03
-1.719040e-06,2.125000e-02
-1.711040e-06,-2.250000e-02
-1.703040e-06,1.375000e-02
-1.695040e-06,-2.125000e-02
-1.687040e-06,3.875000e-02
-1.679040e-06,-3.000000e-02
-1.671040e-06,6.250000e-03
-1.663040e-06,-2.250000e-02
-1.655040e-06,3.750000e-03
-1.647040e-06,-1.750000e-02
-1.639040e-06,2.500000e-03
-1.631040e-06,-2.125000e-02
-1.623040e-06,1.625000e-02
-1.615040e-06,-6.250000e-03
-1.607040e-06,6.250000e-03
-1.599040e-06,3.750000e-03
-1.591040e-06,3.375000e-02
-1.583040e-06,1.250000e-03
-1.575040e-06,3.750000e-03
-1.567040e-06,-2.000000e-02
-1.559040e-06,7.500000e-03
-1.551040e-06,-3.750000e-02
-1.543040e-06,-6.250000e-03
-1.535040e-06,-2.500000e-02
-1.527040e-06,3.375000e-02
-1.519040e-06,-1.250000e-03
-1.511040e-06,0.000000e+00
-1.503040e-06,-1.125000e-02
-1.495040e-06,0.000000e+00
-1.487040e-06,5.000000e-03
-1.479040e-06,1.625000e-02
-1.471040e-06,-1.750000e-02
-1.463040e-06,2.375000e-02
-1.455040e-06,-2.500000e-03
-1.447040e-06,8.750000e-03
-1.439040e-06,-1.250000e-02
-1.431040e-06,1.625000e-02
-1.423040e-06,-4.125000e-02
-1.415040e-06,1.125000e-02
-1.407040e-06,-3.000000e-02
-1.399040e-06,3.375000e-02
-1.391040e-06,3.750000e-03
-1.383040e-06,1.625000e-02
-1.375040e-06,-5.000000e-03
-1.367040e-06,1.125000e-02
-1.359040e-06,-1.500000e-02
-1.351040e-06,1.750000e-02
-1.343040e-06,-7.500000e-03
-1.335040e-06,1.375000e-02
-1.327040e-06,-1.500000e-02
-1.319040e-06,2.875000e-02
-1.311040e-06,-5.000000e-03
-1.303040e-06,7.500000e-03
-1.295040e-06,-2.625000e-02
-1.287040e-06,3.375000e-02
-1.279040e-06,-1.375000e-02
-1.271040e-06,1.125000e-02
-1.263040e-06,-1.250000e-02
-1.255040e-06,1.375000e-02
-1.247040e-06,-1.625000e-02
-1.239040e-06,1.500000e-02
-1.231040e-06,-2.875000e-02
-1.223040e-06,1.000000e-02
-1.215040e-06,-5.000000e-03
-1.207040e-06,1.875000e-02
-1.199040e-06,3.750000e-03
-1.191040e-06,2.375000e-02
-1.183040e-06,-1.250000e-03
-1.175040e-06,1.375000e-02
-1.167040e-06,-8.750000e-03
-1.159040e-06,7.500000e-03
-1.151040e-06,-1.625000e-02
-1.143040e-06,3.750000e-02
-1.135040e-06,-1.125000e-02
-1.127040e-06,1.500000e-02
-1.119040e-06,-1.875000e-02
-1.111040e-06,1.125000e-02
-1.103040e-06,-6.250000e-03
-1.095040e-06,0.000000e+00
-1.087040e-06,7.500000e-03
-1.079040e-06,1.875000e-02
-1.071040e-06,-6.250000e-03
-1.063040e-06,1.375000e-02
-1.055040e-06,-1.500000e-02
-1.047040e-06,1.750000e-02
-1.039040e-06,-7.500000e-03
-1.031040e-06,2.000000e-02
-1.023040e-06,-4.000000e-02
-1.015040e-06,1.375000e-02
-1.007040e-06,-1.000000e-02
-9.990400e-07,-3.750000e-03
-9.910400e-07,-1.125000e-02
-9.830400e-07,5.000000e-03
-9.750400e-07,-2.125000e-02
-9.670400e-07,-7.500000e-03
-9.590400e-07,-3.750000e-03
-9.510400e-07,2.625000e-02
-9.430400e-07,8.750000e-03
-9.350400e-07,1.875000e-02
-9.270400e-07,-2.250000e-02
-9.190400e-07,1.875000e-02
-9.110400e-07,-4.375000e-02
-9.030400e-07,2.125000e-02
-8.950400e-07,-2.250000e-02
-8.870400e-07,1.875000e-02
-8.790400e-07,-2.375000e-02
-8.710400e-07,6.250000e-03
-8.630400e-07,-5.000000e-03
-8.550400e-07,6.250000e-03
-8.470400e-07,-1.875000e-02
-8.390400e-07,8.750000e-03
-8.310400e-07,-1.500000e-02
-8.230400e-07,2.875000e-02
-8.150400e-07,-2.750000e-02
-8.070400e-07,1.375000e-02
-7.990400e-07,-3.125000e-02
-7.910400e-07,-7.500000e-03
-7.830400e-07,-1.875000e-02
-7.750400e-07,1.250000e-02
-7.670400e-07,-1.375000e-02
-7.590400e-07,2.000000e-02
-7.510400e-07,-1.875000e-02
-7.430400e-07,0.000000e+00
-7.350400e-07,-1.500000e-02
-7.270400e-07,5.000000e-03
-7.190400e-07,-1.750000e-02
-7.110400e-07,8.750000e-03
-7.030400e-07,-1.500000e-02
-6.950400e-07,2.000000e-02
-6.870400e-07,-7.500000e-03
-6.790400e-07,2.375000e-02
-6.710400e-07,-3.750000e-02
-6.630400e-07,3.750000e-03
-6.550400e-07,-3.250000e-02
-6.470400e-07,1.875000e-02
-6.390400e-07,-2.750000e-02
-6.310400e-07,2.500000e-02
-6.230400e-07,-7.500000e-03
-6.150400e-07,-1.250000e-03
-6.070400e-07,-1.000000e-02
-5.990400e-07,1.750000e-02
-5.910400e-07,-1.875000e-02
-5.830400e-07,1.875000e-02
-5.750400e-07,-1.500000e-02
-5.670400e-07,2.250000e-02
-5.590400e-07,-3.125000e-02
-5.510400e-07,2.125000e-02
-5.430400e-07,-2.125000e-02
-5.350400e-07,2.625000e-02
-5.270400e-07,-1.000000e-02
-5.190400e-07,1.250000e-03
-5.110400e-07,-3.125000e-02
-5.030400e-07,1.250000e-03
-4.950400e-07,-1.000000e-02
-4.870400e-07,5.000000e-03
-4.790400e-07,-7.500000e-03
-4.710400e-07,5.000000e-03
-4.630400e-07,-5.000000e-03
-4.550400e-07,7.500000e-03
-4.470400e-07,0.000000e+00
-4.390400e-07,3.500000e-02
-4.310400e-07,-5.000000e-03
-4.230400e-07,1.250000e-02
-4.150400e-07,-2.375000e-02
-4.070400e-07,1.250000e-03
-3.990400e-07,-3.125000e-02
-3.910400e-07,5.000000e-03
-3.830400e-07,-1.625000e-02
-3.750400e-07,2.750000e-02
-3.670400e-07,-1.750000e-02
-3.590400e-07,-1.250000e-03
-3.510400e-07,-5.000000e-03
-3.430400e-07,1.125000e-02
-3.350400e-07,-1.375000e-02
-3.270400e-07,1.000000e-02
-3.190400e-07,5.000000e-03
-3.110400e-07,1.250000e-02
-3.030400e-07,-2.625000e-02
-2.950400e-07,5.000000e-03
-2.870400e-07,-2.625000e-02
-2.790400e-07,1.375000e-02
-2.710400e-07,-3.250000e-02
-2.630400e-07,6.250000e-03
-2.550400e-07,-3.000000e-02
-2.470400e-07,2.250000e-02
-2.390400e-07,-3.750000e-03
-2.310400e-07,-1.250000e-03
-2.230400e-07,-2.750000e-02
-2.150400e-07,8.750000e-03
-2.070400e-07,-1.875000e-02
-1.990400e-07,1.250000e-02
-1.910400e-07,-7.500000e-03
-1.830400e-07,2.000000e-02
-1.750400e-07,0.000000e+00
-1.670400e-07,-2.500000e-03
-1.590400e-07,3.750000e-03
-1.510400e-07,2.875000e-02
-1.430400e-07,-3.750000e-02
-1.350400e-07,-2.500000e-03
-1.270400e-07,-4.500000e-02
-1.190400e-07,1.875000e-02
-1.110400e-07,-1.375000e-02
-1.030400e-07,1.250000e-03
-9.504000e-08,-2.125000e-02
-8.704000e-08,1.625000e-02
-7.904000e-08,-2.500000e-03
-7.104000e-08,1.125000e-02
-6.304000e-08,-1.750000e-02
-5.504000e-08,2.250000e-02
-4.704000e-08,-1.250000e-02
-3.904000e-08,-1.112500e+00
-3.104000e-08,-1.412500e+00
-2.304000e-08,-1.396250e+00
-1.504000e-08,-1.441250e+00
-7.040000e-09,-2.500000e-03
9.600000e-10,-2.250000e-02
8.960000e-09,3.375000e-02
1.696000e-08,-1.250000e-03
2.496000e-08,-5.000000e-03
3.296000e-08,1.375000e-02
4.096000e-08,1.750000e-02
4.896000e-08,-3.625000e-02
5.696000e-08,8.750000e-03
6.496000e-08,3.750000e-03
7.296000e-08,3.250000e-02
8.096000e-08,1.375000e-02
8.896000e-08,2.500000e-02
9.696000e-08,-1.000000e-02
1.049600e-07,3.750000e-03
1.129600e-07,-2.000000e-02
1.209600e-07,7.500000e-03
1.289600e-07,-1.375000e-02
1.369600e-07,3.750000e-03
1.449600e-07,5.000000e-03
1.529600e-07,2.625000e-02
1.609600e-07,-1.625000e-02
1.689600e-07,2.000000e-02
1.769600e-07,-2.625000e-02
1.849600e-07,8.750000e-03
1.929600e-07,-1.875000e-02
2.009600e-07,1.750000e-02
2.089600e-07,-2.000000e-02
2.169600e-07,8.750000e-03
2.249600e-07,-2.250000e-02
2.329600e-07,1.625000e-02
2.409600e-07,-2.125000e-02
2.489600e-07,1.250000e-02
2.569600e-07,2.500000e-03
2.649600e-07,1.375000e-02
2.729600e-07,-1.375000e-02
2.809600e-07,7.500000e-03
2.889600e-07,-1.625000e-02
2.969600e-07,2.500000e-02
3.049600e-07,-1.250000e-02
3.129600e-07,3.250000e-02
3.209600e-07,-7.500000e-03
3.289600e-07,0.000000e+00
3.369600e-07,6.250000e-03
3.449600e-07,6.250000e-03
3.529600e-07,-6.250000e-03
3.609600e-07,8.750000e-03
3.689600e-07,-2.375000e-02
3.769600e-07,1.250000e-03
3.849600e-07,-1.625000e-02
3.929600e-07,1.375000e-02
4.009600e-07,1.250000e-03
4.089600e-07,-6.250000e-03
4.169600e-07,-1.375000e-02
4.249600e-07,8.750000e-03
4.329600e-07,-3.125000e-02
4.409600e-07,3.250000e-02
4.489600e-07,5.000000e-03
4.569600e-07,2.000000e-02
4.649600e-07,2.500000e-03
4.729600e-07,1.625000e-02
4.809600e-07,-3.750000e-03
4.889600e-07,2.125000e-02
4.969600e-07,-2.875000e-02
5.049600e-07,1.875000e-02
5.129600e-07,-3.750000e-03
5.209600e-07,2.000000e-02
5.289600e-07,1.250000e-03
5.369600e-07,-1.375000e-02
5.449600e-07,-2.000000e-02
5.529600e-07,3.750000e-03
5.609600e-07,-2.000000e-02
5.689600e-07,2.875000e-02
5.769600e-07,-5.000000e-03
5.849600e-07,3.750000e-03
5.929600e-07,3.000000e-02
6.009600e-07,2.125000e-02
6.089600e-07,-2.125000e-02
6.169600e-07,2.000000e-02
6.249600e-07,-1.625000e-02
6.329600e-07,1.750000e-02
6.409600e-07,-6.250000e-03
6.489600e-07,4.250000e-02
6.569600e-07,-1.375000e-02
6.649600e-07,6.250000e-03
6.729600e-07,-1.125000e-02
6.809600e-07,2.250000e-02
6.889600e-07,-2.500000e-02
6.969600e-07,2.500000e-03
7.049600e-07,-3.750000e-03
7.129600e-07,3.125000e-02
7.209600e-07,-5.000000e-03
7.289600e-07,1.125000e-02
7.369600e-07,-3.000000e-02
7.449600e-07,-5.000000e-03
7.529600e-07,-2.125000e-02
7.609600e-07,2.500000e-02
7.689600e-07,-7.500000e-03
7.769600e-07,4.000000e-02
7.849600e-07,-1.875000e-02
7.929600e-07,2.875000e-02
8.009600e-07,-1.500000e-02
