run1/run1_ch1_20210318180332220.csv

Model,MSO64
Waveform Type,ANALOG
Horizontal Units,s
Sample Interval,8.000000e-09
Record Length,1250
Zero Index,624.015156
Vertical Units,V

TIME,CH1
-4.992121e-06,-1.625000e-02
-4.984121e-06,2.375000e-02
-4.976121e-06,-1.750000e-02
-4.968121e-06,2.500000e-03
-4.960121e-06,-3.250000e-02
-4.952121e-06,7.500000e-03
-4.944121e-06,-1.750000e-02
-4.936121e-06,7.500000e-03
-4.928121e-06,-1.375000e-02
-4.920121e-06,3.625000e-02
-4.912121e-06,6.250000e-03
-4.904121e-06,1.000000e-02
-4.896121e-06,-3.750000e-03
-4.888121e-06,1.125000e-02
-4.880121e-06,-1.125000e-02
-4.872121e-06,1.250000e-02
-4.864121e-06,-3.750000e-03
-4.856121e-06,-3.750000e-03
-4.848121e-06,-7.500000e-03
-4.840121e-06,8.750000e-03
-4.832121e-06,-2.500000e-02
-4.824121e-06,1.500000e-02
-4.816121e-06,-2.750000e-02
-4.808121e-06,-1.500000e-02
-4.800121e-06,-5.500000e-02
-4.792121e-06,1.875000e-02
-4.784121e-06,8.750000e-03
-4.776121e-06,1.875000e-02
-4.768121e-06,-5.000000e-03
-4.760121e-06,7.500000e-03
-4.752121e-06,-3.750000e-03
-4.744121e-06,2.000000e-02
-4.736121e-06,-2.750000e-02
-4.728121e-06,-1.375000e-02
-4.720121e-06,-1.125000e-02
-4.712121e-06,1.250000e-03
-4.704121e-06,-3.750000e-03
-4.696121e-06,-1.250000e-03
-4.688121e-06,-2.500000e-03
-4.680121e-06,-2.500000e-03
-4.672121e-06,-3.500000e-02
-4.664121e-06,2.125000e-02
-4.656121e-06,-1.000000e-02
-4.648121e-06,-1.250000e-03
-4.640121e-06,-1.000000e-02
-4.632121e-06,2.250000e-02
-4.624121e-06,-2.125000e-02
-4.616121e-06,2.375000e-02
-4.608121e-06,-4.500000e-02
-4.600121e-06,1.250000e-02
-4.592121e-06,-1.500000e-02
-4.584121e-06,3.000000e-02
-4.576121e-06,1.250000e-03
-4.568121e-06,6.250000e-03
-4.560121e-06,-5.000000e-03
-4.552121e-06,1.625000e-02
-4.544121e-06,-2.500000e-02
-4.536121e-06,1.500000e-02
-4.528121e-06,-1.125000e-02
-4.520121e-06,1.875000e-02
-4.512121e-06,-2.500000e-02
-4.504121e-06,8.750000e-03
-4.496121e-06,-3.000000e-02
-4.488121e-06,2.250000e-02
-4.480121e-06,-2.125000e-02
-4.472121e-06,1.375000e-02
-4.464121e-06,-2.625000e-02
-4.456121e-06,3.125000e-02
-4.448121e-06,-8.750000e-03
-4.440121e-06,6.250000e-03
-4.432121e-06,5.000000e-03
-4.424121e-06,1.250000e-02
-4.416121e-06,-5.000000e-03
-4.408121e-06,1.125000e-02
-4.400121e-06,-2.500000e-02
-4.392121e-06,1.625000e-02
-4.384121e-06,-6.250000e-03
-4.376121e-06,2.250000e-02
-4.368121e-06,-2.250000e-02
-4.360121e-06,1.750000e-02
-4.352121e-06,5.000000e-03
-4.344121e-06,3.125000e-02
-4.336121e-06,-5.000000e-03
-4.328121e-06,3.000000e-02
-4.320121e-06,-2.625000e-02
-4.312121e-06,1.500000e-02
-4.304121e-06,-2.125000e-02
-4.296121e-06,2.125000e-02
-4.288121e-06,-1.625000e-02
-4.280121e-06,6.250000e-03
-4.272121e-06,-1.375000e-02
-4.264121e-06,2.250000e-02
-4.256121e-06,-1.000000e-02
-4.248121e-06,2.625000e-02
-4.240121e-06,-6.250000e-03
-4.232121e-06,1.125000e-02
-4.224121e-06,-3.750000e-03
-4.216121e-06,1.375000e-02
-4.208121e-06,-3.625000e-02
-4.200121e-06,2.500000e-02
-4.192121e-06,-3.000000e-02
-4.184121e-06,7.500000e-03
-4.176121e-06,-2.250000e-02
-4.168121e-06,2.750000e-02
-4.160121e-06,-3.250000e-02
-4.152121e-06,5.000000e-03
-4.144121e-06,3.750000e-03
-4.136121e-06,0.000000e+00
-4.128121e-06,-2.000000e-02
-4.120121e-06,2.250000e-02
-4.112121e-06,-2.125000e-02
-4.104121e-06,6.250000e-03
-4.096121e-06,-1.125000e-02
-4.088121e-06,1.000000e-02
-4.080121e-06,-1.000000e-02
-4.072121e-06,1.250000e-02
-4.064121e-06,-1.625000e-02
-4.056121e-06,1.000000e-02
-4.048121e-06,-2.875000e-02
-4.040121e-06,2.500000e-03
-4.032121e-06,-1.750000e-02
-4.024121e-06,1.500000e-02
-4.016121e-06,5.000000e-03
-4.008121e-06,2.375000e-02
-4.000121e-06,-2.500000e-02
-3.992121e-06,-3.750000e-03
-3.984121e-06,-1.875000e-02
-3.976121e-06,6.250000e-03
-3.968121e-06,-2.750000e-02
-3.960121e-06,3.750000e-02
-3.952121e-06,-2.875000e-02
-3.944121e-06,1.750000e-02
-3.936121e-06,-4.750000e-02
-3.928121e-06,5.000000e-03
-3.920121e-06,-2.625000e-02
-3.912121e-06,8.750000e-03
-3.904121e-06,-3.750000e-02
-3.896121e-06,5.000000e-03
-3.888121e-06,-2.500000e-03
-3.880121e-06,3.625000e-02
-3.872121e-06,-1.125000e-02
-3.864121e-06,-3.750000e-03
-3.856121e-06,-2.875000e-02
-3.848121e-06,1.500000e-02
-3.840121e-06,-2.000000e-02
-3.832121e-06,1.125000e-02
-3.824121e-06,-1.875000e-02
-3.816121e-06,1.500000e-02
-3.808121e-06,-6.250000e-03
-3.800121e-06,1.000000e-02
-3.792121e-06,-4.125000e-02
-3.784121e-06,2.000000e-02
-3.776121e-06,-2.875000e-02
-3.768121e-06,1.000000e-02
-3.760121e-06,-1.000000e-02
-3.752121e-06,1.250000e-02
-3.744121e-06,-1.125000e-02
-3.736121e-06,-1.250000e-03
-3.728121e-06,1.250000e-02
-3.720121e-06,-6.250000e-03
-3.712121e-06,-2.750000e-02
-3.704121e-06,1.250000e-03
-3.696121e-06,-3.500000e-02
-3.688121e-06,2.875000e-02
-3.680121e-06,-1.000000e-02
-3.672121e-06,-8.750000e-03
-3.664121e-06,-4.875000e-02
-3.656121e-06,6.250000e-03
-3.648121e-06,-1.750000e-02
-3.640121e-06,8.750000e-03
-3.632121e-06,-2.500000e-03
-3.624121e-06,1.125000e-02
-3.616121e-06,-6.250000e-03
-3.608121e-06,1.250000e-02
-3.600121e-06,-3.375000e-02
-3.592121e-06,1.750000e-02
-3.584121e-06,-3.375000e-02
-3.576121e-06,1.250000e-02
-3.568121e-06,-3.125000e-02
-3.560121e-06,1.125000e-02
-3.552121e-06,-6.250000e-03
-3.544121e-06,1.375000e-02
-3.536121e-06,-2.500000e-02
-3.528121e-06,1.875000e-02
-3.520121e-06,-1.625000e-02
-3.512121e-06,2.000000e-02
-3.504121e-06,-2.625000e-02
-3.496121e-06,1.125000e-02
-3.488121e-06,-1.250000e-03
-3.480121e-06,3.750000e-03
-3.472121e-06,-2.625000e-02
-3.464121e-06,1.000000e-02
-3.456121e-06,-3.250000e-02
-3.448121e-06,1.000000e-02
-3.440121e-06,-3.250000e-02
-3.432121e-06,1.750000e-02
-3.424121e-06,-1.500000e-02
-3.416121e-06,-1.250000e-03
-3.408121e-06,-2.500000e-03
-3.400121e-06,7.500000e-03
-3.392121e-06,-3.500000e-02
-3.384121e-06,6.250000e-03
-3.376121e-06,-1.250000e-03
-3.368121e-06,1.000000e-02
-3.360121e-06,-1.625000e-02
-3.352121e-06,-2.375000e-02
-3.344121e-06,-8.750000e-03
-3.336121e-06,1.125000e-02
-3.328121e-06,-3.125000e-02
-3.320121e-06,1.875000e-02
-3.312121e-06,-1.375000e-02
-3.304121e-06,2.625000e-02
-3.296121e-06,-1.000000e-02
-3.288121e-06,1.250000e-02
-3.280121e-06,-1.875000e-02
-3.272121e-06,-5.000000e-03
-3.264121e-06,-3.750000e-03
-3.256121e-06,2.500000e-03
-3.248121e-06,-1.125000e-02
-3.240121e-06,2.750000e-02
-3.232121e-06,-6.250000e-03
-3.224121e-06,5.000000e-03
-3.216121e-06,-2.500000e-02
-3.208121e-06,1.750000e-02
-3.200121e-06,-1.750000e-02
-3.192121e-06,3.125000e-02
-3.184121e-06,-5.000000e-03
-3.176121e-06,1.875000e-02
-3.168121e-06,5.000000e-03
-3.160121e-06,1.625000e-02
-3.152121e-06,-1.125000e-02
-3.144121e-06,2.250000e-02
-3.136121e-06,-2.000000e-02
-3.128121e-06,0.000000e+00
-3.120121e-06,-1.750000e-02
-3.112121e-06,5.000000e-03
-3.104121e-06,2.500000e-03
-3.096121e-06,3.750000e-03
-3.088121e-06,-1.750000e-02
-3.080121e-06,1.125000e-02
-3.072121e-06,3.750000e-03
-3.064121e-06,4.250000e-02
-3.056121e-06,-1.000000e-02
-3.048121e-06,1.000000e-02
-3.040121e-06,-1.375000e-02
-3.032121e-06,2.500000e-03
-3.024121e-06,-1.000000e-02
-3.016121e-06,8.750000e-03
-3.008121e-06,-1.750000e-02
-3.000121e-06,5.000000e-03
-2.992121e-06,-1.250000e-03
-2.984121e-06,3.750000e-03
-2.976121e-06,-1.000000e-02
-2.968121e-06,5.000000e-03
-2.960121e-06,-2.750000e-02
-2.952121e-06,3.750000e-03
-2.944121e-06,-2.625000e-02
-2.936121e-06,1.000000e-02
-2.928121e-06,-1.000000e-02
-2.920121e-06,2.625000e-02
-2.912121e-06,-3.500000e-02
-2.904121e-06,1.125000e-02
-2.896121e-06,2.500000e-03
-2.888121e-06,1.250000e-02
-2.880121e-06,-1.500000e-02
-2.872121e-06,2.375000e-02
-2.864121e-06,-2.625000e-02
-2.856121e-06,2.000000e-02
-2.848121e-06,2.625000e-02
-2.840121e-06,5.000000e-03
-2.832121e-06,-1.000000e-02
-2.824121e-06,7.500000e-03
-2.816121e-06,-2.625000e-02
-2.808121e-06,1.000000e-02
-2.800121e-06,-7.500000e-03
-2.792121e-06,-3.750000e-03
-2.784121e-06,-2.125000e-02
-2.776121e-06,1.500000e-02
-2.768121e-06,-2.125000e-02
-2.760121e-06,-1.250000e-03
-2.752121e-06,-1.500000e-02
-2.744121e-06,1.125000e-02
-2.736121e-06,1.250000e-03
-2.728121e-06,3.125000e-02
-2.720121e-06,-3.750000e-03
-2.712121e-06,3.000000e-02
-2.704121e-06,-1.500000e-02
-2.696121e-06,8.750000e-03
-2.688121e-06,-1.875000e-02
-2.680121e-06,-2.500000e-03
-2.672121e-06,-1.250000e-02
-2.664121e-06,1.500000e-02
-2.656121e-06,-2.750000e-02
-2.648121e-06,-3.750000e-03
-2.640121e-06,-2.625000e-02
-2.632121e-06,-5.000000e-03
-2.624121e-06,-6.250000e-03
-2.616121e-06,7.500000e-03
-2.608121e-06,1.250000e-02
-2.600121e-06,3.750000e-03
-2.592121e-06,-5.000000e-03
-2.584121e-06,1.250000e-03
-2.576121e-06,-1.625000e-02
-2.568121e-06,7.500000e-03
-2.560121e-06,-2.500000e-02
-2.552121e-06,8.750000e-03
-2.544121e-06,-1.125000e-02
-2.536121e-06,5.000000e-03
-2.528121e-06,-1.250000e-02
-2.520121e-06,1.500000e-02
-2.512121e-06,-4.125000e-02
-2.504121e-06,-6.250000e-03
-2.496121e-06,-2.625000e-02
-2.488121e-06,-3.750000e-03
-2.480121e-06,-1.875000e-02
-2.472121e-06,-1.375000e-02
-2.464121e-06,-3.000000e-02
-2.456121e-06,1.250000e-03
-2.448121e-06,-6.250000e-03
-2.440121e-06,2.375000e-02
-2.432121e-06,-2.250000e-02
-2.424121e-06,3.750000e-03
-2.416121e-06,-2.000000e-02
-2.408121e-06,1.000000e-02
-2.400121e-06,-1.625000e-02
-2.392121e-06,1.125000e-02
-2.384121e-06,-5.000000e-03
-2.376121e-06,-1.250000e-03
-2.368121e-06,6.250000e-03
-2.360121e-06,7.500000e-03
-2.352121e-06,-3.000000e-02
-2.344121e-06,3.000000e-02
-2.336121e-06,2.500000e-03
-2.328121e-06,-5.000000e-03
-2.320121e-06,-1.250000e-02
-2.312121e-06,1.750000e-02
-2.304121e-06,-3.750000e-02
-2.296121e-06,1.500000e-02
-2.288121e-06,-1.000000e-02
-2.280121e-06,-8.750000e-03
-2.272121e-06,5.000000e-03
-2.264121e-06,5.000000e-03
-2.256121e-06,6.250000e-03
-2.248121e-06,5.000000e-03
-2.240121e-06,-1.375000e-02
-2.232121e-06,1.250000e-03
-2.224121e-06,-2.250000e-02
-2.216121e-06,3.375000e-02
-2.208121e-06,-1.250000e-02
-2.200121e-06,2.125000e-02
-2.192121e-06,-1.125000e-02
-2.184121e-06,1.125000e-02
-2.176121e-06,-2.375000e-02
-2.168121e-06,2.250000e-02
-2.160121e-06,-4.250000e-02
-2.152121e-06,1.625000e-02
-2.144121e-06,-3.750000e-03
-2.136121e-06,5.000000e-03
-2.128121e-06,-7.500000e-03
-2.120121e-06,1.375000e-02
-2.112121e-06,-1.125000e-02
-2.104121e-06,2.125000e-02
-2.096121e-06,1.250000e-02
-2.088121e-06,1.625000e-02
-2.080121e-06,-2.500000e-03
-2.072121e-06,1.500000e-02
-2.064121e-06,-1.250000e-02
-2.056121e-06,2.375000e-02
-2.048121e-06,-2.500000e-02
-2.040121e-06,1.250000e-03
-2.032121e-06,-2.750000e-02
-2.024121e-06,1.500000e-02
-2.016121e-06,-1.375000e-02
-2.008121e-06,-6.250000e-03
-2.000121e-06,-2.000000e-02
-1.992121e-06,-1.250000e-02
-1.984121e-06,-1.750000e-02
-1.976121e-06,-6.250000e-03
-1.968121e-06,-1.500000e-02
-1.960121e-06,1.500000e-02
-1.952121e-06,2.500000e-03
-1.944121e-06,2.250000e-02
-1.936121e-06,-6.250000e-03
-1.928121e-06,1.250000e-02
-1.920121e-06,-2.750000e-02
-1.912121e-06,1.750000e-02
-1.904121e-06,-2.750000e-02
-1.896121e-06,3.125000e-02
-1.888121e-06,-7.500000e-03
-1.880121e-06,1.375000e-02
-1.872121e-06,-8.750000e-03
-1.864121e-06,1.000000e-02
-1.856121e-06,-3.750000e-03
-1.848121e-06,-1.250000e-03
-1.840121e-06,-8.750000e-03
-1.832121e-06,1.375000e-02
-1.824121e-06,0.000000e+00
-1.816121e-06,2.125000e-02
-1.808121e-06,1.250000e-02
-1.800121e-06,2.750000e-02
-1.792121e-06,-1.375000e-02
-1.784121e-06,8.750000e-03
-1.776121e-06,-7.500000e-03
-1.768121e-06,2.875000e-02
-1.760121e-06,-2.625000e-02
-1.752121e-06,2.500000e-02
-1.744121e-06,8.750000e-03
-1.736121e-06,1.375000e-02
-1.728121e-06,-5.000000e-03
-1.720121e-06,6.250000e-03
-1.712121e-06,1.500000e-02
-1.704121e-06,-2.500000e-03
-1.696121e-06,-2.125000e-02
-1.688121e-06,1.250000e-02
-1.680121e-06,-5.000000e-03
-1.672121e-06,-8.750000e-03
-1.664121e-06,-4.125000e-02
-1.656121e-06,4.250000e-02
-1.648121e-06,-1.375000e-02
-1.640121e-06,2.375000e-02
-1.632121e-06,-7.500000e-03
-1.624121e-06,1.750000e-02
-1.616121e-06,-1.250000e-03
-1.608121e-06,1.750000e-02
-1.600121e-06,-3.000000e-02
-1.592121e-06,5.000000e-03
-1.584121e-06,3.750000e-03
-1.576121e-06,1.875000e-02
-1.568121e-06,-1.625000e-02
-1.560121e-06,3.750000e-02
-1.552121e-06,-8.750000e-03
-1.544121e-06,2.000000e-02
-1.536121e-06,-1.250000e-03
-1.528121e-06,2.500000e-03
-1.520121e-06,-1.750000e-02
-1.512121e-06,8.750000e-03
-1.504121e-06,-2.500000e-03
-1.496121e-06,2.500000e-03
-1.488121e-06,-2.875000e-02
-1.480121e-06,-1.625000e-02
-1.472121e-06,-2.750000e-02
-1.464121e-06,1.500000e-02
-1.456121e-06,-8.750000e-03
-1.448121e-06,2.375000e-02
-1.440121e-06,-1.875000e-02
-1.432121e-06,-1.000000e-02
-1.424121e-06,-2.625000e-02
-1.416121e-06,8.750000e-03
-1.408121e-06,-1.250000e-02
-1.400121e-06,1.000000e-02
-1.392121e-06,-3.000000e-02
-1.384121e-06,3.375000e-02
-1.376121e-06,-3.250000e-02
-1.368121e-06,1.000000e-02
-1.360121e-06,5.000000e-03
-1.352121e-06,2.500000e-03
-1.344121e-06,-1.750000e-02
-1.336121e-06,1.375000e-02
-1.328121e-06,-3.750000e-03
-1.320121e-06,2.000000e-02
-1.312121e-06,-8.750000e-03
-1.304121e-06,1.375000e-02
-1.296121e-06,-3.750000e-02
-1.288121e-06,3.250000e-02
-1.280121e-06,-2.250000e-02
-1.272121e-06,1.625000e-02
-1.264121e-06,-1.750000e-02
-1.256121e-06,1.750000e-02
-1.248121e-06,7.500000e-03
-1.240121e-06,2.625000e-02
-1.232121e-06,-2.500000e-03
-1.224121e-06,1.625000e-02
-1.216121e-06,-1.375000e-02
-1.208121e-06,2.500000e-02
-1.200121e-06,-2.125000e-02
-1.192121e-06,1.625000e-02
-1.184121e-06,-1.250000e-02
-1.176121e-06,1.375000e-02
-1.168121e-06,-2.500000e-03
-1.160121e-06,6.250000e-03
-1.152121e-06,-1.125000e-02
-1.144121e-06,2.500000e-03
-1.136121e-06,-5.000000e-03
-1.128121e-06,2.500000e-03
-1.120121e-06,-2.125000e-02
-1.112121e-06,7.500000e-03
-1.104121e-06,-2.625000e-02
-1.096121e-06,2.000000e-02
-1.088121e-06,-6.250000e-03
-1.080121e-06,-1.000000e-02
-1.072121e-06,-8.750000e-03
-1.064121e-06,2.250000e-02
-1.056121e-06,-1.375000e-02
-1.048121e-06,3.500000e-02
-1.040121e-06,-8.750000e-03
-1.032121e-06,1.500000e-02
-1.024121e-06,-2.625000e-02
-1.016121e-06,1.875000e-02
-1.008121e-06,-2.125000e-02
-1.000121e-06,1.375000e-02
-9.921213e-07,-6.250000e-03
-9.841213e-07,-3.750000e-03
-9.761213e-07,-2.875000e-02
-9.681213e-07,3.750000e-03
-9.601213e-07,-1.750000e-02
-9.521213e-07,8.750000e-03
-9.441213e-07,-1.250000e-02
-9.361213e-07,2.750000e-02
-9.281213e-07,1.625000e-02
-9.201213e-07,2.375000e-02
-9.121213e-07,-1.250000e-02
-9.041213e-07,1.750000e-02
-8.961213e-07,-3.500000e-02
-8.881213e-07,1.125000e-02
-8.801213e-07,-2.750000e-02
-8.721213e-07,2.500000e-02
-8.641213e-07,-2.875000e-02
-8.561213e-07,1.250000e-02
-8.481213e-07,-1.250000e-03
-8.401213e-07,2.125000e-02
-8.321213e-07,-8.750000e-03
-8.241213e-07,1.000000e-02
-8.161213e-07,1.375000e-02
-8.081213e-07,1.750000e-02
-8.001213e-07,-6.250000e-03
-7.921213e-07,7.500000e-03
-7.841213e-07,-1.375000e-02
-7.761213e-07,-3.750000e-03
-7.681213e-07,-1.625000e-02
-7.601213e-07,0.000000e+00
-7.521213e-07,-1.625000e-02
-7.441213e-07,1.625000e-02
-7.361213e-07,-1.000000e-02
-7.281213e-07,5.000000e-03
-7.201213e-07,-3.750000e-03
-7.121213e-07,5.000000e-03
-7.041213e-07,-1.875000e-02
-6.961213e-07,8.750000e-03
-6.881213e-07,-1.375000e-02
-6.801213e-07,1.875000e-02
-6.721213e-07,0.000000e+00
-6.641213e-07,8.750000e-03
-6.561213e-07,-1.250000e-02
-6.481213e-07,2.375000e-02
-6.401213e-07,-1.250000e-03
-6.321213e-07,1.000000e-02
-6.241213e-07,-1.625000e-02
-6.161213e-07,3.250000e-02
-6.081213e-07,-1.250000e-02
-6.001213e-07,6.250000e-03
-5.921213e-07,1.250000e-03
-5.841213e-07,1.875000e-02
-5.761213e-07,-1.500000e-02
-5.681213e-07,0.000000e+00
-5.601213e-07,-1.250000e-02
-5.521213e-07,2.250000e-02
-5.441213e-07,-1.375000e-02
-5.361213e-07,2.750000e-02
-5.281213e-07,-1.875000e-02
-5.201213e-07,1.750000e-02
-5.121213e-07,-1.750000e-02
-5.041213e-07,2.500000e-03
-4.961213e-07,-3.250000e-02
-4.881213e-07,1.750000e-02
-4.801213e-07,-6.250000e-03
-4.721213e-07,-1.125000e-02
-4.641213e-07,-2.750000e-02
-4.561213e-07,3.750000e-03
-4.481213e-07,-3.375000e-02
-4.401213e-07,1.125000e-02
-4.321213e-07,-1.625000e-02
-4.241213e-07,1.125000e-02
-4.161213e-07,-1.250000e-02
-4.081213e-07,2.125000e-02
-4.001213e-07,-1.500000e-02
-3.921213e-07,1.750000e-02
-3.841213e-07,-3.875000e-02
-3.761213e-07,1.000000e-02
-3.681213e-07,-1.375000e-02
-3.601213e-07,1.500000e-02
-3.521213e-07,-4.500000e-02
-3.441213e-07,-5.000000e-03
-3.361213e-07,-1.750000e-02
-3.281213e-07,2.750000e-02
-3.201213e-07,-1.625000e-02
-3.121213e-07,1.625000e-02
-3.041213e-07,-2.500000e-03
-2.961213e-07,1.875000e-02
-2.881213e-07,1.250000e-03
-2.801213e-07,1.625000e-02
-2.721213e-07,-1.375000e-02
-2.641213e-07,3.125000e-02
-2.561213e-07,-1.375000e-02
-2.481213e-07,1.000000e-02
-2.401213e-07,-2.250000e-02
-2.321213e-07,1.125000e-02
-2.241213e-07,-1.875000e-02
-2.161213e-07,0.000000e+00
-2.081213e-07,-1.500000e-02
-2.001213e-07,1.375000e-02
-1.921213e-07,-2.375000e-02
-1.841213e-07,7.500000e-03
-1.761213e-07,-6.250000e-03
-1.681213e-07,2.000000e-02
-1.601213e-07,8.750000e-03
-1.521213e-07,1.250000e-03
-1.441213e-07,-3.000000e-02
-1.361213e-07,1.000000e-02
-1.281213e-07,-2.375000e-02
-1.201213e-07,-1.250000e-03
-1.121213e-07,-2.500000e-03
-1.041213e-07,1.250000e-02
-9.612125e-08,5.000000e-03
-8.812125e-08,0.000000e+00
-8.012125e-08,-3.000000e-02
-7.212125e-08,2.875000e-02
-6.412125e-08,-3.000000e-02
-5.612125e-08,1.250000e-02
-4.812125e-08,-4.750000e-02
-4.012125e-08,2.250000e-02
-3.212125e-08,7.500000e-03
-2.412125e-08,-1.125000e-02
-1.612125e-08,-2.125000e-02
-8.121250e-09,2.500000e-02
-1.212500e-10,-1.887500e-01
7.878750e-09,-1.388750e+00
1.587875e-08,-1.430000e+00
2.387875e-08,-1.401250e+00
3.187875e-08,-1.000000e-01
3.987875e-08,-2.250000e-02
4.787875e-08,-8.750000e-03
5.587875e-08,6.250000e-03
6.387875e-08,-1.125000e-02
7.187875e-08,6.250000e-03
7.987875e-08,-2.250000e-02
8.787875e-08,1.500000e-02
9.587875e-08,-7.500000e-03
1.038787e-07,1.125000e-02
1.118787e-07,-1.375000e-02
1.198787e-07,0.000000e+00
1.278787e-07,-1.375000e-02
1.358787e-07,7.500000e-03
1.438787e-07,-1.000000e-02
1.518787e-07,2.875000e-02
1.598787e-07,-1.000000e-02
1.678787e-07,1.875000e-02
1.758787e-07,-1.750000e-02
1.838787e-07,2.500000e-03
1.918787e-07,-3.500000e-02
1.998787e-07,2.500000e-02
2.078787e-07,-1.125000e-02
2.158787e-07,8.750000e-03
2.238787e-07,-5.000000e-03
2.318787e-07,2.500000e-02
2.398787e-07,-1.500000e-02
2.478787e-07,2.125000e-02
2.558787e-07,-2.125000e-02
2.638787e-07,3.375000e-02
2.718787e-07,-1.875000e-02
2.798787e-07,2.250000e-02
2.878787e-07,2.250000e-02
2.958787e-07,3.750000e-02
3.038787e-07,-2.875000e-02
3.118787e-07,1.375000e-02
3.198787e-07,-2.750000e-02
3.278787e-07,3.250000e-02
3.358787e-07,1.250000e-03
3.438787e-07,1.375000e-02
3.518787e-07,-5.000000e-03
3.598787e-07,1.750000e-02
3.678787e-07,1.000000e-02
3.758787e-07,1.250000e-03
3.838787e-07,-5.000000e-02
3.918787e-07,1.500000e-02
3.998787e-07,-2.375000e-02
4.078787e-07,2.625000e-02
4.158787e-07,-1.875000e-02
4.238787e-07,-3.750000e-03
4.318787e-07,-8.750000e-03
4.398787e-07,3.750000e-03
4.478787e-07,-1.750000e-02
4.558787e-07,3.750000e-03
4.638787e-07,0.000000e+00
4.718787e-07,1.250000e-02
4.798787e-07,-1.375000e-02
4.878787e-07,1.625000e-02
4.958787e-07,-2.125000e-02
5.038787e-07,1.250000e-03
5.118787e-07,-2.000000e-02
5.198787e-07,7.500000e-03
5.278787e-07,-3.375000e-02
5.358787e-07,4.125000e-02
5.438787e-07,2.500000e-03
5.518787e-07,1.500000e-02
5.598787e-07,-2.750000e-02
5.678787e-07,1.250000e-03
5.758787e-07,-1.125000e-02
5.838787e-07,1.250000e-03
5.918787e-07,-1.250000e-03
5.998787e-07,1.875000e-02
6.078787e-07,-2.125000e-02
6.158787e-07,2.875000e-02
6.238787e-07,-1.125000e-02
6.318787e-07,1.125000e-02
6.398787e-07,-2.750000e-02
6.478787e-07,1.250000e-03
6.558787e-07,8.750000e-03
6.638787e-07,2.625000e-02
6.718787e-07,1.000000e-02
6.798787e-07,-1.125000e-02
6.878787e-07,-5.000000e-03
6.958787e-07,1.250000e-02
7.038787e-07,-2.250000e-02
7.118787e-07,1.250000e-03
7.198787e-07,-8.750000e-03
7.278787e-07,2.750000e-02
7.358787e-07,-2.500000e-03
7.438787e-07,2.750000e-02
7.518787e-07,-1.875000e-02
7.598787e-07,1.375000e-02
7.678787e-07,-2.750000e-02
7.758787e-07,7.500000e-03
7.838787e-07,-1.000000e-02
7.918787e-07,1.125000e-02
7.998787e-07,-2.375000e-02
