run1/run1_ch3_20210318180137859.csv

Model,MSO64
Waveform Type,ANALOG
Horizontal Units,s
Sample Interval,8.000000e-09
Record Length,1250
Zero Index,624.250000
Vertical Units,V

TIME,CH3
-4.994000e-06,-7.534375e-01
-4.986000e-06,-7.346875e-01
-4.978000e-06,-7.534375e-01
-4.970000e-06,-7.312500e-01
-4.962000e-06,-7.421875e-01
-4.954000e-06,-7.296875e-01
-4.946000e-06,-7.415625e-01
-4.938000e-06,-7.475000e-01
-4.930000e-06,-7.465625e-01
-4.922000e-06,-7.425000e-01
-4.914000e-06,-7.484375e-01
-4.906000e-06,-7.312500e-01
-4.898000e-06,-7.428125e-01
-4.890000e-06,-7.393750e-01
-4.882000e-06,-7.312500e-01
-4.874000e-06,-7.300000e-01
-4.866000e-06,-7.396875e-01
-4.858000e-06,-7.400000e-01
-4.850000e-06,-7.521875e-01
-4.842000e-06,-7.318750e-01
-4.834000e-06,-7.506250e-01
-4.826000e-06,-7.078125e-01
-4.818000e-06,-7.593750e-01
-4.810000e-06,-7.353125e-01
-4.802000e-06,-7.475000e-01
-4.794000e-06,-7.415625e-01
-4.786000e-06,-7.596875e-01
-4.778000e-06,-7.343750e-01
-4.770000e-06,-7.415625e-01
-4.762000e-06,-7.334375e-01
-4.754000e-06,-7.378125e-01
-4.746000e-06,-7.275000e-01
-4.738000e-06,-7.562500e-01
-4.730000e-06,-7.512500e-01
-4.722000e-06,-7.581250e-01
-4.714000e-06,-7.281250e-01
-4.706000e-06,-7.387500e-01
-4.698000e-06,-7.290625e-01
-4.690000e-06,-7.587500e-01
-4.682000e-06,-7.434375e-01
-4.674000e-06,-7.446875e-01
-4.666000e-06,-7.331250e-01
-4.658000e-06,-7.578125e-01
-4.650000e-06,-7.265625e-01
-4.642000e-06,-7.384375e-01
-4.634000e-06,-7.278125e-01
-4.626000e-06,-7.378125e-01
-4.618000e-06,-7.375000e-01
-4.610000e-06,-7.559375e-01
-4.602000e-06,-7.362500e-01
-4.594000e-06,-7.503125e-01
-4.586000e-06,-7.362500e-01
-4.578000e-06,-7.556250e-01
-4.570000e-06,-7.275000e-01
-4.562000e-06,-7.578125e-01
-4.554000e-06,-7.375000e-01
-4.546000e-06,-7.521875e-01
-4.538000e-06,-7.453125e-01
-4.530000e-06,-7.587500e-01
-4.522000e-06,-7.321875e-01
-4.514000e-06,-7.375000e-01
-4.506000e-06,-7.293750e-01
-4.498000e-06,-7.453125e-01
-4.490000e-06,-7.315625e-01
-4.482000e-06,-7.525000e-01
-4.474000e-06,-7.246875e-01
-4.466000e-06,-7.606250e-01
-4.458000e-06,-7.325000e-01
-4.450000e-06,-7.400000e-01
-4.442000e-06,-7.231250e-01
-4.434000e-06,-7.440625e-01
-4.426000e-06,-7.506250e-01
-4.418000e-06,-7.481250e-01
-4.410000e-06,-7.312500e-01
-4.402000e-06,-7.528125e-01
-4.394000e-06,-7.312500e-01
-4.386000e-06,-7.356250e-01
-4.378000e-06,-7.221875e-01
-4.370000e-06,-7.487500e-01
-4.362000e-06,-7.337500e-01
-4.354000e-06,-7.525000e-01
-4.346000e-06,-7.234375e-01
-4.338000e-06,-7.487500e-01
-4.330000e-06,-7.381250e-01
-4.322000e-06,-7.503125e-01
-4.314000e-06,-7.103125e-01
-4.306000e-06,-7.431250e-01
-4.298000e-06,-7.453125e-01
-4.290000e-06,-7.456250e-01
-4.282000e-06,-7.421875e-01
-4.274000e-06,-7.509375e-01
-4.266000e-06,-7.343750e-01
-4.258000e-06,-7.387500e-01
-4.250000e-06,-7.206250e-01
-4.242000e-06,-7.484375e-01
-4.234000e-06,-7.306250e-01
-4.226000e-06,-7.512500e-01
-4.218000e-06,-7.425000e-01
-4.210000e-06,-7.496875e-01
-4.202000e-06,-7.293750e-01
-4.194000e-06,-7.525000e-01
-4.186000e-06,-7.243750e-01
-4.178000e-06,-7.559375e-01
-4.170000e-06,-7.459375e-01
-4.162000e-06,-7.415625e-01
-4.154000e-06,-7.437500e-01
-4.146000e-06,-7.593750e-01
-4.138000e-06,-7.387500e-01
-4.130000e-06,-7.512500e-01
-4.122000e-06,-7.256250e-01
-4.114000e-06,-7.365625e-01
-4.106000e-06,-7.318750e-01
-4.098000e-06,-7.615625e-01
-4.090000e-06,-7.265625e-01
-4.082000e-06,-7.512500e-01
-4.074000e-06,-7.318750e-01
-4.066000e-06,-7.478125e-01
-4.058000e-06,-7.256250e-01
-4.050000e-06,-7.487500e-01
-4.042000e-06,-7.393750e-01
-4.034000e-06,-7.481250e-01
-4.026000e-06,-7.334375e-01
-4.018000e-06,-7.515625e-01
-4.010000e-06,-7.362500e-01
-4.002000e-06,-7.500000e-01
-3.994000e-06,-7.268750e-01
-3.986000e-06,-7.481250e-01
-3.978000e-06,-7.275000e-01
-3.970000e-06,-7.500000e-01
-3.962000e-06,-7.340625e-01
-3.954000e-06,-7.606250e-01
-3.946000e-06,-7.362500e-01
-3.938000e-06,-7.593750e-01
-3.930000e-06,-7.165625e-01
-3.922000e-06,-7.521875e-01
-3.914000e-06,-7.337500e-01
-3.906000e-06,-7.484375e-01
-3.898000e-06,-7.365625e-01
-3.890000e-06,-7.515625e-01
-3.882000e-06,-7.178125e-01
-3.874000e-06,-7.540625e-01
-3.866000e-06,-7.165625e-01
-3.858000e-06,-7.390625e-01
-3.850000e-06,-7.315625e-01
-3.842000e-06,-7.425000e-01
-3.834000e-06,-7.359375e-01
-3.826000e-06,-7.584375e-01
-3.818000e-06,-7.331250e-01
-3.810000e-06,-7.368750e-01
-3.802000e-06,-7.171875e-01
-3.794000e-06,-7.421875e-01
-3.786000e-06,-7.393750e-01
-3.778000e-06,-7.481250e-01
-3.770000e-06,-7.259375e-01
-3.762000e-06,-7.584375e-01
-3.754000e-06,-7.312500e-01
-3.746000e-06,-7.390625e-01
-3.738000e-06,-7.325000e-01
-3.730000e-06,-7.384375e-01
-3.722000e-06,-7.384375e-01
-3.714000e-06,-7.565625e-01
-3.706000e-06,-7.300000e-01
-3.698000e-06,-7.503125e-01
-3.690000e-06,-7.375000e-01
-3.682000e-06,-7.562500e-01
-3.674000e-06,-7.231250e-01
-3.666000e-06,-7.475000e-01
-3.658000e-06,-7.390625e-01
-3.650000e-06,-7.512500e-01
-3.642000e-06,-7.375000e-01
-3.634000e-06,-7.606250e-01
-3.626000e-06,-7.284375e-01
-3.618000e-06,-7.521875e-01
-3.610000e-06,-7.453125e-01
-3.602000e-06,-7.456250e-01
-3.594000e-06,-7.343750e-01
-3.586000e-06,-7.562500e-01
-3.578000e-06,-7.375000e-01
-3.570000e-06,-7.503125e-01
-3.562000e-06,-7.343750e-01
-3.554000e-06,-7.559375e-01
-3.546000e-06,-7.196875e-01
-3.538000e-06,-7.506250e-01
-3.530000e-06,-7.456250e-01
-3.522000e-06,-7.596875e-01
-3.514000e-06,-7.440625e-01
-3.506000e-06,-7.515625e-01
-3.498000e-06,-7.296875e-01
-3.490000e-06,-7.346875e-01
-3.482000e-06,-7.284375e-01
-3.474000e-06,-7.418750e-01
-3.466000e-06,-7.237500e-01
-3.458000e-06,-7.446875e-01
-3.450000e-06,-7.318750e-01
-3.442000e-06,-7.534375e-01
-3.434000e-06,-7.362500e-01
-3.426000e-06,-7.475000e-01
-3.418000e-06,-7.187500e-01
-3.410000e-06,-7.543750e-01
-3.402000e-06,-7.421875e-01
-3.394000e-06,-7.484375e-01
-3.386000e-06,-7.325000e-01
-3.378000e-06,-7.453125e-01
-3.370000e-06,-7.384375e-01
-3.362000e-06,-7.415625e-01
-3.354000e-06,-7.290625e-01
-3.346000e-06,-7.587500e-01
-3.338000e-06,-7.337500e-01
-3.330000e-06,-7.706250e-01
-3.322000e-06,-7.350000e-01
-3.314000e-06,-7.543750e-01
-3.306000e-06,-7.475000e-01
-3.298000e-06,-7.506250e-01
-3.290000e-06,-7.265625e-01
-3.282000e-06,-7.381250e-01
-3.274000e-06,-7.312500e-01
-3.266000e-06,-7.631250e-01
-3.258000e-06,-7.415625e-01
-3.250000e-06,-7.609375e-01
-3.242000e-06,-7.281250e-01
-3.234000e-06,-7.393750e-01
-3.226000e-06,-7.306250e-01
-3.218000e-06,-7.371875e-01
-3.210000e-06,-7.350000e-01
-3.202000e-06,-7.562500e-01
-3.194000e-06,-7.287500e-01
-3.186000e-06,-7.471875e-01
-3.178000e-06,-7.306250e-01
-3.170000e-06,-7.525000e-01
-3.162000e-06,-7.187500e-01
-3.154000e-06,-7.387500e-01
-3.146000e-06,-7.478125e-01
-3.138000e-06,-7.546875e-01
-3.130000e-06,-7.356250e-01
-3.122000e-06,-7.631250e-01
-3.114000e-06,-7.381250e-01
-3.106000e-06,-7.456250e-01
-3.098000e-06,-7.306250e-01
-3.090000e-06,-7.465625e-01
-3.082000e-06,-7.487500e-01
-3.074000e-06,-7.606250e-01
-3.066000e-06,-7.387500e-01
-3.058000e-06,-7.606250e-01
-3.050000e-06,-7.268750e-01
-3.042000e-06,-7.487500e-01
-3.034000e-06,-7.250000e-01
-3.026000e-06,-7.443750e-01
-3.018000e-06,-7.496875e-01
-3.010000e-06,-7.543750e-01
-3.002000e-06,-7.553125e-01
-2.994000e-06,-7.596875e-01
-2.986000e-06,-7.321875e-01
-2.978000e-06,-7.450000e-01
-2.970000e-06,-7.415625e-01
-2.962000e-06,-7.371875e-01
-2.954000e-06,-7.375000e-01
-2.946000e-06,-7.543750e-01
-2.938000e-06,-7.362500e-01
-2.930000e-06,-7.465625e-01
-2.922000e-06,-7.262500e-01
-2.914000e-06,-7.462500e-01
-2.906000e-06,-7.215625e-01
-2.898000e-06,-7.471875e-01
-2.890000e-06,-7.350000e-01
-2.882000e-06,-7.568750e-01
-2.874000e-06,-7.371875e-01
-2.866000e-06,-7.493750e-01
-2.858000e-06,-7.337500e-01
-2.850000e-06,-7.521875e-01
-2.842000e-06,-7.246875e-01
-2.834000e-06,-7.334375e-01
-2.826000e-06,-7.318750e-01
-2.818000e-06,-7.506250e-01
-2.810000e-06,-7.281250e-01
-2.802000e-06,-7.515625e-01
-2.794000e-06,-7.337500e-01
-2.786000e-06,-7.475000e-01
-2.778000e-06,-7.315625e-01
-2.770000e-06,-7.540625e-01
-2.762000e-06,-7.415625e-01
-2.754000e-06,-7.537500e-01
-2.746000e-06,-7.428125e-01
-2.738000e-06,-7.459375e-01
-2.730000e-06,-7.315625e-01
-2.722000e-06,-7.506250e-01
-2.714000e-06,-7.340625e-01
-2.706000e-06,-7.537500e-01
-2.698000e-06,-7.356250e-01
-2.690000e-06,-7.550000e-01
-2.682000e-06,-7.275000e-01
-2.674000e-06,-7.509375e-01
-2.666000e-06,-7.334375e-01
-2.658000e-06,-7.468750e-01
-2.650000e-06,-7.225000e-01
-2.642000e-06,-7.575000e-01
-2.634000e-06,-7.393750e-01
-2.626000e-06,-7.553125e-01
-2.618000e-06,-7.484375e-01
-2.610000e-06,-7.437500e-01
-2.602000e-06,-7.293750e-01
-2.594000e-06,-7.578125e-01
-2.586000e-06,-7.287500e-01
-2.578000e-06,-7.315625e-01
-2.570000e-06,-7.293750e-01
-2.562000e-06,-7.503125e-01
-2.554000e-06,-7.325000e-01
-2.546000e-06,-7.518750e-01
-2.538000e-06,-7.309375e-01
-2.530000e-06,-7.418750e-01
-2.522000e-06,-7.228125e-01
-2.514000e-06,-7.381250e-01
-2.506000e-06,-7.340625e-01
-2.498000e-06,-7.471875e-01
-2.490000e-06,-7.475000e-01
-2.482000e-06,-7.525000e-01
-2.474000e-06,-7.359375e-01
-2.466000e-06,-7.468750e-01
-2.458000e-06,-7.228125e-01
-2.450000e-06,-7.431250e-01
-2.442000e-06,-7.243750e-01
-2.434000e-06,-7.556250e-01
-2.426000e-06,-7.484375e-01
-2.418000e-06,-7.593750e-01
-2.410000e-06,-7.231250e-01
-2.402000e-06,-7.462500e-01
-2.394000e-06,-7.287500e-01
-2.386000e-06,-7.525000e-01
-2.378000e-06,-7.409375e-01
-2.370000e-06,-7.496875e-01
-2.362000e-06,-7.259375e-01
-2.354000e-06,-7.537500e-01
-2.346000e-06,-7.300000e-01
-2.338000e-06,-7.356250e-01
-2.330000e-06,-7.246875e-01
-2.322000e-06,-7.425000e-01
-2.314000e-06,-7.368750e-01
-2.306000e-06,-7.546875e-01
-2.298000e-06,-7.362500e-01
-2.290000e-06,-7.543750e-01
-2.282000e-06,-7.396875e-01
-2.274000e-06,-7.375000e-01
-2.266000e-06,-7.240625e-01
-2.258000e-06,-7.390625e-01
-2.250000e-06,-7.371875e-01
-2.242000e-06,-7.500000e-01
-2.234000e-06,-7.475000e-01
-2.226000e-06,-7.500000e-01
-2.218000e-06,-7.425000e-01
-2.210000e-06,-7.503125e-01
-2.202000e-06,-7.381250e-01
-2.194000e-06,-7.518750e-01
-2.186000e-06,-7.337500e-01
-2.178000e-06,-7.415625e-01
-2.170000e-06,-7.265625e-01
-2.162000e-06,-7.496875e-01
-2.154000e-06,-7.296875e-01
-2.146000e-06,-7.500000e-01
-2.138000e-06,-7.146875e-01
-2.130000e-06,-7.525000e-01
-2.122000e-06,-7.368750e-01
-2.114000e-06,-7.590625e-01
-2.106000e-06,-7.390625e-01
-2.098000e-06,-7.568750e-01
-2.090000e-06,-7.268750e-01
-2.082000e-06,-7.378125e-01
-2.074000e-06,-7.325000e-01
-2.066000e-06,-7.437500e-01
-2.058000e-06,-7.281250e-01
-2.050000e-06,-7.593750e-01
-2.042000e-06,-7.368750e-01
-2.034000e-06,-7.556250e-01
-2.026000e-06,-7.440625e-01
-2.018000e-06,-7.421875e-01
-2.010000e-06,-7.384375e-01
-2.002000e-06,-7.481250e-01
-1.994000e-06,-7.437500e-01
-1.986000e-06,-7.459375e-01
-1.978000e-06,-7.309375e-01
-1.970000e-06,-7.625000e-01
-1.962000e-06,-7.284375e-01
-1.954000e-06,-7.500000e-01
-1.946000e-06,-7.215625e-01
-1.938000e-06,-7.340625e-01
-1.930000e-06,-7.268750e-01
-1.922000e-06,-7.484375e-01
-1.914000e-06,-7.243750e-01
-1.906000e-06,-7.403125e-01
-1.898000e-06,-7.281250e-01
-1.890000e-06,-7.500000e-01
-1.882000e-06,-7.209375e-01
-1.874000e-06,-7.518750e-01
-1.866000e-06,-7.450000e-01
-1.858000e-06,-7.590625e-01
-1.850000e-06,-7.337500e-01
-1.842000e-06,-7.656250e-01
-1.834000e-06,-7.278125e-01
-1.826000e-06,-7.496875e-01
-1.818000e-06,-7.396875e-01
-1.810000e-06,-7.293750e-01
-1.802000e-06,-7.209375e-01
-1.794000e-06,-7.559375e-01
-1.786000e-06,-7.146875e-01
-1.778000e-06,-7.543750e-01
-1.770000e-06,-7.262500e-01
-1.762000e-06,-7.443750e-01
-1.754000e-06,-7.206250e-01
-1.746000e-06,-7.468750e-01
-1.738000e-06,-7.446875e-01
-1.730000e-06,-7.440625e-01
-1.722000e-06,-7.484375e-01
-1.714000e-06,-7.503125e-01
-1.706000e-06,-7.453125e-01
-1.698000e-06,-7.503125e-01
-1.690000e-06,-7.309375e-01
-1.682000e-06,-7.340625e-01
-1.674000e-06,-7.318750e-01
-1.666000e-06,-7.534375e-01
-1.658000e-06,-7.331250e-01
-1.650000e-06,-7.621875e-01
-1.642000e-06,-7.312500e-01
-1.634000e-06,-7.446875e-01
-1.626000e-06,-7.290625e-01
-1.618000e-06,-7.568750e-01
-1.610000e-06,-7.525000e-01
-1.602000e-06,-7.568750e-01
-1.594000e-06,-7.415625e-01
-1.586000e-06,-7.475000e-01
-1.578000e-06,-7.368750e-01
-1.570000e-06,-7.500000e-01
-1.562000e-06,-7.278125e-01
-1.554000e-06,-7.312500e-01
-1.546000e-06,-7.359375e-01
-1.538000e-06,-7.525000e-01
-1.530000e-06,-7.362500e-01
-1.522000e-06,-7.559375e-01
-1.514000e-06,-7.365625e-01
-1.506000e-06,-7.462500e-01
-1.498000e-06,-7.237500e-01
-1.490000e-06,-7.506250e-01
-1.482000e-06,-7.415625e-01
-1.474000e-06,-7.437500e-01
-1.466000e-06,-7.465625e-01
-1.458000e-06,-7.475000e-01
-1.450000e-06,-7.353125e-01
-1.442000e-06,-7.418750e-01
-1.434000e-06,-7.381250e-01
-1.426000e-06,-7.371875e-01
-1.418000e-06,-7.378125e-01
-1.410000e-06,-7.606250e-01
-1.402000e-06,-7.346875e-01
-1.394000e-06,-7.615625e-01
-1.386000e-06,-7.337500e-01
-1.378000e-06,-7.496875e-01
-1.370000e-06,-7.306250e-01
-1.362000e-06,-7.562500e-01
-1.354000e-06,-7.581250e-01
-1.346000e-06,-7.534375e-01
-1.338000e-06,-7.484375e-01
-1.330000e-06,-7.515625e-01
-1.322000e-06,-7.350000e-01
-1.314000e-06,-7.362500e-01
-1.306000e-06,-7.346875e-01
-1.298000e-06,-7.415625e-01
-1.290000e-06,-7.356250e-01
-1.282000e-06,-7.550000e-01
-1.274000e-06,-7.259375e-01
-1.266000e-06,-7.593750e-01
-1.258000e-06,-7.340625e-01
-1.250000e-06,-7.628125e-01
-1.242000e-06,-7.171875e-01
-1.234000e-06,-7.446875e-01
-1.226000e-06,-7.437500e-01
-1.218000e-06,-7.362500e-01
-1.210000e-06,-7.396875e-01
-1.202000e-06,-7.453125e-01
-1.194000e-06,-7.328125e-01
-1.186000e-06,-7.337500e-01
-1.178000e-06,-7.206250e-01
-1.170000e-06,-7.331250e-01
-1.162000e-06,-7.356250e-01
-1.154000e-06,-7.453125e-01
-1.146000e-06,-7.450000e-01
-1.138000e-06,-7.475000e-01
-1.130000e-06,-7.243750e-01
-1.122000e-06,-7.481250e-01
-1.114000e-06,-7.121875e-01
-1.106000e-06,-7.462500e-01
-1.098000e-06,-7.381250e-01
-1.090000e-06,-7.481250e-01
-1.082000e-06,-7.468750e-01
-1.074000e-06,-7.468750e-01
-1.066000e-06,-7.362500e-01
-1.058000e-06,-7.465625e-01
-1.050000e-06,-7.259375e-01
-1.042000e-06,-7.478125e-01
-1.034000e-06,-7.306250e-01
-1.026000e-06,-7.475000e-01
-1.018000e-06,-7.234375e-01
-1.010000e-06,-7.490625e-01
-1.002000e-06,-7.378125e-01
-9.940000e-07,-7.515625e-01
-9.860000e-07,-7.175000e-01
-9.780000e-07,-7.462500e-01
-9.700000e-07,-7.462500e-01
-9.620000e-07,-7.509375e-01
-9.540000e-07,-7.362500e-01
-9.460000e-07,-7.487500e-01
-9.380000e-07,-7.334375e-01
-9.300000e-07,-7.368750e-01
-9.220000e-07,-7.250000e-01
-9.140000e-07,-7.384375e-01
-9.060000e-07,-7.318750e-01
-8.980000e-07,-7.403125e-01
-8.900000e-07,-7.356250e-01
-8.820000e-07,-7.543750e-01
-8.740000e-07,-7.268750e-01
-8.660000e-07,-7.312500e-01
-8.580000e-07,-7.256250e-01
-8.500000e-07,-7.409375e-01
-8.420000e-07,-7.331250e-01
-8.340000e-07,-7.446875e-01
-8.260000e-07,-7.368750e-01
-8.180000e-07,-7.553125e-01
-8.100000e-07,-7.159375e-01
-8.020000e-07,-7.428125e-01
-7.940000e-07,-7.137500e-01
-7.860000e-07,-7.278125e-01
-7.780000e-07,-7.440625e-01
-7.700000e-07,-7.418750e-01
-7.620000e-07,-7.331250e-01
-7.540000e-07,-7.643750e-01
-7.460000e-07,-7.240625e-01
-7.380000e-07,-7.481250e-01
-7.300000e-07,-7.115625e-01
-7.220000e-07,-7.478125e-01
-7.140000e-07,-7.371875e-01
-7.060000e-07,-7.575000e-01
-6.980000e-07,-7.418750e-01
-6.900000e-07,-7.581250e-01
-6.820000e-07,-7.228125e-01
-6.740000e-07,-7.528125e-01
-6.660000e-07,-7.356250e-01
-6.580000e-07,-7.371875e-01
-6.500000e-07,-7.181250e-01
-6.420000e-07,-7.550000e-01
-6.340000e-07,-7.181250e-01
-6.260000e-07,-7.625000e-01
-6.180000e-07,-7.253125e-01
-6.100000e-07,-7.356250e-01
-6.020000e-07,-7.096875e-01
-5.940000e-07,-7.456250e-01
-5.860000e-07,-7.340625e-01
-5.780000e-07,-7.456250e-01
-5.700000e-07,-7.284375e-01
-5.620000e-07,-7.587500e-01
-5.540000e-07,-7.362500e-01
-5.460000e-07,-7.434375e-01
-5.380000e-07,-7.212500e-01
-5.300000e-07,-7.309375e-01
-5.220000e-07,-7.275000e-01
-5.140000e-07,-7.459375e-01
-5.060000e-07,-7.253125e-01
-4.980000e-07,-7.578125e-01
-4.900000e-07,-7.350000e-01
-4.820000e-07,-7.415625e-01
-4.740000e-07,-7.268750e-01
-4.660000e-07,-7.375000e-01
-4.580000e-07,-7.421875e-01
-4.500000e-07,-7.471875e-01
-4.420000e-07,-7.381250e-01
-4.340000e-07,-7.596875e-01
-4.260000e-07,-7.146875e-01
-4.180000e-07,-7.471875e-01
-4.100000e-07,-7.312500e-01
-4.020000e-07,-7.262500e-01
-3.940000e-07,-7.250000e-01
-3.860000e-07,-7.400000e-01
-3.780000e-07,-7.234375e-01
-3.700000e-07,-7.484375e-01
-3.620000e-07,-7.262500e-01
-3.540000e-07,-7.518750e-01
-3.460000e-07,-7.206250e-01
-3.380000e-07,-7.475000e-01
-3.300000e-07,-7.421875e-01
-3.220000e-07,-7.490625e-01
-3.140000e-07,-7.371875e-01
-3.060000e-07,-7.534375e-01
-2.980000e-07,-7.256250e-01
-2.900000e-07,-7.525000e-01
-2.820000e-07,-7.318750e-01
-2.740000e-07,-7.350000e-01
-2.660000e-07,-7.315625e-01
-2.580000e-07,-7.506250e-01
-2.500000e-07,-7.400000e-01
-2.420000e-07,-7.562500e-01
-2.340000e-07,-7.325000e-01
-2.260000e-07,-7.431250e-01
-2.180000e-07,-7.168750e-01
-2.100000e-07,-7.337500e-01
-2.020000e-07,-7.456250e-01
-1.940000e-07,-7.465625e-01
-1.860000e-07,-7.431250e-01
-1.780000e-07,-7.534375e-01
-1.700000e-07,-7.218750e-01
-1.620000e-07,-7.525000e-01
-1.540000e-07,-7.306250e-01
-1.460000e-07,-7.390625e-01
-1.380000e-07,-7.250000e-01
-1.300000e-07,-7.518750e-01
-1.220000e-07,-7.440625e-01
-1.140000e-07,-7.496875e-01
-1.060000e-07,-7.303125e-01
-9.800000e-08,-7.471875e-01
-9.000000e-08,-7.150000e-01
-8.200000e-08,-7.406250e-01
-7.400000e-08,-7.306250e-01
-6.600000e-08,-7.437500e-01
-5.800000e-08,-7.387500e-01
-5.000000e-08,-7.465625e-01
-4.200000e-08,-7.109375e-01
-3.400000e-08,-2.853125e-01
-2.600000e-08,-2.875000e-02
-1.800000e-08,-4.500000e-02
-1.000000e-08,-4.562500e-02
-2.000000e-09,-4.968750e-02
6.000000e-09,-4.312500e-02
1.400000e-08,-5.062500e-02
2.200000e-08,-3.500000e-02
3.000000e-08,-4.000000e-02
3.800000e-08,-2.468750e-02
4.600000e-08,-5.500000e-02
5.400000e-08,-5.031250e-02
6.200000e-08,-4.875000e-02
7.000000e-08,-4.375000e-02
7.800000e-08,-4.750000e-02
8.600000e-08,-2.781250e-02
9.400000e-08,-5.250000e-02
1.020000e-07,-2.718750e-02
1.100000e-07,-4.093750e-02
1.180000e-07,-3.718750e-02
1.260000e-07,-4.625000e-02
1.340000e-07,-3.125000e-02
1.420000e-07,-4.937500e-02
1.500000e-07,-2.250000e-02
1.580000e-07,-5.187500e-02
1.660000e-07,-1.843750e-02
1.740000e-07,-4.812500e-02
1.820000e-07,-3.625000e-02
1.900000e-07,-4.843750e-02
1.980000e-07,-4.062500e-02
2.060000e-07,-4.000000e-02
2.140000e-07,-3.125000e-02
2.220000e-07,-4.250000e-02
2.300000e-07,-3.062500e-02
2.380000e-07,-3.468750e-02
2.460000e-07,-7.121875e-01
2.540000e-07,-7.375000e-01
2.620000e-07,-7.203125e-01
2.700000e-07,-7.475000e-01
2.780000e-07,-7.212500e-01
2.860000e-07,-7.543750e-01
2.940000e-07,-7.268750e-01
3.020000e-07,-7.325000e-01
3.100000e-07,-7.362500e-01
3.180000e-07,-7.428125e-01
3.260000e-07,-7.265625e-01
3.340000e-07,-7.481250e-01
3.420000e-07,-7.325000e-01
3.500000e-07,-7.550000e-01
3.580000e-07,-7.225000e-01
3.660000e-07,-7.481250e-01
3.740000e-07,-7.300000e-01
3.820000e-07,-7.490625e-01
3.900000e-07,-7.256250e-01
3.980000e-07,-7.506250e-01
4.060000e-07,-7.256250e-01
4.140000e-07,-7.446875e-01
4.220000e-07,-7.262500e-01
4.300000e-07,-7.568750e-01
4.380000e-07,-7.475000e-01
4.460000e-07,-7.459375e-01
4.540000e-07,-7.362500e-01
4.620000e-07,-7.543750e-01
4.700000e-07,-7.231250e-01
4.780000e-07,-7.481250e-01
4.860000e-07,-7.287500e-01
4.940000e-07,-7.459375e-01
5.020000e-07,-7.275000e-01
5.100000e-07,-7.496875e-01
5.180000e-07,-7.253125e-01
5.260000e-07,-7.446875e-01
5.340000e-07,-7.368750e-01
5.420000e-07,-7.368750e-01
5.500000e-07,-7.281250e-01
5.580000e-07,-7.512500e-01
5.660000e-07,-7.484375e-01
5.740000e-07,-7.306250e-01
5.820000e-07,-7.375000e-01
5.900000e-07,-7.537500e-01
5.980000e-07,-7.228125e-01
6.060000e-07,-7.568750e-01
6.140000e-07,-7.306250e-01
6.220000e-07,-7.343750e-01
6.300000e-07,-7.368750e-01
6.380000e-07,-7.490625e-01
6.460000e-07,-7.287500e-01
6.540000e-07,-7.593750e-01
6.620000e-07,-7.343750e-01
6.700000e-07,-7.531250e-01
6.780000e-07,-7.350000e-01
6.860000e-07,-7.421875e-01
6.940000e-07,-7.415625e-01
