run1/run1_ch1_20210318180156571.csv

Model,MSO64
Waveform Type,ANALOG
Horizontal Units,s
Sample Interval,8.000000e-09
Record Length,1250
Zero Index,624.250000
Vertical Units,V

TIME,CH1
-4.994000e-06,2.500000e-03
-4.986000e-06,-1.125000e-02
-4.978000e-06,-2.500000e-03
-4.970000e-06,-3.750000e-03
-4.962000e-06,3.000000e-02
-4.954000e-06,-1.000000e-02
-4.946000e-06,-7.500000e-03
-4.938000e-06,-2.625000e-02
-4.930000e-06,-1.000000e-02
-4.922000e-06,-1.250000e-03
-4.914000e-06,2.125000e-02
-4.906000e-06,2.500000e-03
-4.898000e-06,1.125000e-02
-4.890000e-06,3.750000e-03
-4.882000e-06,1.000000e-02
-4.874000e-06,-2.000000e-02
-4.866000e-06,3.750000e-03
-4.858000e-06,-3.125000e-02
-4.850000e-06,6.250000e-03
-4.842000e-06,-2.375000e-02
-4.834000e-06,1.500000e-02
-4.826000e-06,-8.750000e-03
-4.818000e-06,1.125000e-02
-4.810000e-06,-2.000000e-02
-4.802000e-06,1.875000e-02
-4.794000e-06,-1.250000e-02
-4.786000e-06,-1.250000e-03
-4.778000e-06,1.375000e-02
-4.770000e-06,3.375000e-02
-4.762000e-06,-5.000000e-03
-4.754000e-06,1.750000e-02
-4.746000e-06,-1.875000e-02
-4.738000e-06,1.625000e-02
-4.730000e-06,-7.500000e-03
-4.722000e-06,7.500000e-03
-4.714000e-06,-3.750000e-02
-4.706000e-06,2.625000e-02
-4.698000e-06,-1.125000e-02
-4.690000e-06,1.625000e-02
-4.682000e-06,-2.250000e-02
-4.674000e-06,3.750000e-03
-4.666000e-06,-1.625000e-02
-4.658000e-06,2.125000e-02
-4.650000e-06,3.750000e-03
-4.642000e-06,1.250000e-03
-4.634000e-06,-1.000000e-02
-4.626000e-06,3.750000e-03
-4.618000e-06,-1.875000e-02
-4.610000e-06,-3.750000e-03
-4.602000e-06,-3.500000e-02
-4.594000e-06,6.250000e-03
-4.586000e-06,-5.000000e-03
-4.578000e-06,1.250000e-02
-4.570000e-06,-1.500000e-02
-4.562000e-06,3.375000e-02
-4.554000e-06,-2.500000e-02
-4.546000e-06,-2.500000e-03
-4.538000e-06,-3.500000e-02
-4.530000e-06,2.250000e-02
-4.522000e-06,-1.375000e-02
-4.514000e-06,1.750000e-02
-4.506000e-06,-1.375000e-02
-4.498000e-06,5.000000e-03
-4.490000e-06,-5.000000e-03
-4.482000e-06,1.750000e-02
-4.474000e-06,5.000000e-03
-4.466000e-06,1.625000e-02
-4.458000e-06,-1.250000e-02
-4.450000e-06,2.375000e-02
-4.442000e-06,-2.500000e-03
-4.434000e-06,3.750000e-03
-4.426000e-06,-1.625000e-02
-4.418000e-06,-8.750000e-03
-4.410000e-06,3.750000e-03
-4.402000e-06,1.250000e-02
-4.394000e-06,-1.500000e-02
-4.386000e-06,2.875000e-02
-4.378000e-06,-1.000000e-02
-4.370000e-06,-2.500000e-03
-4.362000e-06,-1.000000e-02
-4.354000e-06,1.625000e-02
-4.346000e-06,-4.125000e-02
-4.338000e-06,1.000000e-02
-4.330000e-06,-2.750000e-02
-4.322000e-06,2.500000e-03
-4.314000e-06,-6.250000e-03
-4.306000e-06,1.125000e-02
-4.298000e-06,-1.500000e-02
-4.290000e-06,1.250000e-03
-4.282000e-06,-8.750000e-03
-4.274000e-06,0.000000e+00
-4.266000e-06,3.750000e-03
-4.258000e-06,2.500000e-03
-4.250000e-06,-5.000000e-03
-4.242000e-06,6.250000e-03
-4.234000e-06,-3.000000e-02
-4.226000e-06,1.000000e-02
-4.218000e-06,-2.375000e-02
-4.210000e-06,1.500000e-02
-4.202000e-06,-1.375000e-02
-4.194000e-06,7.500000e-03
-4.186000e-06,3.750000e-03
-4.178000e-06,6.250000e-03
-4.170000e-06,-2.500000e-02
-4.162000e-06,2.500000e-03
-4.154000e-06,-7.500000e-03
-4.146000e-06,2.125000e-02
-4.138000e-06,-7.500000e-03
-4.130000e-06,3.250000e-02
-4.122000e-06,-2.250000e-02
-4.114000e-06,3.750000e-03
-4.106000e-06,-3.875000e-02
-4.098000e-06,3.250000e-02
-4.090000e-06,-1.250000e-02
-4.082000e-06,1.625000e-02
-4.074000e-06,-3.125000e-02
-4.066000e-06,7.500000e-03
-4.058000e-06,-2.375000e-02
-4.050000e-06,2.375000e-02
-4.042000e-06,-1.125000e-02
-4.034000e-06,3.750000e-03
-4.026000e-06,-1.750000e-02
-4.018000e-06,1.000000e-02
-4.010000e-06,3.750000e-03
-4.002000e-06,2.750000e-02
-3.994000e-06,-2.500000e-02
-3.986000e-06,2.500000e-02
-3.978000e-06,-8.750000e-03
-3.970000e-06,3.750000e-03
-3.962000e-06,-1.250000e-02
-3.954000e-06,8.750000e-03
-3.946000e-06,-1.125000e-02
-3.938000e-06,2.750000e-02
-3.930000e-06,-2.500000e-03
-3.922000e-06,-1.250000e-03
-3.914000e-06,0.000000e+00
-3.906000e-06,-1.250000e-03
-3.898000e-06,-1.625000e-02
-3.890000e-06,1.875000e-02
-3.882000e-06,1.125000e-02
-3.874000e-06,8.750000e-03
-3.866000e-06,-2.500000e-02
-3.858000e-06,2.125000e-02
-3.850000e-06,1.250000e-03
-3.842000e-06,-6.250000e-03
-3.834000e-06,-3.250000e-02
-3.826000e-06,-6.250000e-03
-3.818000e-06,-1.875000e-02
-3.810000e-06,7.500000e-03
-3.802000e-06,-1.250000e-02
-3.794000e-06,-3.750000e-03
-3.786000e-06,-6.250000e-03
-3.778000e-06,1.125000e-02
-3.770000e-06,-2.500000e-02
-3.762000e-06,7.500000e-03
-3.754000e-06,-6.250000e-03
-3.746000e-06,2.500000e-02
-3.738000e-06,-1.000000e-02
-3.730000e-06,1.000000e-02
-3.722000e-06,-1.125000e-02
-3.714000e-06,1.875000e-02
-3.706000e-06,-2.125000e-02
-3.698000e-06,1.000000e-02
-3.690000e-06,-6.250000e-03
-3.682000e-06,2.000000e-02
-3.674000e-06,7.500000e-03
-3.666000e-06,1.250000e-02
-3.658000e-06,-1.000000e-02
-3.650000e-06,5.000000e-03
-3.642000e-06,-3.125000e-02
-3.634000e-06,8.750000e-03
-3.626000e-06,-3.750000e-03
-3.618000e-06,2.625000e-02
-3.610000e-06,-6.250000e-03
-3.602000e-06,8.750000e-03
-3.594000e-06,-6.250000e-03
-3.586000e-06,5.000000e-03
-3.578000e-06,-8.750000e-03
-3.570000e-06,2.000000e-02
-3.562000e-06,-2.125000e-02
-3.554000e-06,3.250000e-02
-3.546000e-06,-1.250000e-02
-3.538000e-06,1.125000e-02
-3.530000e-06,-7.500000e-03
-3.522000e-06,2.500000e-02
-3.514000e-06,-2.000000e-02
-3.506000e-06,1.250000e-03
-3.498000e-06,-1.250000e-03
-3.490000e-06,2.250000e-02
-3.482000e-06,1.250000e-03
-3.474000e-06,1.375000e-02
-3.466000e-06,-3.000000e-02
-3.458000e-06,-1.250000e-03
-3.450000e-06,-1.625000e-02
-3.442000e-06,2.375000e-02
-3.434000e-06,-2.375000e-02
-3.426000e-06,2.625000e-02
-3.418000e-06,-2.375000e-02
-3.410000e-06,2.625000e-02
-3.402000e-06,-3.750000e-03
-3.394000e-06,-1.250000e-02
-3.386000e-06,-5.000000e-03
-3.378000e-06,5.000000e-03
-3.370000e-06,8.750000e-03
-3.362000e-06,3.750000e-03
-3.354000e-06,-1.750000e-02
-3.346000e-06,1.625000e-02
-3.338000e-06,-2.375000e-02
-3.330000e-06,1.250000e-02
-3.322000e-06,-2.250000e-02
-3.314000e-06,1.250000e-03
-3.306000e-06,-1.250000e-02
-3.298000e-06,2.125000e-02
-3.290000e-06,-1.750000e-02
-3.282000e-06,-6.250000e-03
-3.274000e-06,-1.750000e-02
-3.266000e-06,1.250000e-02
-3.258000e-06,-6.250000e-03
-3.250000e-06,-1.875000e-02
-3.242000e-06,-3.875000e-02
-3.234000e-06,1.625000e-02
-3.226000e-06,-2.125000e-02
-3.218000e-06,1.250000e-02
-3.210000e-06,-2.500000e-02
-3.202000e-06,1.625000e-02
-3.194000e-06,-2.500000e-02
-3.186000e-06,1.000000e-02
-3.178000e-06,-2.125000e-02
-3.170000e-06,0.000000e+00
-3.162000e-06,-6.250000e-03
-3.154000e-06,1.375000e-02
-3.146000e-06,-2.375000e-02
-3.138000e-06,1.250000e-02
-3.130000e-06,-2.500000e-03
-3.122000e-06,1.125000e-02
-3.114000e-06,-5.000000e-03
-3.106000e-06,1.000000e-02
-3.098000e-06,1.250000e-03
-3.090000e-06,1.125000e-02
-3.082000e-06,-6.250000e-03
-3.074000e-06,1.125000e-02
-3.066000e-06,-3.000000e-02
-3.058000e-06,2.750000e-02
-3.050000e-06,-3.375000e-02
-3.042000e-06,3.625000e-02
-3.034000e-06,-1.500000e-02
-3.026000e-06,2.500000e-02
-3.018000e-06,6.250000e-03
-3.010000e-06,-1.250000e-03
-3.002000e-06,-1.250000e-02
-2.994000e-06,2.000000e-02
-2.986000e-06,-1.875000e-02
-2.978000e-06,3.625000e-02
-2.970000e-06,1.375000e-02
-2.962000e-06,2.375000e-02
-2.954000e-06,1.875000e-02
-2.946000e-06,3.750000e-03
-2.938000e-06,-7.500000e-03
-2.930000e-06,-1.375000e-02
-2.922000e-06,-1.375000e-02
-2.914000e-06,2.750000e-02
-2.906000e-06,2.500000e-03
-2.898000e-06,1.000000e-02
-2.890000e-06,-2.500000e-03
-2.882000e-06,3.750000e-03
-2.874000e-06,-3.875000e-02
-2.866000e-06,2.250000e-02
-2.858000e-06,1.250000e-03
-2.850000e-06,2.500000e-02
-2.842000e-06,-2.375000e-02
-2.834000e-06,3.750000e-03
-2.826000e-06,-2.375000e-02
-2.818000e-06,5.000000e-03
-2.810000e-06,-1.250000e-03
-2.802000e-06,1.125000e-02
-2.794000e-06,-3.000000e-02
-2.786000e-06,2.875000e-02
-2.778000e-06,-2.000000e-02
-2.770000e-06,7.500000e-03
-2.762000e-06,-3.750000e-03
-2.754000e-06,-2.500000e-03
-2.746000e-06,-2.500000e-03
-2.738000e-06,1.875000e-02
-2.730000e-06,-1.125000e-02
-2.722000e-06,2.750000e-02
-2.714000e-06,1.250000e-03
-2.706000e-06,1.000000e-02
-2.698000e-06,5.000000e-03
-2.690000e-06,2.125000e-02
-2.682000e-06,-1.125000e-02
-2.674000e-06,3.125000e-02
-2.666000e-06,-2.750000e-02
-2.658000e-06,2.875000e-02
-2.650000e-06,-1.375000e-02
-2.642000e-06,2.875000e-02
-2.634000e-06,-1.625000e-02
-2.626000e-06,8.750000e-03
-2.618000e-06,-5.000000e-03
-2.610000e-06,1.000000e-02
-2.602000e-06,-3.750000e-03
-2.594000e-06,1.875000e-02
-2.586000e-06,-1.125000e-02
-2.578000e-06,1.250000e-03
-2.570000e-06,-2.125000e-02
-2.562000e-06,1.000000e-02
-2.554000e-06,-2.000000e-02
-2.546000e-06,1.125000e-02
-2.538000e-06,-8.750000e-03
-2.530000e-06,2.125000e-02
-2.522000e-06,-2.500000e-02
-2.514000e-06,3.625000e-02
-2.506000e-06,1.250000e-03
-2.498000e-06,-1.500000e-02
-2.490000e-06,-1.875000e-02
-2.482000e-06,7.500000e-03
-2.474000e-06,1.125000e-02
-2.466000e-06,2.125000e-02
-2.458000e-06,-1.250000e-03
-2.450000e-06,2.625000e-02
-2.442000e-06,2.500000e-03
-2.434000e-06,2.500000e-02
-2.426000e-06,-1.500000e-02
-2.418000e-06,6.250000e-03
-2.410000e-06,1.250000e-03
-2.402000e-06,1.250000e-02
-2.394000e-06,-2.125000e-02
-2.386000e-06,-5.000000e-03
-2.378000e-06,-2.375000e-02
-2.370000e-06,2.625000e-02
-2.362000e-06,8.750000e-03
-2.354000e-06,1.000000e-02
-2.346000e-06,-5.000000e-03
-2.338000e-06,2.000000e-02
-2.330000e-06,1.250000e-02
-2.322000e-06,-2.500000e-03
-2.314000e-06,6.250000e-03
-2.306000e-06,1.500000e-02
-2.298000e-06,-1.875000e-02
-2.290000e-06,2.250000e-02
-2.282000e-06,-2.750000e-02
-2.274000e-06,1.250000e-02
-2.266000e-06,-8.750000e-03
-2.258000e-06,2.500000e-03
-2.250000e-06,-2.500000e-03
-2.242000e-06,5.000000e-03
-2.234000e-06,-8.750000e-03
-2.226000e-06,1.375000e-02
-2.218000e-06,3.750000e-03
-2.210000e-06,2.250000e-02
-2.202000e-06,1.250000e-03
-2.194000e-06,1.250000e-02
-2.186000e-06,-1.125000e-02
-2.178000e-06,1.625000e-02
-2.170000e-06,-1.000000e-02
-2.162000e-06,2.375000e-02
-2.154000e-06,-1.625000e-02
-2.146000e-06,2.750000e-02
-2.138000e-06,-8.750000e-03
-2.130000e-06,7.500000e-03
-2.122000e-06,-8.750000e-03
-2.114000e-06,-6.250000e-03
-2.106000e-06,-1.625000e-02
-2.098000e-06,-1.250000e-03
-2.090000e-06,2.500000e-03
-2.082000e-06,2.000000e-02
-2.074000e-06,-1.250000e-03
-2.066000e-06,1.125000e-02
-2.058000e-06,-2.125000e-02
-2.050000e-06,-6.250000e-03
-2.042000e-06,-1.875000e-02
-2.034000e-06,1.250000e-03
-2.026000e-06,6.250000e-03
-2.018000e-06,1.750000e-02
-2.010000e-06,-1.250000e-02
-2.002000e-06,2.500000e-03
-1.994000e-06,7.500000e-03
-1.986000e-06,7.500000e-03
-1.978000e-06,-8.750000e-03
-1.970000e-06,3.375000e-02
-1.962000e-06,0.000000e+00
-1.954000e-06,1.875000e-02
-1.946000e-06,-1.250000e-03
-1.938000e-06,1.250000e-02
-1.930000e-06,-1.125000e-02
-1.922000e-06,1.250000e-02
-1.914000e-06,-1.250000e-02
-1.906000e-06,1.375000e-02
-1.898000e-06,-5.000000e-03
-1.890000e-06,3.250000e-02
-1.882000e-06,-1.875000e-02
-1.874000e-06,3.750000e-03
-1.866000e-06,-2.375000e-02
-1.858000e-06,-5.000000e-03
-1.850000e-06,-2.500000e-03
-1.842000e-06,1.500000e-02
-1.834000e-06,7.500000e-03
-1.826000e-06,1.375000e-02
-1.818000e-06,-1.250000e-03
-1.810000e-06,1.250000e-03
-1.802000e-06,-1.000000e-02
-1.794000e-06,1.250000e-03
-1.786000e-06,-2.625000e-02
-1.778000e-06,1.250000e-03
-1.770000e-06,-1.250000e-02
-1.762000e-06,4.000000e-02
-1.754000e-06,-1.250000e-02
-1.746000e-06,6.250000e-03
-1.738000e-06,-1.500000e-02
-1.730000e-06,1.375000e-02
-1.722000e-06,-1.250000e-02
-1.714000e-06,6.250000e-03
-1.706000e-06,-1.875000e-02
-1.698000e-06,1.125000e-02
-1.690000e-06,-1.000000e-02
-1.682000e-06,-3.750000e-03
-1.674000e-06,-1.375000e-02
-1.666000e-06,2.250000e-02
-1.658000e-06,-2.125000e-02
-1.650000e-06,1.375000e-02
-1.642000e-06,-6.250000e-03
-1.634000e-06,8.750000e-03
-1.626000e-06,-6.250000e-03
-1.618000e-06,1.875000e-02
-1.610000e-06,1.875000e-02
-1.602000e-06,2.500000e-03
-1.594000e-06,-1.875000e-02
-1.586000e-06,1.250000e-03
-1.578000e-06,-6.250000e-03
-1.570000e-06,2.750000e-02
-1.562000e-06,-1.500000e-02
-1.554000e-06,-1.250000e-03
-1.546000e-06,6.250000e-03
-1.538000e-06,5.000000e-03
-1.530000e-06,-3.250000e-02
-1.522000e-06,1.875000e-02
-1.514000e-06,-2.375000e-02
-1.506000e-06,2.375000e-02
-1.498000e-06,-1.000000e-02
-1.490000e-06,2.500000e-03
-1.482000e-06,8.750000e-03
-1.474000e-06,1.125000e-02
-1.466000e-06,-3.750000e-03
-1.458000e-06,-1.250000e-02
-1.450000e-06,-1.000000e-02
-1.442000e-06,4.500000e-02
-1.434000e-06,-1.875000e-02
-1.426000e-06,2.000000e-02
-1.418000e-06,-7.500000e-03
-1.410000e-06,1.375000e-02
-1.402000e-06,-3.625000e-02
-1.394000e-06,1.125000e-02
-1.386000e-06,1.000000e-02
-1.378000e-06,1.000000e-02
-1.370000e-06,-2.250000e-02
-1.362000e-06,1.875000e-02
-1.354000e-06,-1.000000e-02
-1.346000e-06,2.375000e-02
-1.338000e-06,-1.250000e-03
-1.330000e-06,1.375000e-02
-1.322000e-06,5.000000e-03
-1.314000e-06,1.625000e-02
-1.306000e-06,-3.750000e-03
-1.298000e-06,2.500000e-02
-1.290000e-06,5.000000e-03
-1.282000e-06,1.125000e-02
-1.274000e-06,-1.875000e-02
-1.266000e-06,1.375000e-02
-1.258000e-06,-1.250000e-03
-1.250000e-06,2.250000e-02
-1.242000e-06,-2.500000e-03
-1.234000e-06,1.875000e-02
-1.226000e-06,-8.750000e-03
-1.218000e-06,-1.125000e-02
-1.210000e-06,2.500000e-03
-1.202000e-06,1.500000e-02
-1.194000e-06,-5.000000e-03
-1.186000e-06,3.875000e-02
-1.178000e-06,-2.375000e-02
-1.170000e-06,1.625000e-02
-1.162000e-06,-1.250000e-03
-1.154000e-06,2.000000e-02
-1.146000e-06,-2.125000e-02
-1.138000e-06,1.875000e-02
-1.130000e-06,-1.750000e-02
-1.122000e-06,3.125000e-02
-1.114000e-06,-2.500000e-03
-1.106000e-06,3.750000e-03
-1.098000e-06,-2.125000e-02
-1.090000e-06,3.750000e-03
-1.082000e-06,-3.375000e-02
-1.074000e-06,1.500000e-02
-1.066000e-06,5.000000e-03
-1.058000e-06,3.875000e-02
-1.050000e-06,7.500000e-03
-1.042000e-06,3.000000e-02
-1.034000e-06,-1.875000e-02
-1.026000e-06,1.500000e-02
-1.018000e-06,-3.500000e-02
-1.010000e-06,1.000000e-02
-1.002000e-06,-1.000000e-02
-9.940000e-07,1.500000e-02
-9.860000e-07,-7.500000e-03
-9.780000e-07,1.750000e-02
-9.700000e-07,-1.375000e-02
-9.620000e-07,1.625000e-02
-9.540000e-07,-3.125000e-02
-9.460000e-07,1.250000e-02
-9.380000e-07,-1.000000e-02
-9.300000e-07,1.250000e-02
-9.220000e-07,-1.500000e-02
-9.140000e-07,3.000000e-02
-9.060000e-07,-1.000000e-02
-8.980000e-07,2.000000e-02
-8.900000e-07,-1.875000e-02
-8.820000e-07,2.375000e-02
-8.740000e-07,-8.750000e-03
-8.660000e-07,3.625000e-02
-8.580000e-07,-1.250000e-02
-8.500000e-07,1.000000e-02
-8.420000e-07,-1.125000e-02
-8.340000e-07,6.250000e-03
-8.260000e-07,-1.125000e-02
-8.180000e-07,-3.750000e-03
-8.100000e-07,-3.750000e-03
-8.020000e-07,1.375000e-02
-7.940000e-07,-1.500000e-02
-7.860000e-07,1.500000e-02
-7.780000e-07,-5.000000e-03
-7.700000e-07,1.375000e-02
-7.620000e-07,-3.500000e-02
-7.540000e-07,8.750000e-03
-7.460000e-07,-3.125000e-02
-7.380000e-07,6.250000e-03
-7.300000e-07,-3.000000e-02
-7.220000e-07,3.750000e-03
-7.140000e-07,-2.000000e-02
-7.060000e-07,-7.500000e-03
-6.980000e-07,-2.125000e-02
-6.900000e-07,1.125000e-02
-6.820000e-07,-6.250000e-03
-6.740000e-07,1.250000e-02
-6.660000e-07,-1.875000e-02
-6.580000e-07,1.750000e-02
-6.500000e-07,-2.375000e-02
-6.420000e-07,1.250000e-02
-6.340000e-07,-5.000000e-03
-6.260000e-07,1.125000e-02
-6.180000e-07,-7.500000e-03
-6.100000e-07,1.625000e-02
-6.020000e-07,2.500000e-03
-5.940000e-07,1.875000e-02
-5.860000e-07,5.000000e-03
-5.780000e-07,1.375000e-02
-5.700000e-07,1.250000e-03
-5.620000e-07,8.750000e-03
-5.540000e-07,-1.125000e-02
-5.460000e-07,8.750000e-03
-5.380000e-07,1.375000e-02
-5.300000e-07,3.500000e-02
-5.220000e-07,-2.500000e-03
-5.140000e-07,-3.750000e-03
-5.060000e-07,-5.000000e-03
-4.980000e-07,2.625000e-02
-4.900000e-07,-3.000000e-02
-4.820000e-07,1.500000e-02
-4.740000e-07,-7.500000e-03
-4.660000e-07,2.250000e-02
-4.580000e-07,0.000000e+00
-4.500000e-07,-7.500000e-03
-4.420000e-07,-2.375000e-02
-4.340000e-07,1.375000e-02
-4.260000e-07,-3.750000e-03
-4.180000e-07,2.500000e-02
-4.100000e-07,-1.375000e-02
-4.020000e-07,1.250000e-02
-3.940000e-07,0.000000e+00
-3.860000e-07,1.375000e-02
-3.780000e-07,-2.875000e-02
-3.700000e-07,2.375000e-02
-3.620000e-07,-2.250000e-02
-3.540000e-07,2.250000e-02
-3.460000e-07,3.750000e-03
-3.380000e-07,1.625000e-02
-3.300000e-07,-1.375000e-02
-3.220000e-07,1.000000e-02
-3.140000e-07,-7.500000e-03
-3.060000e-07,2.625000e-02
-2.980000e-07,0.000000e+00
-2.900000e-07,1.625000e-02
-2.820000e-07,-3.750000e-03
-2.740000e-07,3.750000e-03
-2.660000e-07,-1.750000e-02
-2.580000e-07,0.000000e+00
-2.500000e-07,-2.125000e-02
-2.420000e-07,1.250000e-02
-2.340000e-07,-1.125000e-02
-2.260000e-07,1.250000e-02
-2.180000e-07,1.250000e-03
-2.100000e-07,5.000000e-03
-2.020000e-07,7.500000e-03
-1.940000e-07,-1.250000e-03
-1.860000e-07,-1.375000e-02
-1.780000e-07,1.000000e-02
-1.700000e-07,-1.125000e-02
-1.620000e-07,-2.500000e-03
-1.540000e-07,2.500000e-02
-1.460000e-07,6.250000e-03
-1.380000e-07,-1.625000e-02
-1.300000e-07,-2.500000e-03
-1.220000e-07,-2.250000e-02
-1.140000e-07,5.000000e-03
-1.060000e-07,1.500000e-02
-9.800000e-08,3.750000e-03
-9.000000e-08,-1.000000e-02
-8.200000e-08,3.250000e-02
-7.400000e-08,-7.500000e-03
-6.600000e-08,-1.000000e-02
-5.800000e-08,-4.375000e-02
-5.000000e-08,-1.250000e-03
-4.200000e-08,1.250000e-03
-3.400000e-08,-1.160000e+00
-2.600000e-08,-1.402500e+00
-1.800000e-08,-1.407500e+00
-1.000000e-08,-1.407500e+00
-2.000000e-09,-8.750000e-03
6.000000e-09,-2.375000e-02
1.400000e-08,2.500000e-02
2.200000e-08,-1.250000e-03
3.000000e-08,6.250000e-03
3.800000e-08,-3.750000e-03
4.600000e-08,2.125000e-02
5.400000e-08,-1.750000e-02
6.200000e-08,1.750000e-02
7.000000e-08,-1.875000e-02
7.800000e-08,2.000000e-02
8.600000e-08,-1.250000e-02
9.400000e-08,4.625000e-02
1.020000e-07,6.250000e-03
1.100000e-07,7.500000e-03
1.180000e-07,1.250000e-03
1.260000e-07,3.375000e-02
1.340000e-07,-2.500000e-02
1.420000e-07,0.000000e+00
1.500000e-07,1.375000e-02
1.580000e-07,1.625000e-02
1.660000e-07,2.500000e-03
1.740000e-07,0.000000e+00
1.820000e-07,-5.000000e-03
1.900000e-07,2.500000e-02
1.980000e-07,-3.750000e-03
2.060000e-07,3.875000e-02
2.140000e-07,-5.000000e-03
2.220000e-07,3.250000e-02
2.300000e-07,-6.250000e-03
2.380000e-07,-1.250000e-03
2.460000e-07,-1.750000e-02
2.540000e-07,2.625000e-02
2.620000e-07,-5.000000e-03
2.700000e-07,2.250000e-02
2.780000e-07,-2.875000e-02
2.860000e-07,2.375000e-02
2.940000e-07,-1.125000e-02
3.020000e-07,0.000000e+00
3.100000e-07,5.000000e-03
3.180000e-07,3.750000e-03
3.260000e-07,-7.500000e-03
3.340000e-07,1.000000e-02
3.420000e-07,-5.000000e-03
3.500000e-07,2.250000e-02
3.580000e-07,-1.125000e-02
3.660000e-07,1.750000e-02
3.740000e-07,3.750000e-03
3.820000e-07,-7.500000e-03
3.900000e-07,-1.875000e-02
3.980000e-07,1.250000e-02
4.060000e-07,-1.125000e-02
4.140000e-07,1.875000e-02
4.220000e-07,-6.250000e-03
4.300000e-07,-1.375000e-02
4.380000e-07,-7.500000e-03
4.460000e-07,0.000000e+00
4.540000e-07,-2.125000e-02
4.620000e-07,1.500000e-02
4.700000e-07,-1.875000e-02
4.780000e-07,0.000000e+00
4.860000e-07,0.000000e+00
4.940000e-07,1.875000e-02
5.020000e-07,-1.500000e-02
5.100000e-07,0.000000e+00
5.180000e-07,8.750000e-03
5.260000e-07,2.250000e-02
5.340000e-07,-2.000000e-02
5.420000e-07,2.125000e-02
5.500000e-07,-2.500000e-02
5.580000e-07,2.500000e-03
5.660000e-07,-1.000000e-02
5.740000e-07,5.000000e-03
5.820000e-07,-1.750000e-02
5.900000e-07,2.625000e-02
5.980000e-07,-6.250000e-03
6.060000e-07,1.250000e-02
6.140000e-07,7.500000e-03
6.220000e-07,7.500000e-03
6.300000e-07,-1.750000e-02
6.380000e-07,1.000000e-02
6.460000e-07,-2.000000e-02
6.540000e-07,2.625000e-02
6.620000e-07,-2.000000e-02
6.700000e-07,1.750000e-02
6.780000e-07,-1.125000e-02
6.860000e-07,7.500000e-03
6.940000e-07,-2.500000e-02
7.020000e-07,2.500000e-02
7.100000e-07,-2.500000e-02
7.180000e-07,6.250000e-03
7.260000e-07,-6.250000e-03
7.340000e-07,2.250000e-02
7.420000e-07,-7.500000e-03
7.500000e-07,1.375000e-02
7.580000e-07,-1.250000e-03
7.660000e-07,2.125000e-02
7.740000e-07,-1.500000e-02
7.820000e-07,-8.750000e-03
7.900000e-07,-1.625000e-02
7.980000e-07,1.125000e-02
8.060000e-07,-1.250000e-03
