run1/run1_ch1_20210318180219948.csv

Model,MSO64
Waveform Type,ANALOG
Horizontal Units,s
Sample Interval,8.000000e-09
Record Length,1250
Zero Index,624.047656
Vertical Units,V

TIME,CH1
-4.992381e-06,-2.500000e-03
-4.984381e-06,-6.250000e-03
-4.976381e-06,3.750000e-03
-4.968381e-06,1.500000e-02
-4.960381e-06,-1.500000e-02
-4.952381e-06,-5.000000e-03
-4.944381e-06,-8.750000e-03
-4.936381e-06,3.250000e-02
-4.928381e-06,-2.000000e-02
-4.920381e-06,6.250000e-03
-4.912381e-06,-1.875000e-02
-4.904381e-06,1.500000e-02
-4.896381e-06,-2.500000e-03
-4.888381e-06,7.500000e-03
-4.880381e-06,-4.500000e-02
-4.872381e-06,3.375000e-02
-4.864381e-06,2.500000e-03
-4.856381e-06,3.750000e-03
-4.848381e-06,-2.500000e-03
-4.840381e-06,3.750000e-03
-4.832381e-06,-2.875000e-02
-4.824381e-06,1.625000e-02
-4.816381e-06,-7.500000e-03
-4.808381e-06,3.250000e-02
-4.800381e-06,-3.750000e-03
-4.792381e-06,3.750000e-02
-4.784381e-06,-2.500000e-02
-4.776381e-06,1.625000e-02
-4.768381e-06,-2.750000e-02
-4.760381e-06,1.375000e-02
-4.752381e-06,-3.250000e-02
-4.744381e-06,3.250000e-02
-4.736381e-06,-3.000000e-02
-4.728381e-06,6.250000e-03
-4.720381e-06,-5.000000e-03
-4.712381e-06,2.625000e-02
-4.704381e-06,-2.125000e-02
-4.696381e-06,1.375000e-02
-4.688381e-06,-3.750000e-03
-4.680381e-06,2.625000e-02
-4.672381e-06,-1.125000e-02
-4.664381e-06,3.000000e-02
-4.656381e-06,-3.750000e-02
-4.648381e-06,2.500000e-03
-4.640381e-06,-2.000000e-02
-4.632381e-06,-6.250000e-03
-4.624381e-06,-2.125000e-02
-4.616381e-06,3.000000e-02
-4.608381e-06,-2.500000e-02
-4.600381e-06,1.250000e-02
-4.592381e-06,-1.000000e-02
-4.584381e-06,-8.750000e-03
-4.576381e-06,-1.500000e-02
-4.568381e-06,0.000000e+00
-4.560381e-06,-3.750000e-03
-4.552381e-06,1.875000e-02
-4.544381e-06,-5.000000e-03
-4.536381e-06,2.500000e-03
-4.528381e-06,-8.750000e-03
-4.520381e-06,1.250000e-03
-4.512381e-06,-3.875000e-02
-4.504381e-06,7.500000e-03
-4.496381e-06,-3.625000e-02
-4.488381e-06,2.375000e-02
-4.480381e-06,-1.625000e-02
-4.472381e-06,2.125000e-02
-4.464381e-06,0.000000e+00
-4.456381e-06,7.500000e-03
-4.448381e-06,-1.500000e-02
-4.440381e-06,2.250000e-02
-4.432381e-06,-2.750000e-02
-4.424381e-06,2.500000e-02
-4.416381e-06,1.250000e-03
-4.408381e-06,1.375000e-02
-4.400381e-06,-1.750000e-02
-4.392381e-06,3.750000e-03
-4.384381e-06,-5.625000e-02
-4.376381e-06,8.750000e-03
-4.368381e-06,-2.625000e-02
-4.360381e-06,2.375000e-02
-4.352381e-06,-1.125000e-02
-4.344381e-06,-8.750000e-03
-4.336381e-06,-2.125000e-02
-4.328381e-06,3.750000e-03
-4.320381e-06,-1.125000e-02
-4.312381e-06,1.375000e-02
-4.304381e-06,-8.750000e-03
-4.296381e-06,1.375000e-02
-4.288381e-06,0.000000e+00
-4.280381e-06,2.625000e-02
-4.272381e-06,-3.000000e-02
-4.264381e-06,1.125000e-02
-4.256381e-06,-2.875000e-02
-4.248381e-06,3.750000e-03
-4.240381e-06,-6.250000e-03
-4.232381e-06,1.750000e-02
-4.224381e-06,-1.000000e-02
-4.216381e-06,1.875000e-02
-4.208381e-06,-2.750000e-02
-4.200381e-06,1.750000e-02
-4.192381e-06,-1.000000e-02
-4.184381e-06,6.250000e-03
-4.176381e-06,-1.000000e-02
-4.168381e-06,6.250000e-03
-4.160381e-06,-2.500000e-03
-4.152381e-06,1.250000e-02
-4.144381e-06,-2.750000e-02
-4.136381e-06,2.375000e-02
-4.128381e-06,-2.750000e-02
-4.120381e-06,1.375000e-02
-4.112381e-06,-2.500000e-03
-4.104381e-06,2.625000e-02
-4.096381e-06,-1.375000e-02
-4.088381e-06,1.125000e-02
-4.080381e-06,-1.875000e-02
-4.072381e-06,1.000000e-02
-4.064381e-06,-1.000000e-02
-4.056381e-06,2.500000e-02
-4.048381e-06,-2.500000e-03
-4.040381e-06,1.375000e-02
-4.032381e-06,-2.500000e-03
-4.024381e-06,2.375000e-02
-4.016381e-06,6.250000e-03
-4.008381e-06,-6.250000e-03
-4.000381e-06,-3.500000e-02
-3.992381e-06,1.875000e-02
-3.984381e-06,-2.000000e-02
-3.976381e-06,1.500000e-02
-3.968381e-06,-7.500000e-03
-3.960381e-06,0.000000e+00
-3.952381e-06,-1.625000e-02
-3.944381e-06,1.250000e-03
-3.936381e-06,-2.875000e-02
-3.928381e-06,1.750000e-02
-3.920381e-06,-1.250000e-02
-3.912381e-06,3.750000e-03
-3.904381e-06,1.500000e-02
-3.896381e-06,2.250000e-02
-3.888381e-06,-1.250000e-02
-3.880381e-06,1.500000e-02
-3.872381e-06,-2.500000e-02
-3.864381e-06,2.250000e-02
-3.856381e-06,-2.750000e-02
-3.848381e-06,1.000000e-02
-3.840381e-06,1.625000e-02
-3.832381e-06,8.750000e-03
-3.824381e-06,-3.750000e-03
-3.816381e-06,3.750000e-03
-3.808381e-06,-1.125000e-02
-3.800381e-06,1.375000e-02
-3.792381e-06,-1.250000e-03
-3.784381e-06,1.875000e-02
-3.776381e-06,-8.750000e-03
-3.768381e-06,2.500000e-03
-3.760381e-06,-3.750000e-03
-3.752381e-06,1.625000e-02
-3.744381e-06,-2.625000e-02
-3.736381e-06,2.125000e-02
-3.728381e-06,-3.750000e-02
-3.720381e-06,2.875000e-02
-3.712381e-06,-2.250000e-02
-3.704381e-06,1.125000e-02
-3.696381e-06,-1.625000e-02
-3.688381e-06,2.125000e-02
-3.680381e-06,-1.375000e-02
-3.672381e-06,1.250000e-02
-3.664381e-06,-2.500000e-03
-3.656381e-06,4.250000e-02
-3.648381e-06,0.000000e+00
-3.640381e-06,2.125000e-02
-3.632381e-06,-3.875000e-02
-3.624381e-06,3.000000e-02
-3.616381e-06,-1.625000e-02
-3.608381e-06,1.500000e-02
-3.600381e-06,-2.125000e-02
-3.592381e-06,1.375000e-02
-3.584381e-06,-1.875000e-02
-3.576381e-06,7.500000e-03
-3.568381e-06,-1.375000e-02
-3.560381e-06,0.000000e+00
-3.552381e-06,-5.000000e-03
-3.544381e-06,-1.250000e-03
-3.536381e-06,-1.875000e-02
-3.528381e-06,1.250000e-02
-3.520381e-06,-1.375000e-02
-3.512381e-06,2.500000e-02
-3.504381e-06,-8.750000e-03
-3.496381e-06,1.375000e-02
-3.488381e-06,-2.500000e-02
-3.480381e-06,2.000000e-02
-3.472381e-06,-2.000000e-02
-3.464381e-06,7.500000e-03
-3.456381e-06,-5.000000e-03
-3.448381e-06,1.125000e-02
-3.440381e-06,0.000000e+00
-3.432381e-06,0.000000e+00
-3.424381e-06,-1.375000e-02
-3.416381e-06,2.125000e-02
-3.408381e-06,1.125000e-02
-3.400381e-06,1.875000e-02
-3.392381e-06,5.000000e-03
-3.384381e-06,2.750000e-02
-3.376381e-06,-2.125000e-02
-3.368381e-06,2.375000e-02
-3.360381e-06,-2.500000e-02
-3.352381e-06,1.625000e-02
-3.344381e-06,-2.000000e-02
-3.336381e-06,2.125000e-02
-3.328381e-06,-1.125000e-02
-3.320381e-06,8.750000e-03
-3.312381e-06,-2.000000e-02
-3.304381e-06,1.250000e-03
-3.296381e-06,-2.500000e-03
-3.288381e-06,-1.250000e-03
-3.280381e-06,-1.000000e-02
-3.272381e-06,6.250000e-03
-3.264381e-06,-1.125000e-02
-3.256381e-06,1.000000e-02
-3.248381e-06,-7.500000e-03
-3.240381e-06,-6.250000e-03
-3.232381e-06,-3.875000e-02
-3.224381e-06,5.000000e-03
-3.216381e-06,-2.625000e-02
-3.208381e-06,2.875000e-02
-3.200381e-06,-1.500000e-02
-3.192381e-06,-1.250000e-03
-3.184381e-06,-2.375000e-02
-3.176381e-06,1.250000e-03
-3.168381e-06,-3.250000e-02
-3.160381e-06,4.250000e-02
-3.152381e-06,-8.750000e-03
-3.144381e-06,8.750000e-03
-3.136381e-06,-1.750000e-02
-3.128381e-06,1.500000e-02
-3.120381e-06,-1.750000e-02
-3.112381e-06,2.750000e-02
-3.104381e-06,-2.500000e-02
-3.096381e-06,0.000000e+00
-3.088381e-06,-2.750000e-02
-3.080381e-06,2.000000e-02
-3.072381e-06,-3.500000e-02
-3.064381e-06,2.125000e-02
-3.056381e-06,-3.125000e-02
-3.048381e-06,-1.125000e-02
-3.040381e-06,-4.000000e-02
-3.032381e-06,1.000000e-02
-3.024381e-06,-1.250000e-03
-3.016381e-06,1.125000e-02
-3.008381e-06,5.000000e-03
-3.000381e-06,7.500000e-03
-2.992381e-06,-1.250000e-03
-2.984381e-06,1.000000e-02
-2.976381e-06,-1.125000e-02
-2.968381e-06,3.500000e-02
-2.960381e-06,-3.000000e-02
-2.952381e-06,1.250000e-03
-2.944381e-06,-3.750000e-02
-2.936381e-06,1.000000e-02
-2.928381e-06,-1.875000e-02
-2.920381e-06,-1.250000e-03
-2.912381e-06,-4.500000e-02
-2.904381e-06,1.500000e-02
-2.896381e-06,-1.625000e-02
-2.888381e-06,1.500000e-02
-2.880381e-06,-3.750000e-03
-2.872381e-06,1.750000e-02
-2.864381e-06,-5.000000e-03
-2.856381e-06,1.125000e-02
-2.848381e-06,-2.375000e-02
-2.840381e-06,2.500000e-02
-2.832381e-06,1.250000e-03
-2.824381e-06,2.625000e-02
-2.816381e-06,-3.500000e-02
-2.808381e-06,7.500000e-03
-2.800381e-06,-2.500000e-03
-2.792381e-06,2.500000e-03
-2.784381e-06,-1.500000e-02
-2.776381e-06,2.125000e-02
-2.768381e-06,-7.500000e-03
-2.760381e-06,3.375000e-02
-2.752381e-06,3.750000e-03
-2.744381e-06,2.625000e-02
-2.736381e-06,-2.250000e-02
-2.728381e-06,-2.500000e-03
-2.720381e-06,-1.375000e-02
-2.712381e-06,1.375000e-02
-2.704381e-06,-3.625000e-02
-2.696381e-06,1.125000e-02
-2.688381e-06,-1.250000e-03
-2.680381e-06,2.375000e-02
-2.672381e-06,-3.125000e-02
-2.664381e-06,-3.750000e-03
-2.656381e-06,-2.875000e-02
-2.648381e-06,3.250000e-02
-2.640381e-06,-2.500000e-03
-2.632381e-06,5.000000e-03
-2.624381e-06,-8.750000e-03
-2.616381e-06,2.375000e-02
-2.608381e-06,-1.625000e-02
-2.600381e-06,1.250000e-03
-2.592381e-06,-2.000000e-02
-2.584381e-06,1.875000e-02
-2.576381e-06,-3.000000e-02
-2.568381e-06,3.000000e-02
-2.560381e-06,2.500000e-03
-2.552381e-06,1.125000e-02
-2.544381e-06,-1.000000e-02
-2.536381e-06,1.750000e-02
-2.528381e-06,-1.125000e-02
-2.520381e-06,0.000000e+00
-2.512381e-06,-1.000000e-02
-2.504381e-06,2.125000e-02
-2.496381e-06,1.250000e-03
-2.488381e-06,2.250000e-02
-2.480381e-06,-3.250000e-02
-2.472381e-06,2.375000e-02
-2.464381e-06,-7.500000e-03
-2.456381e-06,1.250000e-03
-2.448381e-06,-1.375000e-02
-2.440381e-06,1.750000e-02
-2.432381e-06,-2.500000e-02
-2.424381e-06,0.000000e+00
-2.416381e-06,-2.875000e-02
-2.408381e-06,1.000000e-02
-2.400381e-06,-2.250000e-02
-2.392381e-06,1.750000e-02
-2.384381e-06,1.000000e-02
-2.376381e-06,-1.250000e-03
-2.368381e-06,-2.000000e-02
-2.360381e-06,2.375000e-02
-2.352381e-06,-6.250000e-03
-2.344381e-06,1.500000e-02
-2.336381e-06,-1.875000e-02
-2.328381e-06,1.250000e-03
-2.320381e-06,-3.250000e-02
-2.312381e-06,1.375000e-02
-2.304381e-06,-2.375000e-02
-2.296381e-06,7.500000e-03
-2.288381e-06,-2.500000e-02
-2.280381e-06,-1.125000e-02
-2.272381e-06,-2.250000e-02
-2.264381e-06,3.000000e-02
-2.256381e-06,3.750000e-03
-2.248381e-06,8.750000e-03
-2.240381e-06,-2.250000e-02
-2.232381e-06,0.000000e+00
-2.224381e-06,-2.250000e-02
-2.216381e-06,-1.875000e-02
-2.208381e-06,-1.625000e-02
-2.200381e-06,1.000000e-02
-2.192381e-06,-2.750000e-02
-2.184381e-06,3.375000e-02
-2.176381e-06,-2.000000e-02
-2.168381e-06,2.500000e-03
-2.160381e-06,-2.375000e-02
-2.152381e-06,1.625000e-02
-2.144381e-06,-4.000000e-02
-2.136381e-06,1.625000e-02
-2.128381e-06,1.250000e-03
-2.120381e-06,2.250000e-02
-2.112381e-06,7.500000e-03
-2.104381e-06,1.875000e-02
-2.096381e-06,-1.250000e-02
-2.088381e-06,1.750000e-02
-2.080381e-06,-5.375000e-02
-2.072381e-06,5.000000e-03
-2.064381e-06,-1.500000e-02
-2.056381e-06,-1.250000e-03
-2.048381e-06,-6.250000e-03
-2.040381e-06,0.000000e+00
-2.032381e-06,-7.500000e-03
-2.024381e-06,1.000000e-02
-2.016381e-06,-1.250000e-02
-2.008381e-06,2.375000e-02
-2.000381e-06,-2.750000e-02
-1.992381e-06,3.750000e-03
-1.984381e-06,0.000000e+00
-1.976381e-06,3.750000e-03
-1.968381e-06,-2.000000e-02
-1.960381e-06,1.500000e-02
-1.952381e-06,-2.875000e-02
-1.944381e-06,1.875000e-02
-1.936381e-06,-3.125000e-02
-1.928381e-06,2.000000e-02
-1.920381e-06,-2.125000e-02
-1.912381e-06,1.000000e-02
-1.904381e-06,-3.625000e-02
-1.896381e-06,1.250000e-02
-1.888381e-06,-1.875000e-02
-1.880381e-06,-1.000000e-02
-1.872381e-06,-2.875000e-02
-1.864381e-06,1.750000e-02
-1.856381e-06,-6.250000e-03
-1.848381e-06,1.375000e-02
-1.840381e-06,-1.000000e-02
-1.832381e-06,2.000000e-02
-1.824381e-06,-1.625000e-02
-1.816381e-06,2.875000e-02
-1.808381e-06,-2.125000e-02
-1.800381e-06,2.125000e-02
-1.792381e-06,-2.500000e-02
-1.784381e-06,-1.250000e-03
-1.776381e-06,-2.500000e-03
-1.768381e-06,-3.750000e-03
-1.760381e-06,-1.750000e-02
-1.752381e-06,7.500000e-03
-1.744381e-06,-2.750000e-02
-1.736381e-06,2.125000e-02
-1.728381e-06,3.750000e-03
-1.720381e-06,1.250000e-02
-1.712381e-06,-1.000000e-02
-1.704381e-06,2.875000e-02
-1.696381e-06,-4.000000e-02
-1.688381e-06,2.250000e-02
-1.680381e-06,2.500000e-03
-1.672381e-06,1.750000e-02
-1.664381e-06,1.250000e-03
-1.656381e-06,1.250000e-02
-1.648381e-06,-8.750000e-03
-1.640381e-06,-5.000000e-03
-1.632381e-06,-2.750000e-02
-1.624381e-06,-1.125000e-02
-1.616381e-06,-1.500000e-02
-1.608381e-06,4.250000e-02
-1.600381e-06,1.125000e-02
-1.592381e-06,1.125000e-02
-1.584381e-06,-7.500000e-03
-1.576381e-06,1.625000e-02
-1.568381e-06,-4.000000e-02
-1.560381e-06,1.875000e-02
-1.552381e-06,-5.000000e-03
-1.544381e-06,1.000000e-02
-1.536381e-06,-1.500000e-02
-1.528381e-06,0.000000e+00
-1.520381e-06,-1.500000e-02
-1.512381e-06,1.750000e-02
-1.504381e-06,-2.625000e-02
-1.496381e-06,5.000000e-03
-1.488381e-06,-2.000000e-02
-1.480381e-06,2.500000e-03
-1.472381e-06,0.000000e+00
-1.464381e-06,4.250000e-02
-1.456381e-06,-1.250000e-02
-1.448381e-06,1.125000e-02
-1.440381e-06,-2.375000e-02
-1.432381e-06,-1.250000e-03
-1.424381e-06,-1.250000e-03
-1.416381e-06,3.000000e-02
-1.408381e-06,-1.375000e-02
-1.400381e-06,7.500000e-03
-1.392381e-06,-2.375000e-02
-1.384381e-06,6.250000e-03
-1.376381e-06,1.375000e-02
-1.368381e-06,2.000000e-02
-1.360381e-06,-1.250000e-03
-1.352381e-06,2.750000e-02
-1.344381e-06,0.000000e+00
-1.336381e-06,-1.500000e-02
-1.328381e-06,-6.250000e-03
-1.320381e-06,8.750000e-03
-1.312381e-06,-3.000000e-02
-1.304381e-06,1.125000e-02
-1.296381e-06,-2.000000e-02
-1.288381e-06,1.875000e-02
-1.280381e-06,-5.000000e-03
-1.272381e-06,1.000000e-02
-1.264381e-06,-2.500000e-03
-1.256381e-06,2.250000e-02
-1.248381e-06,5.000000e-03
-1.240381e-06,2.375000e-02
-1.232381e-06,-3.750000e-03
-1.224381e-06,2.875000e-02
-1.216381e-06,7.500000e-03
-1.208381e-06,1.625000e-02
-1.200381e-06,-3.250000e-02
-1.192381e-06,1.500000e-02
-1.184381e-06,-3.125000e-02
-1.176381e-06,3.750000e-03
-1.168381e-06,-1.750000e-02
-1.160381e-06,2.000000e-02
-1.152381e-06,-1.000000e-02
-1.144381e-06,-5.000000e-03
-1.136381e-06,-1.250000e-02
-1.128381e-06,1.750000e-02
-1.120381e-06,-2.250000e-02
-1.112381e-06,2.375000e-02
-1.104381e-06,5.000000e-03
-1.096381e-06,2.750000e-02
-1.088381e-06,-5.000000e-03
-1.080381e-06,2.250000e-02
-1.072381e-06,-1.750000e-02
-1.064381e-06,2.000000e-02
-1.056381e-06,-3.625000e-02
-1.048381e-06,1.875000e-02
-1.040381e-06,-1.750000e-02
-1.032381e-06,6.250000e-03
-1.024381e-06,-1.250000e-02
-1.016381e-06,2.625000e-02
-1.008381e-06,-1.625000e-02
-1.000381e-06,1.250000e-03
-9.923813e-07,-1.000000e-02
-9.843813e-07,2.500000e-03
-9.763813e-07,-8.750000e-03
-9.683813e-07,4.375000e-02
-9.603813e-07,-3.000000e-02
-9.523813e-07,1.625000e-02
-9.443813e-07,-2.750000e-02
-9.363813e-07,5.000000e-03
-9.283813e-07,-1.500000e-02
-9.203813e-07,2.250000e-02
-9.123813e-07,-8.750000e-03
-9.043813e-07,3.125000e-02
-8.963813e-07,-1.000000e-02
-8.883813e-07,2.125000e-02
-8.803813e-07,-2.000000e-02
-8.723813e-07,2.750000e-02
-8.643813e-07,-1.750000e-02
-8.563813e-07,2.250000e-02
-8.483813e-07,-1.500000e-02
-8.403813e-07,5.000000e-03
-8.323813e-07,-1.250000e-02
-8.243813e-07,1.625000e-02
-8.163813e-07,-1.750000e-02
-8.083813e-07,2.375000e-02
-8.003813e-07,-6.250000e-03
-7.923813e-07,1.375000e-02
-7.843813e-07,-2.250000e-02
-7.763813e-07,3.250000e-02
-7.683813e-07,-1.000000e-02
-7.603813e-07,1.250000e-03
-7.523813e-07,-1.750000e-02
-7.443813e-07,1.375000e-02
-7.363813e-07,-2.125000e-02
-7.283813e-07,1.250000e-02
-7.203813e-07,-7.500000e-03
-7.123813e-07,-2.500000e-03
-7.043813e-07,1.250000e-03
-6.963813e-07,1.125000e-02
-6.883813e-07,-2.875000e-02
-6.803813e-07,0.000000e+00
-6.723813e-07,-3.250000e-02
-6.643813e-07,6.250000e-03
-6.563813e-07,-2.250000e-02
-6.483813e-07,2.500000e-02
-6.403813e-07,-7.500000e-03
-6.323813e-07,-1.125000e-02
-6.243813e-07,-1.000000e-02
-6.163813e-07,8.750000e-03
-6.083813e-07,-3.000000e-02
-6.003813e-07,7.500000e-03
-5.923813e-07,-2.500000e-03
-5.843813e-07,3.000000e-02
-5.763813e-07,-1.750000e-02
-5.683813e-07,2.875000e-02
-5.603813e-07,-8.750000e-03
-5.523813e-07,2.750000e-02
-5.443813e-07,-3.875000e-02
-5.363813e-07,3.500000e-02
-5.283813e-07,-2.500000e-02
-5.203813e-07,2.000000e-02
-5.123813e-07,-1.875000e-02
-5.043813e-07,7.500000e-03
-4.963813e-07,-6.250000e-03
-4.883813e-07,4.000000e-02
-4.803813e-07,-3.000000e-02
-4.723813e-07,2.250000e-02
-4.643813e-07,-2.500000e-02
-4.563813e-07,-5.000000e-03
-4.483813e-07,-1.125000e-02
-4.403813e-07,3.875000e-02
-4.323813e-07,-1.250000e-03
-4.243813e-07,1.875000e-02
-4.163813e-07,-2.250000e-02
-4.083813e-07,2.500000e-02
-4.003813e-07,0.000000e+00
-3.923813e-07,1.125000e-02
-3.843813e-07,2.500000e-03
-3.763813e-07,-5.000000e-03
-3.683813e-07,-2.750000e-02
-3.603813e-07,-1.500000e-02
-3.523813e-07,-2.500000e-02
-3.443813e-07,2.500000e-02
-3.363813e-07,2.125000e-02
-3.283813e-07,2.375000e-02
-3.203813e-07,-1.375000e-02
-3.123813e-07,1.500000e-02
-3.043813e-07,-3.625000e-02
-2.963813e-07,1.375000e-02
-2.883813e-07,-2.875000e-02
-2.803813e-07,1.250000e-02
-2.723813e-07,-2.750000e-02
-2.643813e-07,8.750000e-03
-2.563813e-07,-1.875000e-02
-2.483813e-07,2.500000e-03
-2.403813e-07,-2.250000e-02
-2.323813e-07,1.000000e-02
-2.243813e-07,-8.750000e-03
-2.163813e-07,2.250000e-02
-2.083813e-07,2.500000e-03
-2.003813e-07,4.125000e-02
-1.923813e-07,-1.500000e-02
-1.843813e-07,1.250000e-02
-1.763813e-07,-3.000000e-02
-1.683813e-07,2.375000e-02
-1.603813e-07,-2.875000e-02
-1.523813e-07,1.375000e-02
-1.443813e-07,-3.250000e-02
-1.363813e-07,3.500000e-02
-1.283813e-07,8.750000e-03
-1.203813e-07,-1.250000e-03
-1.123813e-07,-1.250000e-02
-1.043813e-07,1.125000e-02
-9.638125e-08,-2.500000e-03
-8.838125e-08,1.375000e-02
-8.038125e-08,-6.250000e-03
-7.238125e-08,5.000000e-03
-6.438125e-08,-2.500000e-03
-5.638125e-08,3.750000e-03
-4.838125e-08,-1.750000e-02
-4.038125e-08,1.000000e-02
-3.238125e-08,-1.332500e+00
-2.438125e-08,-1.410000e+00
-1.638125e-08,-1.411250e+00
-8.381250e-09,-1.381250e+00
-3.812500e-10,-4.125000e-02
7.618750e-09,-3.750000e-03
1.561875e-08,7.500000e-03
2.361875e-08,3.250000e-02
3.161875e-08,1.125000e-02
3.961875e-08,-1.250000e-03
4.761875e-08,-1.375000e-02
5.561875e-08,7.500000e-03
6.361875e-08,-2.125000e-02
7.161875e-08,1.625000e-02
7.961875e-08,-1.875000e-02
8.761875e-08,1.375000e-02
9.561875e-08,-7.500000e-03
1.036187e-07,1.625000e-02
1.116187e-07,-3.750000e-03
1.196187e-07,1.625000e-02
1.276187e-07,-1.750000e-02
1.356187e-07,0.000000e+00
1.436187e-07,-1.625000e-02
1.516187e-07,8.750000e-03
1.596187e-07,-2.500000e-02
1.676187e-07,6.250000e-03
1.756187e-07,-1.125000e-02
1.836187e-07,2.500000e-02
1.916187e-07,-1.000000e-02
1.996187e-07,2.500000e-02
2.076187e-07,-1.000000e-02
2.156187e-07,1.375000e-02
2.236187e-07,-1.125000e-02
2.316187e-07,2.875000e-02
2.396187e-07,-2.625000e-02
2.476187e-07,2.250000e-02
2.556187e-07,-1.000000e-02
2.636187e-07,1.250000e-03
2.716187e-07,-1.125000e-02
2.796187e-07,1.750000e-02
2.876187e-07,-1.750000e-02
2.956187e-07,1.625000e-02
3.036187e-07,-1.000000e-02
3.116187e-07,3.000000e-02
3.196187e-07,2.500000e-03
3.276187e-07,8.750000e-03
3.356187e-07,-2.000000e-02
3.436187e-07,2.250000e-02
3.516187e-07,0.000000e+00
3.596187e-07,3.750000e-03
3.676187e-07,-1.125000e-02
3.756187e-07,2.000000e-02
3.836187e-07,-1.000000e-02
3.916187e-07,-2.500000e-03
3.996187e-07,1.125000e-02
4.076187e-07,-3.750000e-03
4.156187e-07,5.000000e-03
4.236187e-07,2.250000e-02
4.316187e-07,3.750000e-03
4.396187e-07,3.000000e-02
4.476187e-07,1.000000e-02
4.556187e-07,1.625000e-02
4.636187e-07,-1.375000e-02
4.716187e-07,6.250000e-03
4.796187e-07,-2.375000e-02
4.876187e-07,-5.000000e-03
4.956187e-07,-1.250000e-03
5.036187e-07,8.750000e-03
5.116187e-07,-1.500000e-02
5.196187e-07,1.375000e-02
5.276187e-07,1.375000e-02
5.356187e-07,5.000000e-03
5.436187e-07,-1.750000e-02
5.516187e-07,2.125000e-02
5.596187e-07,1.250000e-02
5.676187e-07,3.250000e-02
5.756187e-07,6.250000e-03
5.836187e-07,3.375000e-02
5.916187e-07,-1.250000e-02
5.996187e-07,-7.500000e-03
6.076187e-07,-2.750000e-02
6.156187e-07,2.125000e-02
6.236187e-07,-3.750000e-02
6.316187e-07,2.375000e-02
6.396187e-07,-1.250000e-03
6.476187e-07,3.500000e-02
6.556187e-07,-5.000000e-03
6.636187e-07,4.000000e-02
6.716187e-07,-2.250000e-02
6.796187e-07,1.750000e-02
6.876187e-07,-1.375000e-02
6.956187e-07,3.250000e-02
7.036187e-07,1.750000e-02
7.116187e-07,1.625000e-02
7.196187e-07,-8.750000e-03
7.276187e-07,1.750000e-02
7.356187e-07,-3.250000e-02
7.436187e-07,1.000000e-02
7.516187e-07,-1.250000e-02
7.596187e-07,2.750000e-02
7.676187e-07,-2.500000e-03
7.756187e-07,1.625000e-02
7.836187e-07,-2.125000e-02
7.916187e-07,1.250000e-03
7.996187e-07,-1.750000e-02
