run1/run1_ch1_20210318180344448.csv

Model,MSO64
Waveform Type,ANALOG
Horizontal Units,s
Sample Interval,8.000000e-09
Record Length,1250
Zero Index,624.595156
Vertical Units,V

TIME,CH1
-4.996761e-06,-1.625000e-02
-4.988761e-06,1.250000e-03
-4.980761e-06,-1.000000e-02
-4.972761e-06,2.625000e-02
-4.964761e-06,-1.375000e-02
-4.956761e-06,3.500000e-02
-4.948761e-06,-5.000000e-03
-4.940761e-06,-3.750000e-03
-4.932761e-06,-3.750000e-02
-4.924761e-06,2.000000e-02
-4.916761e-06,-3.375000e-02
-4.908761e-06,8.750000e-03
-4.900761e-06,-2.875000e-02
-4.892761e-06,4.250000e-02
-4.884761e-06,7.500000e-03
-4.876761e-06,1.750000e-02
-4.868761e-06,-1.000000e-02
-4.860761e-06,5.000000e-03
-4.852761e-06,-1.250000e-02
-4.844761e-06,1.125000e-02
-4.836761e-06,-1.250000e-03
-4.828761e-06,2.125000e-02
-4.820761e-06,-6.250000e-03
-4.812761e-06,1.250000e-03
-4.804761e-06,-1.000000e-02
-4.796761e-06,3.375000e-02
-4.788761e-06,-2.625000e-02
-4.780761e-06,2.375000e-02
-4.772761e-06,-2.125000e-02
-4.764761e-06,2.500000e-02
-4.756761e-06,0.000000e+00
-4.748761e-06,-2.500000e-03
-4.740761e-06,2.500000e-03
-4.732761e-06,1.375000e-02
-4.724761e-06,-4.375000e-02
-4.716761e-06,1.500000e-02
-4.708761e-06,0.000000e+00
-4.700761e-06,1.125000e-02
-4.692761e-06,-1.375000e-02
-4.684761e-06,8.750000e-03
-4.676761e-06,-7.500000e-03
-4.668761e-06,1.625000e-02
-4.660761e-06,-2.125000e-02
-4.652761e-06,1.625000e-02
-4.644761e-06,-3.750000e-02
-4.636761e-06,3.375000e-02
-4.628761e-06,-2.375000e-02
-4.620761e-06,1.250000e-02
-4.612761e-06,-2.250000e-02
-4.604761e-06,1.250000e-02
-4.596761e-06,-1.500000e-02
-4.588761e-06,1.375000e-02
-4.580761e-06,-7.500000e-03
-4.572761e-06,2.750000e-02
-4.564761e-06,-6.250000e-03
-4.556761e-06,5.000000e-03
-4.548761e-06,-2.500000e-03
-4.540761e-06,1.125000e-02
-4.532761e-06,-2.875000e-02
-4.524761e-06,5.000000e-03
-4.516761e-06,-3.250000e-02
-4.508761e-06,7.500000e-03
-4.500761e-06,-2.500000e-02
-4.492761e-06,-6.250000e-03
-4.484761e-06,-1.750000e-02
-4.476761e-06,2.000000e-02
-4.468761e-06,-1.250000e-02
-4.460761e-06,2.625000e-02
-4.452761e-06,1.250000e-03
-4.444761e-06,1.125000e-02
-4.436761e-06,1.250000e-02
-4.428761e-06,1.000000e-02
-4.420761e-06,-2.500000e-02
-4.412761e-06,3.000000e-02
-4.404761e-06,3.750000e-03
-4.396761e-06,1.250000e-03
-4.388761e-06,-2.875000e-02
-4.380761e-06,1.000000e-02
-4.372761e-06,-3.375000e-02
-4.364761e-06,-1.250000e-03
-4.356761e-06,-1.125000e-02
-4.348761e-06,1.750000e-02
-4.340761e-06,-1.125000e-02
-4.332761e-06,1.250000e-02
-4.324761e-06,-8.750000e-03
-4.316761e-06,4.375000e-02
-4.308761e-06,1.250000e-03
-4.300761e-06,-2.500000e-03
-4.292761e-06,-2.000000e-02
-4.284761e-06,2.625000e-02
-4.276761e-06,-3.375000e-02
-4.268761e-06,-2.500000e-03
-4.260761e-06,1.500000e-02
-4.252761e-06,4.625000e-02
-4.244761e-06,-2.375000e-02
-4.236761e-06,-2.500000e-03
-4.228761e-06,-3.000000e-02
-4.220761e-06,2.625000e-02
-4.212761e-06,5.000000e-03
-4.204761e-06,1.125000e-02
-4.196761e-06,-3.750000e-03
-4.188761e-06,3.250000e-02
-4.180761e-06,5.000000e-03
-4.172761e-06,0.000000e+00
-4.164761e-06,-4.375000e-02
-4.156761e-06,3.750000e-03
-4.148761e-06,-2.500000e-02
-4.140761e-06,1.000000e-02
-4.132761e-06,-1.375000e-02
-4.124761e-06,8.750000e-03
-4.116761e-06,-1.875000e-02
-4.108761e-06,-1.250000e-02
-4.100761e-06,2.500000e-03
-4.092761e-06,1.750000e-02
-4.084761e-06,0.000000e+00
-4.076761e-06,3.750000e-03
-4.068761e-06,-1.500000e-02
-4.060761e-06,2.125000e-02
-4.052761e-06,-1.250000e-02
-4.044761e-06,6.250000e-03
-4.036761e-06,-1.875000e-02
-4.028761e-06,2.500000e-02
-4.020761e-06,-2.750000e-02
-4.012761e-06,1.625000e-02
-4.004761e-06,-2.750000e-02
-3.996761e-06,2.750000e-02
-3.988761e-06,6.250000e-03
-3.980761e-06,1.375000e-02
-3.972761e-06,3.750000e-03
-3.964761e-06,3.750000e-03
-3.956761e-06,-1.250000e-03
-3.948761e-06,2.250000e-02
-3.940761e-06,-6.250000e-03
-3.932761e-06,-5.000000e-03
-3.924761e-06,-2.000000e-02
-3.916761e-06,1.000000e-02
-3.908761e-06,-1.625000e-02
-3.900761e-06,1.125000e-02
-3.892761e-06,-2.125000e-02
-3.884761e-06,3.000000e-02
-3.876761e-06,-3.375000e-02
-3.868761e-06,3.125000e-02
-3.860761e-06,1.250000e-03
-3.852761e-06,2.125000e-02
-3.844761e-06,-5.000000e-03
-3.836761e-06,1.875000e-02
-3.828761e-06,-2.375000e-02
-3.820761e-06,2.250000e-02
-3.812761e-06,-1.375000e-02
-3.804761e-06,2.000000e-02
-3.796761e-06,7.500000e-03
-3.788761e-06,2.500000e-02
-3.780761e-06,1.250000e-03
-3.772761e-06,3.000000e-02
-3.764761e-06,-4.125000e-02
-3.756761e-06,2.500000e-03
-3.748761e-06,-2.875000e-02
-3.740761e-06,3.000000e-02
-3.732761e-06,-3.125000e-02
-3.724761e-06,1.000000e-02
-3.716761e-06,-1.000000e-02
-3.708761e-06,2.500000e-02
-3.700761e-06,-1.875000e-02
-3.692761e-06,1.500000e-02
-3.684761e-06,-1.750000e-02
-3.676761e-06,1.875000e-02
-3.668761e-06,-1.875000e-02
-3.660761e-06,5.000000e-03
-3.652761e-06,-1.625000e-02
-3.644761e-06,-1.250000e-03
-3.636761e-06,-1.000000e-02
-3.628761e-06,2.750000e-02
-3.620761e-06,-6.250000e-03
-3.612761e-06,2.500000e-02
-3.604761e-06,-1.000000e-02
-3.596761e-06,1.250000e-02
-3.588761e-06,2.000000e-02
-3.580761e-06,3.500000e-02
-3.572761e-06,-3.750000e-03
-3.564761e-06,2.875000e-02
-3.556761e-06,-2.250000e-02
-3.548761e-06,3.750000e-03
-3.540761e-06,-1.000000e-02
-3.532761e-06,1.000000e-02
-3.524761e-06,-2.500000e-03
-3.516761e-06,5.000000e-03
-3.508761e-06,-1.625000e-02
-3.500761e-06,1.250000e-02
-3.492761e-06,-7.500000e-03
-3.484761e-06,2.500000e-02
-3.476761e-06,-1.000000e-02
-3.468761e-06,3.500000e-02
-3.460761e-06,-3.375000e-02
-3.452761e-06,2.375000e-02
-3.444761e-06,-6.250000e-03
-3.436761e-06,1.000000e-02
-3.428761e-06,-3.250000e-02
-3.420761e-06,1.250000e-02
-3.412761e-06,-2.500000e-03
-3.404761e-06,1.500000e-02
-3.396761e-06,-2.750000e-02
-3.388761e-06,7.500000e-03
-3.380761e-06,-2.250000e-02
-3.372761e-06,3.000000e-02
-3.364761e-06,-2.250000e-02
-3.356761e-06,2.250000e-02
-3.348761e-06,-6.250000e-03
-3.340761e-06,1.250000e-03
-3.332761e-06,-6.250000e-03
-3.324761e-06,2.625000e-02
-3.316761e-06,-1.750000e-02
-3.308761e-06,2.125000e-02
-3.300761e-06,-1.375000e-02
-3.292761e-06,3.125000e-02
-3.284761e-06,0.000000e+00
-3.276761e-06,3.000000e-02
-3.268761e-06,-5.000000e-03
-3.260761e-06,1.875000e-02
-3.252761e-06,-1.000000e-02
-3.244761e-06,1.375000e-02
-3.236761e-06,-2.250000e-02
-3.228761e-06,1.000000e-02
-3.220761e-06,3.750000e-03
-3.212761e-06,1.875000e-02
-3.204761e-06,-3.750000e-03
-3.196761e-06,2.375000e-02
-3.188761e-06,-1.375000e-02
-3.180761e-06,3.250000e-02
-3.172761e-06,-8.750000e-03
-3.164761e-06,1.375000e-02
-3.156761e-06,-2.500000e-03
-3.148761e-06,-6.250000e-03
-3.140761e-06,-1.625000e-02
-3.132761e-06,-7.500000e-03
-3.124761e-06,-1.125000e-02
-3.116761e-06,1.375000e-02
-3.108761e-06,-2.375000e-02
-3.100761e-06,8.750000e-03
-3.092761e-06,2.500000e-03
-3.084761e-06,1.000000e-02
-3.076761e-06,-7.500000e-03
-3.068761e-06,2.125000e-02
-3.060761e-06,-2.125000e-02
-3.052761e-06,2.375000e-02
-3.044761e-06,-8.750000e-03
-3.036761e-06,1.750000e-02
-3.028761e-06,5.000000e-03
-3.020761e-06,2.875000e-02
-3.012761e-06,-2.500000e-02
-3.004761e-06,2.750000e-02
-2.996761e-06,-8.750000e-03
-2.988761e-06,1.875000e-02
-2.980761e-06,-2.125000e-02
-2.972761e-06,1.500000e-02
-2.964761e-06,-2.875000e-02
-2.956761e-06,-1.125000e-02
-2.948761e-06,-3.750000e-03
-2.940761e-06,2.875000e-02
-2.932761e-06,-7.500000e-03
-2.924761e-06,-2.500000e-03
-2.916761e-06,-1.750000e-02
-2.908761e-06,-2.500000e-03
-2.900761e-06,-1.250000e-03
-2.892761e-06,4.875000e-02
-2.884761e-06,-1.625000e-02
-2.876761e-06,1.125000e-02
-2.868761e-06,-1.250000e-02
-2.860761e-06,1.250000e-03
-2.852761e-06,-1.875000e-02
-2.844761e-06,4.375000e-02
-2.836761e-06,-1.875000e-02
-2.828761e-06,1.000000e-02
-2.820761e-06,-2.000000e-02
-2.812761e-06,3.625000e-02
-2.804761e-06,-3.125000e-02
-2.796761e-06,1.500000e-02
-2.788761e-06,-6.250000e-03
-2.780761e-06,1.375000e-02
-2.772761e-06,-1.375000e-02
-2.764761e-06,2.500000e-03
-2.756761e-06,-8.750000e-03
-2.748761e-06,1.125000e-02
-2.740761e-06,-2.375000e-02
-2.732761e-06,2.750000e-02
-2.724761e-06,-7.500000e-03
-2.716761e-06,2.000000e-02
-2.708761e-06,-7.500000e-03
-2.700761e-06,1.875000e-02
-2.692761e-06,-7.500000e-03
-2.684761e-06,2.125000e-02
-2.676761e-06,7.500000e-03
-2.668761e-06,1.500000e-02
-2.660761e-06,0.000000e+00
-2.652761e-06,4.375000e-02
-2.644761e-06,-2.125000e-02
-2.636761e-06,1.625000e-02
-2.628761e-06,2.125000e-02
-2.620761e-06,1.125000e-02
-2.612761e-06,-3.125000e-02
-2.604761e-06,3.375000e-02
-2.596761e-06,-1.750000e-02
-2.588761e-06,2.250000e-02
-2.580761e-06,-1.375000e-02
-2.572761e-06,3.750000e-02
-2.564761e-06,2.500000e-03
-2.556761e-06,0.000000e+00
-2.548761e-06,-2.000000e-02
-2.540761e-06,8.750000e-03
-2.532761e-06,-8.750000e-03
-2.524761e-06,3.125000e-02
-2.516761e-06,-8.750000e-03
-2.508761e-06,-2.500000e-03
-2.500761e-06,-1.500000e-02
-2.492761e-06,1.750000e-02
-2.484761e-06,-2.250000e-02
-2.476761e-06,6.250000e-03
-2.468761e-06,-3.500000e-02
-2.460761e-06,1.625000e-02
-2.452761e-06,-1.000000e-02
-2.444761e-06,6.250000e-03
-2.436761e-06,-1.625000e-02
-2.428761e-06,1.625000e-02
-2.420761e-06,-1.625000e-02
-2.412761e-06,1.250000e-02
-2.404761e-06,-3.750000e-03
-2.396761e-06,1.750000e-02
-2.388761e-06,1.250000e-03
-2.380761e-06,8.750000e-03
-2.372761e-06,-8.750000e-03
-2.364761e-06,1.500000e-02
-2.356761e-06,-3.375000e-02
-2.348761e-06,1.500000e-02
-2.340761e-06,-1.500000e-02
-2.332761e-06,1.875000e-02
-2.324761e-06,-7.500000e-03
-2.316761e-06,5.000000e-03
-2.308761e-06,-5.000000e-03
-2.300761e-06,2.250000e-02
-2.292761e-06,-3.250000e-02
-2.284761e-06,-1.250000e-03
-2.276761e-06,-6.250000e-03
-2.268761e-06,7.500000e-03
-2.260761e-06,-1.250000e-02
-2.252761e-06,1.500000e-02
-2.244761e-06,-2.125000e-02
-2.236761e-06,1.375000e-02
-2.228761e-06,-3.125000e-02
-2.220761e-06,2.375000e-02
-2.212761e-06,-1.750000e-02
-2.204761e-06,4.125000e-02
-2.196761e-06,-1.375000e-02
-2.188761e-06,1.250000e-03
-2.180761e-06,-2.500000e-02
-2.172761e-06,1.750000e-02
-2.164761e-06,-1.625000e-02
-2.156761e-06,2.125000e-02
-2.148761e-06,5.000000e-03
-2.140761e-06,2.500000e-02
-2.132761e-06,7.500000e-03
-2.124761e-06,-5.000000e-03
-2.116761e-06,-2.750000e-02
-2.108761e-06,1.750000e-02
-2.100761e-06,-1.875000e-02
-2.092761e-06,3.125000e-02
-2.084761e-06,-2.250000e-02
-2.076761e-06,2.125000e-02
-2.068761e-06,-3.625000e-02
-2.060761e-06,1.875000e-02
-2.052761e-06,-2.500000e-02
-2.044761e-06,-1.000000e-02
-2.036761e-06,-1.000000e-02
-2.028761e-06,1.500000e-02
-2.020761e-06,-1.750000e-02
-2.012761e-06,1.875000e-02
-2.004761e-06,-1.250000e-03
-1.996761e-06,2.750000e-02
-1.988761e-06,-2.625000e-02
-1.980761e-06,7.500000e-03
-1.972761e-06,-3.750000e-03
-1.964761e-06,-1.250000e-03
-1.956761e-06,-1.000000e-02
-1.948761e-06,2.250000e-02
-1.940761e-06,1.000000e-02
-1.932761e-06,1.875000e-02
-1.924761e-06,-1.750000e-02
-1.916761e-06,2.125000e-02
-1.908761e-06,-3.875000e-02
-1.900761e-06,-1.250000e-03
-1.892761e-06,-7.500000e-03
-1.884761e-06,1.250000e-02
-1.876761e-06,-3.750000e-03
-1.868761e-06,2.000000e-02
-1.860761e-06,6.250000e-03
-1.852761e-06,2.750000e-02
-1.844761e-06,-1.875000e-02
-1.836761e-06,1.875000e-02
-1.828761e-06,-2.125000e-02
-1.820761e-06,1.250000e-02
-1.812761e-06,-7.500000e-03
-1.804761e-06,-2.500000e-03
-1.796761e-06,-1.250000e-02
-1.788761e-06,0.000000e+00
-1.780761e-06,-1.250000e-03
-1.772761e-06,2.500000e-02
-1.764761e-06,-1.375000e-02
-1.756761e-06,1.875000e-02
-1.748761e-06,-1.000000e-02
-1.740761e-06,1.125000e-02
-1.732761e-06,-1.375000e-02
-1.724761e-06,1.500000e-02
-1.716761e-06,-4.125000e-02
-1.708761e-06,1.125000e-02
-1.700761e-06,-1.500000e-02
-1.692761e-06,3.125000e-02
-1.684761e-06,-1.625000e-02
-1.676761e-06,1.000000e-02
-1.668761e-06,6.250000e-03
-1.660761e-06,6.250000e-03
-1.652761e-06,2.500000e-03
-1.644761e-06,3.750000e-03
-1.636761e-06,-8.750000e-03
-1.628761e-06,4.375000e-02
-1.620761e-06,6.250000e-03
-1.612761e-06,1.125000e-02
-1.604761e-06,-1.375000e-02
-1.596761e-06,2.625000e-02
-1.588761e-06,-1.750000e-02
-1.580761e-06,1.000000e-02
-1.572761e-06,6.250000e-03
-1.564761e-06,3.500000e-02
-1.556761e-06,-1.875000e-02
-1.548761e-06,2.500000e-03
-1.540761e-06,-3.750000e-03
-1.532761e-06,6.250000e-03
-1.524761e-06,-3.375000e-02
-1.516761e-06,7.500000e-03
-1.508761e-06,-8.750000e-03
-1.500761e-06,3.125000e-02
-1.492761e-06,-1.500000e-02
-1.484761e-06,3.375000e-02
-1.476761e-06,-2.125000e-02
-1.468761e-06,1.250000e-03
-1.460761e-06,-8.750000e-03
-1.452761e-06,3.750000e-03
-1.444761e-06,-2.125000e-02
-1.436761e-06,1.250000e-02
-1.428761e-06,-1.000000e-02
-1.420761e-06,2.500000e-03
-1.412761e-06,-3.000000e-02
-1.404761e-06,1.250000e-03
-1.396761e-06,-1.875000e-02
-1.388761e-06,1.750000e-02
-1.380761e-06,-1.625000e-02
-1.372761e-06,2.250000e-02
-1.364761e-06,1.375000e-02
-1.356761e-06,1.500000e-02
-1.348761e-06,-1.250000e-02
-1.340761e-06,1.250000e-02
-1.332761e-06,-2.125000e-02
-1.324761e-06,4.625000e-02
-1.316761e-06,-3.750000e-03
-1.308761e-06,1.500000e-02
-1.300761e-06,-1.125000e-02
-1.292761e-06,2.500000e-03
-1.284761e-06,-5.000000e-03
-1.276761e-06,1.500000e-02
-1.268761e-06,-3.125000e-02
-1.260761e-06,7.500000e-03
-1.252761e-06,8.750000e-03
-1.244761e-06,3.625000e-02
-1.236761e-06,-3.000000e-02
-1.228761e-06,1.500000e-02
-1.220761e-06,-1.375000e-02
-1.212761e-06,2.250000e-02
-1.204761e-06,-4.500000e-02
-1.196761e-06,2.625000e-02
-1.188761e-06,-1.625000e-02
-1.180761e-06,5.250000e-02
-1.172761e-06,-1.875000e-02
-1.164761e-06,1.875000e-02
-1.156761e-06,-2.875000e-02
-1.148761e-06,8.750000e-03
-1.140761e-06,-8.750000e-03
-1.132761e-06,1.875000e-02
-1.124761e-06,-8.750000e-03
-1.116761e-06,1.500000e-02
-1.108761e-06,1.375000e-02
-1.100761e-06,-1.250000e-03
-1.092761e-06,-1.625000e-02
-1.084761e-06,1.500000e-02
-1.076761e-06,-2.625000e-02
-1.068761e-06,3.250000e-02
-1.060761e-06,-1.500000e-02
-1.052761e-06,1.875000e-02
-1.044761e-06,-1.375000e-02
-1.036761e-06,5.000000e-03
-1.028761e-06,-1.000000e-02
-1.020761e-06,2.250000e-02
-1.012761e-06,-2.375000e-02
-1.004761e-06,7.500000e-03
-9.967612e-07,6.250000e-03
-9.887612e-07,2.000000e-02
-9.807612e-07,-1.625000e-02
-9.727612e-07,3.250000e-02
-9.647612e-07,7.500000e-03
-9.567612e-07,1.000000e-02
-9.487612e-07,-3.375000e-02
-9.407612e-07,2.500000e-02
-9.327612e-07,-2.875000e-02
-9.247612e-07,2.125000e-02
-9.167612e-07,-1.750000e-02
-9.087612e-07,2.875000e-02
-9.007612e-07,1.500000e-02
-8.927612e-07,2.500000e-02
-8.847612e-07,1.250000e-03
-8.767612e-07,7.500000e-03
-8.687612e-07,1.250000e-03
-8.607612e-07,3.750000e-02
-8.527612e-07,8.750000e-03
-8.447612e-07,1.625000e-02
-8.367612e-07,-2.625000e-02
-8.287612e-07,1.625000e-02
-8.207612e-07,-3.375000e-02
-8.127612e-07,3.250000e-02
-8.047612e-07,-3.875000e-02
-7.967612e-07,3.375000e-02
-7.887612e-07,5.000000e-03
-7.807612e-07,0.000000e+00
-7.727612e-07,-1.000000e-02
-7.647612e-07,2.000000e-02
-7.567612e-07,-2.000000e-02
-7.487612e-07,2.500000e-02
-7.407612e-07,-1.000000e-02
-7.327612e-07,3.375000e-02
-7.247612e-07,-1.750000e-02
-7.167612e-07,2.250000e-02
-7.087612e-07,0.000000e+00
-7.007612e-07,2.500000e-02
-6.927612e-07,-1.375000e-02
-6.847612e-07,2.500000e-02
-6.767612e-07,-2.250000e-02
-6.687612e-07,1.500000e-02
-6.607612e-07,1.250000e-03
-6.527612e-07,2.375000e-02
-6.447612e-07,2.500000e-03
-6.367612e-07,2.250000e-02
-6.287612e-07,-2.000000e-02
-6.207612e-07,1.125000e-02
-6.127612e-07,-1.125000e-02
-6.047612e-07,2.250000e-02
-5.967612e-07,-8.750000e-03
-5.887612e-07,2.750000e-02
-5.807612e-07,-1.500000e-02
-5.727612e-07,1.125000e-02
-5.647612e-07,-4.875000e-02
-5.567612e-07,2.375000e-02
-5.487612e-07,-3.250000e-02
-5.407612e-07,3.250000e-02
-5.327612e-07,-6.250000e-03
-5.247612e-07,-7.500000e-03
-5.167612e-07,-2.375000e-02
-5.087612e-07,2.875000e-02
-5.007612e-07,0.000000e+00
-4.927612e-07,1.750000e-02
-4.847612e-07,-5.000000e-03
-4.767612e-07,-2.500000e-03
-4.687612e-07,-3.125000e-02
-4.607612e-07,2.375000e-02
-4.527612e-07,-1.750000e-02
-4.447612e-07,1.250000e-03
-4.367612e-07,-2.125000e-02
-4.287612e-07,2.625000e-02
-4.207612e-07,-1.125000e-02
-4.127612e-07,2.875000e-02
-4.047612e-07,-2.125000e-02
-3.967612e-07,1.250000e-03
-3.887612e-07,-7.500000e-03
-3.807612e-07,2.375000e-02
-3.727612e-07,-3.750000e-03
-3.647612e-07,6.250000e-03
-3.567612e-07,1.000000e-02
-3.487612e-07,2.750000e-02
-3.407612e-07,1.250000e-03
-3.327612e-07,2.500000e-02
-3.247612e-07,-1.250000e-02
-3.167612e-07,2.750000e-02
-3.087612e-07,-2.250000e-02
-3.007612e-07,2.000000e-02
-2.927612e-07,-1.000000e-02
-2.847612e-07,3.750000e-02
-2.767612e-07,-2.000000e-02
-2.687612e-07,3.750000e-03
-2.607612e-07,-6.250000e-03
-2.527612e-07,1.750000e-02
-2.447612e-07,-2.000000e-02
-2.367612e-07,1.750000e-02
-2.287612e-07,-2.500000e-03
-2.207612e-07,8.750000e-03
-2.127612e-07,-8.750000e-03
-2.047612e-07,1.625000e-02
-1.967612e-07,-2.500000e-02
-1.887612e-07,8.750000e-03
-1.807612e-07,-2.625000e-02
-1.727612e-07,1.875000e-02
-1.647612e-07,-2.125000e-02
-1.567612e-07,2.250000e-02
-1.487612e-07,7.500000e-03
-1.407612e-07,8.750000e-03
-1.327612e-07,-1.500000e-02
-1.247612e-07,2.875000e-02
-1.167612e-07,-4.625000e-02
-1.087612e-07,2.000000e-02
-1.007612e-07,-7.500000e-03
-9.276125e-08,1.125000e-02
-8.476125e-08,3.750000e-03
-7.676125e-08,5.000000e-03
-6.876125e-08,-4.125000e-02
-6.076125e-08,-5.000000e-03
-5.276125e-08,-3.125000e-02
-4.476125e-08,-7.500000e-03
-3.676125e-08,-2.750000e-02
-2.876125e-08,0.000000e+00
-2.076125e-08,-8.750000e-03
-1.276125e-08,3.250000e-02
-4.761250e-09,-1.375000e-02
3.238750e-09,-1.372500e+00
1.123875e-08,-1.440000e+00
1.923875e-08,-1.397500e+00
2.723875e-08,-1.403750e+00
3.523875e-08,1.625000e-02
4.323875e-08,-1.125000e-02
5.123875e-08,-3.750000e-03
5.923875e-08,-2.625000e-02
6.723875e-08,2.875000e-02
7.523875e-08,-3.250000e-02
8.323875e-08,2.000000e-02
9.123875e-08,-2.125000e-02
9.923875e-08,1.750000e-02
1.072388e-07,-7.500000e-03
1.152388e-07,1.000000e-02
1.232388e-07,-1.750000e-02
1.312388e-07,1.000000e-02
1.392388e-07,-5.000000e-03
1.472388e-07,2.500000e-02
1.552388e-07,-2.125000e-02
1.632388e-07,1.625000e-02
1.712388e-07,-2.375000e-02
1.792388e-07,1.250000e-03
1.872388e-07,5.000000e-03
1.952388e-07,2.125000e-02
2.032388e-07,-2.875000e-02
2.112388e-07,2.250000e-02
2.192388e-07,-2.375000e-02
2.272388e-07,4.125000e-02
2.352388e-07,-1.625000e-02
2.432388e-07,6.250000e-03
2.512388e-07,-2.500000e-02
2.592388e-07,3.375000e-02
2.672388e-07,-4.375000e-02
2.752388e-07,1.250000e-02
2.832388e-07,-6.250000e-03
2.912388e-07,2.500000e-02
2.992388e-07,-8.750000e-03
3.072388e-07,-2.500000e-03
3.152388e-07,-2.500000e-02
3.232388e-07,2.500000e-03
3.312388e-07,-1.750000e-02
3.392388e-07,2.500000e-02
3.472388e-07,-4.125000e-02
3.552388e-07,3.000000e-02
3.632388e-07,-2.500000e-02
3.712388e-07,1.125000e-02
3.792388e-07,-1.000000e-02
3.872388e-07,2.500000e-02
3.952388e-07,-8.750000e-03
4.032388e-07,1.500000e-02
4.112388e-07,3.750000e-03
4.192388e-07,3.375000e-02
4.272388e-07,-8.750000e-03
4.352388e-07,-2.500000e-03
4.432388e-07,-2.125000e-02
4.512388e-07,2.000000e-02
4.592388e-07,-1.875000e-02
4.672388e-07,7.500000e-03
4.752388e-07,-2.375000e-02
4.832388e-07,2.250000e-02
4.912388e-07,-7.500000e-03
4.992388e-07,2.125000e-02
5.072388e-07,-7.500000e-03
5.152388e-07,1.125000e-02
5.232388e-07,-3.125000e-02
5.312388e-07,2.500000e-02
5.392388e-07,-2.000000e-02
5.472388e-07,4.500000e-02
5.552388e-07,-2.500000e-03
5.632388e-07,1.375000e-02
5.712388e-07,-1.500000e-02
5.792388e-07,2.375000e-02
5.872388e-07,-1.375000e-02
5.952388e-07,2.625000e-02
6.032388e-07,-2.875000e-02
6.112388e-07,1.375000e-02
6.192388e-07,-5.000000e-03
6.272388e-07,3.750000e-02
6.352388e-07,-1.250000e-03
6.432388e-07,2.875000e-02
6.512388e-07,-1.750000e-02
6.592388e-07,1.625000e-02
6.672388e-07,-6.250000e-03
6.752388e-07,1.125000e-02
6.832388e-07,-2.125000e-02
6.912388e-07,8.750000e-03
6.992388e-07,1.000000e-02
7.072388e-07,2.000000e-02
7.152388e-07,-4.250000e-02
7.232388e-07,1.000000e-02
7.312388e-07,-3.750000e-03
7.392388e-07,3.125000e-02
7.472388e-07,-8.750000e-03
7.552388e-07,1.875000e-02
7.632388e-07,-2.000000e-02
7.712388e-07,2.625000e-02
7.792388e-07,-7.500000e-03
7.872388e-07,1.250000e-02
7.952388e-07,-1.875000e-02
8.032388e-07,1.750000e-02
