run1/run1_ch3_20210318180207263.csv

Model,MSO64
Waveform Type,ANALOG
Horizontal Units,s
Sample Interval,8.000000e-09
Record Length,1250
Zero Index,624.200000
Vertical Units,V

TIME,CH3
-4.993600e-06,-7.381250e-01
-4.985600e-06,-7.525000e-01
-4.977600e-06,-7.290625e-01
-4.969600e-06,-7.618750e-01
-4.961600e-06,-7.281250e-01
-4.953600e-06,-7.490625e-01
-4.945600e-06,-7.284375e-01
-4.937600e-06,-7.465625e-01
-4.929600e-06,-7.331250e-01
-4.921600e-06,-7.440625e-01
-4.913600e-06,-7.268750e-01
-4.905600e-06,-7.531250e-01
-4.897600e-06,-7.315625e-01
-4.889600e-06,-7.490625e-01
-4.881600e-06,-7.225000e-01
-4.873600e-06,-7.531250e-01
-4.865600e-06,-7.390625e-01
-4.857600e-06,-7.550000e-01
-4.849600e-06,-7.393750e-01
-4.841600e-06,-7.490625e-01
-4.833600e-06,-7.306250e-01
-4.825600e-06,-7.434375e-01
-4.817600e-06,-7.275000e-01
-4.809600e-06,-7.371875e-01
-4.801600e-06,-7.250000e-01
-4.793600e-06,-7.471875e-01
-4.785600e-06,-7.293750e-01
-4.777600e-06,-7.587500e-01
-4.769600e-06,-7.281250e-01
-4.761600e-06,-7.565625e-01
-4.753600e-06,-7.090625e-01
-4.745600e-06,-7.465625e-01
-4.737600e-06,-7.440625e-01
-4.729600e-06,-7.406250e-01
-4.721600e-06,-7.500000e-01
-4.713600e-06,-7.559375e-01
-4.705600e-06,-7.315625e-01
-4.697600e-06,-7.418750e-01
-4.689600e-06,-7.206250e-01
-4.681600e-06,-7.331250e-01
-4.673600e-06,-7.287500e-01
-4.665600e-06,-7.562500e-01
-4.657600e-06,-7.184375e-01
-4.649600e-06,-7.668750e-01
-4.641600e-06,-7.325000e-01
-4.633600e-06,-7.556250e-01
-4.625600e-06,-7.175000e-01
-4.617600e-06,-7.556250e-01
-4.609600e-06,-7.312500e-01
-4.601600e-06,-7.434375e-01
-4.593600e-06,-7.437500e-01
-4.585600e-06,-7.484375e-01
-4.577600e-06,-7.265625e-01
-4.569600e-06,-7.431250e-01
-4.561600e-06,-7.250000e-01
-4.553600e-06,-7.406250e-01
-4.545600e-06,-7.406250e-01
-4.537600e-06,-7.681250e-01
-4.529600e-06,-7.312500e-01
-4.521600e-06,-7.403125e-01
-4.513600e-06,-7.318750e-01
-4.505600e-06,-7.418750e-01
-4.497600e-06,-7.343750e-01
-4.489600e-06,-7.515625e-01
-4.481600e-06,-7.481250e-01
-4.473600e-06,-7.493750e-01
-4.465600e-06,-7.393750e-01
-4.457600e-06,-7.503125e-01
-4.449600e-06,-7.262500e-01
-4.441600e-06,-7.356250e-01
-4.433600e-06,-7.296875e-01
-4.425600e-06,-7.487500e-01
-4.417600e-06,-7.350000e-01
-4.409600e-06,-7.431250e-01
-4.401600e-06,-7.181250e-01
-4.393600e-06,-7.462500e-01
-4.385600e-06,-7.187500e-01
-4.377600e-06,-7.481250e-01
-4.369600e-06,-7.381250e-01
-4.361600e-06,-7.434375e-01
-4.353600e-06,-7.318750e-01
-4.345600e-06,-7.478125e-01
-4.337600e-06,-7.365625e-01
-4.329600e-06,-7.390625e-01
-4.321600e-06,-7.318750e-01
-4.313600e-06,-7.475000e-01
-4.305600e-06,-7.325000e-01
-4.297600e-06,-7.450000e-01
-4.289600e-06,-7.337500e-01
-4.281600e-06,-7.468750e-01
-4.273600e-06,-7.378125e-01
-4.265600e-06,-7.506250e-01
-4.257600e-06,-7.331250e-01
-4.249600e-06,-7.393750e-01
-4.241600e-06,-7.218750e-01
-4.233600e-06,-7.537500e-01
-4.225600e-06,-7.456250e-01
-4.217600e-06,-7.587500e-01
-4.209600e-06,-7.381250e-01
-4.201600e-06,-7.481250e-01
-4.193600e-06,-7.296875e-01
-4.185600e-06,-7.512500e-01
-4.177600e-06,-7.240625e-01
-4.169600e-06,-7.431250e-01
-4.161600e-06,-7.275000e-01
-4.153600e-06,-7.453125e-01
-4.145600e-06,-7.318750e-01
-4.137600e-06,-7.534375e-01
-4.129600e-06,-7.271875e-01
-4.121600e-06,-7.481250e-01
-4.113600e-06,-7.268750e-01
-4.105600e-06,-7.487500e-01
-4.097600e-06,-7.362500e-01
-4.089600e-06,-7.550000e-01
-4.081600e-06,-7.303125e-01
-4.073600e-06,-7.575000e-01
-4.065600e-06,-7.259375e-01
-4.057600e-06,-7.462500e-01
-4.049600e-06,-7.331250e-01
-4.041600e-06,-7.450000e-01
-4.033600e-06,-7.275000e-01
-4.025600e-06,-7.556250e-01
-4.017600e-06,-7.268750e-01
-4.009600e-06,-7.518750e-01
-4.001600e-06,-7.156250e-01
-3.993600e-06,-7.396875e-01
-3.985600e-06,-7.262500e-01
-3.977600e-06,-7.368750e-01
-3.969600e-06,-7.487500e-01
-3.961600e-06,-7.550000e-01
-3.953600e-06,-7.425000e-01
-3.945600e-06,-7.618750e-01
-3.937600e-06,-7.281250e-01
-3.929600e-06,-7.528125e-01
-3.921600e-06,-7.212500e-01
-3.913600e-06,-7.387500e-01
-3.905600e-06,-7.262500e-01
-3.897600e-06,-7.584375e-01
-3.889600e-06,-7.381250e-01
-3.881600e-06,-7.621875e-01
-3.873600e-06,-7.350000e-01
-3.865600e-06,-7.450000e-01
-3.857600e-06,-7.168750e-01
-3.849600e-06,-7.481250e-01
-3.841600e-06,-7.156250e-01
-3.833600e-06,-7.481250e-01
-3.825600e-06,-7.434375e-01
-3.817600e-06,-7.584375e-01
-3.809600e-06,-7.287500e-01
-3.801600e-06,-7.556250e-01
-3.793600e-06,-7.256250e-01
-3.785600e-06,-7.306250e-01
-3.777600e-06,-7.343750e-01
-3.769600e-06,-7.584375e-01
-3.761600e-06,-7.287500e-01
-3.753600e-06,-7.587500e-01
-3.745600e-06,-7.396875e-01
-3.737600e-06,-7.490625e-01
-3.729600e-06,-7.215625e-01
-3.721600e-06,-7.521875e-01
-3.713600e-06,-7.415625e-01
-3.705600e-06,-7.471875e-01
-3.697600e-06,-7.265625e-01
-3.689600e-06,-7.556250e-01
-3.681600e-06,-7.300000e-01
-3.673600e-06,-7.500000e-01
-3.665600e-06,-7.353125e-01
-3.657600e-06,-7.581250e-01
-3.649600e-06,-7.293750e-01
-3.641600e-06,-7.581250e-01
-3.633600e-06,-7.293750e-01
-3.625600e-06,-7.550000e-01
-3.617600e-06,-7.325000e-01
-3.609600e-06,-7.537500e-01
-3.601600e-06,-7.181250e-01
-3.593600e-06,-7.531250e-01
-3.585600e-06,-7.443750e-01
-3.577600e-06,-7.453125e-01
-3.569600e-06,-7.356250e-01
-3.561600e-06,-7.625000e-01
-3.553600e-06,-7.281250e-01
-3.545600e-06,-7.493750e-01
-3.537600e-06,-7.268750e-01
-3.529600e-06,-7.478125e-01
-3.521600e-06,-7.434375e-01
-3.513600e-06,-7.593750e-01
-3.505600e-06,-7.312500e-01
-3.497600e-06,-7.531250e-01
-3.489600e-06,-7.237500e-01
-3.481600e-06,-7.506250e-01
-3.473600e-06,-7.293750e-01
-3.465600e-06,-7.500000e-01
-3.457600e-06,-7.356250e-01
-3.449600e-06,-7.521875e-01
-3.441600e-06,-7.337500e-01
-3.433600e-06,-7.525000e-01
-3.425600e-06,-7.121875e-01
-3.417600e-06,-7.437500e-01
-3.409600e-06,-7.228125e-01
-3.401600e-06,-7.390625e-01
-3.393600e-06,-7.371875e-01
-3.385600e-06,-7.440625e-01
-3.377600e-06,-7.328125e-01
-3.369600e-06,-7.396875e-01
-3.361600e-06,-7.343750e-01
-3.353600e-06,-7.418750e-01
-3.345600e-06,-7.237500e-01
-3.337600e-06,-7.440625e-01
-3.329600e-06,-7.543750e-01
-3.321600e-06,-7.475000e-01
-3.313600e-06,-7.271875e-01
-3.305600e-06,-7.496875e-01
-3.297600e-06,-7.231250e-01
-3.289600e-06,-7.418750e-01
-3.281600e-06,-7.362500e-01
-3.273600e-06,-7.443750e-01
-3.265600e-06,-7.234375e-01
-3.257600e-06,-7.384375e-01
-3.249600e-06,-7.325000e-01
-3.241600e-06,-7.550000e-01
-3.233600e-06,-7.262500e-01
-3.225600e-06,-7.456250e-01
-3.217600e-06,-7.253125e-01
-3.209600e-06,-7.556250e-01
-3.201600e-06,-7.293750e-01
-3.193600e-06,-7.587500e-01
-3.185600e-06,-7.362500e-01
-3.177600e-06,-7.596875e-01
-3.169600e-06,-7.184375e-01
-3.161600e-06,-7.343750e-01
-3.153600e-06,-7.209375e-01
-3.145600e-06,-7.456250e-01
-3.137600e-06,-7.312500e-01
-3.129600e-06,-7.506250e-01
-3.121600e-06,-7.303125e-01
-3.113600e-06,-7.559375e-01
-3.105600e-06,-7.293750e-01
-3.097600e-06,-7.456250e-01
-3.089600e-06,-7.268750e-01
-3.081600e-06,-7.462500e-01
-3.073600e-06,-7.462500e-01
-3.065600e-06,-7.496875e-01
-3.057600e-06,-7.350000e-01
-3.049600e-06,-7.556250e-01
-3.041600e-06,-7.175000e-01
-3.033600e-06,-7.425000e-01
-3.025600e-06,-7.268750e-01
-3.017600e-06,-7.446875e-01
-3.009600e-06,-7.200000e-01
-3.001600e-06,-7.581250e-01
-2.993600e-06,-7.356250e-01
-2.985600e-06,-7.625000e-01
-2.977600e-06,-7.281250e-01
-2.969600e-06,-7.443750e-01
-2.961600e-06,-7.231250e-01
-2.953600e-06,-7.378125e-01
-2.945600e-06,-7.437500e-01
-2.937600e-06,-7.515625e-01
-2.929600e-06,-7.309375e-01
-2.921600e-06,-7.537500e-01
-2.913600e-06,-7.162500e-01
-2.905600e-06,-7.337500e-01
-2.897600e-06,-7.362500e-01
-2.889600e-06,-7.415625e-01
-2.881600e-06,-7.243750e-01
-2.873600e-06,-7.478125e-01
-2.865600e-06,-7.337500e-01
-2.857600e-06,-7.562500e-01
-2.849600e-06,-7.431250e-01
-2.841600e-06,-7.468750e-01
-2.833600e-06,-7.275000e-01
-2.825600e-06,-7.478125e-01
-2.817600e-06,-7.350000e-01
-2.809600e-06,-7.368750e-01
-2.801600e-06,-7.418750e-01
-2.793600e-06,-7.568750e-01
-2.785600e-06,-7.231250e-01
-2.777600e-06,-7.446875e-01
-2.769600e-06,-7.243750e-01
-2.761600e-06,-7.378125e-01
-2.753600e-06,-7.259375e-01
-2.745600e-06,-7.462500e-01
-2.737600e-06,-7.268750e-01
-2.729600e-06,-7.618750e-01
-2.721600e-06,-7.275000e-01
-2.713600e-06,-7.478125e-01
-2.705600e-06,-7.156250e-01
-2.697600e-06,-7.487500e-01
-2.689600e-06,-7.334375e-01
-2.681600e-06,-7.434375e-01
-2.673600e-06,-7.515625e-01
-2.665600e-06,-7.668750e-01
-2.657600e-06,-7.178125e-01
-2.649600e-06,-7.531250e-01
-2.641600e-06,-7.209375e-01
-2.633600e-06,-7.425000e-01
-2.625600e-06,-7.262500e-01
-2.617600e-06,-7.543750e-01
-2.609600e-06,-7.356250e-01
-2.601600e-06,-7.462500e-01
-2.593600e-06,-7.353125e-01
-2.585600e-06,-7.528125e-01
-2.577600e-06,-7.231250e-01
-2.569600e-06,-7.521875e-01
-2.561600e-06,-7.343750e-01
-2.553600e-06,-7.403125e-01
-2.545600e-06,-7.490625e-01
-2.537600e-06,-7.531250e-01
-2.529600e-06,-7.293750e-01
-2.521600e-06,-7.484375e-01
-2.513600e-06,-7.284375e-01
-2.505600e-06,-7.334375e-01
-2.497600e-06,-7.262500e-01
-2.489600e-06,-7.575000e-01
-2.481600e-06,-7.250000e-01
-2.473600e-06,-7.634375e-01
-2.465600e-06,-7.271875e-01
-2.457600e-06,-7.368750e-01
-2.449600e-06,-7.134375e-01
-2.441600e-06,-7.528125e-01
-2.433600e-06,-7.503125e-01
-2.425600e-06,-7.487500e-01
-2.417600e-06,-7.362500e-01
-2.409600e-06,-7.521875e-01
-2.401600e-06,-7.331250e-01
-2.393600e-06,-7.356250e-01
-2.385600e-06,-7.300000e-01
-2.377600e-06,-7.381250e-01
-2.369600e-06,-7.325000e-01
-2.361600e-06,-7.428125e-01
-2.353600e-06,-7.268750e-01
-2.345600e-06,-7.550000e-01
-2.337600e-06,-7.262500e-01
-2.329600e-06,-7.481250e-01
-2.321600e-06,-7.331250e-01
-2.313600e-06,-7.490625e-01
-2.305600e-06,-7.428125e-01
-2.297600e-06,-7.468750e-01
-2.289600e-06,-7.343750e-01
-2.281600e-06,-7.400000e-01
-2.273600e-06,-7.281250e-01
-2.265600e-06,-7.590625e-01
-2.257600e-06,-7.265625e-01
-2.249600e-06,-7.393750e-01
-2.241600e-06,-7.306250e-01
-2.233600e-06,-7.471875e-01
-2.225600e-06,-7.234375e-01
-2.217600e-06,-7.478125e-01
-2.209600e-06,-7.256250e-01
-2.201600e-06,-7.356250e-01
-2.193600e-06,-7.175000e-01
-2.185600e-06,-7.543750e-01
-2.177600e-06,-7.346875e-01
-2.169600e-06,-7.562500e-01
-2.161600e-06,-7.337500e-01
-2.153600e-06,-7.462500e-01
-2.145600e-06,-7.378125e-01
-2.137600e-06,-7.434375e-01
-2.129600e-06,-7.203125e-01
-2.121600e-06,-7.396875e-01
-2.113600e-06,-7.268750e-01
-2.105600e-06,-7.471875e-01
-2.097600e-06,-7.206250e-01
-2.089600e-06,-7.537500e-01
-2.081600e-06,-7.240625e-01
-2.073600e-06,-7.500000e-01
-2.065600e-06,-7.262500e-01
-2.057600e-06,-7.421875e-01
-2.049600e-06,-7.346875e-01
-2.041600e-06,-7.593750e-01
-2.033600e-06,-7.378125e-01
-2.025600e-06,-7.506250e-01
-2.017600e-06,-7.212500e-01
-2.009600e-06,-7.521875e-01
-2.001600e-06,-7.265625e-01
-1.993600e-06,-7.325000e-01
-1.985600e-06,-7.312500e-01
-1.977600e-06,-7.546875e-01
-1.969600e-06,-7.237500e-01
-1.961600e-06,-7.465625e-01
-1.953600e-06,-7.312500e-01
-1.945600e-06,-7.468750e-01
-1.937600e-06,-7.228125e-01
-1.929600e-06,-7.396875e-01
-1.921600e-06,-7.375000e-01
-1.913600e-06,-7.565625e-01
-1.905600e-06,-7.378125e-01
-1.897600e-06,-7.509375e-01
-1.889600e-06,-7.271875e-01
-1.881600e-06,-7.450000e-01
-1.873600e-06,-7.300000e-01
-1.865600e-06,-7.421875e-01
-1.857600e-06,-7.281250e-01
-1.849600e-06,-7.540625e-01
-1.841600e-06,-7.234375e-01
-1.833600e-06,-7.603125e-01
-1.825600e-06,-7.275000e-01
-1.817600e-06,-7.481250e-01
-1.809600e-06,-7.121875e-01
-1.801600e-06,-7.353125e-01
-1.793600e-06,-7.400000e-01
-1.785600e-06,-7.471875e-01
-1.777600e-06,-7.428125e-01
-1.769600e-06,-7.515625e-01
-1.761600e-06,-7.325000e-01
-1.753600e-06,-7.478125e-01
-1.745600e-06,-7.243750e-01
-1.737600e-06,-7.362500e-01
-1.729600e-06,-7.243750e-01
-1.721600e-06,-7.471875e-01
-1.713600e-06,-7.375000e-01
-1.705600e-06,-7.518750e-01
-1.697600e-06,-7.234375e-01
-1.689600e-06,-7.431250e-01
-1.681600e-06,-7.187500e-01
-1.673600e-06,-7.621875e-01
-1.665600e-06,-7.328125e-01
-1.657600e-06,-7.515625e-01
-1.649600e-06,-7.553125e-01
-1.641600e-06,-7.478125e-01
-1.633600e-06,-7.312500e-01
-1.625600e-06,-7.487500e-01
-1.617600e-06,-7.353125e-01
-1.609600e-06,-7.384375e-01
-1.601600e-06,-7.225000e-01
-1.593600e-06,-7.650000e-01
-1.585600e-06,-7.309375e-01
-1.577600e-06,-7.662500e-01
-1.569600e-06,-7.312500e-01
-1.561600e-06,-7.468750e-01
-1.553600e-06,-7.234375e-01
-1.545600e-06,-7.465625e-01
-1.537600e-06,-7.262500e-01
-1.529600e-06,-7.431250e-01
-1.521600e-06,-7.381250e-01
-1.513600e-06,-7.518750e-01
-1.505600e-06,-7.228125e-01
-1.497600e-06,-7.456250e-01
-1.489600e-06,-7.312500e-01
-1.481600e-06,-7.378125e-01
-1.473600e-06,-7.318750e-01
-1.465600e-06,-7.453125e-01
-1.457600e-06,-7.337500e-01
-1.449600e-06,-7.603125e-01
-1.441600e-06,-7.284375e-01
-1.433600e-06,-7.387500e-01
-1.425600e-06,-7.256250e-01
-1.417600e-06,-7.481250e-01
-1.409600e-06,-7.362500e-01
-1.401600e-06,-7.500000e-01
-1.393600e-06,-7.371875e-01
-1.385600e-06,-7.537500e-01
-1.377600e-06,-7.240625e-01
-1.369600e-06,-7.400000e-01
-1.361600e-06,-7.368750e-01
-1.353600e-06,-7.281250e-01
-1.345600e-06,-7.371875e-01
-1.337600e-06,-7.600000e-01
-1.329600e-06,-7.362500e-01
-1.321600e-06,-7.618750e-01
-1.313600e-06,-7.281250e-01
-1.305600e-06,-7.500000e-01
-1.297600e-06,-7.175000e-01
-1.289600e-06,-7.606250e-01
-1.281600e-06,-7.453125e-01
-1.273600e-06,-7.421875e-01
-1.265600e-06,-7.353125e-01
-1.257600e-06,-7.631250e-01
-1.249600e-06,-7.334375e-01
-1.241600e-06,-7.503125e-01
-1.233600e-06,-7.278125e-01
-1.225600e-06,-7.359375e-01
-1.217600e-06,-7.350000e-01
-1.209600e-06,-7.396875e-01
-1.201600e-06,-7.300000e-01
-1.193600e-06,-7.487500e-01
-1.185600e-06,-7.253125e-01
-1.177600e-06,-7.459375e-01
-1.169600e-06,-7.112500e-01
-1.161600e-06,-7.468750e-01
-1.153600e-06,-7.337500e-01
-1.145600e-06,-7.562500e-01
-1.137600e-06,-7.509375e-01
-1.129600e-06,-7.562500e-01
-1.121600e-06,-7.278125e-01
-1.113600e-06,-7.556250e-01
-1.105600e-06,-7.259375e-01
-1.097600e-06,-7.293750e-01
-1.089600e-06,-7.393750e-01
-1.081600e-06,-7.581250e-01
-1.073600e-06,-7.250000e-01
-1.065600e-06,-7.481250e-01
-1.057600e-06,-7.259375e-01
-1.049600e-06,-7.421875e-01
-1.041600e-06,-7.253125e-01
-1.033600e-06,-7.462500e-01
-1.025600e-06,-7.318750e-01
-1.017600e-06,-7.521875e-01
-1.009600e-06,-7.468750e-01
-1.001600e-06,-7.600000e-01
-9.936000e-07,-7.256250e-01
-9.856000e-07,-7.421875e-01
-9.776000e-07,-7.218750e-01
-9.696000e-07,-7.421875e-01
-9.616000e-07,-7.262500e-01
-9.536000e-07,-7.500000e-01
-9.456000e-07,-7.368750e-01
-9.376000e-07,-7.506250e-01
-9.296000e-07,-7.387500e-01
-9.216000e-07,-7.356250e-01
-9.136000e-07,-7.184375e-01
-9.056000e-07,-7.325000e-01
-8.976000e-07,-7.375000e-01
-8.896000e-07,-7.443750e-01
-8.816000e-07,-7.359375e-01
-8.736000e-07,-7.521875e-01
-8.656000e-07,-7.215625e-01
-8.576000e-07,-7.331250e-01
-8.496000e-07,-7.243750e-01
-8.416000e-07,-7.303125e-01
-8.336000e-07,-7.209375e-01
-8.256000e-07,-7.562500e-01
-8.176000e-07,-7.325000e-01
-8.096000e-07,-7.556250e-01
-8.016000e-07,-7.362500e-01
-7.936000e-07,-7.428125e-01
-7.856000e-07,-7.187500e-01
-7.776000e-07,-7.468750e-01
-7.696000e-07,-7.337500e-01
-7.616000e-07,-7.487500e-01
-7.536000e-07,-7.371875e-01
-7.456000e-07,-7.475000e-01
-7.376000e-07,-7.256250e-01
-7.296000e-07,-7.512500e-01
-7.216000e-07,-7.275000e-01
-7.136000e-07,-7.443750e-01
-7.056000e-07,-7.343750e-01
-6.976000e-07,-7.490625e-01
-6.896000e-07,-7.368750e-01
-6.816000e-07,-7.353125e-01
-6.736000e-07,-7.456250e-01
-6.656000e-07,-7.409375e-01
-6.576000e-07,-7.131250e-01
-6.496000e-07,-7.493750e-01
-6.416000e-07,-7.356250e-01
-6.336000e-07,-7.428125e-01
-6.256000e-07,-7.400000e-01
-6.176000e-07,-7.381250e-01
-6.096000e-07,-7.243750e-01
-6.016000e-07,-7.337500e-01
-5.936000e-07,-7.250000e-01
-5.856000e-07,-7.428125e-01
-5.776000e-07,-7.346875e-01
-5.696000e-07,-7.559375e-01
-5.616000e-07,-7.300000e-01
-5.536000e-07,-7.487500e-01
-5.456000e-07,-7.228125e-01
-5.376000e-07,-7.312500e-01
-5.296000e-07,-7.287500e-01
-5.216000e-07,-7.428125e-01
-5.136000e-07,-7.384375e-01
-5.056000e-07,-7.515625e-01
-4.976000e-07,-7.459375e-01
-4.896000e-07,-7.593750e-01
-4.816000e-07,-7.240625e-01
-4.736000e-07,-7.381250e-01
-4.656000e-07,-7.125000e-01
-4.576000e-07,-7.450000e-01
-4.496000e-07,-7.350000e-01
-4.416000e-07,-7.515625e-01
-4.336000e-07,-7.253125e-01
-4.256000e-07,-7.553125e-01
-4.176000e-07,-7.337500e-01
-4.096000e-07,-7.540625e-01
-4.016000e-07,-7.131250e-01
-3.936000e-07,-7.434375e-01
-3.856000e-07,-7.440625e-01
-3.776000e-07,-7.440625e-01
-3.696000e-07,-7.365625e-01
-3.616000e-07,-7.612500e-01
-3.536000e-07,-7.143750e-01
-3.456000e-07,-7.453125e-01
-3.376000e-07,-7.206250e-01
-3.296000e-07,-7.387500e-01
-3.216000e-07,-7.225000e-01
-3.136000e-07,-7.428125e-01
-3.056000e-07,-7.387500e-01
-2.976000e-07,-7.600000e-01
-2.896000e-07,-7.121875e-01
-2.816000e-07,-7.518750e-01
-2.736000e-07,-7.181250e-01
-2.656000e-07,-7.406250e-01
-2.576000e-07,-7.356250e-01
-2.496000e-07,-7.340625e-01
-2.416000e-07,-7.371875e-01
-2.336000e-07,-7.475000e-01
-2.256000e-07,-7.231250e-01
-2.176000e-07,-7.506250e-01
-2.096000e-07,-7.240625e-01
-2.016000e-07,-7.434375e-01
-1.936000e-07,-7.228125e-01
-1.856000e-07,-7.543750e-01
-1.776000e-07,-7.484375e-01
-1.696000e-07,-7.575000e-01
-1.616000e-07,-7.365625e-01
-1.536000e-07,-7.381250e-01
-1.456000e-07,-7.209375e-01
-1.376000e-07,-7.384375e-01
-1.296000e-07,-7.381250e-01
-1.216000e-07,-7.496875e-01
-1.136000e-07,-7.393750e-01
-1.056000e-07,-7.468750e-01
-9.760000e-08,-7.359375e-01
-8.960000e-08,-7.481250e-01
-8.160000e-08,-7.284375e-01
-7.360000e-08,-7.425000e-01
-6.560000e-08,-7.278125e-01
-5.760000e-08,-7.681250e-01
-4.960000e-08,-7.268750e-01
-4.160000e-08,-7.625000e-01
-3.360000e-08,-7.256250e-01
-2.560000e-08,-5.375000e-02
-1.760000e-08,-3.562500e-02
-9.600000e-09,-4.875000e-02
-1.600000e-09,-4.312500e-02
6.400000e-09,-4.500000e-02
1.440000e-08,-3.625000e-02
2.240000e-08,-6.000000e-02
3.040000e-08,-3.000000e-02
3.840000e-08,-4.125000e-02
4.640000e-08,-2.656250e-02
5.440000e-08,-3.093750e-02
6.240000e-08,-2.875000e-02
7.040000e-08,-5.187500e-02
7.840000e-08,-4.125000e-02
8.640000e-08,-6.125000e-02
9.440000e-08,-3.125000e-02
1.024000e-07,-4.000000e-02
1.104000e-07,-2.000000e-02
1.184000e-07,-3.875000e-02
1.264000e-07,-4.312500e-02
1.344000e-07,-4.437500e-02
1.424000e-07,-3.937500e-02
1.504000e-07,-4.375000e-02
1.584000e-07,-2.718750e-02
1.664000e-07,-4.875000e-02
1.744000e-07,-2.062500e-02
1.824000e-07,-4.375000e-02
1.904000e-07,-3.937500e-02
1.984000e-07,-4.968750e-02
2.064000e-07,-2.312500e-02
2.144000e-07,-4.687500e-02
2.224000e-07,-3.312500e-02
2.304000e-07,-2.937500e-02
2.384000e-07,-2.218750e-02
2.464000e-07,-2.306250e-01
2.544000e-07,-7.300000e-01
2.624000e-07,-7.465625e-01
2.704000e-07,-7.350000e-01
2.784000e-07,-7.490625e-01
2.864000e-07,-7.215625e-01
2.944000e-07,-7.506250e-01
3.024000e-07,-7.300000e-01
3.104000e-07,-7.384375e-01
3.184000e-07,-7.293750e-01
3.264000e-07,-7.434375e-01
3.344000e-07,-7.256250e-01
3.424000e-07,-7.571875e-01
3.504000e-07,-7.250000e-01
3.584000e-07,-7.443750e-01
3.664000e-07,-7.209375e-01
3.744000e-07,-7.556250e-01
3.824000e-07,-7.381250e-01
3.904000e-07,-7.481250e-01
3.984000e-07,-7.287500e-01
4.064000e-07,-7.593750e-01
4.144000e-07,-7.256250e-01
4.224000e-07,-7.525000e-01
4.304000e-07,-7.284375e-01
4.384000e-07,-7.506250e-01
4.464000e-07,-7.287500e-01
4.544000e-07,-7.496875e-01
4.624000e-07,-7.271875e-01
4.704000e-07,-7.593750e-01
4.784000e-07,-7.312500e-01
4.864000e-07,-7.437500e-01
4.944000e-07,-7.150000e-01
5.024000e-07,-7.537500e-01
5.104000e-07,-7.362500e-01
5.184000e-07,-7.500000e-01
5.264000e-07,-7.412500e-01
5.344000e-07,-7.553125e-01
5.424000e-07,-7.365625e-01
5.504000e-07,-7.421875e-01
5.584000e-07,-7.093750e-01
5.664000e-07,-7.393750e-01
5.744000e-07,-7.331250e-01
5.824000e-07,-7.428125e-01
5.904000e-07,-7.293750e-01
5.984000e-07,-7.496875e-01
6.064000e-07,-7.353125e-01
6.144000e-07,-7.425000e-01
6.224000e-07,-7.181250e-01
6.304000e-07,-7.484375e-01
6.384000e-07,-7.456250e-01
6.464000e-07,-7.462500e-01
6.544000e-07,-7.490625e-01
6.624000e-07,-7.381250e-01
6.704000e-07,-7.231250e-01
6.784000e-07,-7.431250e-01
6.864000e-07,-7.215625e-01
6.944000e-07,-7.446875e-01
