run1/run1_ch1_20210318180130295.csv

Model,MSO64
Waveform Type,ANALOG
Horizontal Units,s
Sample Interval,8.000000e-09
Record Length,1250
Zero Index,624.127656
Vertical Units,V

TIME,CH1
-4.993021e-06,-8.750000e-03
-4.985021e-06,3.250000e-02
-4.977021e-06,-1.500000e-02
-4.969021e-06,2.375000e-02
-4.961021e-06,-7.500000e-03
-4.953021e-06,3.750000e-03
-4.945021e-06,-2.625000e-02
-4.937021e-06,5.000000e-03
-4.929021e-06,-7.500000e-03
-4.921021e-06,1.875000e-02
-4.913021e-06,-2.250000e-02
-4.905021e-06,2.000000e-02
-4.897021e-06,-8.750000e-03
-4.889021e-06,2.000000e-02
-4.881021e-06,-2.250000e-02
-4.873021e-06,3.125000e-02
-4.865021e-06,-1.500000e-02
-4.857021e-06,3.000000e-02
-4.849021e-06,-2.875000e-02
-4.841021e-06,8.750000e-03
-4.833021e-06,6.250000e-03
-4.825021e-06,2.125000e-02
-4.817021e-06,-1.750000e-02
-4.809021e-06,2.625000e-02
-4.801021e-06,-5.000000e-03
-4.793021e-06,2.125000e-02
-4.785021e-06,-3.750000e-03
-4.777021e-06,1.750000e-02
-4.769021e-06,0.000000e+00
-4.761021e-06,1.375000e-02
-4.753021e-06,-2.250000e-02
-4.745021e-06,2.125000e-02
-4.737021e-06,-3.250000e-02
-4.729021e-06,2.625000e-02
-4.721021e-06,-3.375000e-02
-4.713021e-06,-7.500000e-03
-4.705021e-06,-1.625000e-02
-4.697021e-06,-2.125000e-02
-4.689021e-06,-1.625000e-02
-4.681021e-06,-6.250000e-03
-4.673021e-06,-2.750000e-02
-4.665021e-06,1.125000e-02
-4.657021e-06,1.750000e-02
-4.649021e-06,3.000000e-02
-4.641021e-06,-2.875000e-02
-4.633021e-06,2.750000e-02
-4.625021e-06,-3.000000e-02
-4.617021e-06,7.500000e-03
-4.609021e-06,-1.875000e-02
-4.601021e-06,1.875000e-02
-4.593021e-06,-2.500000e-03
-4.585021e-06,3.750000e-02
-4.577021e-06,-2.875000e-02
-4.569021e-06,1.250000e-02
-4.561021e-06,-1.750000e-02
-4.553021e-06,1.875000e-02
-4.545021e-06,-2.750000e-02
-4.537021e-06,8.750000e-03
-4.529021e-06,-1.875000e-02
-4.521021e-06,3.250000e-02
-4.513021e-06,-3.750000e-03
-4.505021e-06,1.375000e-02
-4.497021e-06,-3.750000e-03
-4.489021e-06,-1.000000e-02
-4.481021e-06,-1.250000e-02
-4.473021e-06,2.375000e-02
-4.465021e-06,-8.750000e-03
-4.457021e-06,7.500000e-03
-4.449021e-06,-1.250000e-02
-4.441021e-06,1.875000e-02
-4.433021e-06,-2.250000e-02
-4.425021e-06,1.875000e-02
-4.417021e-06,-1.250000e-03
-4.409021e-06,2.000000e-02
-4.401021e-06,-6.250000e-03
-4.393021e-06,2.125000e-02
-4.385021e-06,7.500000e-03
-4.377021e-06,2.500000e-03
-4.369021e-06,-2.000000e-02
-4.361021e-06,1.750000e-02
-4.353021e-06,2.500000e-03
-4.345021e-06,2.750000e-02
-4.337021e-06,-3.125000e-02
-4.329021e-06,1.125000e-02
-4.321021e-06,-2.125000e-02
-4.313021e-06,-3.750000e-03
-4.305021e-06,-1.125000e-02
-4.297021e-06,3.125000e-02
-4.289021e-06,-1.875000e-02
-4.281021e-06,3.125000e-02
-4.273021e-06,-1.375000e-02
-4.265021e-06,2.625000e-02
-4.257021e-06,-3.125000e-02
-4.249021e-06,1.500000e-02
-4.241021e-06,-7.500000e-03
-4.233021e-06,3.250000e-02
-4.225021e-06,-5.000000e-03
-4.217021e-06,3.250000e-02
-4.209021e-06,-1.875000e-02
-4.201021e-06,1.750000e-02
-4.193021e-06,-1.250000e-03
-4.185021e-06,2.000000e-02
-4.177021e-06,-1.125000e-02
-4.169021e-06,4.125000e-02
-4.161021e-06,-1.625000e-02
-4.153021e-06,8.750000e-03
-4.145021e-06,-1.625000e-02
-4.137021e-06,2.250000e-02
-4.129021e-06,-2.000000e-02
-4.121021e-06,1.625000e-02
-4.113021e-06,-7.500000e-03
-4.105021e-06,-1.250000e-02
-4.097021e-06,-5.000000e-03
-4.089021e-06,4.250000e-02
-4.081021e-06,-2.125000e-02
-4.073021e-06,2.500000e-02
-4.065021e-06,-1.375000e-02
-4.057021e-06,3.250000e-02
-4.049021e-06,-7.500000e-03
-4.041021e-06,3.750000e-03
-4.033021e-06,-1.500000e-02
-4.025021e-06,8.750000e-03
-4.017021e-06,-6.250000e-03
-4.009021e-06,1.875000e-02
-4.001021e-06,-1.000000e-02
-3.993021e-06,3.750000e-03
-3.985021e-06,-3.000000e-02
-3.977021e-06,1.500000e-02
-3.969021e-06,-1.875000e-02
-3.961021e-06,2.000000e-02
-3.953021e-06,-5.000000e-03
-3.945021e-06,1.375000e-02
-3.937021e-06,-1.625000e-02
-3.929021e-06,2.875000e-02
-3.921021e-06,-1.875000e-02
-3.913021e-06,6.250000e-03
-3.905021e-06,1.250000e-03
-3.897021e-06,5.000000e-02
-3.889021e-06,-2.000000e-02
-3.881021e-06,1.000000e-02
-3.873021e-06,7.500000e-03
-3.865021e-06,1.000000e-02
-3.857021e-06,-2.250000e-02
-3.849021e-06,-5.000000e-03
-3.841021e-06,-1.000000e-02
-3.833021e-06,2.125000e-02
-3.825021e-06,-7.500000e-03
-3.817021e-06,0.000000e+00
-3.809021e-06,2.500000e-03
-3.801021e-06,2.875000e-02
-3.793021e-06,-1.125000e-02
-3.785021e-06,1.875000e-02
-3.777021e-06,-6.250000e-03
-3.769021e-06,1.500000e-02
-3.761021e-06,-6.250000e-03
-3.753021e-06,2.250000e-02
-3.745021e-06,-1.250000e-03
-3.737021e-06,2.125000e-02
-3.729021e-06,-2.625000e-02
-3.721021e-06,-3.750000e-03
-3.713021e-06,1.000000e-02
-3.705021e-06,3.625000e-02
-3.697021e-06,-2.500000e-03
-3.689021e-06,0.000000e+00
-3.681021e-06,-1.875000e-02
-3.673021e-06,-1.000000e-02
-3.665021e-06,-2.250000e-02
-3.657021e-06,-2.500000e-03
-3.649021e-06,1.250000e-03
-3.641021e-06,1.125000e-02
-3.633021e-06,-3.750000e-03
-3.625021e-06,-2.500000e-03
-3.617021e-06,-8.750000e-03
-3.609021e-06,2.500000e-02
-3.601021e-06,-3.000000e-02
-3.593021e-06,2.500000e-02
-3.585021e-06,-1.750000e-02
-3.577021e-06,1.125000e-02
-3.569021e-06,-2.500000e-03
-3.561021e-06,1.250000e-03
-3.553021e-06,-2.125000e-02
-3.545021e-06,7.500000e-03
-3.537021e-06,-1.250000e-02
-3.529021e-06,1.250000e-02
-3.521021e-06,-2.125000e-02
-3.513021e-06,1.625000e-02
-3.505021e-06,5.000000e-03
-3.497021e-06,2.375000e-02
-3.489021e-06,-5.000000e-03
-3.481021e-06,2.500000e-02
-3.473021e-06,-3.000000e-02
-3.465021e-06,1.125000e-02
-3.457021e-06,-1.125000e-02
-3.449021e-06,3.000000e-02
-3.441021e-06,-2.625000e-02
-3.433021e-06,7.500000e-03
-3.425021e-06,-4.250000e-02
-3.417021e-06,1.875000e-02
-3.409021e-06,1.250000e-02
-3.401021e-06,2.500000e-03
-3.393021e-06,-3.500000e-02
-3.385021e-06,6.250000e-03
-3.377021e-06,-3.750000e-03
-3.369021e-06,3.125000e-02
-3.361021e-06,-1.125000e-02
-3.353021e-06,1.625000e-02
-3.345021e-06,-2.250000e-02
-3.337021e-06,6.250000e-03
-3.329021e-06,-2.250000e-02
-3.321021e-06,2.500000e-02
-3.313021e-06,-1.625000e-02
-3.305021e-06,1.625000e-02
-3.297021e-06,2.500000e-02
-3.289021e-06,8.750000e-03
-3.281021e-06,0.000000e+00
-3.273021e-06,3.125000e-02
-3.265021e-06,-8.750000e-03
-3.257021e-06,2.500000e-02
-3.249021e-06,-1.125000e-02
-3.241021e-06,1.250000e-02
-3.233021e-06,-8.750000e-03
-3.225021e-06,6.250000e-03
-3.217021e-06,-1.000000e-02
-3.209021e-06,1.500000e-02
-3.201021e-06,-1.250000e-02
-3.193021e-06,2.750000e-02
-3.185021e-06,-3.375000e-02
-3.177021e-06,-6.250000e-03
-3.169021e-06,7.500000e-03
-3.161021e-06,0.000000e+00
-3.153021e-06,-1.875000e-02
-3.145021e-06,2.625000e-02
-3.137021e-06,5.000000e-03
-3.129021e-06,5.000000e-03
-3.121021e-06,-8.750000e-03
-3.113021e-06,6.250000e-03
-3.105021e-06,-1.875000e-02
-3.097021e-06,1.250000e-03
-3.089021e-06,-2.125000e-02
-3.081021e-06,5.000000e-03
-3.073021e-06,-2.500000e-02
-3.065021e-06,2.875000e-02
-3.057021e-06,-7.500000e-03
-3.049021e-06,1.500000e-02
-3.041021e-06,-8.750000e-03
-3.033021e-06,1.250000e-03
-3.025021e-06,-2.375000e-02
-3.017021e-06,1.375000e-02
-3.009021e-06,7.500000e-03
-3.001021e-06,3.500000e-02
-2.993021e-06,-1.750000e-02
-2.985021e-06,1.625000e-02
-2.977021e-06,-3.750000e-03
-2.969021e-06,1.000000e-02
-2.961021e-06,-1.875000e-02
-2.953021e-06,1.000000e-02
-2.945021e-06,-1.125000e-02
-2.937021e-06,1.625000e-02
-2.929021e-06,0.000000e+00
-2.921021e-06,1.125000e-02
-2.913021e-06,3.750000e-03
-2.905021e-06,-5.000000e-03
-2.897021e-06,-1.500000e-02
-2.889021e-06,8.750000e-03
-2.881021e-06,-1.250000e-02
-2.873021e-06,4.000000e-02
-2.865021e-06,-2.500000e-02
-2.857021e-06,1.250000e-02
-2.849021e-06,-1.000000e-02
-2.841021e-06,-6.250000e-03
-2.833021e-06,-1.625000e-02
-2.825021e-06,1.875000e-02
-2.817021e-06,-6.250000e-03
-2.809021e-06,2.250000e-02
-2.801021e-06,2.500000e-03
-2.793021e-06,-7.500000e-03
-2.785021e-06,0.000000e+00
-2.777021e-06,1.250000e-02
-2.769021e-06,-5.000000e-03
-2.761021e-06,1.125000e-02
-2.753021e-06,-1.125000e-02
-2.745021e-06,1.375000e-02
-2.737021e-06,-2.000000e-02
-2.729021e-06,2.375000e-02
-2.721021e-06,2.500000e-03
-2.713021e-06,1.125000e-02
-2.705021e-06,-3.500000e-02
-2.697021e-06,2.000000e-02
-2.689021e-06,-2.625000e-02
-2.681021e-06,4.125000e-02
-2.673021e-06,-1.250000e-03
-2.665021e-06,0.000000e+00
-2.657021e-06,-2.500000e-03
-2.649021e-06,-1.125000e-02
-2.641021e-06,-1.875000e-02
-2.633021e-06,2.250000e-02
-2.625021e-06,-2.500000e-03
-2.617021e-06,2.500000e-03
-2.609021e-06,0.000000e+00
-2.601021e-06,3.000000e-02
-2.593021e-06,-7.500000e-03
-2.585021e-06,1.875000e-02
-2.577021e-06,-2.500000e-03
-2.569021e-06,1.875000e-02
-2.561021e-06,-3.375000e-02
-2.553021e-06,1.875000e-02
-2.545021e-06,-8.750000e-03
-2.537021e-06,1.500000e-02
-2.529021e-06,1.375000e-02
-2.521021e-06,1.250000e-03
-2.513021e-06,-1.000000e-02
-2.505021e-06,1.000000e-02
-2.497021e-06,-1.250000e-03
-2.489021e-06,4.375000e-02
-2.481021e-06,5.000000e-03
-2.473021e-06,-6.250000e-03
-2.465021e-06,-2.250000e-02
-2.457021e-06,1.250000e-02
-2.449021e-06,-3.750000e-03
-2.441021e-06,0.000000e+00
-2.433021e-06,-1.750000e-02
-2.425021e-06,2.500000e-02
-2.417021e-06,-1.625000e-02
-2.409021e-06,2.500000e-03
-2.401021e-06,-2.000000e-02
-2.393021e-06,3.750000e-03
-2.385021e-06,-1.500000e-02
-2.377021e-06,1.250000e-02
-2.369021e-06,-1.500000e-02
-2.361021e-06,3.000000e-02
-2.353021e-06,-2.625000e-02
-2.345021e-06,1.875000e-02
-2.337021e-06,6.250000e-03
-2.329021e-06,2.500000e-02
-2.321021e-06,-3.625000e-02
-2.313021e-06,1.625000e-02
-2.305021e-06,-1.875000e-02
-2.297021e-06,2.625000e-02
-2.289021e-06,-2.000000e-02
-2.281021e-06,-3.750000e-03
-2.273021e-06,-2.500000e-02
-2.265021e-06,2.500000e-03
-2.257021e-06,-1.875000e-02
-2.249021e-06,1.125000e-02
-2.241021e-06,-1.250000e-02
-2.233021e-06,1.875000e-02
-2.225021e-06,-3.750000e-03
-2.217021e-06,1.500000e-02
-2.209021e-06,-1.375000e-02
-2.201021e-06,5.000000e-03
-2.193021e-06,-2.375000e-02
-2.185021e-06,1.000000e-02
-2.177021e-06,-1.750000e-02
-2.169021e-06,2.625000e-02
-2.161021e-06,5.000000e-03
-2.153021e-06,5.000000e-03
-2.145021e-06,-1.125000e-02
-2.137021e-06,-6.250000e-03
-2.129021e-06,-2.125000e-02
-2.121021e-06,2.500000e-02
-2.113021e-06,7.500000e-03
-2.105021e-06,3.625000e-02
-2.097021e-06,-7.500000e-03
-2.089021e-06,2.125000e-02
-2.081021e-06,-2.375000e-02
-2.073021e-06,7.500000e-03
-2.065021e-06,7.500000e-03
-2.057021e-06,7.500000e-03
-2.049021e-06,-1.500000e-02
-2.041021e-06,2.500000e-02
-2.033021e-06,-1.500000e-02
-2.025021e-06,1.625000e-02
-2.017021e-06,-2.500000e-03
-2.009021e-06,2.750000e-02
-2.001021e-06,-1.000000e-02
-1.993021e-06,7.500000e-03
-1.985021e-06,3.750000e-03
-1.977021e-06,2.750000e-02
-1.969021e-06,-1.250000e-02
-1.961021e-06,2.500000e-02
-1.953021e-06,-1.000000e-02
-1.945021e-06,2.250000e-02
-1.937021e-06,-1.625000e-02
-1.929021e-06,2.750000e-02
-1.921021e-06,-1.375000e-02
-1.913021e-06,3.125000e-02
-1.905021e-06,3.750000e-03
-1.897021e-06,5.000000e-03
-1.889021e-06,-1.750000e-02
-1.881021e-06,1.250000e-03
-1.873021e-06,-1.750000e-02
-1.865021e-06,6.250000e-03
-1.857021e-06,7.500000e-03
-1.849021e-06,2.875000e-02
-1.841021e-06,-5.000000e-03
-1.833021e-06,3.375000e-02
-1.825021e-06,-1.250000e-02
-1.817021e-06,2.500000e-03
-1.809021e-06,-3.875000e-02
-1.801021e-06,1.750000e-02
-1.793021e-06,-6.250000e-03
-1.785021e-06,3.625000e-02
-1.777021e-06,-3.125000e-02
-1.769021e-06,2.500000e-03
-1.761021e-06,-1.375000e-02
-1.753021e-06,1.750000e-02
-1.745021e-06,-2.500000e-03
-1.737021e-06,5.000000e-03
-1.729021e-06,2.500000e-03
-1.721021e-06,1.625000e-02
-1.713021e-06,-1.500000e-02
-1.705021e-06,0.000000e+00
-1.697021e-06,-2.500000e-02
-1.689021e-06,1.625000e-02
-1.681021e-06,-1.625000e-02
-1.673021e-06,1.250000e-02
-1.665021e-06,-8.750000e-03
-1.657021e-06,-7.500000e-03
-1.649021e-06,-3.750000e-03
-1.641021e-06,1.750000e-02
-1.633021e-06,-6.250000e-03
-1.625021e-06,1.250000e-03
-1.617021e-06,-2.625000e-02
-1.609021e-06,3.875000e-02
-1.601021e-06,-2.250000e-02
-1.593021e-06,2.375000e-02
-1.585021e-06,1.375000e-02
-1.577021e-06,2.250000e-02
-1.569021e-06,1.250000e-03
-1.561021e-06,1.125000e-02
-1.553021e-06,-1.875000e-02
-1.545021e-06,2.375000e-02
-1.537021e-06,-2.625000e-02
-1.529021e-06,2.500000e-02
-1.521021e-06,-2.000000e-02
-1.513021e-06,3.500000e-02
-1.505021e-06,-1.625000e-02
-1.497021e-06,5.000000e-03
-1.489021e-06,-3.000000e-02
-1.481021e-06,1.500000e-02
-1.473021e-06,0.000000e+00
-1.465021e-06,3.750000e-02
-1.457021e-06,2.500000e-03
-1.449021e-06,1.625000e-02
-1.441021e-06,-1.000000e-02
-1.433021e-06,1.625000e-02
-1.425021e-06,-4.125000e-02
-1.417021e-06,3.750000e-03
-1.409021e-06,-2.000000e-02
-1.401021e-06,2.750000e-02
-1.393021e-06,6.250000e-03
-1.385021e-06,2.250000e-02
-1.377021e-06,-2.000000e-02
-1.369021e-06,1.625000e-02
-1.361021e-06,-3.500000e-02
-1.353021e-06,2.875000e-02
-1.345021e-06,5.000000e-03
-1.337021e-06,2.250000e-02
-1.329021e-06,1.250000e-03
-1.321021e-06,3.750000e-03
-1.313021e-06,-6.250000e-03
-1.305021e-06,1.000000e-02
-1.297021e-06,-2.625000e-02
-1.289021e-06,1.250000e-02
-1.281021e-06,-2.000000e-02
-1.273021e-06,1.125000e-02
-1.265021e-06,-2.625000e-02
-1.257021e-06,1.500000e-02
-1.249021e-06,-2.750000e-02
-1.241021e-06,2.875000e-02
-1.233021e-06,8.750000e-03
-1.225021e-06,3.125000e-02
-1.217021e-06,-6.250000e-03
-1.209021e-06,2.250000e-02
-1.201021e-06,-3.750000e-03
-1.193021e-06,2.500000e-03
-1.185021e-06,0.000000e+00
-1.177021e-06,1.250000e-02
-1.169021e-06,-2.125000e-02
-1.161021e-06,1.750000e-02
-1.153021e-06,-1.125000e-02
-1.145021e-06,2.500000e-02
-1.137021e-06,-3.375000e-02
-1.129021e-06,1.125000e-02
-1.121021e-06,-7.500000e-03
-1.113021e-06,1.375000e-02
-1.105021e-06,-1.500000e-02
-1.097021e-06,2.250000e-02
-1.089021e-06,-1.250000e-03
-1.081021e-06,2.250000e-02
-1.073021e-06,-2.500000e-03
-1.065021e-06,1.500000e-02
-1.057021e-06,3.750000e-03
-1.049021e-06,5.000000e-03
-1.041021e-06,-3.375000e-02
-1.033021e-06,1.750000e-02
-1.025021e-06,-1.375000e-02
-1.017021e-06,1.125000e-02
-1.009021e-06,-2.375000e-02
-1.001021e-06,1.500000e-02
-9.930212e-07,-6.250000e-03
-9.850212e-07,2.000000e-02
-9.770212e-07,-6.250000e-03
-9.690212e-07,1.000000e-02
-9.610212e-07,-1.250000e-03
-9.530212e-07,2.875000e-02
-9.450212e-07,-7.500000e-03
-9.370212e-07,2.375000e-02
-9.290212e-07,-8.750000e-03
-9.210212e-07,2.750000e-02
-9.130212e-07,-1.750000e-02
-9.050212e-07,1.500000e-02
-8.970212e-07,-1.000000e-02
-8.890212e-07,2.500000e-02
-8.810212e-07,-7.500000e-03
-8.730212e-07,1.875000e-02
-8.650212e-07,1.875000e-02
-8.570212e-07,2.375000e-02
-8.490212e-07,-4.125000e-02
-8.410212e-07,1.500000e-02
-8.330212e-07,1.625000e-02
-8.250212e-07,4.500000e-02
-8.170212e-07,-1.750000e-02
-8.090212e-07,1.250000e-03
-8.010212e-07,0.000000e+00
-7.930212e-07,2.125000e-02
-7.850212e-07,-3.250000e-02
-7.770212e-07,1.500000e-02
-7.690212e-07,2.500000e-03
-7.610212e-07,3.000000e-02
-7.530212e-07,-1.250000e-02
-7.450212e-07,3.750000e-03
-7.370212e-07,1.250000e-03
-7.290212e-07,2.250000e-02
-7.210212e-07,-2.500000e-02
-7.130212e-07,1.500000e-02
-7.050212e-07,-1.250000e-03
-6.970212e-07,3.500000e-02
-6.890212e-07,-1.500000e-02
-6.810212e-07,1.125000e-02
-6.730212e-07,-8.750000e-03
-6.650212e-07,2.625000e-02
-6.570212e-07,-1.125000e-02
-6.490212e-07,1.875000e-02
-6.410212e-07,1.250000e-03
-6.330212e-07,2.750000e-02
-6.250212e-07,-2.000000e-02
-6.170212e-07,5.000000e-03
-6.090212e-07,1.875000e-02
-6.010212e-07,2.625000e-02
-5.930212e-07,-2.000000e-02
-5.850212e-07,1.875000e-02
-5.770212e-07,-2.875000e-02
-5.690212e-07,7.500000e-03
-5.610212e-07,-2.500000e-03
-5.530212e-07,-2.250000e-02
-5.450212e-07,6.250000e-03
-5.370212e-07,1.375000e-02
-5.290212e-07,-2.500000e-03
-5.210212e-07,6.250000e-03
-5.130212e-07,-2.125000e-02
-5.050212e-07,2.500000e-02
-4.970212e-07,-1.500000e-02
-4.890212e-07,7.500000e-03
-4.810212e-07,-3.750000e-03
-4.730212e-07,2.500000e-02
-4.650212e-07,-5.000000e-03
-4.570212e-07,4.500000e-02
-4.490212e-07,1.125000e-02
-4.410212e-07,3.250000e-02
-4.330212e-07,1.250000e-03
-4.250212e-07,2.250000e-02
-4.170212e-07,-1.125000e-02
-4.090212e-07,-2.500000e-03
-4.010212e-07,-1.750000e-02
-3.930212e-07,2.000000e-02
-3.850212e-07,-1.500000e-02
-3.770212e-07,3.000000e-02
-3.690212e-07,-2.250000e-02
-3.610212e-07,1.250000e-03
-3.530212e-07,-6.250000e-03
-3.450212e-07,3.000000e-02
-3.370212e-07,-2.250000e-02
-3.290212e-07,3.250000e-02
-3.210212e-07,-2.500000e-02
-3.130212e-07,5.625000e-02
-3.050212e-07,-1.000000e-02
-2.970212e-07,1.875000e-02
-2.890212e-07,1.250000e-02
-2.810212e-07,2.625000e-02
-2.730212e-07,-1.125000e-02
-2.650212e-07,1.500000e-02
-2.570212e-07,-1.750000e-02
-2.490212e-07,3.500000e-02
-2.410212e-07,-8.750000e-03
-2.330212e-07,1.250000e-03
-2.250212e-07,-1.250000e-02
-2.170212e-07,1.125000e-02
-2.090212e-07,-2.625000e-02
-2.010212e-07,1.750000e-02
-1.930212e-07,6.250000e-03
-1.850212e-07,4.375000e-02
-1.770212e-07,6.250000e-03
-1.690212e-07,3.125000e-02
-1.610212e-07,-1.875000e-02
-1.530212e-07,2.500000e-02
-1.450212e-07,-1.500000e-02
-1.370212e-07,-1.250000e-03
-1.290212e-07,-2.500000e-02
-1.210212e-07,2.000000e-02
-1.130212e-07,-5.000000e-03
-1.050212e-07,-1.125000e-02
-9.702125e-08,-3.000000e-02
-8.902125e-08,1.250000e-02
-8.102125e-08,-1.375000e-02
-7.302125e-08,2.500000e-02
-6.502125e-08,1.500000e-02
-5.702125e-08,2.875000e-02
-4.902125e-08,-1.500000e-02
-4.102125e-08,-1.105000e+00
-3.302125e-08,-1.426250e+00
-2.502125e-08,-1.411250e+00
-1.702125e-08,-1.453750e+00
-9.021250e-09,-1.750000e-02
-1.021250e-09,-2.250000e-02
6.978750e-09,1.750000e-02
1.497875e-08,1.000000e-02
2.297875e-08,-3.750000e-03
3.097875e-08,5.000000e-03
3.897875e-08,-3.750000e-03
4.697875e-08,-2.750000e-02
5.497875e-08,2.125000e-02
6.297875e-08,-5.000000e-03
7.097875e-08,2.375000e-02
7.897875e-08,-7.500000e-03
8.697875e-08,2.875000e-02
9.497875e-08,-2.000000e-02
1.029788e-07,1.875000e-02
1.109788e-07,-1.625000e-02
1.189788e-07,1.125000e-02
1.269788e-07,5.000000e-03
1.349788e-07,4.500000e-02
1.429788e-07,-1.625000e-02
1.509788e-07,2.250000e-02
1.589788e-07,1.125000e-02
1.669788e-07,2.125000e-02
1.749788e-07,-2.250000e-02
1.829788e-07,3.750000e-03
1.909788e-07,-1.250000e-03
1.989788e-07,3.125000e-02
2.069788e-07,-2.625000e-02
2.149788e-07,1.000000e-02
2.229788e-07,-2.375000e-02
2.309788e-07,2.875000e-02
2.389788e-07,-4.000000e-02
2.469788e-07,2.125000e-02
2.549788e-07,-3.875000e-02
2.629788e-07,1.875000e-02
2.709788e-07,-1.000000e-02
2.789788e-07,1.250000e-02
2.869788e-07,-2.250000e-02
2.949788e-07,3.625000e-02
3.029788e-07,-1.250000e-02
3.109788e-07,8.750000e-03
3.189788e-07,1.250000e-03
3.269788e-07,3.750000e-03
3.349788e-07,1.750000e-02
3.429788e-07,2.000000e-02
3.509788e-07,-3.500000e-02
3.589788e-07,2.500000e-03
3.669788e-07,-5.000000e-03
3.749788e-07,2.000000e-02
3.829788e-07,-3.750000e-03
3.909788e-07,2.375000e-02
3.989788e-07,-2.500000e-02
4.069788e-07,1.875000e-02
4.149788e-07,-2.500000e-03
4.229788e-07,5.000000e-03
4.309788e-07,-2.250000e-02
4.389788e-07,1.625000e-02
4.469788e-07,-1.125000e-02
4.549788e-07,2.375000e-02
4.629788e-07,-2.250000e-02
4.709788e-07,3.000000e-02
4.789788e-07,-7.500000e-03
4.869788e-07,2.875000e-02
4.949788e-07,-1.375000e-02
5.029788e-07,3.500000e-02
5.109788e-07,-1.625000e-02
5.189788e-07,2.875000e-02
5.269788e-07,-1.375000e-02
5.349788e-07,1.500000e-02
5.429788e-07,-3.750000e-03
5.509788e-07,2.625000e-02
5.589788e-07,-3.750000e-03
5.669788e-07,2.625000e-02
5.749788e-07,1.125000e-02
5.829788e-07,1.875000e-02
5.909788e-07,-1.250000e-02
5.989788e-07,1.500000e-02
6.069788e-07,-1.250000e-02
6.149788e-07,4.500000e-02
6.229788e-07,-5.000000e-03
6.309788e-07,6.250000e-03
6.389788e-07,3.750000e-03
6.469788e-07,2.250000e-02
6.549788e-07,-3.750000e-03
6.629788e-07,1.875000e-02
6.709788e-07,-2.375000e-02
6.789788e-07,1.625000e-02
6.869788e-07,-7.500000e-03
6.949788e-07,1.250000e-02
7.029788e-07,1.250000e-03
7.109788e-07,2.750000e-02
7.189788e-07,-1.875000e-02
7.269788e-07,-8.750000e-03
7.349788e-07,-6.250000e-03
7.429788e-07,3.000000e-02
7.509788e-07,-2.750000e-02
7.589788e-07,1.875000e-02
7.669788e-07,-7.500000e-03
7.749788e-07,2.125000e-02
7.829788e-07,-3.750000e-03
7.909788e-07,8.750000e-03
7.989788e-07,-4.500000e-02
8.069788e-07,1.750000e-02
