run1/run1_ch1_20210318180226657.csv

Model,MSO64
Waveform Type,ANALOG
Horizontal Units,s
Sample Interval,8.000000e-09
Record Length,1250
Zero Index,624.530000
Vertical Units,V

TIME,CH1
-4.996240e-06,-2.250000e-02
-4.988240e-06,5.000000e-03
-4.980240e-06,6.250000e-03
-4.972240e-06,4.250000e-02
-4.964240e-06,-1.750000e-02
-4.956240e-06,1.625000e-02
-4.948240e-06,-1.125000e-02
-4.940240e-06,1.500000e-02
-4.932240e-06,-3.750000e-02
-4.924240e-06,2.125000e-02
-4.916240e-06,7.500000e-03
-4.908240e-06,2.375000e-02
-4.900240e-06,-3.750000e-03
-4.892240e-06,3.125000e-02
-4.884240e-06,-3.125000e-02
-4.876240e-06,1.125000e-02
-4.868240e-06,-6.250000e-03
-4.860240e-06,1.750000e-02
-4.852240e-06,-5.000000e-03
-4.844240e-06,1.125000e-02
-4.836240e-06,-2.500000e-03
-4.828240e-06,2.000000e-02
-4.820240e-06,-1.750000e-02
-4.812240e-06,2.375000e-02
-4.804240e-06,-2.000000e-02
-4.796240e-06,-1.250000e-03
-4.788240e-06,-8.750000e-03
-4.780240e-06,1.625000e-02
-4.772240e-06,0.000000e+00
-4.764240e-06,2.375000e-02
-4.756240e-06,-2.500000e-03
-4.748240e-06,3.750000e-03
-4.740240e-06,-1.500000e-02
-4.732240e-06,1.375000e-02
-4.724240e-06,-2.625000e-02
-4.716240e-06,4.000000e-02
-4.708240e-06,-5.000000e-03
-4.700240e-06,2.625000e-02
-4.692240e-06,-3.875000e-02
-4.684240e-06,1.000000e-02
-4.676240e-06,-3.500000e-02
-4.668240e-06,1.250000e-03
-4.660240e-06,-3.750000e-03
-4.652240e-06,3.375000e-02
-4.644240e-06,-1.375000e-02
-4.636240e-06,2.000000e-02
-4.628240e-06,-6.250000e-03
-4.620240e-06,1.000000e-02
-4.612240e-06,-2.250000e-02
-4.604240e-06,2.500000e-03
-4.596240e-06,-7.500000e-03
-4.588240e-06,-1.250000e-03
-4.580240e-06,-2.875000e-02
-4.572240e-06,7.500000e-03
-4.564240e-06,-1.250000e-02
-4.556240e-06,1.875000e-02
-4.548240e-06,-3.625000e-02
-4.540240e-06,1.750000e-02
-4.532240e-06,8.750000e-03
-4.524240e-06,2.125000e-02
-4.516240e-06,-1.500000e-02
-4.508240e-06,2.500000e-02
-4.500240e-06,-5.250000e-02
-4.492240e-06,1.125000e-02
-4.484240e-06,-1.375000e-02
-4.476240e-06,1.375000e-02
-4.468240e-06,0.000000e+00
-4.460240e-06,3.750000e-03
-4.452240e-06,-3.000000e-02
-4.444240e-06,1.500000e-02
-4.436240e-06,-2.000000e-02
-4.428240e-06,-1.250000e-03
-4.420240e-06,-2.625000e-02
-4.412240e-06,-3.750000e-03
-4.404240e-06,-1.375000e-02
-4.396240e-06,1.250000e-02
-4.388240e-06,0.000000e+00
-4.380240e-06,1.875000e-02
-4.372240e-06,-1.875000e-02
-4.364240e-06,1.875000e-02
-4.356240e-06,-2.250000e-02
-4.348240e-06,1.250000e-02
-4.340240e-06,-1.750000e-02
-4.332240e-06,5.000000e-03
-4.324240e-06,-1.750000e-02
-4.316240e-06,1.750000e-02
-4.308240e-06,-8.750000e-03
-4.300240e-06,1.250000e-02
-4.292240e-06,-2.750000e-02
-4.284240e-06,1.250000e-03
-4.276240e-06,-2.500000e-02
-4.268240e-06,2.500000e-02
-4.260240e-06,-8.750000e-03
-4.252240e-06,1.250000e-03
-4.244240e-06,-1.500000e-02
-4.236240e-06,3.625000e-02
-4.228240e-06,-2.125000e-02
-4.220240e-06,-5.000000e-03
-4.212240e-06,-1.250000e-03
-4.204240e-06,2.375000e-02
-4.196240e-06,5.000000e-03
-4.188240e-06,0.000000e+00
-4.180240e-06,-1.000000e-02
-4.172240e-06,8.750000e-03
-4.164240e-06,-2.625000e-02
-4.156240e-06,1.500000e-02
-4.148240e-06,-4.125000e-02
-4.140240e-06,2.625000e-02
-4.132240e-06,-1.875000e-02
-4.124240e-06,1.125000e-02
-4.116240e-06,-3.375000e-02
-4.108240e-06,5.000000e-03
-4.100240e-06,-2.125000e-02
-4.092240e-06,7.500000e-03
-4.084240e-06,1.500000e-02
-4.076240e-06,3.250000e-02
-4.068240e-06,-1.250000e-02
-4.060240e-06,1.250000e-03
-4.052240e-06,-2.000000e-02
-4.044240e-06,1.125000e-02
-4.036240e-06,-2.875000e-02
-4.028240e-06,1.250000e-02
-4.020240e-06,-1.375000e-02
-4.012240e-06,2.250000e-02
-4.004240e-06,-1.125000e-02
-3.996240e-06,5.000000e-03
-3.988240e-06,-3.375000e-02
-3.980240e-06,-6.250000e-03
-3.972240e-06,-4.125000e-02
-3.964240e-06,1.000000e-02
-3.956240e-06,-5.000000e-03
-3.948240e-06,2.625000e-02
-3.940240e-06,8.750000e-03
-3.932240e-06,1.750000e-02
-3.924240e-06,-1.125000e-02
-3.916240e-06,1.750000e-02
-3.908240e-06,-3.750000e-03
-3.900240e-06,-3.750000e-03
-3.892240e-06,-6.250000e-03
-3.884240e-06,3.500000e-02
-3.876240e-06,-1.125000e-02
-3.868240e-06,-5.000000e-03
-3.860240e-06,-1.875000e-02
-3.852240e-06,7.500000e-03
-3.844240e-06,-4.000000e-02
-3.836240e-06,1.500000e-02
-3.828240e-06,7.500000e-03
-3.820240e-06,-2.500000e-03
-3.812240e-06,-1.875000e-02
-3.804240e-06,1.000000e-02
-3.796240e-06,-1.750000e-02
-3.788240e-06,-1.750000e-02
-3.780240e-06,-2.000000e-02
-3.772240e-06,1.625000e-02
-3.764240e-06,-1.000000e-02
-3.756240e-06,3.000000e-02
-3.748240e-06,-7.500000e-03
-3.740240e-06,1.750000e-02
-3.732240e-06,7.500000e-03
-3.724240e-06,0.000000e+00
-3.716240e-06,-4.500000e-02
-3.708240e-06,-1.375000e-02
-3.700240e-06,7.500000e-03
-3.692240e-06,1.250000e-03
-3.684240e-06,1.750000e-02
-3.676240e-06,1.500000e-02
-3.668240e-06,-2.000000e-02
-3.660240e-06,6.250000e-03
-3.652240e-06,-1.125000e-02
-3.644240e-06,8.750000e-03
-3.636240e-06,-1.250000e-03
-3.628240e-06,8.750000e-03
-3.620240e-06,-1.250000e-02
-3.612240e-06,-1.000000e-02
-3.604240e-06,-2.500000e-03
-3.596240e-06,-6.250000e-03
-3.588240e-06,-2.625000e-02
-3.580240e-06,5.000000e-03
-3.572240e-06,-1.625000e-02
-3.564240e-06,2.375000e-02
-3.556240e-06,1.250000e-02
-3.548240e-06,2.125000e-02
-3.540240e-06,-3.750000e-02
-3.532240e-06,-8.750000e-03
-3.524240e-06,-4.375000e-02
-3.516240e-06,7.500000e-03
-3.508240e-06,-4.125000e-02
-3.500240e-06,3.750000e-02
-3.492240e-06,-1.750000e-02
-3.484240e-06,-1.125000e-02
-3.476240e-06,-1.500000e-02
-3.468240e-06,1.250000e-02
-3.460240e-06,-1.125000e-02
-3.452240e-06,5.000000e-03
-3.444240e-06,-1.250000e-02
-3.436240e-06,2.125000e-02
-3.428240e-06,-1.750000e-02
-3.420240e-06,1.750000e-02
-3.412240e-06,-2.875000e-02
-3.404240e-06,2.000000e-02
-3.396240e-06,-2.625000e-02
-3.388240e-06,-1.250000e-03
-3.380240e-06,-2.125000e-02
-3.372240e-06,3.125000e-02
-3.364240e-06,-8.750000e-03
-3.356240e-06,1.875000e-02
-3.348240e-06,-2.125000e-02
-3.340240e-06,1.000000e-02
-3.332240e-06,2.500000e-03
-3.324240e-06,8.750000e-03
-3.316240e-06,-1.875000e-02
-3.308240e-06,2.250000e-02
-3.300240e-06,1.250000e-02
-3.292240e-06,1.500000e-02
-3.284240e-06,-2.500000e-02
-3.276240e-06,-1.250000e-03
-3.268240e-06,-1.625000e-02
-3.260240e-06,1.250000e-02
-3.252240e-06,-1.375000e-02
-3.244240e-06,6.250000e-03
-3.236240e-06,-2.250000e-02
-3.228240e-06,2.500000e-03
-3.220240e-06,5.000000e-03
-3.212240e-06,8.750000e-03
-3.204240e-06,-7.500000e-03
-3.196240e-06,8.750000e-03
-3.188240e-06,2.500000e-03
-3.180240e-06,1.250000e-02
-3.172240e-06,-2.875000e-02
-3.164240e-06,2.500000e-03
-3.156240e-06,0.000000e+00
-3.148240e-06,2.375000e-02
-3.140240e-06,6.250000e-03
-3.132240e-06,1.750000e-02
-3.124240e-06,-2.500000e-02
-3.116240e-06,8.750000e-03
-3.108240e-06,-1.875000e-02
-3.100240e-06,2.250000e-02
-3.092240e-06,-1.250000e-02
-3.084240e-06,-1.250000e-02
-3.076240e-06,-1.500000e-02
-3.068240e-06,1.750000e-02
-3.060240e-06,-1.250000e-02
-3.052240e-06,1.750000e-02
-3.044240e-06,-1.250000e-03
-3.036240e-06,3.750000e-02
-3.028240e-06,8.750000e-03
-3.020240e-06,1.375000e-02
-3.012240e-06,-1.375000e-02
-3.004240e-06,-2.000000e-02
-2.996240e-06,-2.250000e-02
-2.988240e-06,1.250000e-02
-2.980240e-06,-1.750000e-02
-2.972240e-06,2.000000e-02
-2.964240e-06,-1.000000e-02
-2.956240e-06,-6.250000e-03
-2.948240e-06,-2.125000e-02
-2.940240e-06,1.125000e-02
-2.932240e-06,-1.250000e-03
-2.924240e-06,1.750000e-02
-2.916240e-06,-2.875000e-02
-2.908240e-06,2.250000e-02
-2.900240e-06,-3.000000e-02
-2.892240e-06,0.000000e+00
-2.884240e-06,-1.875000e-02
-2.876240e-06,3.750000e-03
-2.868240e-06,-2.500000e-02
-2.860240e-06,2.375000e-02
-2.852240e-06,-2.000000e-02
-2.844240e-06,5.000000e-03
-2.836240e-06,-1.375000e-02
-2.828240e-06,6.250000e-03
-2.820240e-06,-1.750000e-02
-2.812240e-06,1.250000e-02
-2.804240e-06,-8.750000e-03
-2.796240e-06,1.500000e-02
-2.788240e-06,-5.000000e-03
-2.780240e-06,1.750000e-02
-2.772240e-06,-1.875000e-02
-2.764240e-06,2.125000e-02
-2.756240e-06,-3.875000e-02
-2.748240e-06,2.750000e-02
-2.740240e-06,-1.375000e-02
-2.732240e-06,2.000000e-02
-2.724240e-06,-1.375000e-02
-2.716240e-06,1.875000e-02
-2.708240e-06,-2.125000e-02
-2.700240e-06,1.250000e-02
-2.692240e-06,-7.500000e-03
-2.684240e-06,2.000000e-02
-2.676240e-06,-1.250000e-02
-2.668240e-06,8.750000e-03
-2.660240e-06,-5.000000e-03
-2.652240e-06,6.250000e-03
-2.644240e-06,-8.750000e-03
-2.636240e-06,-3.750000e-03
-2.628240e-06,-1.875000e-02
-2.620240e-06,8.750000e-03
-2.612240e-06,-2.250000e-02
-2.604240e-06,2.500000e-02
-2.596240e-06,-2.750000e-02
-2.588240e-06,2.375000e-02
-2.580240e-06,-1.875000e-02
-2.572240e-06,8.750000e-03
-2.564240e-06,-7.500000e-03
-2.556240e-06,-1.125000e-02
-2.548240e-06,-1.625000e-02
-2.540240e-06,3.750000e-02
-2.532240e-06,-2.125000e-02
-2.524240e-06,2.125000e-02
-2.516240e-06,2.000000e-02
-2.508240e-06,1.250000e-03
-2.500240e-06,-2.125000e-02
-2.492240e-06,8.750000e-03
-2.484240e-06,-3.750000e-02
-2.476240e-06,1.375000e-02
-2.468240e-06,-1.000000e-02
-2.460240e-06,1.500000e-02
-2.452240e-06,-2.000000e-02
-2.444240e-06,5.000000e-03
-2.436240e-06,5.000000e-03
-2.428240e-06,1.750000e-02
-2.420240e-06,0.000000e+00
-2.412240e-06,1.625000e-02
-2.404240e-06,-1.625000e-02
-2.396240e-06,3.250000e-02
-2.388240e-06,-2.500000e-02
-2.380240e-06,6.250000e-03
-2.372240e-06,-3.625000e-02
-2.364240e-06,3.750000e-02
-2.356240e-06,-3.500000e-02
-2.348240e-06,1.875000e-02
-2.340240e-06,-2.375000e-02
-2.332240e-06,1.750000e-02
-2.324240e-06,-2.375000e-02
-2.316240e-06,3.125000e-02
-2.308240e-06,3.750000e-03
-2.300240e-06,2.000000e-02
-2.292240e-06,-1.250000e-02
-2.284240e-06,1.750000e-02
-2.276240e-06,-2.000000e-02
-2.268240e-06,1.375000e-02
-2.260240e-06,0.000000e+00
-2.252240e-06,2.125000e-02
-2.244240e-06,-2.125000e-02
-2.236240e-06,1.875000e-02
-2.228240e-06,-1.625000e-02
-2.220240e-06,3.750000e-02
-2.212240e-06,-7.500000e-03
-2.204240e-06,1.250000e-03
-2.196240e-06,-3.375000e-02
-2.188240e-06,-1.375000e-02
-2.180240e-06,-1.750000e-02
-2.172240e-06,1.250000e-02
-2.164240e-06,-2.625000e-02
-2.156240e-06,3.750000e-03
-2.148240e-06,-7.500000e-03
-2.140240e-06,1.625000e-02
-2.132240e-06,-1.625000e-02
-2.124240e-06,2.500000e-03
-2.116240e-06,-3.000000e-02
-2.108240e-06,5.000000e-03
-2.100240e-06,-3.250000e-02
-2.092240e-06,2.000000e-02
-2.084240e-06,-2.500000e-03
-2.076240e-06,1.250000e-02
-2.068240e-06,3.750000e-03
-2.060240e-06,5.000000e-03
-2.052240e-06,-3.875000e-02
-2.044240e-06,1.000000e-02
-2.036240e-06,-1.000000e-02
-2.028240e-06,2.750000e-02
-2.020240e-06,-6.250000e-03
-2.012240e-06,8.750000e-03
-2.004240e-06,-6.250000e-03
-1.996240e-06,-3.750000e-03
-1.988240e-06,-3.250000e-02
-1.980240e-06,6.250000e-03
-1.972240e-06,-3.125000e-02
-1.964240e-06,2.375000e-02
-1.956240e-06,-5.000000e-03
-1.948240e-06,1.000000e-02
-1.940240e-06,-3.500000e-02
-1.932240e-06,1.375000e-02
-1.924240e-06,-2.750000e-02
-1.916240e-06,1.750000e-02
-1.908240e-06,5.000000e-03
-1.900240e-06,1.250000e-02
-1.892240e-06,0.000000e+00
-1.884240e-06,1.375000e-02
-1.876240e-06,-2.000000e-02
-1.868240e-06,-1.250000e-03
-1.860240e-06,-2.500000e-02
-1.852240e-06,2.375000e-02
-1.844240e-06,-3.625000e-02
-1.836240e-06,1.125000e-02
-1.828240e-06,8.750000e-03
-1.820240e-06,2.875000e-02
-1.812240e-06,-1.750000e-02
-1.804240e-06,0.000000e+00
-1.796240e-06,-1.250000e-02
-1.788240e-06,2.500000e-03
-1.780240e-06,1.250000e-03
-1.772240e-06,1.375000e-02
-1.764240e-06,6.250000e-03
-1.756240e-06,2.500000e-02
-1.748240e-06,1.250000e-03
-1.740240e-06,1.375000e-02
-1.732240e-06,-4.250000e-02
-1.724240e-06,2.500000e-02
-1.716240e-06,-1.375000e-02
-1.708240e-06,4.125000e-02
-1.700240e-06,-8.750000e-03
-1.692240e-06,2.625000e-02
-1.684240e-06,-7.500000e-03
-1.676240e-06,2.375000e-02
-1.668240e-06,-6.250000e-03
-1.660240e-06,1.125000e-02
-1.652240e-06,-7.500000e-03
-1.644240e-06,3.750000e-02
-1.636240e-06,-2.500000e-03
-1.628240e-06,3.750000e-03
-1.620240e-06,0.000000e+00
-1.612240e-06,2.000000e-02
-1.604240e-06,-3.875000e-02
-1.596240e-06,1.000000e-02
-1.588240e-06,5.000000e-03
-1.580240e-06,2.750000e-02
-1.572240e-06,-6.250000e-03
-1.564240e-06,2.000000e-02
-1.556240e-06,-2.250000e-02
-1.548240e-06,1.750000e-02
-1.540240e-06,-1.875000e-02
-1.532240e-06,2.500000e-03
-1.524240e-06,1.250000e-02
-1.516240e-06,1.125000e-02
-1.508240e-06,1.250000e-03
-1.500240e-06,-7.500000e-03
-1.492240e-06,-1.250000e-03
-1.484240e-06,2.000000e-02
-1.476240e-06,-2.500000e-02
-1.468240e-06,1.000000e-02
-1.460240e-06,-2.750000e-02
-1.452240e-06,2.375000e-02
-1.444240e-06,2.500000e-03
-1.436240e-06,1.125000e-02
-1.428240e-06,-2.000000e-02
-1.420240e-06,2.500000e-02
-1.412240e-06,-3.750000e-02
-1.404240e-06,6.250000e-03
-1.396240e-06,1.125000e-02
-1.388240e-06,4.000000e-02
-1.380240e-06,1.250000e-03
-1.372240e-06,1.750000e-02
-1.364240e-06,-1.500000e-02
-1.356240e-06,5.000000e-03
-1.348240e-06,-2.000000e-02
-1.340240e-06,8.750000e-03
-1.332240e-06,-3.750000e-03
-1.324240e-06,5.000000e-03
-1.316240e-06,-1.000000e-02
-1.308240e-06,5.000000e-03
-1.300240e-06,-2.500000e-03
-1.292240e-06,-8.750000e-03
-1.284240e-06,-5.000000e-03
-1.276240e-06,2.250000e-02
-1.268240e-06,5.000000e-03
-1.260240e-06,3.250000e-02
-1.252240e-06,2.500000e-03
-1.244240e-06,1.250000e-02
-1.236240e-06,0.000000e+00
-1.228240e-06,1.375000e-02
-1.220240e-06,-1.875000e-02
-1.212240e-06,-5.000000e-03
-1.204240e-06,-2.375000e-02
-1.196240e-06,2.250000e-02
-1.188240e-06,-1.625000e-02
-1.180240e-06,2.500000e-02
-1.172240e-06,1.375000e-02
-1.164240e-06,1.375000e-02
-1.156240e-06,-2.625000e-02
-1.148240e-06,5.000000e-03
-1.140240e-06,-1.875000e-02
-1.132240e-06,1.250000e-02
-1.124240e-06,-2.625000e-02
-1.116240e-06,-6.250000e-03
-1.108240e-06,-3.750000e-03
-1.100240e-06,-6.250000e-03
-1.092240e-06,-2.625000e-02
-1.084240e-06,1.375000e-02
-1.076240e-06,-2.125000e-02
-1.068240e-06,1.500000e-02
-1.060240e-06,-2.000000e-02
-1.052240e-06,2.500000e-03
-1.044240e-06,-2.500000e-03
-1.036240e-06,-6.250000e-03
-1.028240e-06,2.500000e-03
-1.020240e-06,7.500000e-03
-1.012240e-06,-2.250000e-02
-1.004240e-06,2.875000e-02
-9.962400e-07,-2.125000e-02
-9.882400e-07,1.375000e-02
-9.802400e-07,-2.125000e-02
-9.722400e-07,1.375000e-02
-9.642400e-07,-4.500000e-02
-9.562400e-07,0.000000e+00
-9.482400e-07,-7.500000e-03
-9.402400e-07,7.500000e-03
-9.322400e-07,-1.500000e-02
-9.242400e-07,1.250000e-02
-9.162400e-07,-2.250000e-02
-9.082400e-07,0.000000e+00
-9.002400e-07,-1.875000e-02
-8.922400e-07,7.500000e-03
-8.842400e-07,3.750000e-03
-8.762400e-07,1.125000e-02
-8.682400e-07,-2.625000e-02
-8.602400e-07,-8.750000e-03
-8.522400e-07,-2.500000e-03
-8.442400e-07,1.875000e-02
-8.362400e-07,-4.375000e-02
-8.282400e-07,1.375000e-02
-8.202400e-07,-2.125000e-02
-8.122400e-07,2.500000e-02
-8.042400e-07,-1.625000e-02
-7.962400e-07,2.875000e-02
-7.882400e-07,-1.125000e-02
-7.802400e-07,1.750000e-02
-7.722400e-07,-3.375000e-02
-7.642400e-07,1.125000e-02
-7.562400e-07,-3.750000e-03
-7.482400e-07,3.375000e-02
-7.402400e-07,-1.250000e-02
-7.322400e-07,1.250000e-02
-7.242400e-07,-2.000000e-02
-7.162400e-07,6.250000e-03
-7.082400e-07,-3.250000e-02
-7.002400e-07,3.000000e-02
-6.922400e-07,5.000000e-03
-6.842400e-07,2.375000e-02
-6.762400e-07,-1.125000e-02
-6.682400e-07,1.625000e-02
-6.602400e-07,-2.000000e-02
-6.522400e-07,7.500000e-03
-6.442400e-07,-3.750000e-03
-6.362400e-07,1.000000e-02
-6.282400e-07,1.250000e-02
-6.202400e-07,-3.750000e-03
-6.122400e-07,-1.250000e-02
-6.042400e-07,1.625000e-02
-5.962400e-07,-1.750000e-02
-5.882400e-07,-1.500000e-02
-5.802400e-07,-1.625000e-02
-5.722400e-07,-1.250000e-03
-5.642400e-07,-2.000000e-02
-5.562400e-07,7.500000e-03
-5.482400e-07,-1.750000e-02
-5.402400e-07,0.000000e+00
-5.322400e-07,-2.750000e-02
-5.242400e-07,2.125000e-02
-5.162400e-07,-2.000000e-02
-5.082400e-07,2.500000e-03
-5.002400e-07,0.000000e+00
-4.922400e-07,2.625000e-02
-4.842400e-07,-8.750000e-03
-4.762400e-07,4.000000e-02
-4.682400e-07,-3.125000e-02
-4.602400e-07,-2.500000e-03
-4.522400e-07,-1.750000e-02
-4.442400e-07,8.750000e-03
-4.362400e-07,-8.750000e-03
-4.282400e-07,8.750000e-03
-4.202400e-07,8.750000e-03
-4.122400e-07,1.250000e-02
-4.042400e-07,-1.250000e-02
-3.962400e-07,7.500000e-03
-3.882400e-07,-1.125000e-02
-3.802400e-07,1.625000e-02
-3.722400e-07,1.375000e-02
-3.642400e-07,2.625000e-02
-3.562400e-07,-1.000000e-02
-3.482400e-07,1.750000e-02
-3.402400e-07,-2.500000e-02
-3.322400e-07,-1.250000e-02
-3.242400e-07,-2.250000e-02
-3.162400e-07,1.250000e-02
-3.082400e-07,-2.000000e-02
-3.002400e-07,3.625000e-02
-2.922400e-07,-2.000000e-02
-2.842400e-07,-6.250000e-03
-2.762400e-07,-1.750000e-02
-2.682400e-07,0.000000e+00
-2.602400e-07,-1.000000e-02
-2.522400e-07,1.250000e-02
-2.442400e-07,0.000000e+00
-2.362400e-07,2.000000e-02
-2.282400e-07,-2.250000e-02
-2.202400e-07,1.500000e-02
-2.122400e-07,-2.000000e-02
-2.042400e-07,3.750000e-03
-1.962400e-07,-3.375000e-02
-1.882400e-07,8.750000e-03
-1.802400e-07,-2.125000e-02
-1.722400e-07,2.250000e-02
-1.642400e-07,-2.625000e-02
-1.562400e-07,1.250000e-03
-1.482400e-07,-2.375000e-02
-1.402400e-07,2.500000e-03
-1.322400e-07,-1.875000e-02
-1.242400e-07,3.250000e-02
-1.162400e-07,-1.875000e-02
-1.082400e-07,1.750000e-02
-1.002400e-07,-2.500000e-03
-9.224000e-08,1.500000e-02
-8.424000e-08,1.250000e-02
-7.624000e-08,1.875000e-02
-6.824000e-08,-1.750000e-02
-6.024000e-08,1.250000e-02
-5.224000e-08,-1.750000e-02
-4.424000e-08,5.000000e-03
-3.624000e-08,-2.125000e-02
-2.824000e-08,-1.386250e+00
-2.024000e-08,-1.440000e+00
-1.224000e-08,-1.423750e+00
-4.240000e-09,-1.046250e+00
3.760000e-09,-1.750000e-02
1.176000e-08,-3.750000e-03
1.976000e-08,2.875000e-02
2.776000e-08,-3.750000e-03
3.576000e-08,2.000000e-02
4.376000e-08,-2.500000e-02
5.176000e-08,1.500000e-02
5.976000e-08,-3.625000e-02
6.776000e-08,1.125000e-02
7.576000e-08,-1.250000e-02
8.376000e-08,3.125000e-02
9.176000e-08,1.000000e-02
9.976000e-08,2.000000e-02
1.077600e-07,-2.000000e-02
1.157600e-07,8.750000e-03
1.237600e-07,-5.000000e-03
1.317600e-07,2.250000e-02
1.397600e-07,-3.125000e-02
1.477600e-07,1.625000e-02
1.557600e-07,-2.500000e-02
1.637600e-07,2.125000e-02
1.717600e-07,-1.750000e-02
1.797600e-07,2.500000e-03
1.877600e-07,-4.375000e-02
1.957600e-07,3.625000e-02
2.037600e-07,-1.125000e-02
2.117600e-07,2.625000e-02
2.197600e-07,-7.500000e-03
2.277600e-07,2.250000e-02
2.357600e-07,-8.750000e-03
2.437600e-07,1.250000e-02
2.517600e-07,-1.375000e-02
2.597600e-07,3.750000e-03
2.677600e-07,1.250000e-03
2.757600e-07,1.500000e-02
2.837600e-07,-2.500000e-03
2.917600e-07,1.375000e-02
2.997600e-07,-1.375000e-02
3.077600e-07,3.250000e-02
3.157600e-07,-6.250000e-03
3.237600e-07,7.500000e-03
3.317600e-07,-2.750000e-02
3.397600e-07,4.625000e-02
3.477600e-07,6.250000e-03
3.557600e-07,-1.250000e-03
3.637600e-07,-2.375000e-02
3.717600e-07,1.125000e-02
3.797600e-07,-4.000000e-02
3.877600e-07,1.875000e-02
3.957600e-07,-8.750000e-03
4.037600e-07,1.250000e-03
4.117600e-07,-1.625000e-02
4.197600e-07,4.000000e-02
4.277600e-07,-3.000000e-02
4.357600e-07,1.875000e-02
4.437600e-07,-3.500000e-02
4.517600e-07,2.750000e-02
4.597600e-07,3.750000e-03
4.677600e-07,2.000000e-02
4.757600e-07,-2.000000e-02
4.837600e-07,4.125000e-02
4.917600e-07,-6.250000e-03
4.997600e-07,1.750000e-02
5.077600e-07,-2.000000e-02
5.157600e-07,2.375000e-02
5.237600e-07,-1.375000e-02
5.317600e-07,1.500000e-02
5.397600e-07,-5.000000e-03
5.477600e-07,1.125000e-02
5.557600e-07,-2.500000e-03
5.637600e-07,6.250000e-03
5.717600e-07,-2.750000e-02
5.797600e-07,7.500000e-03
5.877600e-07,-2.875000e-02
5.957600e-07,6.250000e-03
6.037600e-07,7.500000e-03
6.117600e-07,-3.750000e-03
6.197600e-07,-3.750000e-03
6.277600e-07,1.375000e-02
6.357600e-07,-1.500000e-02
6.437600e-07,1.250000e-03
6.517600e-07,-1.250000e-02
6.597600e-07,1.125000e-02
6.677600e-07,1.250000e-03
6.757600e-07,-6.250000e-03
6.837600e-07,-8.750000e-03
6.917600e-07,3.000000e-02
6.997600e-07,-3.625000e-02
7.077600e-07,1.750000e-02
7.157600e-07,-1.375000e-02
7.237600e-07,3.750000e-03
7.317600e-07,-1.250000e-03
7.397600e-07,1.250000e-03
7.477600e-07,-4.250000e-02
7.557600e-07,0.000000e+00
7.637600e-07,-2.250000e-02
7.717600e-07,7.500000e-03
7.797600e-07,-1.500000e-02
7.877600e-07,2.625000e-02
7.957600e-07,-7.500000e-03
8.037600e-07,2.625000e-02
