run1/run1_ch1_20210318180151465.csv

Model,MSO64
Waveform Type,ANALOG
Horizontal Units,s
Sample Interval,8.000000e-09
Record Length,1250
Zero Index,624.980000
Vertical Units,V

TIME,CH1
-4.999840e-06,-2.625000e-02
-4.991840e-06,3.375000e-02
-4.983840e-06,-8.750000e-03
-4.975840e-06,7.500000e-03
-4.967840e-06,-5.000000e-03
-4.959840e-06,1.750000e-02
-4.951840e-06,-8.750000e-03
-4.943840e-06,2.500000e-02
-4.935840e-06,-2.250000e-02
-4.927840e-06,3.625000e-02
-4.919840e-06,-1.250000e-02
-4.911840e-06,7.500000e-03
-4.903840e-06,-2.500000e-03
-4.895840e-06,1.125000e-02
-4.887840e-06,-3.125000e-02
-4.879840e-06,3.125000e-02
-4.871840e-06,-3.125000e-02
-4.863840e-06,2.125000e-02
-4.855840e-06,-1.000000e-02
-4.847840e-06,5.000000e-03
-4.839840e-06,5.000000e-03
-4.831840e-06,3.000000e-02
-4.823840e-06,-3.500000e-02
-4.815840e-06,1.250000e-03
-4.807840e-06,-2.625000e-02
-4.799840e-06,0.000000e+00
-4.791840e-06,3.750000e-03
-4.783840e-06,1.250000e-03
-4.775840e-06,8.750000e-03
-4.767840e-06,1.500000e-02
-4.759840e-06,-2.750000e-02
-4.751840e-06,1.250000e-02
-4.743840e-06,-1.375000e-02
-4.735840e-06,3.000000e-02
-4.727840e-06,1.250000e-02
-4.719840e-06,2.000000e-02
-4.711840e-06,-3.750000e-03
-4.703840e-06,2.750000e-02
-4.695840e-06,-6.250000e-03
-4.687840e-06,2.250000e-02
-4.679840e-06,1.125000e-02
-4.671840e-06,3.750000e-02
-4.663840e-06,-2.500000e-03
-4.655840e-06,1.000000e-02
-4.647840e-06,-2.250000e-02
-4.639840e-06,-1.250000e-03
-4.631840e-06,-3.125000e-02
-4.623840e-06,3.250000e-02
-4.615840e-06,-3.625000e-02
-4.607840e-06,2.125000e-02
-4.599840e-06,-2.500000e-03
-4.591840e-06,-2.500000e-03
-4.583840e-06,-7.500000e-03
-4.575840e-06,7.500000e-03
-4.567840e-06,-1.875000e-02
-4.559840e-06,-1.500000e-02
-4.551840e-06,-8.750000e-03
-4.543840e-06,2.500000e-02
-4.535840e-06,-2.125000e-02
-4.527840e-06,7.500000e-03
-4.519840e-06,-2.125000e-02
-4.511840e-06,2.125000e-02
-4.503840e-06,-2.500000e-02
-4.495840e-06,2.750000e-02
-4.487840e-06,-2.375000e-02
-4.479840e-06,2.875000e-02
-4.471840e-06,-1.250000e-03
-4.463840e-06,-8.750000e-03
-4.455840e-06,-1.500000e-02
-4.447840e-06,-5.000000e-03
-4.439840e-06,-1.500000e-02
-4.431840e-06,3.375000e-02
-4.423840e-06,-5.000000e-03
-4.415840e-06,1.750000e-02
-4.407840e-06,-1.500000e-02
-4.399840e-06,1.375000e-02
-4.391840e-06,-1.125000e-02
-4.383840e-06,7.500000e-03
-4.375840e-06,-2.250000e-02
-4.367840e-06,2.625000e-02
-4.359840e-06,-1.750000e-02
-4.351840e-06,2.250000e-02
-4.343840e-06,-6.250000e-03
-4.335840e-06,5.000000e-03
-4.327840e-06,-7.500000e-03
-4.319840e-06,1.875000e-02
-4.311840e-06,-2.000000e-02
-4.303840e-06,8.750000e-03
-4.295840e-06,-1.625000e-02
-4.287840e-06,2.000000e-02
-4.279840e-06,-1.250000e-02
-4.271840e-06,2.500000e-02
-4.263840e-06,-2.500000e-02
-4.255840e-06,1.625000e-02
-4.247840e-06,-1.625000e-02
-4.239840e-06,1.500000e-02
-4.231840e-06,-1.000000e-02
-4.223840e-06,4.000000e-02
-4.215840e-06,-2.500000e-03
-4.207840e-06,-8.750000e-03
-4.199840e-06,-1.625000e-02
-4.191840e-06,5.000000e-03
-4.183840e-06,-3.750000e-03
-4.175840e-06,3.750000e-03
-4.167840e-06,1.375000e-02
-4.159840e-06,1.125000e-02
-4.151840e-06,-1.000000e-02
-4.143840e-06,-1.125000e-02
-4.135840e-06,-2.750000e-02
-4.127840e-06,2.000000e-02
-4.119840e-06,-2.750000e-02
-4.111840e-06,-5.000000e-03
-4.103840e-06,-1.000000e-02
-4.095840e-06,1.750000e-02
-4.087840e-06,-1.250000e-02
-4.079840e-06,2.750000e-02
-4.071840e-06,-8.750000e-03
-4.063840e-06,1.875000e-02
-4.055840e-06,-2.500000e-03
-4.047840e-06,2.625000e-02
-4.039840e-06,-6.250000e-03
-4.031840e-06,6.250000e-03
-4.023840e-06,-1.625000e-02
-4.015840e-06,2.000000e-02
-4.007840e-06,-1.500000e-02
-3.999840e-06,2.750000e-02
-3.991840e-06,-2.750000e-02
-3.983840e-06,-5.000000e-03
-3.975840e-06,-1.375000e-02
-3.967840e-06,2.750000e-02
-3.959840e-06,-1.875000e-02
-3.951840e-06,-3.750000e-03
-3.943840e-06,-8.750000e-03
-3.935840e-06,2.750000e-02
-3.927840e-06,-2.750000e-02
-3.919840e-06,2.750000e-02
-3.911840e-06,1.250000e-03
-3.903840e-06,2.000000e-02
-3.895840e-06,8.750000e-03
-3.887840e-06,7.500000e-03
-3.879840e-06,5.000000e-03
-3.871840e-06,1.000000e-02
-3.863840e-06,-2.250000e-02
-3.855840e-06,-6.250000e-03
-3.847840e-06,-1.125000e-02
-3.839840e-06,2.500000e-03
-3.831840e-06,-2.500000e-02
-3.823840e-06,6.250000e-03
-3.815840e-06,-2.875000e-02
-3.807840e-06,2.500000e-03
-3.799840e-06,-2.000000e-02
-3.791840e-06,1.625000e-02
-3.783840e-06,2.500000e-03
-3.775840e-06,2.500000e-02
-3.767840e-06,2.500000e-02
-3.759840e-06,1.625000e-02
-3.751840e-06,-3.750000e-03
-3.743840e-06,1.250000e-03
-3.735840e-06,-3.125000e-02
-3.727840e-06,2.000000e-02
-3.719840e-06,-1.625000e-02
-3.711840e-06,3.500000e-02
-3.703840e-06,-2.500000e-02
-3.695840e-06,2.250000e-02
-3.687840e-06,-1.500000e-02
-3.679840e-06,5.000000e-03
-3.671840e-06,0.000000e+00
-3.663840e-06,1.500000e-02
-3.655840e-06,8.750000e-03
-3.647840e-06,1.625000e-02
-3.639840e-06,-2.000000e-02
-3.631840e-06,2.250000e-02
-3.623840e-06,3.750000e-03
-3.615840e-06,2.375000e-02
-3.607840e-06,-3.375000e-02
-3.599840e-06,-2.500000e-03
-3.591840e-06,-2.250000e-02
-3.583840e-06,1.250000e-02
-3.575840e-06,3.750000e-03
-3.567840e-06,1.500000e-02
-3.559840e-06,-2.500000e-02
-3.551840e-06,-1.125000e-02
-3.543840e-06,-1.500000e-02
-3.535840e-06,3.125000e-02
-3.527840e-06,-7.500000e-03
-3.519840e-06,2.125000e-02
-3.511840e-06,3.750000e-03
-3.503840e-06,1.875000e-02
-3.495840e-06,-1.250000e-03
-3.487840e-06,3.625000e-02
-3.479840e-06,-2.250000e-02
-3.471840e-06,2.750000e-02
-3.463840e-06,-7.500000e-03
-3.455840e-06,4.250000e-02
-3.447840e-06,-1.250000e-03
-3.439840e-06,1.000000e-02
-3.431840e-06,-2.375000e-02
-3.423840e-06,1.375000e-02
-3.415840e-06,-2.625000e-02
-3.407840e-06,1.250000e-02
-3.399840e-06,-2.500000e-03
-3.391840e-06,1.750000e-02
-3.383840e-06,-2.500000e-03
-3.375840e-06,1.125000e-02
-3.367840e-06,-1.250000e-02
-3.359840e-06,5.000000e-03
-3.351840e-06,-8.750000e-03
-3.343840e-06,2.500000e-03
-3.335840e-06,-2.375000e-02
-3.327840e-06,2.250000e-02
-3.319840e-06,-2.375000e-02
-3.311840e-06,7.500000e-03
-3.303840e-06,8.750000e-03
-3.295840e-06,0.000000e+00
-3.287840e-06,-5.000000e-03
-3.279840e-06,5.000000e-03
-3.271840e-06,-3.750000e-03
-3.263840e-06,8.750000e-03
-3.255840e-06,7.500000e-03
-3.247840e-06,2.125000e-02
-3.239840e-06,8.750000e-03
-3.231840e-06,-2.500000e-03
-3.223840e-06,-1.750000e-02
-3.215840e-06,1.625000e-02
-3.207840e-06,-1.875000e-02
-3.199840e-06,4.125000e-02
-3.191840e-06,-1.750000e-02
-3.183840e-06,1.875000e-02
-3.175840e-06,-6.250000e-03
-3.167840e-06,1.625000e-02
-3.159840e-06,-3.500000e-02
-3.151840e-06,2.250000e-02
-3.143840e-06,0.000000e+00
-3.135840e-06,2.375000e-02
-3.127840e-06,-3.625000e-02
-3.119840e-06,2.500000e-03
-3.111840e-06,-2.750000e-02
-3.103840e-06,2.500000e-02
-3.095840e-06,-3.125000e-02
-3.087840e-06,0.000000e+00
-3.079840e-06,-2.125000e-02
-3.071840e-06,2.750000e-02
-3.063840e-06,-2.250000e-02
-3.055840e-06,6.250000e-03
-3.047840e-06,1.250000e-03
-3.039840e-06,-2.500000e-03
-3.031840e-06,-2.125000e-02
-3.023840e-06,1.375000e-02
-3.015840e-06,-1.250000e-02
-3.007840e-06,8.750000e-03
-2.999840e-06,-1.625000e-02
-2.991840e-06,2.750000e-02
-2.983840e-06,1.250000e-03
-2.975840e-06,1.125000e-02
-2.967840e-06,-1.750000e-02
-2.959840e-06,2.875000e-02
-2.951840e-06,-1.125000e-02
-2.943840e-06,1.000000e-02
-2.935840e-06,-2.875000e-02
-2.927840e-06,1.000000e-02
-2.919840e-06,-1.500000e-02
-2.911840e-06,1.500000e-02
-2.903840e-06,-1.250000e-02
-2.895840e-06,1.750000e-02
-2.887840e-06,-2.500000e-02
-2.879840e-06,2.375000e-02
-2.871840e-06,-1.125000e-02
-2.863840e-06,2.250000e-02
-2.855840e-06,-1.500000e-02
-2.847840e-06,7.500000e-03
-2.839840e-06,-2.875000e-02
-2.831840e-06,1.750000e-02
-2.823840e-06,-8.750000e-03
-2.815840e-06,1.125000e-02
-2.807840e-06,-2.125000e-02
-2.799840e-06,7.500000e-03
-2.791840e-06,-1.250000e-03
-2.783840e-06,-2.500000e-03
-2.775840e-06,-1.250000e-02
-2.767840e-06,3.250000e-02
-2.759840e-06,-3.750000e-03
-2.751840e-06,3.625000e-02
-2.743840e-06,-5.000000e-03
-2.735840e-06,2.250000e-02
-2.727840e-06,-3.250000e-02
-2.719840e-06,-6.250000e-03
-2.711840e-06,-3.750000e-02
-2.703840e-06,1.000000e-02
-2.695840e-06,-1.875000e-02
-2.687840e-06,3.375000e-02
-2.679840e-06,-1.625000e-02
-2.671840e-06,-2.500000e-03
-2.663840e-06,-5.000000e-03
-2.655840e-06,5.000000e-03
-2.647840e-06,-1.750000e-02
-2.639840e-06,5.000000e-03
-2.631840e-06,0.000000e+00
-2.623840e-06,1.875000e-02
-2.615840e-06,0.000000e+00
-2.607840e-06,1.250000e-02
-2.599840e-06,1.000000e-02
-2.591840e-06,1.125000e-02
-2.583840e-06,-3.000000e-02
-2.575840e-06,7.500000e-03
-2.567840e-06,-2.000000e-02
-2.559840e-06,1.875000e-02
-2.551840e-06,6.250000e-03
-2.543840e-06,1.875000e-02
-2.535840e-06,5.000000e-03
-2.527840e-06,6.250000e-03
-2.519840e-06,-4.875000e-02
-2.511840e-06,3.750000e-03
-2.503840e-06,7.500000e-03
-2.495840e-06,2.625000e-02
-2.487840e-06,-1.625000e-02
-2.479840e-06,-8.750000e-03
-2.471840e-06,-3.125000e-02
-2.463840e-06,3.375000e-02
-2.455840e-06,-2.000000e-02
-2.447840e-06,7.500000e-03
-2.439840e-06,-1.625000e-02
-2.431840e-06,3.000000e-02
-2.423840e-06,-1.500000e-02
-2.415840e-06,-1.000000e-02
-2.407840e-06,2.500000e-02
-2.399840e-06,2.625000e-02
-2.391840e-06,-1.000000e-02
-2.383840e-06,2.125000e-02
-2.375840e-06,-5.000000e-03
-2.367840e-06,0.000000e+00
-2.359840e-06,-5.000000e-03
-2.351840e-06,1.750000e-02
-2.343840e-06,-2.125000e-02
-2.335840e-06,3.750000e-03
-2.327840e-06,-2.375000e-02
-2.319840e-06,1.250000e-03
-2.311840e-06,-3.750000e-03
-2.303840e-06,3.375000e-02
-2.295840e-06,-2.625000e-02
-2.287840e-06,1.750000e-02
-2.279840e-06,-1.750000e-02
-2.271840e-06,7.500000e-03
-2.263840e-06,-2.125000e-02
-2.255840e-06,1.250000e-03
-2.247840e-06,2.500000e-03
-2.239840e-06,7.500000e-03
-2.231840e-06,6.250000e-03
-2.223840e-06,3.875000e-02
-2.215840e-06,-2.750000e-02
-2.207840e-06,2.750000e-02
-2.199840e-06,-2.000000e-02
-2.191840e-06,2.125000e-02
-2.183840e-06,-2.125000e-02
-2.175840e-06,3.250000e-02
-2.167840e-06,-1.625000e-02
-2.159840e-06,-5.000000e-03
-2.151840e-06,-1.875000e-02
-2.143840e-06,2.750000e-02
-2.135840e-06,-1.500000e-02
-2.127840e-06,1.750000e-02
-2.119840e-06,7.500000e-03
-2.111840e-06,1.500000e-02
-2.103840e-06,-7.500000e-03
-2.095840e-06,1.125000e-02
-2.087840e-06,1.250000e-03
-2.079840e-06,2.500000e-03
-2.071840e-06,-3.875000e-02
-2.063840e-06,2.500000e-03
-2.055840e-06,-6.250000e-03
-2.047840e-06,1.250000e-02
-2.039840e-06,-1.375000e-02
-2.031840e-06,2.750000e-02
-2.023840e-06,-2.125000e-02
-2.015840e-06,2.500000e-03
-2.007840e-06,-2.000000e-02
-1.999840e-06,1.250000e-02
-1.991840e-06,-1.375000e-02
-1.983840e-06,8.750000e-03
-1.975840e-06,-1.500000e-02
-1.967840e-06,-1.250000e-03
-1.959840e-06,-1.750000e-02
-1.951840e-06,3.000000e-02
-1.943840e-06,-2.875000e-02
-1.935840e-06,1.125000e-02
-1.927840e-06,-2.250000e-02
-1.919840e-06,1.625000e-02
-1.911840e-06,-2.125000e-02
-1.903840e-06,8.750000e-03
-1.895840e-06,-1.875000e-02
-1.887840e-06,8.750000e-03
-1.879840e-06,-3.125000e-02
-1.871840e-06,2.750000e-02
-1.863840e-06,-1.125000e-02
-1.855840e-06,1.125000e-02
-1.847840e-06,1.375000e-02
-1.839840e-06,1.500000e-02
-1.831840e-06,-1.625000e-02
-1.823840e-06,1.125000e-02
-1.815840e-06,-3.375000e-02
-1.807840e-06,1.375000e-02
-1.799840e-06,-3.750000e-03
-1.791840e-06,2.250000e-02
-1.783840e-06,-2.000000e-02
-1.775840e-06,2.250000e-02
-1.767840e-06,-3.375000e-02
-1.759840e-06,-7.500000e-03
-1.751840e-06,-1.250000e-02
-1.743840e-06,1.125000e-02
-1.735840e-06,1.000000e-02
-1.727840e-06,1.125000e-02
-1.719840e-06,7.500000e-03
-1.711840e-06,3.875000e-02
-1.703840e-06,-3.000000e-02
-1.695840e-06,1.375000e-02
-1.687840e-06,-1.250000e-03
-1.679840e-06,-7.500000e-03
-1.671840e-06,-1.250000e-02
-1.663840e-06,1.125000e-02
-1.655840e-06,-1.750000e-02
-1.647840e-06,1.250000e-03
-1.639840e-06,-1.625000e-02
-1.631840e-06,-1.250000e-03
-1.623840e-06,-2.375000e-02
-1.615840e-06,1.250000e-03
-1.607840e-06,6.250000e-03
-1.599840e-06,2.125000e-02
-1.591840e-06,6.250000e-03
-1.583840e-06,-1.250000e-03
-1.575840e-06,-2.375000e-02
-1.567840e-06,1.250000e-02
-1.559840e-06,-2.875000e-02
-1.551840e-06,2.500000e-02
-1.543840e-06,-3.375000e-02
-1.535840e-06,1.125000e-02
-1.527840e-06,-1.875000e-02
-1.519840e-06,1.250000e-02
-1.511840e-06,-1.375000e-02
-1.503840e-06,1.250000e-02
-1.495840e-06,-1.500000e-02
-1.487840e-06,1.000000e-02
-1.479840e-06,1.250000e-02
-1.471840e-06,3.500000e-02
-1.463840e-06,-1.625000e-02
-1.455840e-06,1.375000e-02
-1.447840e-06,-1.000000e-02
-1.439840e-06,5.000000e-03
-1.431840e-06,-1.375000e-02
-1.423840e-06,5.000000e-03
-1.415840e-06,-2.000000e-02
-1.407840e-06,3.750000e-02
-1.399840e-06,-1.250000e-02
-1.391840e-06,1.250000e-02
-1.383840e-06,5.000000e-03
-1.375840e-06,2.500000e-03
-1.367840e-06,-6.250000e-03
-1.359840e-06,1.000000e-02
-1.351840e-06,-1.500000e-02
-1.343840e-06,1.375000e-02
-1.335840e-06,-1.375000e-02
-1.327840e-06,2.250000e-02
-1.319840e-06,-1.625000e-02
-1.311840e-06,2.250000e-02
-1.303840e-06,-2.000000e-02
-1.295840e-06,2.875000e-02
-1.287840e-06,-2.500000e-02
-1.279840e-06,8.750000e-03
-1.271840e-06,6.250000e-03
-1.263840e-06,5.000000e-03
-1.255840e-06,-2.000000e-02
-1.247840e-06,5.000000e-03
-1.239840e-06,-1.750000e-02
-1.231840e-06,8.750000e-03
-1.223840e-06,-1.375000e-02
-1.215840e-06,2.125000e-02
-1.207840e-06,5.000000e-03
-1.199840e-06,1.250000e-03
-1.191840e-06,-5.000000e-03
-1.183840e-06,1.375000e-02
-1.175840e-06,-2.375000e-02
-1.167840e-06,4.000000e-02
-1.159840e-06,-5.000000e-03
-1.151840e-06,3.625000e-02
-1.143840e-06,-5.000000e-03
-1.135840e-06,3.750000e-03
-1.127840e-06,-2.875000e-02
-1.119840e-06,2.500000e-02
-1.111840e-06,-2.250000e-02
-1.103840e-06,6.250000e-03
-1.095840e-06,-7.500000e-03
-1.087840e-06,2.625000e-02
-1.079840e-06,-2.500000e-03
-1.071840e-06,7.500000e-03
-1.063840e-06,-2.375000e-02
-1.055840e-06,1.500000e-02
-1.047840e-06,-1.750000e-02
-1.039840e-06,1.625000e-02
-1.031840e-06,-2.375000e-02
-1.023840e-06,2.250000e-02
-1.015840e-06,-1.125000e-02
-1.007840e-06,2.750000e-02
-9.998400e-07,-2.500000e-03
-9.918400e-07,3.250000e-02
-9.838400e-07,-8.750000e-03
-9.758400e-07,1.875000e-02
-9.678400e-07,-1.250000e-03
-9.598400e-07,8.750000e-03
-9.518400e-07,-5.000000e-03
-9.438400e-07,7.500000e-03
-9.358400e-07,-1.500000e-02
-9.278400e-07,0.000000e+00
-9.198400e-07,-2.375000e-02
-9.118400e-07,2.625000e-02
-9.038400e-07,-8.750000e-03
-8.958400e-07,2.500000e-02
-8.878400e-07,0.000000e+00
-8.798400e-07,2.625000e-02
-8.718400e-07,-1.000000e-02
-8.638400e-07,-3.750000e-03
-8.558400e-07,-3.000000e-02
-8.478400e-07,-1.250000e-02
-8.398400e-07,-3.750000e-03
-8.318400e-07,1.500000e-02
-8.238400e-07,-1.125000e-02
-8.158400e-07,2.000000e-02
-8.078400e-07,-2.250000e-02
-7.998400e-07,-7.500000e-03
-7.918400e-07,-4.250000e-02
-7.838400e-07,-1.250000e-03
-7.758400e-07,-8.750000e-03
-7.678400e-07,1.500000e-02
-7.598400e-07,-2.625000e-02
-7.518400e-07,1.875000e-02
-7.438400e-07,-6.250000e-03
-7.358400e-07,1.250000e-02
-7.278400e-07,-1.000000e-02
-7.198400e-07,1.750000e-02
-7.118400e-07,-1.000000e-02
-7.038400e-07,1.750000e-02
-6.958400e-07,1.875000e-02
-6.878400e-07,3.750000e-03
-6.798400e-07,-2.250000e-02
-6.718400e-07,5.000000e-03
-6.638400e-07,-2.500000e-02
-6.558400e-07,3.750000e-03
-6.478400e-07,-3.000000e-02
-6.398400e-07,2.125000e-02
-6.318400e-07,-2.875000e-02
-6.238400e-07,2.500000e-03
-6.158400e-07,-8.750000e-03
-6.078400e-07,6.250000e-03
-5.998400e-07,-8.750000e-03
-5.918400e-07,-2.500000e-03
-5.838400e-07,-7.500000e-03
-5.758400e-07,5.000000e-03
-5.678400e-07,-3.750000e-03
-5.598400e-07,2.875000e-02
-5.518400e-07,-1.500000e-02
-5.438400e-07,1.250000e-02
-5.358400e-07,-1.250000e-02
-5.278400e-07,-6.250000e-03
-5.198400e-07,-2.125000e-02
-5.118400e-07,8.750000e-03
-5.038400e-07,-1.625000e-02
-4.958400e-07,-1.125000e-02
-4.878400e-07,-1.000000e-02
-4.798400e-07,1.250000e-02
-4.718400e-07,-1.750000e-02
-4.638400e-07,1.375000e-02
-4.558400e-07,-5.000000e-03
-4.478400e-07,2.500000e-02
-4.398400e-07,6.250000e-03
-4.318400e-07,2.250000e-02
-4.238400e-07,1.250000e-03
-4.158400e-07,8.750000e-03
-4.078400e-07,-1.750000e-02
-3.998400e-07,2.500000e-03
-3.918400e-07,-1.375000e-02
-3.838400e-07,2.125000e-02
-3.758400e-07,1.250000e-03
-3.678400e-07,3.750000e-03
-3.598400e-07,-2.125000e-02
-3.518400e-07,5.000000e-03
-3.438400e-07,-1.750000e-02
-3.358400e-07,7.500000e-03
-3.278400e-07,-2.375000e-02
-3.198400e-07,2.000000e-02
-3.118400e-07,1.125000e-02
-3.038400e-07,5.000000e-03
-2.958400e-07,-2.500000e-02
-2.878400e-07,1.375000e-02
-2.798400e-07,-1.000000e-02
-2.718400e-07,-6.250000e-03
-2.638400e-07,-2.625000e-02
-2.558400e-07,2.250000e-02
-2.478400e-07,-2.250000e-02
-2.398400e-07,1.625000e-02
-2.318400e-07,-4.000000e-02
-2.238400e-07,1.000000e-02
-2.158400e-07,-1.375000e-02
-2.078400e-07,-5.000000e-03
-1.998400e-07,-5.000000e-03
-1.918400e-07,1.250000e-02
-1.838400e-07,8.750000e-03
-1.758400e-07,1.875000e-02
-1.678400e-07,-2.250000e-02
-1.598400e-07,2.000000e-02
-1.518400e-07,-3.250000e-02
-1.438400e-07,2.500000e-02
-1.358400e-07,-2.875000e-02
-1.278400e-07,3.500000e-02
-1.198400e-07,-1.750000e-02
-1.118400e-07,5.000000e-03
-1.038400e-07,-3.000000e-02
-9.584000e-08,-2.500000e-03
-8.784000e-08,-3.250000e-02
-7.984000e-08,7.500000e-03
-7.184000e-08,-1.000000e-02
-6.384000e-08,-8.750000e-03
-5.584000e-08,-1.375000e-02
-4.784000e-08,8.750000e-03
-3.984000e-08,-1.625000e-02
-3.184000e-08,-1.405000e+00
-2.384000e-08,-1.437500e+00
-1.584000e-08,-1.405000e+00
-7.840000e-09,-1.525000e-01
1.600000e-10,3.750000e-03
8.160000e-09,1.250000e-03
1.616000e-08,8.750000e-03
2.416000e-08,-3.750000e-03
3.216000e-08,5.000000e-03
4.016000e-08,-4.750000e-02
4.816000e-08,3.750000e-03
5.616000e-08,0.000000e+00
6.416000e-08,2.500000e-03
7.216000e-08,-1.750000e-02
8.016000e-08,1.625000e-02
8.816000e-08,-8.750000e-03
9.616000e-08,6.250000e-03
1.041600e-07,-8.750000e-03
1.121600e-07,2.500000e-02
1.201600e-07,-2.375000e-02
1.281600e-07,1.750000e-02
1.361600e-07,0.000000e+00
1.441600e-07,1.125000e-02
1.521600e-07,-1.500000e-02
1.601600e-07,-6.250000e-03
1.681600e-07,-1.250000e-03
1.761600e-07,1.250000e-03
1.841600e-07,0.000000e+00
1.921600e-07,2.250000e-02
2.001600e-07,3.750000e-03
2.081600e-07,1.125000e-02
2.161600e-07,-3.000000e-02
2.241600e-07,1.000000e-02
2.321600e-07,-3.375000e-02
2.401600e-07,2.000000e-02
2.481600e-07,-1.000000e-02
2.561600e-07,2.000000e-02
2.641600e-07,6.250000e-03
2.721600e-07,2.375000e-02
2.801600e-07,-8.750000e-03
2.881600e-07,-1.250000e-03
2.961600e-07,-1.500000e-02
3.041600e-07,-7.500000e-03
3.121600e-07,-1.250000e-03
3.201600e-07,2.750000e-02
3.281600e-07,-1.875000e-02
3.361600e-07,8.750000e-03
3.441600e-07,2.500000e-03
3.521600e-07,0.000000e+00
3.601600e-07,-3.875000e-02
3.681600e-07,3.000000e-02
3.761600e-07,-3.750000e-03
3.841600e-07,1.500000e-02
3.921600e-07,0.000000e+00
4.001600e-07,1.500000e-02
4.081600e-07,-2.375000e-02
4.161600e-07,3.125000e-02
4.241600e-07,-1.375000e-02
4.321600e-07,1.250000e-02
4.401600e-07,2.500000e-03
4.481600e-07,2.250000e-02
4.561600e-07,-2.125000e-02
4.641600e-07,7.500000e-03
4.721600e-07,-2.125000e-02
4.801600e-07,2.250000e-02
4.881600e-07,-4.125000e-02
4.961600e-07,2.125000e-02
5.041600e-07,-2.250000e-02
5.121600e-07,2.250000e-02
5.201600e-07,-5.000000e-03
5.281600e-07,7.500000e-03
5.361600e-07,0.000000e+00
5.441600e-07,8.750000e-03
5.521600e-07,-1.875000e-02
5.601600e-07,5.000000e-03
5.681600e-07,2.500000e-03
5.761600e-07,3.125000e-02
5.841600e-07,0.000000e+00
5.921600e-07,1.250000e-02
6.001600e-07,-1.250000e-02
6.081600e-07,2.375000e-02
6.161600e-07,-7.500000e-03
6.241600e-07,-6.250000e-03
6.321600e-07,-3.250000e-02
6.401600e-07,2.000000e-02
6.481600e-07,-2.500000e-02
6.561600e-07,1.375000e-02
6.641600e-07,1.250000e-03
6.721600e-07,5.000000e-03
6.801600e-07,-1.000000e-02
6.881600e-07,7.500000e-03
6.961600e-07,-2.000000e-02
7.041600e-07,8.750000e-03
7.121600e-07,-1.250000e-02
7.201600e-07,1.375000e-02
7.281600e-07,2.500000e-03
7.361600e-07,2.625000e-02
7.441600e-07,-2.375000e-02
7.521600e-07,1.500000e-02
7.601600e-07,-6.250000e-03
7.681600e-07,1.125000e-02
7.761600e-07,-2.875000e-02
7.841600e-07,-2.500000e-03
7.921600e-07,-1.750000e-02
8.001600e-07,1.125000e-02
