run1/run1_ch1_20210318180245260.csv

Model,MSO64
Waveform Type,ANALOG
Horizontal Units,s
Sample Interval,8.000000e-09
Record Length,1250
Zero Index,624.885156
Vertical Units,V

TIME,CH1
-4.999081e-06,2.250000e-02
-4.991081e-06,0.000000e+00
-4.983081e-06,-1.125000e-02
-4.975081e-06,-3.375000e-02
-4.967081e-06,1.625000e-02
-4.959081e-06,-1.250000e-02
-4.951081e-06,1.875000e-02
-4.943081e-06,-1.250000e-02
-4.935081e-06,1.375000e-02
-4.927081e-06,1.250000e-03
-4.919081e-06,2.000000e-02
-4.911081e-06,-2.375000e-02
-4.903081e-06,2.125000e-02
-4.895081e-06,-4.125000e-02
-4.887081e-06,8.750000e-03
-4.879081e-06,-1.000000e-02
-4.871081e-06,2.875000e-02
-4.863081e-06,-3.000000e-02
-4.855081e-06,0.000000e+00
-4.847081e-06,-8.750000e-03
-4.839081e-06,4.875000e-02
-4.831081e-06,-2.875000e-02
-4.823081e-06,-1.500000e-02
-4.815081e-06,-1.750000e-02
-4.807081e-06,1.500000e-02
-4.799081e-06,-1.250000e-03
-4.791081e-06,1.250000e-02
-4.783081e-06,1.000000e-02
-4.775081e-06,1.000000e-02
-4.767081e-06,-2.000000e-02
-4.759081e-06,1.500000e-02
-4.751081e-06,-2.500000e-02
-4.743081e-06,3.000000e-02
-4.735081e-06,-1.750000e-02
-4.727081e-06,2.625000e-02
-4.719081e-06,-8.750000e-03
-4.711081e-06,1.750000e-02
-4.703081e-06,-1.125000e-02
-4.695081e-06,1.500000e-02
-4.687081e-06,-2.000000e-02
-4.679081e-06,1.875000e-02
-4.671081e-06,5.000000e-03
-4.663081e-06,2.500000e-03
-4.655081e-06,-3.375000e-02
-4.647081e-06,1.125000e-02
-4.639081e-06,-1.250000e-02
-4.631081e-06,3.500000e-02
-4.623081e-06,-3.625000e-02
-4.615081e-06,1.875000e-02
-4.607081e-06,-6.250000e-03
-4.599081e-06,2.125000e-02
-4.591081e-06,-3.750000e-03
-4.583081e-06,1.625000e-02
-4.575081e-06,-1.625000e-02
-4.567081e-06,3.000000e-02
-4.559081e-06,0.000000e+00
-4.551081e-06,2.000000e-02
-4.543081e-06,-1.000000e-02
-4.535081e-06,2.375000e-02
-4.527081e-06,-2.375000e-02
-4.519081e-06,5.000000e-03
-4.511081e-06,-1.875000e-02
-4.503081e-06,6.250000e-03
-4.495081e-06,-1.250000e-03
-4.487081e-06,1.250000e-03
-4.479081e-06,-3.375000e-02
-4.471081e-06,5.000000e-03
-4.463081e-06,-2.500000e-02
-4.455081e-06,1.125000e-02
-4.447081e-06,-2.375000e-02
-4.439081e-06,3.000000e-02
-4.431081e-06,8.750000e-03
-4.423081e-06,8.750000e-03
-4.415081e-06,-2.750000e-02
-4.407081e-06,5.000000e-03
-4.399081e-06,-4.500000e-02
-4.391081e-06,1.500000e-02
-4.383081e-06,-1.250000e-02
-4.375081e-06,1.750000e-02
-4.367081e-06,-3.000000e-02
-4.359081e-06,2.750000e-02
-4.351081e-06,-2.625000e-02
-4.343081e-06,2.500000e-03
-4.335081e-06,-2.125000e-02
-4.327081e-06,2.750000e-02
-4.319081e-06,-3.750000e-02
-4.311081e-06,1.375000e-02
-4.303081e-06,-1.000000e-02
-4.295081e-06,1.000000e-02
-4.287081e-06,-1.750000e-02
-4.279081e-06,1.125000e-02
-4.271081e-06,-1.250000e-02
-4.263081e-06,6.250000e-03
-4.255081e-06,-2.250000e-02
-4.247081e-06,1.875000e-02
-4.239081e-06,-3.750000e-02
-4.231081e-06,1.375000e-02
-4.223081e-06,-7.500000e-03
-4.215081e-06,3.750000e-02
-4.207081e-06,-1.125000e-02
-4.199081e-06,0.000000e+00
-4.191081e-06,-2.000000e-02
-4.183081e-06,2.250000e-02
-4.175081e-06,-1.250000e-03
-4.167081e-06,2.500000e-02
-4.159081e-06,6.250000e-03
-4.151081e-06,2.750000e-02
-4.143081e-06,-2.125000e-02
-4.135081e-06,2.500000e-02
-4.127081e-06,-4.000000e-02
-4.119081e-06,3.750000e-03
-4.111081e-06,-2.875000e-02
-4.103081e-06,2.875000e-02
-4.095081e-06,-1.500000e-02
-4.087081e-06,2.250000e-02
-4.079081e-06,-2.625000e-02
-4.071081e-06,8.750000e-03
-4.063081e-06,-1.000000e-02
-4.055081e-06,2.500000e-02
-4.047081e-06,-5.000000e-03
-4.039081e-06,5.000000e-03
-4.031081e-06,-3.375000e-02
-4.023081e-06,1.375000e-02
-4.015081e-06,6.250000e-03
-4.007081e-06,2.125000e-02
-3.999081e-06,-4.875000e-02
-3.991081e-06,7.500000e-03
-3.983081e-06,-1.000000e-02
-3.975081e-06,3.500000e-02
-3.967081e-06,-6.250000e-03
-3.959081e-06,1.500000e-02
-3.951081e-06,-1.375000e-02
-3.943081e-06,2.750000e-02
-3.935081e-06,-5.000000e-03
-3.927081e-06,1.875000e-02
-3.919081e-06,0.000000e+00
-3.911081e-06,1.750000e-02
-3.903081e-06,-2.000000e-02
-3.895081e-06,8.750000e-03
-3.887081e-06,-1.875000e-02
-3.879081e-06,1.625000e-02
-3.871081e-06,-3.875000e-02
-3.863081e-06,7.500000e-03
-3.855081e-06,-3.000000e-02
-3.847081e-06,1.750000e-02
-3.839081e-06,-1.250000e-02
-3.831081e-06,3.125000e-02
-3.823081e-06,-2.500000e-02
-3.815081e-06,2.500000e-02
-3.807081e-06,-1.875000e-02
-3.799081e-06,2.375000e-02
-3.791081e-06,-3.250000e-02
-3.783081e-06,2.125000e-02
-3.775081e-06,-3.250000e-02
-3.767081e-06,1.625000e-02
-3.759081e-06,-2.750000e-02
-3.751081e-06,2.500000e-03
-3.743081e-06,-3.625000e-02
-3.735081e-06,-1.625000e-02
-3.727081e-06,-3.750000e-03
-3.719081e-06,2.500000e-03
-3.711081e-06,-1.750000e-02
-3.703081e-06,1.250000e-02
-3.695081e-06,-5.000000e-03
-3.687081e-06,1.875000e-02
-3.679081e-06,-1.875000e-02
-3.671081e-06,2.625000e-02
-3.663081e-06,3.750000e-03
-3.655081e-06,2.375000e-02
-3.647081e-06,-1.375000e-02
-3.639081e-06,2.500000e-02
-3.631081e-06,-3.000000e-02
-3.623081e-06,2.750000e-02
-3.615081e-06,-2.375000e-02
-3.607081e-06,1.500000e-02
-3.599081e-06,-2.500000e-03
-3.591081e-06,2.375000e-02
-3.583081e-06,-1.250000e-02
-3.575081e-06,1.250000e-02
-3.567081e-06,-1.875000e-02
-3.559081e-06,1.000000e-02
-3.551081e-06,-7.500000e-03
-3.543081e-06,1.250000e-03
-3.535081e-06,-1.125000e-02
-3.527081e-06,1.125000e-02
-3.519081e-06,1.250000e-03
-3.511081e-06,2.625000e-02
-3.503081e-06,-1.250000e-02
-3.495081e-06,1.000000e-02
-3.487081e-06,-4.250000e-02
-3.479081e-06,2.000000e-02
-3.471081e-06,-1.000000e-02
-3.463081e-06,1.625000e-02
-3.455081e-06,-2.750000e-02
-3.447081e-06,2.500000e-02
-3.439081e-06,-2.500000e-02
-3.431081e-06,-1.250000e-03
-3.423081e-06,-2.500000e-03
-3.415081e-06,1.750000e-02
-3.407081e-06,-2.125000e-02
-3.399081e-06,-3.750000e-03
-3.391081e-06,-3.000000e-02
-3.383081e-06,8.750000e-03
-3.375081e-06,6.250000e-03
-3.367081e-06,1.250000e-03
-3.359081e-06,-2.250000e-02
-3.351081e-06,0.000000e+00
-3.343081e-06,-1.000000e-02
-3.335081e-06,2.625000e-02
-3.327081e-06,-3.000000e-02
-3.319081e-06,-1.000000e-02
-3.311081e-06,-6.250000e-03
-3.303081e-06,-6.250000e-03
-3.295081e-06,-4.375000e-02
-3.287081e-06,0.000000e+00
-3.279081e-06,0.000000e+00
-3.271081e-06,1.000000e-02
-3.263081e-06,-2.375000e-02
-3.255081e-06,2.500000e-02
-3.247081e-06,-1.000000e-02
-3.239081e-06,1.750000e-02
-3.231081e-06,-1.750000e-02
-3.223081e-06,2.500000e-02
-3.215081e-06,-1.500000e-02
-3.207081e-06,2.625000e-02
-3.199081e-06,3.750000e-03
-3.191081e-06,2.000000e-02
-3.183081e-06,3.750000e-03
-3.175081e-06,-3.750000e-03
-3.167081e-06,-2.125000e-02
-3.159081e-06,1.375000e-02
-3.151081e-06,0.000000e+00
-3.143081e-06,7.500000e-03
-3.135081e-06,-1.375000e-02
-3.127081e-06,2.750000e-02
-3.119081e-06,-2.250000e-02
-3.111081e-06,3.750000e-03
-3.103081e-06,-2.125000e-02
-3.095081e-06,2.000000e-02
-3.087081e-06,-2.750000e-02
-3.079081e-06,3.500000e-02
-3.071081e-06,-2.500000e-03
-3.063081e-06,2.500000e-02
-3.055081e-06,-3.000000e-02
-3.047081e-06,1.125000e-02
-3.039081e-06,-1.250000e-02
-3.031081e-06,1.625000e-02
-3.023081e-06,-2.250000e-02
-3.015081e-06,1.875000e-02
-3.007081e-06,-2.375000e-02
-2.999081e-06,3.375000e-02
-2.991081e-06,-2.000000e-02
-2.983081e-06,7.500000e-03
-2.975081e-06,-2.625000e-02
-2.967081e-06,7.500000e-03
-2.959081e-06,-1.125000e-02
-2.951081e-06,1.625000e-02
-2.943081e-06,-3.250000e-02
-2.935081e-06,-2.500000e-03
-2.927081e-06,-3.500000e-02
-2.919081e-06,1.375000e-02
-2.911081e-06,-5.000000e-03
-2.903081e-06,2.375000e-02
-2.895081e-06,-1.750000e-02
-2.887081e-06,2.000000e-02
-2.879081e-06,5.000000e-03
-2.871081e-06,2.500000e-02
-2.863081e-06,1.000000e-02
-2.855081e-06,6.250000e-03
-2.847081e-06,-2.125000e-02
-2.839081e-06,1.625000e-02
-2.831081e-06,-3.000000e-02
-2.823081e-06,3.500000e-02
-2.815081e-06,-3.000000e-02
-2.807081e-06,8.750000e-03
-2.799081e-06,-1.250000e-03
-2.791081e-06,0.000000e+00
-2.783081e-06,-8.750000e-03
-2.775081e-06,6.250000e-03
-2.767081e-06,-1.500000e-02
-2.759081e-06,1.875000e-02
-2.751081e-06,-1.000000e-02
-2.743081e-06,1.125000e-02
-2.735081e-06,-2.250000e-02
-2.727081e-06,1.125000e-02
-2.719081e-06,-1.750000e-02
-2.711081e-06,2.875000e-02
-2.703081e-06,-1.875000e-02
-2.695081e-06,2.000000e-02
-2.687081e-06,-2.500000e-02
-2.679081e-06,-2.500000e-03
-2.671081e-06,-1.000000e-02
-2.663081e-06,-3.750000e-03
-2.655081e-06,-1.625000e-02
-2.647081e-06,2.000000e-02
-2.639081e-06,-1.250000e-03
-2.631081e-06,2.250000e-02
-2.623081e-06,-6.250000e-03
-2.615081e-06,8.750000e-03
-2.607081e-06,-2.625000e-02
-2.599081e-06,1.250000e-02
-2.591081e-06,-3.625000e-02
-2.583081e-06,1.875000e-02
-2.575081e-06,-2.500000e-02
-2.567081e-06,2.625000e-02
-2.559081e-06,-1.375000e-02
-2.551081e-06,7.500000e-03
-2.543081e-06,-2.500000e-02
-2.535081e-06,3.750000e-02
-2.527081e-06,-2.125000e-02
-2.519081e-06,4.125000e-02
-2.511081e-06,1.250000e-02
-2.503081e-06,3.000000e-02
-2.495081e-06,1.375000e-02
-2.487081e-06,1.125000e-02
-2.479081e-06,-2.750000e-02
-2.471081e-06,2.375000e-02
-2.463081e-06,-2.375000e-02
-2.455081e-06,2.125000e-02
-2.447081e-06,-1.625000e-02
-2.439081e-06,-1.000000e-02
-2.431081e-06,-1.500000e-02
-2.423081e-06,2.750000e-02
-2.415081e-06,-1.750000e-02
-2.407081e-06,1.250000e-03
-2.399081e-06,-1.250000e-02
-2.391081e-06,2.250000e-02
-2.383081e-06,-8.750000e-03
-2.375081e-06,3.750000e-03
-2.367081e-06,-2.500000e-03
-2.359081e-06,2.250000e-02
-2.351081e-06,-2.250000e-02
-2.343081e-06,7.500000e-03
-2.335081e-06,-3.375000e-02
-2.327081e-06,1.500000e-02
-2.319081e-06,-2.625000e-02
-2.311081e-06,4.000000e-02
-2.303081e-06,-1.500000e-02
-2.295081e-06,6.250000e-03
-2.287081e-06,-3.500000e-02
-2.279081e-06,2.500000e-02
-2.271081e-06,-3.500000e-02
-2.263081e-06,2.500000e-02
-2.255081e-06,-2.500000e-03
-2.247081e-06,2.500000e-02
-2.239081e-06,-7.500000e-03
-2.231081e-06,6.250000e-03
-2.223081e-06,1.250000e-03
-2.215081e-06,1.250000e-03
-2.207081e-06,-3.000000e-02
-2.199081e-06,-6.250000e-03
-2.191081e-06,-1.000000e-02
-2.183081e-06,1.375000e-02
-2.175081e-06,-1.500000e-02
-2.167081e-06,-1.250000e-02
-2.159081e-06,-1.250000e-02
-2.151081e-06,3.375000e-02
-2.143081e-06,-1.750000e-02
-2.135081e-06,2.250000e-02
-2.127081e-06,1.250000e-02
-2.119081e-06,1.250000e-03
-2.111081e-06,1.250000e-03
-2.103081e-06,2.750000e-02
-2.095081e-06,-1.375000e-02
-2.087081e-06,1.625000e-02
-2.079081e-06,-3.250000e-02
-2.071081e-06,1.375000e-02
-2.063081e-06,-6.250000e-03
-2.055081e-06,1.375000e-02
-2.047081e-06,-2.375000e-02
-2.039081e-06,1.125000e-02
-2.031081e-06,-1.750000e-02
-2.023081e-06,6.250000e-03
-2.015081e-06,-3.250000e-02
-2.007081e-06,1.375000e-02
-1.999081e-06,5.000000e-03
-1.991081e-06,1.375000e-02
-1.983081e-06,-2.500000e-03
-1.975081e-06,8.750000e-03
-1.967081e-06,-3.000000e-02
-1.959081e-06,2.875000e-02
-1.951081e-06,-2.125000e-02
-1.943081e-06,-1.125000e-02
-1.935081e-06,-1.000000e-02
-1.927081e-06,3.500000e-02
-1.919081e-06,-3.000000e-02
-1.911081e-06,-2.500000e-03
-1.903081e-06,-8.750000e-03
-1.895081e-06,1.375000e-02
-1.887081e-06,-2.375000e-02
-1.879081e-06,1.125000e-02
-1.871081e-06,-1.125000e-02
-1.863081e-06,1.250000e-02
-1.855081e-06,-2.625000e-02
-1.847081e-06,3.125000e-02
-1.839081e-06,-2.250000e-02
-1.831081e-06,1.000000e-02
-1.823081e-06,-2.875000e-02
-1.815081e-06,1.625000e-02
-1.807081e-06,-2.500000e-02
-1.799081e-06,1.875000e-02
-1.791081e-06,-1.750000e-02
-1.783081e-06,1.875000e-02
-1.775081e-06,-8.750000e-03
-1.767081e-06,8.750000e-03
-1.759081e-06,-1.250000e-02
-1.751081e-06,2.250000e-02
-1.743081e-06,-1.500000e-02
-1.735081e-06,2.125000e-02
-1.727081e-06,-8.750000e-03
-1.719081e-06,1.250000e-02
-1.711081e-06,-1.250000e-03
-1.703081e-06,1.750000e-02
-1.695081e-06,-4.125000e-02
-1.687081e-06,1.875000e-02
-1.679081e-06,-2.000000e-02
-1.671081e-06,2.750000e-02
-1.663081e-06,-5.000000e-03
-1.655081e-06,1.750000e-02
-1.647081e-06,2.500000e-03
-1.639081e-06,1.000000e-02
-1.631081e-06,-6.250000e-03
-1.623081e-06,1.750000e-02
-1.615081e-06,-6.250000e-03
-1.607081e-06,3.375000e-02
-1.599081e-06,3.750000e-03
-1.591081e-06,2.500000e-03
-1.583081e-06,-2.500000e-02
-1.575081e-06,-5.000000e-03
-1.567081e-06,-3.250000e-02
-1.559081e-06,3.250000e-02
-1.551081e-06,-3.500000e-02
-1.543081e-06,2.000000e-02
-1.535081e-06,-6.250000e-03
-1.527081e-06,1.625000e-02
-1.519081e-06,-1.000000e-02
-1.511081e-06,5.000000e-03
-1.503081e-06,-3.500000e-02
-1.495081e-06,1.125000e-02
-1.487081e-06,1.125000e-02
-1.479081e-06,1.750000e-02
-1.471081e-06,-2.250000e-02
-1.463081e-06,0.000000e+00
-1.455081e-06,-1.000000e-02
-1.447081e-06,2.125000e-02
-1.439081e-06,-1.125000e-02
-1.431081e-06,8.750000e-03
-1.423081e-06,-1.875000e-02
-1.415081e-06,3.375000e-02
-1.407081e-06,-2.125000e-02
-1.399081e-06,1.125000e-02
-1.391081e-06,2.500000e-03
-1.383081e-06,-1.250000e-03
-1.375081e-06,-1.500000e-02
-1.367081e-06,6.250000e-03
-1.359081e-06,-3.750000e-03
-1.351081e-06,2.250000e-02
-1.343081e-06,-2.000000e-02
-1.335081e-06,3.625000e-02
-1.327081e-06,0.000000e+00
-1.319081e-06,3.000000e-02
-1.311081e-06,-3.125000e-02
-1.303081e-06,8.750000e-03
-1.295081e-06,-2.000000e-02
-1.287081e-06,1.750000e-02
-1.279081e-06,-1.750000e-02
-1.271081e-06,1.125000e-02
-1.263081e-06,-1.875000e-02
-1.255081e-06,2.625000e-02
-1.247081e-06,-1.375000e-02
-1.239081e-06,1.250000e-03
-1.231081e-06,1.375000e-02
-1.223081e-06,3.625000e-02
-1.215081e-06,-1.625000e-02
-1.207081e-06,-7.500000e-03
-1.199081e-06,2.500000e-03
-1.191081e-06,2.750000e-02
-1.183081e-06,-1.125000e-02
-1.175081e-06,5.000000e-03
-1.167081e-06,-3.000000e-02
-1.159081e-06,1.625000e-02
-1.151081e-06,-6.250000e-03
-1.143081e-06,-7.500000e-03
-1.135081e-06,-2.375000e-02
-1.127081e-06,2.625000e-02
-1.119081e-06,-1.250000e-02
-1.111081e-06,1.250000e-02
-1.103081e-06,-1.250000e-03
-1.095081e-06,1.000000e-02
-1.087081e-06,-3.250000e-02
-1.079081e-06,1.125000e-02
-1.071081e-06,-6.250000e-03
-1.063081e-06,2.750000e-02
-1.055081e-06,-3.125000e-02
-1.047081e-06,1.250000e-02
-1.039081e-06,1.250000e-03
-1.031081e-06,2.625000e-02
-1.023081e-06,-1.625000e-02
-1.015081e-06,1.375000e-02
-1.007081e-06,-2.000000e-02
-9.990813e-07,1.000000e-02
-9.910813e-07,-1.250000e-03
-9.830813e-07,1.750000e-02
-9.750813e-07,-1.000000e-02
-9.670813e-07,2.625000e-02
-9.590813e-07,-2.000000e-02
-9.510813e-07,1.750000e-02
-9.430813e-07,-3.125000e-02
-9.350813e-07,1.250000e-02
-9.270813e-07,-3.125000e-02
-9.190813e-07,2.000000e-02
-9.110813e-07,-3.500000e-02
-9.030813e-07,2.875000e-02
-8.950813e-07,-1.125000e-02
-8.870813e-07,8.750000e-03
-8.790813e-07,-8.750000e-03
-8.710813e-07,6.250000e-03
-8.630813e-07,-1.875000e-02
-8.550813e-07,0.000000e+00
-8.470813e-07,7.500000e-03
-8.390813e-07,8.750000e-03
-8.310813e-07,1.250000e-03
-8.230813e-07,8.750000e-03
-8.150813e-07,-2.125000e-02
-8.070813e-07,2.625000e-02
-7.990813e-07,-2.250000e-02
-7.910813e-07,1.500000e-02
-7.830813e-07,-2.375000e-02
-7.750813e-07,1.875000e-02
-7.670813e-07,-2.875000e-02
-7.590813e-07,-3.750000e-03
-7.510813e-07,-1.625000e-02
-7.430813e-07,8.750000e-03
-7.350813e-07,-2.750000e-02
-7.270813e-07,-7.500000e-03
-7.190813e-07,5.000000e-03
-7.110813e-07,2.875000e-02
-7.030813e-07,-2.250000e-02
-6.950813e-07,5.000000e-03
-6.870813e-07,-2.875000e-02
-6.790813e-07,-1.250000e-03
-6.710813e-07,-4.250000e-02
-6.630813e-07,-1.125000e-02
-6.550813e-07,-1.375000e-02
-6.470813e-07,2.750000e-02
-6.390813e-07,-3.000000e-02
-6.310813e-07,2.750000e-02
-6.230813e-07,-1.625000e-02
-6.150813e-07,1.125000e-02
-6.070813e-07,-2.750000e-02
-5.990813e-07,1.125000e-02
-5.910813e-07,-4.250000e-02
-5.830813e-07,1.000000e-02
-5.750813e-07,-1.000000e-02
-5.670813e-07,1.250000e-03
-5.590813e-07,-2.375000e-02
-5.510813e-07,2.000000e-02
-5.430813e-07,-2.625000e-02
-5.350813e-07,1.375000e-02
-5.270813e-07,-2.500000e-02
-5.190813e-07,1.000000e-02
-5.110813e-07,-1.500000e-02
-5.030813e-07,1.000000e-02
-4.950813e-07,-1.125000e-02
-4.870813e-07,1.500000e-02
-4.790813e-07,-1.500000e-02
-4.710813e-07,0.000000e+00
-4.630813e-07,-1.875000e-02
-4.550813e-07,1.000000e-02
-4.470813e-07,8.750000e-03
-4.390813e-07,3.125000e-02
-4.310813e-07,1.250000e-03
-4.230813e-07,1.000000e-02
-4.150813e-07,-1.375000e-02
-4.070813e-07,2.000000e-02
-3.990813e-07,-1.250000e-02
-3.910813e-07,1.500000e-02
-3.830813e-07,-3.625000e-02
-3.750813e-07,5.000000e-03
-3.670813e-07,-8.750000e-03
-3.590813e-07,5.000000e-03
-3.510813e-07,-5.000000e-03
-3.430813e-07,1.125000e-02
-3.350813e-07,-1.250000e-02
-3.270813e-07,2.750000e-02
-3.190813e-07,1.000000e-02
-3.110813e-07,2.875000e-02
-3.030813e-07,1.125000e-02
-2.950813e-07,5.000000e-03
-2.870813e-07,-3.250000e-02
-2.790813e-07,0.000000e+00
-2.710813e-07,-7.500000e-03
-2.630813e-07,2.625000e-02
-2.550813e-07,-3.875000e-02
-2.470813e-07,2.000000e-02
-2.390813e-07,-2.250000e-02
-2.310813e-07,1.250000e-02
-2.230813e-07,-2.875000e-02
-2.150813e-07,1.125000e-02
-2.070813e-07,-1.750000e-02
-1.990813e-07,2.750000e-02
-1.910813e-07,-2.000000e-02
-1.830813e-07,2.250000e-02
-1.750813e-07,-6.250000e-03
-1.670813e-07,6.250000e-03
-1.590813e-07,-2.500000e-02
-1.510813e-07,1.500000e-02
-1.430813e-07,-3.125000e-02
-1.350813e-07,2.500000e-02
-1.270813e-07,-2.500000e-03
-1.190813e-07,1.250000e-02
-1.110813e-07,-1.375000e-02
-1.030813e-07,8.750000e-03
-9.508125e-08,-7.500000e-03
-8.708125e-08,1.000000e-02
-7.908125e-08,-1.125000e-02
-7.108125e-08,2.375000e-02
-6.308125e-08,-6.250000e-03
-5.508125e-08,1.125000e-02
-4.708125e-08,-1.500000e-02
-3.908125e-08,2.000000e-02
-3.108125e-08,-3.250000e-02
-2.308125e-08,3.125000e-02
-1.508125e-08,0.000000e+00
-7.081250e-09,1.250000e-02
9.187500e-10,-7.287500e-01
8.918750e-09,-1.397500e+00
1.691875e-08,-1.422500e+00
2.491875e-08,-1.443750e+00
3.291875e-08,-6.125000e-02
4.091875e-08,8.750000e-03
4.891875e-08,1.875000e-02
5.691875e-08,1.750000e-02
6.491875e-08,-8.750000e-03
7.291875e-08,2.000000e-02
8.091875e-08,-2.625000e-02
8.891875e-08,1.750000e-02
9.691875e-08,-3.375000e-02
1.049187e-07,1.625000e-02
1.129187e-07,-1.625000e-02
1.209187e-07,2.375000e-02
1.289187e-07,-2.500000e-02
1.369187e-07,2.125000e-02
1.449187e-07,-1.000000e-02
1.529187e-07,1.625000e-02
1.609187e-07,-4.625000e-02
1.689187e-07,-8.750000e-03
1.769187e-07,-2.500000e-02
1.849187e-07,1.500000e-02
1.929187e-07,-3.875000e-02
2.009187e-07,1.375000e-02
2.089187e-07,0.000000e+00
2.169187e-07,1.500000e-02
2.249187e-07,-4.625000e-02
2.329187e-07,2.000000e-02
2.409187e-07,-6.250000e-03
2.489187e-07,1.750000e-02
2.569187e-07,-4.375000e-02
2.649187e-07,7.500000e-03
2.729187e-07,-1.000000e-02
2.809187e-07,1.375000e-02
2.889187e-07,-1.250000e-02
2.969187e-07,7.500000e-03
3.049187e-07,-1.875000e-02
3.129187e-07,5.000000e-03
3.209187e-07,-5.000000e-03
3.289187e-07,-6.250000e-03
3.369187e-07,-2.500000e-03
3.449187e-07,0.000000e+00
3.529187e-07,-3.625000e-02
3.609187e-07,1.875000e-02
3.689187e-07,-2.375000e-02
3.769187e-07,3.000000e-02
3.849187e-07,-6.250000e-03
3.929187e-07,1.875000e-02
4.009187e-07,-1.750000e-02
4.089187e-07,-1.250000e-03
4.169187e-07,-1.125000e-02
4.249187e-07,1.625000e-02
4.329187e-07,1.000000e-02
4.409187e-07,2.000000e-02
4.489187e-07,-1.250000e-02
4.569187e-07,7.500000e-03
4.649187e-07,-2.500000e-03
4.729187e-07,1.125000e-02
4.809187e-07,-2.125000e-02
4.889187e-07,3.125000e-02
4.969187e-07,-7.500000e-03
5.049187e-07,2.000000e-02
5.129187e-07,-1.500000e-02
5.209187e-07,6.250000e-03
5.289187e-07,-8.750000e-03
5.369187e-07,2.000000e-02
5.449187e-07,-2.250000e-02
5.529187e-07,1.125000e-02
5.609187e-07,-2.500000e-03
5.689187e-07,1.625000e-02
5.769187e-07,-1.250000e-03
5.849187e-07,2.375000e-02
5.929187e-07,-3.750000e-03
6.009187e-07,3.625000e-02
6.089187e-07,-2.250000e-02
6.169187e-07,-1.250000e-03
6.249187e-07,-2.000000e-02
6.329187e-07,1.250000e-02
6.409187e-07,-5.000000e-03
6.489187e-07,3.625000e-02
6.569187e-07,-1.000000e-02
6.649187e-07,2.250000e-02
6.729187e-07,-2.125000e-02
6.809187e-07,2.500000e-03
6.889187e-07,-1.125000e-02
6.969187e-07,3.750000e-03
7.049187e-07,-1.000000e-02
7.129187e-07,-7.500000e-03
7.209187e-07,-3.125000e-02
7.289187e-07,-8.750000e-03
7.369187e-07,-5.125000e-02
7.449187e-07,1.125000e-02
7.529187e-07,-1.875000e-02
7.609187e-07,2.750000e-02
7.689187e-07,-1.125000e-02
7.769187e-07,7.500000e-03
7.849187e-07,-3.750000e-03
7.929187e-07,2.500000e-03
