run1/run1_ch1_20210318180206305.csv

Model,MSO64
Waveform Type,ANALOG
Horizontal Units,s
Sample Interval,8.000000e-09
Record Length,1250
Zero Index,624.207656
Vertical Units,V

TIME,CH1
-4.993661e-06,-1.500000e-02
-4.985661e-06,7.500000e-03
-4.977661e-06,-1.375000e-02
-4.969661e-06,2.750000e-02
-4.961661e-06,-7.500000e-03
-4.953661e-06,3.750000e-03
-4.945661e-06,-1.875000e-02
-4.937661e-06,6.250000e-03
-4.929661e-06,-1.250000e-03
-4.921661e-06,1.125000e-02
-4.913661e-06,-5.000000e-03
-4.905661e-06,2.000000e-02
-4.897661e-06,-1.875000e-02
-4.889661e-06,1.500000e-02
-4.881661e-06,1.125000e-02
-4.873661e-06,3.250000e-02
-4.865661e-06,-4.000000e-02
-4.857661e-06,1.000000e-02
-4.849661e-06,5.000000e-03
-4.841661e-06,3.125000e-02
-4.833661e-06,-1.000000e-02
-4.825661e-06,1.875000e-02
-4.817661e-06,-2.000000e-02
-4.809661e-06,8.750000e-03
-4.801661e-06,8.750000e-03
-4.793661e-06,1.625000e-02
-4.785661e-06,5.000000e-03
-4.777661e-06,8.750000e-03
-4.769661e-06,-1.250000e-03
-4.761661e-06,1.250000e-03
-4.753661e-06,0.000000e+00
-4.745661e-06,3.125000e-02
-4.737661e-06,-1.000000e-02
-4.729661e-06,1.125000e-02
-4.721661e-06,-2.500000e-02
-4.713661e-06,2.000000e-02
-4.705661e-06,-6.250000e-03
-4.697661e-06,3.750000e-03
-4.689661e-06,-2.625000e-02
-4.681661e-06,8.750000e-03
-4.673661e-06,-1.000000e-02
-4.665661e-06,1.500000e-02
-4.657661e-06,5.000000e-03
-4.649661e-06,1.625000e-02
-4.641661e-06,-4.125000e-02
-4.633661e-06,-1.250000e-03
-4.625661e-06,0.000000e+00
-4.617661e-06,3.125000e-02
-4.609661e-06,-1.000000e-02
-4.601661e-06,5.000000e-03
-4.593661e-06,-2.000000e-02
-4.585661e-06,3.625000e-02
-4.577661e-06,8.750000e-03
-4.569661e-06,1.125000e-02
-4.561661e-06,-3.250000e-02
-4.553661e-06,3.250000e-02
-4.545661e-06,-1.000000e-02
-4.537661e-06,6.250000e-03
-4.529661e-06,-1.500000e-02
-4.521661e-06,2.250000e-02
-4.513661e-06,2.500000e-03
-4.505661e-06,1.875000e-02
-4.497661e-06,-2.125000e-02
-4.489661e-06,1.875000e-02
-4.481661e-06,1.250000e-03
-4.473661e-06,1.625000e-02
-4.465661e-06,-2.250000e-02
-4.457661e-06,6.250000e-03
-4.449661e-06,-3.125000e-02
-4.441661e-06,2.625000e-02
-4.433661e-06,-2.500000e-03
-4.425661e-06,2.500000e-02
-4.417661e-06,-2.375000e-02
-4.409661e-06,1.125000e-02
-4.401661e-06,-1.125000e-02
-4.393661e-06,2.750000e-02
-4.385661e-06,-5.000000e-03
-4.377661e-06,4.250000e-02
-4.369661e-06,-1.500000e-02
-4.361661e-06,1.500000e-02
-4.353661e-06,-2.750000e-02
-4.345661e-06,2.375000e-02
-4.337661e-06,-2.125000e-02
-4.329661e-06,2.000000e-02
-4.321661e-06,-1.500000e-02
-4.313661e-06,-5.000000e-03
-4.305661e-06,-2.000000e-02
-4.297661e-06,1.000000e-02
-4.289661e-06,-1.625000e-02
-4.281661e-06,1.000000e-02
-4.273661e-06,1.000000e-02
-4.265661e-06,2.125000e-02
-4.257661e-06,1.000000e-02
-4.249661e-06,2.000000e-02
-4.241661e-06,-7.500000e-03
-4.233661e-06,2.500000e-03
-4.225661e-06,-1.375000e-02
-4.217661e-06,3.750000e-02
-4.209661e-06,-2.250000e-02
-4.201661e-06,2.875000e-02
-4.193661e-06,-2.250000e-02
-4.185661e-06,2.250000e-02
-4.177661e-06,-2.000000e-02
-4.169661e-06,2.000000e-02
-4.161661e-06,1.250000e-03
-4.153661e-06,-1.250000e-02
-4.145661e-06,1.625000e-02
-4.137661e-06,7.500000e-03
-4.129661e-06,-1.000000e-02
-4.121661e-06,2.500000e-02
-4.113661e-06,-1.125000e-02
-4.105661e-06,2.750000e-02
-4.097661e-06,-1.250000e-03
-4.089661e-06,1.250000e-03
-4.081661e-06,-1.875000e-02
-4.073661e-06,1.875000e-02
-4.065661e-06,-1.000000e-02
-4.057661e-06,1.625000e-02
-4.049661e-06,-1.125000e-02
-4.041661e-06,2.500000e-02
-4.033661e-06,-6.625000e-02
-4.025661e-06,1.250000e-02
-4.017661e-06,-1.125000e-02
-4.009661e-06,1.250000e-02
-4.001661e-06,-3.625000e-02
-3.993661e-06,3.125000e-02
-3.985661e-06,-7.500000e-03
-3.977661e-06,2.625000e-02
-3.969661e-06,-2.125000e-02
-3.961661e-06,2.125000e-02
-3.953661e-06,-1.625000e-02
-3.945661e-06,2.375000e-02
-3.937661e-06,-5.000000e-03
-3.929661e-06,3.750000e-03
-3.921661e-06,-2.375000e-02
-3.913661e-06,5.000000e-03
-3.905661e-06,-3.250000e-02
-3.897661e-06,1.500000e-02
-3.889661e-06,-1.250000e-03
-3.881661e-06,1.500000e-02
-3.873661e-06,-3.750000e-03
-3.865661e-06,2.750000e-02
-3.857661e-06,-1.625000e-02
-3.849661e-06,1.875000e-02
-3.841661e-06,-2.250000e-02
-3.833661e-06,1.375000e-02
-3.825661e-06,-1.625000e-02
-3.817661e-06,1.625000e-02
-3.809661e-06,-1.625000e-02
-3.801661e-06,2.500000e-03
-3.793661e-06,-2.625000e-02
-3.785661e-06,-2.500000e-03
-3.777661e-06,-1.500000e-02
-3.769661e-06,8.750000e-03
-3.761661e-06,-1.125000e-02
-3.753661e-06,3.875000e-02
-3.745661e-06,8.750000e-03
-3.737661e-06,1.125000e-02
-3.729661e-06,0.000000e+00
-3.721661e-06,1.500000e-02
-3.713661e-06,-2.125000e-02
-3.705661e-06,1.250000e-02
-3.697661e-06,-2.250000e-02
-3.689661e-06,7.500000e-03
-3.681661e-06,-1.500000e-02
-3.673661e-06,2.125000e-02
-3.665661e-06,-5.000000e-03
-3.657661e-06,-2.500000e-03
-3.649661e-06,-1.500000e-02
-3.641661e-06,2.375000e-02
-3.633661e-06,-8.750000e-03
-3.625661e-06,2.000000e-02
-3.617661e-06,-1.250000e-02
-3.609661e-06,-5.000000e-03
-3.601661e-06,-2.500000e-03
-3.593661e-06,8.750000e-03
-3.585661e-06,-2.875000e-02
-3.577661e-06,-2.500000e-03
-3.569661e-06,-2.000000e-02
-3.561661e-06,3.875000e-02
-3.553661e-06,-2.625000e-02
-3.545661e-06,2.250000e-02
-3.537661e-06,-1.375000e-02
-3.529661e-06,2.500000e-02
-3.521661e-06,0.000000e+00
-3.513661e-06,1.625000e-02
-3.505661e-06,-7.500000e-03
-3.497661e-06,2.500000e-02
-3.489661e-06,-2.875000e-02
-3.481661e-06,-2.500000e-03
-3.473661e-06,-2.125000e-02
-3.465661e-06,1.875000e-02
-3.457661e-06,-2.750000e-02
-3.449661e-06,3.000000e-02
-3.441661e-06,-3.125000e-02
-3.433661e-06,7.500000e-03
-3.425661e-06,-5.000000e-03
-3.417661e-06,3.875000e-02
-3.409661e-06,-1.000000e-02
-3.401661e-06,2.000000e-02
-3.393661e-06,3.750000e-03
-3.385661e-06,2.500000e-02
-3.377661e-06,-2.000000e-02
-3.369661e-06,3.750000e-03
-3.361661e-06,-1.000000e-02
-3.353661e-06,1.750000e-02
-3.345661e-06,1.000000e-02
-3.337661e-06,1.500000e-02
-3.329661e-06,2.250000e-02
-3.321661e-06,0.000000e+00
-3.313661e-06,-1.500000e-02
-3.305661e-06,2.375000e-02
-3.297661e-06,-1.625000e-02
-3.289661e-06,1.500000e-02
-3.281661e-06,-3.125000e-02
-3.273661e-06,6.250000e-03
-3.265661e-06,-2.250000e-02
-3.257661e-06,-3.750000e-03
-3.249661e-06,-5.000000e-03
-3.241661e-06,2.125000e-02
-3.233661e-06,1.250000e-02
-3.225661e-06,1.625000e-02
-3.217661e-06,-5.000000e-03
-3.209661e-06,4.250000e-02
-3.201661e-06,-3.125000e-02
-3.193661e-06,8.750000e-03
-3.185661e-06,1.250000e-03
-3.177661e-06,2.875000e-02
-3.169661e-06,-1.500000e-02
-3.161661e-06,-7.500000e-03
-3.153661e-06,-1.625000e-02
-3.145661e-06,1.875000e-02
-3.137661e-06,-1.625000e-02
-3.129661e-06,1.125000e-02
-3.121661e-06,-1.250000e-02
-3.113661e-06,5.000000e-03
-3.105661e-06,-2.125000e-02
-3.097661e-06,3.000000e-02
-3.089661e-06,-2.500000e-02
-3.081661e-06,3.125000e-02
-3.073661e-06,-2.250000e-02
-3.065661e-06,2.375000e-02
-3.057661e-06,-7.500000e-03
-3.049661e-06,8.750000e-03
-3.041661e-06,-2.250000e-02
-3.033661e-06,2.500000e-03
-3.025661e-06,-2.000000e-02
-3.017661e-06,2.500000e-03
-3.009661e-06,-3.750000e-03
-3.001661e-06,2.500000e-02
-2.993661e-06,-2.500000e-03
-2.985661e-06,2.125000e-02
-2.977661e-06,1.250000e-03
-2.969661e-06,1.875000e-02
-2.961661e-06,-1.500000e-02
-2.953661e-06,-1.250000e-02
-2.945661e-06,-3.500000e-02
-2.937661e-06,1.000000e-02
-2.929661e-06,-8.750000e-03
-2.921661e-06,1.500000e-02
-2.913661e-06,-2.250000e-02
-2.905661e-06,2.500000e-03
-2.897661e-06,-1.500000e-02
-2.889661e-06,1.750000e-02
-2.881661e-06,-1.500000e-02
-2.873661e-06,2.125000e-02
-2.865661e-06,-2.500000e-03
-2.857661e-06,-6.250000e-03
-2.849661e-06,8.750000e-03
-2.841661e-06,2.875000e-02
-2.833661e-06,-3.750000e-03
-2.825661e-06,1.125000e-02
-2.817661e-06,-2.875000e-02
-2.809661e-06,2.125000e-02
-2.801661e-06,-2.500000e-02
-2.793661e-06,1.625000e-02
-2.785661e-06,-6.250000e-03
-2.777661e-06,6.250000e-03
-2.769661e-06,-1.250000e-03
-2.761661e-06,1.500000e-02
-2.753661e-06,-2.375000e-02
-2.745661e-06,1.250000e-02
-2.737661e-06,3.750000e-03
-2.729661e-06,1.625000e-02
-2.721661e-06,-5.000000e-03
-2.713661e-06,1.000000e-02
-2.705661e-06,-3.000000e-02
-2.697661e-06,2.250000e-02
-2.689661e-06,-2.750000e-02
-2.681661e-06,1.500000e-02
-2.673661e-06,-2.875000e-02
-2.665661e-06,2.125000e-02
-2.657661e-06,-1.375000e-02
-2.649661e-06,2.250000e-02
-2.641661e-06,1.250000e-03
-2.633661e-06,1.000000e-02
-2.625661e-06,-6.250000e-03
-2.617661e-06,2.375000e-02
-2.609661e-06,1.250000e-03
-2.601661e-06,3.750000e-02
-2.593661e-06,-1.750000e-02
-2.585661e-06,7.500000e-03
-2.577661e-06,-2.500000e-03
-2.569661e-06,2.750000e-02
-2.561661e-06,-1.000000e-02
-2.553661e-06,3.250000e-02
-2.545661e-06,-5.000000e-02
-2.537661e-06,2.875000e-02
-2.529661e-06,-1.000000e-02
-2.521661e-06,1.250000e-03
-2.513661e-06,-6.250000e-03
-2.505661e-06,0.000000e+00
-2.497661e-06,-1.250000e-02
-2.489661e-06,2.125000e-02
-2.481661e-06,-1.625000e-02
-2.473661e-06,-1.250000e-03
-2.465661e-06,-1.125000e-02
-2.457661e-06,2.500000e-03
-2.449661e-06,-7.500000e-03
-2.441661e-06,2.000000e-02
-2.433661e-06,-6.250000e-03
-2.425661e-06,1.625000e-02
-2.417661e-06,-3.750000e-03
-2.409661e-06,4.125000e-02
-2.401661e-06,-5.000000e-03
-2.393661e-06,2.375000e-02
-2.385661e-06,-2.125000e-02
-2.377661e-06,1.750000e-02
-2.369661e-06,-2.500000e-03
-2.361661e-06,1.750000e-02
-2.353661e-06,-1.375000e-02
-2.345661e-06,6.250000e-03
-2.337661e-06,-2.500000e-03
-2.329661e-06,0.000000e+00
-2.321661e-06,-2.250000e-02
-2.313661e-06,1.500000e-02
-2.305661e-06,-2.375000e-02
-2.297661e-06,3.000000e-02
-2.289661e-06,-2.625000e-02
-2.281661e-06,1.375000e-02
-2.273661e-06,-5.000000e-03
-2.265661e-06,1.875000e-02
-2.257661e-06,-2.125000e-02
-2.249661e-06,-3.750000e-03
-2.241661e-06,-1.375000e-02
-2.233661e-06,1.500000e-02
-2.225661e-06,-5.000000e-03
-2.217661e-06,3.750000e-03
-2.209661e-06,0.000000e+00
-2.201661e-06,3.250000e-02
-2.193661e-06,-2.000000e-02
-2.185661e-06,3.250000e-02
-2.177661e-06,-1.000000e-02
-2.169661e-06,2.750000e-02
-2.161661e-06,-2.375000e-02
-2.153661e-06,1.375000e-02
-2.145661e-06,1.250000e-03
-2.137661e-06,2.500000e-03
-2.129661e-06,-6.250000e-03
-2.121661e-06,1.750000e-02
-2.113661e-06,-2.000000e-02
-2.105661e-06,1.375000e-02
-2.097661e-06,2.500000e-03
-2.089661e-06,2.125000e-02
-2.081661e-06,-7.500000e-03
-2.073661e-06,1.500000e-02
-2.065661e-06,-1.000000e-02
-2.057661e-06,-1.250000e-02
-2.049661e-06,-1.750000e-02
-2.041661e-06,2.375000e-02
-2.033661e-06,-2.125000e-02
-2.025661e-06,3.250000e-02
-2.017661e-06,-1.500000e-02
-2.009661e-06,1.750000e-02
-2.001661e-06,-1.000000e-02
-1.993661e-06,1.625000e-02
-1.985661e-06,-8.750000e-03
-1.977661e-06,2.000000e-02
-1.969661e-06,-6.250000e-03
-1.961661e-06,-1.125000e-02
-1.953661e-06,2.500000e-03
-1.945661e-06,4.250000e-02
-1.937661e-06,-2.250000e-02
-1.929661e-06,1.750000e-02
-1.921661e-06,-3.125000e-02
-1.913661e-06,7.500000e-03
-1.905661e-06,-2.375000e-02
-1.897661e-06,1.875000e-02
-1.889661e-06,-8.750000e-03
-1.881661e-06,0.000000e+00
-1.873661e-06,-7.500000e-03
-1.865661e-06,1.375000e-02
-1.857661e-06,-1.500000e-02
-1.849661e-06,2.625000e-02
-1.841661e-06,-5.000000e-03
-1.833661e-06,2.750000e-02
-1.825661e-06,2.500000e-03
-1.817661e-06,1.250000e-02
-1.809661e-06,-3.750000e-03
-1.801661e-06,1.625000e-02
-1.793661e-06,-2.000000e-02
-1.785661e-06,2.000000e-02
-1.777661e-06,-3.125000e-02
-1.769661e-06,1.875000e-02
-1.761661e-06,-8.750000e-03
-1.753661e-06,2.250000e-02
-1.745661e-06,-2.250000e-02
-1.737661e-06,2.250000e-02
-1.729661e-06,-1.125000e-02
-1.721661e-06,5.000000e-03
-1.713661e-06,-3.750000e-03
-1.705661e-06,2.625000e-02
-1.697661e-06,-1.875000e-02
-1.689661e-06,7.500000e-03
-1.681661e-06,1.750000e-02
-1.673661e-06,1.875000e-02
-1.665661e-06,-2.125000e-02
-1.657661e-06,3.125000e-02
-1.649661e-06,-2.875000e-02
-1.641661e-06,1.375000e-02
-1.633661e-06,-1.250000e-02
-1.625661e-06,2.625000e-02
-1.617661e-06,-2.250000e-02
-1.609661e-06,1.000000e-02
-1.601661e-06,-1.125000e-02
-1.593661e-06,1.625000e-02
-1.585661e-06,7.500000e-03
-1.577661e-06,3.125000e-02
-1.569661e-06,-3.750000e-03
-1.561661e-06,5.000000e-03
-1.553661e-06,-3.000000e-02
-1.545661e-06,1.375000e-02
-1.537661e-06,-2.125000e-02
-1.529661e-06,1.750000e-02
-1.521661e-06,-1.625000e-02
-1.513661e-06,3.250000e-02
-1.505661e-06,-3.500000e-02
-1.497661e-06,1.500000e-02
-1.489661e-06,-1.125000e-02
-1.481661e-06,1.375000e-02
-1.473661e-06,-6.250000e-03
-1.465661e-06,1.500000e-02
-1.457661e-06,-2.875000e-02
-1.449661e-06,1.625000e-02
-1.441661e-06,-1.500000e-02
-1.433661e-06,3.500000e-02
-1.425661e-06,-2.375000e-02
-1.417661e-06,3.250000e-02
-1.409661e-06,-1.125000e-02
-1.401661e-06,-8.750000e-03
-1.393661e-06,-2.750000e-02
-1.385661e-06,2.375000e-02
-1.377661e-06,-1.875000e-02
-1.369661e-06,6.250000e-03
-1.361661e-06,-2.375000e-02
-1.353661e-06,6.250000e-03
-1.345661e-06,7.500000e-03
-1.337661e-06,3.750000e-03
-1.329661e-06,-3.750000e-03
-1.321661e-06,2.375000e-02
-1.313661e-06,7.500000e-03
-1.305661e-06,1.500000e-02
-1.297661e-06,-1.750000e-02
-1.289661e-06,2.000000e-02
-1.281661e-06,-4.125000e-02
-1.273661e-06,5.000000e-03
-1.265661e-06,-2.250000e-02
-1.257661e-06,1.625000e-02
-1.249661e-06,-1.000000e-02
-1.241661e-06,2.500000e-03
-1.233661e-06,1.250000e-03
-1.225661e-06,2.875000e-02
-1.217661e-06,1.250000e-03
-1.209661e-06,8.750000e-03
-1.201661e-06,-5.000000e-03
-1.193661e-06,2.125000e-02
-1.185661e-06,5.000000e-03
-1.177661e-06,2.250000e-02
-1.169661e-06,1.250000e-03
-1.161661e-06,6.250000e-03
-1.153661e-06,-1.625000e-02
-1.145661e-06,-5.000000e-03
-1.137661e-06,-2.125000e-02
-1.129661e-06,2.125000e-02
-1.121661e-06,-2.000000e-02
-1.113661e-06,7.500000e-03
-1.105661e-06,0.000000e+00
-1.097661e-06,6.250000e-03
-1.089661e-06,-2.000000e-02
-1.081661e-06,6.250000e-03
-1.073661e-06,-3.750000e-03
-1.065661e-06,3.125000e-02
-1.057661e-06,2.000000e-02
-1.049661e-06,8.750000e-03
-1.041661e-06,1.125000e-02
-1.033661e-06,1.500000e-02
-1.025661e-06,-2.500000e-02
-1.017661e-06,8.750000e-03
-1.009661e-06,-2.750000e-02
-1.001661e-06,2.500000e-02
-9.936613e-07,-3.125000e-02
-9.856613e-07,1.375000e-02
-9.776613e-07,-2.875000e-02
-9.696613e-07,2.750000e-02
-9.616613e-07,-2.375000e-02
-9.536613e-07,3.000000e-02
-9.456613e-07,0.000000e+00
-9.376613e-07,2.750000e-02
-9.296613e-07,1.250000e-03
-9.216613e-07,1.875000e-02
-9.136613e-07,-6.250000e-03
-9.056613e-07,3.125000e-02
-8.976613e-07,-2.500000e-02
-8.896613e-07,2.750000e-02
-8.816613e-07,-1.875000e-02
-8.736613e-07,1.250000e-02
-8.656613e-07,1.250000e-03
-8.576613e-07,1.000000e-02
-8.496613e-07,6.250000e-03
-8.416613e-07,-5.000000e-03
-8.336613e-07,-1.500000e-02
-8.256613e-07,3.000000e-02
-8.176613e-07,5.000000e-03
-8.096613e-07,1.625000e-02
-8.016613e-07,-8.750000e-03
-7.936613e-07,1.000000e-02
-7.856613e-07,-2.375000e-02
-7.776613e-07,6.250000e-03
-7.696613e-07,-2.375000e-02
-7.616613e-07,1.250000e-02
-7.536613e-07,-1.625000e-02
-7.456613e-07,2.250000e-02
-7.376613e-07,-3.750000e-03
-7.296613e-07,6.250000e-03
-7.216613e-07,-2.875000e-02
-7.136613e-07,0.000000e+00
-7.056613e-07,-1.750000e-02
-6.976613e-07,2.250000e-02
-6.896613e-07,-1.000000e-02
-6.816613e-07,1.500000e-02
-6.736613e-07,-2.000000e-02
-6.656613e-07,1.500000e-02
-6.576613e-07,-1.625000e-02
-6.496613e-07,2.125000e-02
-6.416613e-07,-3.500000e-02
-6.336613e-07,1.750000e-02
-6.256613e-07,8.750000e-03
-6.176613e-07,1.125000e-02
-6.096613e-07,-1.750000e-02
-6.016613e-07,1.000000e-02
-5.936613e-07,0.000000e+00
-5.856613e-07,1.750000e-02
-5.776613e-07,-3.375000e-02
-5.696613e-07,6.250000e-03
-5.616613e-07,-1.250000e-03
-5.536613e-07,3.750000e-02
-5.456613e-07,-2.250000e-02
-5.376613e-07,5.000000e-03
-5.296613e-07,-2.250000e-02
-5.216613e-07,3.375000e-02
-5.136613e-07,-2.750000e-02
-5.056613e-07,1.250000e-03
-4.976613e-07,-1.250000e-02
-4.896613e-07,2.000000e-02
-4.816613e-07,-2.750000e-02
-4.736613e-07,1.500000e-02
-4.656613e-07,-6.250000e-03
-4.576613e-07,4.000000e-02
-4.496613e-07,-1.750000e-02
-4.416613e-07,8.750000e-03
-4.336613e-07,-2.000000e-02
-4.256613e-07,3.125000e-02
-4.176613e-07,-1.250000e-02
-4.096613e-07,3.125000e-02
-4.016613e-07,5.000000e-03
-3.936613e-07,-5.000000e-03
-3.856613e-07,-3.625000e-02
-3.776613e-07,1.000000e-02
-3.696613e-07,-6.250000e-03
-3.616613e-07,1.375000e-02
-3.536613e-07,0.000000e+00
-3.456613e-07,2.250000e-02
-3.376613e-07,-1.500000e-02
-3.296613e-07,3.375000e-02
-3.216613e-07,-2.500000e-02
-3.136613e-07,8.750000e-03
-3.056613e-07,-1.000000e-02
-2.976613e-07,1.250000e-02
-2.896613e-07,5.000000e-03
-2.816613e-07,3.750000e-03
-2.736613e-07,-1.750000e-02
-2.656613e-07,6.250000e-03
-2.576613e-07,-3.250000e-02
-2.496613e-07,1.500000e-02
-2.416613e-07,-1.250000e-02
-2.336613e-07,3.375000e-02
-2.256613e-07,-2.250000e-02
-2.176613e-07,3.750000e-03
-2.096613e-07,-2.250000e-02
-2.016613e-07,2.000000e-02
-1.936613e-07,-1.875000e-02
-1.856613e-07,-6.250000e-03
-1.776613e-07,-1.875000e-02
-1.696613e-07,2.375000e-02
-1.616613e-07,-1.250000e-02
-1.536613e-07,1.375000e-02
-1.456613e-07,-1.625000e-02
-1.376613e-07,2.875000e-02
-1.296613e-07,-1.875000e-02
-1.216613e-07,2.750000e-02
-1.136613e-07,-1.875000e-02
-1.056613e-07,3.000000e-02
-9.766125e-08,-2.250000e-02
-8.966125e-08,1.125000e-02
-8.166125e-08,5.000000e-03
-7.366125e-08,1.375000e-02
-6.566125e-08,-1.750000e-02
-5.766125e-08,1.125000e-02
-4.966125e-08,1.250000e-03
-4.166125e-08,4.500000e-02
-3.366125e-08,-1.122500e+00
-2.566125e-08,-1.405000e+00
-1.766125e-08,-1.440000e+00
-9.661250e-09,-1.402500e+00
-1.661250e-09,-3.250000e-02
6.338750e-09,-3.750000e-03
1.433875e-08,5.000000e-03
2.233875e-08,3.250000e-02
3.033875e-08,1.250000e-03
3.833875e-08,1.875000e-02
4.633875e-08,-1.375000e-02
5.433875e-08,-1.250000e-03
6.233875e-08,6.250000e-03
7.033875e-08,1.000000e-02
7.833875e-08,-6.250000e-03
8.633875e-08,1.000000e-02
9.433875e-08,-1.625000e-02
1.023387e-07,1.375000e-02
1.103387e-07,-8.750000e-03
1.183387e-07,3.500000e-02
1.263387e-07,-3.375000e-02
1.343387e-07,3.375000e-02
1.423387e-07,-3.875000e-02
1.503387e-07,1.875000e-02
1.583387e-07,0.000000e+00
1.663387e-07,1.000000e-02
1.743387e-07,-1.250000e-03
1.823387e-07,3.750000e-03
1.903387e-07,-1.250000e-02
1.983387e-07,2.000000e-02
2.063387e-07,-2.500000e-03
2.143387e-07,2.625000e-02
2.223387e-07,-2.500000e-03
2.303387e-07,1.500000e-02
2.383387e-07,2.500000e-03
2.463387e-07,1.500000e-02
2.543387e-07,-4.125000e-02
2.623387e-07,1.625000e-02
2.703387e-07,-4.000000e-02
2.783387e-07,1.750000e-02
2.863387e-07,-1.500000e-02
2.943387e-07,7.500000e-03
3.023387e-07,-1.500000e-02
3.103387e-07,3.125000e-02
3.183387e-07,0.000000e+00
3.263387e-07,1.500000e-02
3.343387e-07,1.250000e-02
3.423387e-07,3.000000e-02
3.503387e-07,3.750000e-03
3.583387e-07,-1.250000e-03
3.663387e-07,5.000000e-03
3.743387e-07,1.375000e-02
3.823387e-07,-1.625000e-02
3.903387e-07,3.375000e-02
3.983387e-07,-8.750000e-03
4.063387e-07,2.500000e-03
4.143387e-07,-3.250000e-02
4.223387e-07,1.375000e-02
4.303387e-07,-2.375000e-02
4.383387e-07,5.000000e-03
4.463387e-07,-3.125000e-02
4.543387e-07,1.875000e-02
4.623387e-07,-1.125000e-02
4.703387e-07,1.875000e-02
4.783387e-07,5.000000e-03
4.863387e-07,-7.500000e-03
4.943387e-07,-8.750000e-03
5.023387e-07,1.500000e-02
5.103387e-07,-1.500000e-02
5.183387e-07,5.000000e-03
5.263387e-07,-2.125000e-02
5.343387e-07,2.750000e-02
5.423387e-07,-1.125000e-02
5.503387e-07,1.875000e-02
5.583387e-07,-8.750000e-03
5.663387e-07,-7.500000e-03
5.743387e-07,-1.750000e-02
5.823387e-07,8.750000e-03
5.903387e-07,-1.750000e-02
5.983387e-07,8.750000e-03
6.063387e-07,-1.750000e-02
6.143387e-07,5.000000e-03
6.223387e-07,1.500000e-02
6.303387e-07,-1.250000e-03
6.383387e-07,-2.125000e-02
6.463387e-07,2.375000e-02
6.543387e-07,-3.875000e-02
6.623387e-07,3.000000e-02
6.703387e-07,-3.500000e-02
6.783387e-07,1.000000e-02
6.863387e-07,7.500000e-03
6.943387e-07,1.375000e-02
7.023387e-07,-1.375000e-02
7.103387e-07,2.000000e-02
7.183387e-07,-1.000000e-02
7.263387e-07,1.375000e-02
7.343387e-07,-6.250000e-03
7.423387e-07,1.125000e-02
7.503387e-07,-2.250000e-02
7.583387e-07,2.000000e-02
7.663387e-07,-1.625000e-02
7.743387e-07,2.500000e-02
7.823387e-07,-3.375000e-02
7.903387e-07,3.250000e-02
7.983387e-07,-1.250000e-02
8.063387e-07,1.500000e-02
