run1/run1_ch1_20210318180310937.csv

Model,MSO64
Waveform Type,ANALOG
Horizontal Units,s
Sample Interval,8.000000e-09
Record Length,1250
Zero Index,624.715156
Vertical Units,V

TIME,CH1
-4.997721e-06,-3.500000e-02
-4.989721e-06,2.250000e-02
-4.981721e-06,-1.375000e-02
-4.973721e-06,3.500000e-02
-4.965721e-06,-5.000000e-03
-4.957721e-06,1.250000e-02
-4.949721e-06,1.000000e-02
-4.941721e-06,2.750000e-02
-4.933721e-06,-2.375000e-02
-4.925721e-06,1.125000e-02
-4.917721e-06,-1.750000e-02
-4.909721e-06,1.875000e-02
-4.901721e-06,-4.375000e-02
-4.893721e-06,1.625000e-02
-4.885721e-06,-3.250000e-02
-4.877721e-06,5.000000e-03
-4.869721e-06,-1.875000e-02
-4.861721e-06,1.500000e-02
-4.853721e-06,-2.000000e-02
-4.845721e-06,2.625000e-02
-4.837721e-06,-2.750000e-02
-4.829721e-06,2.625000e-02
-4.821721e-06,-2.375000e-02
-4.813721e-06,1.375000e-02
-4.805721e-06,-5.000000e-03
-4.797721e-06,7.500000e-03
-4.789721e-06,-2.875000e-02
-4.781721e-06,4.250000e-02
-4.773721e-06,-5.125000e-02
-4.765721e-06,1.750000e-02
-4.757721e-06,-3.375000e-02
-4.749721e-06,3.000000e-02
-4.741721e-06,-2.250000e-02
-4.733721e-06,3.500000e-02
-4.725721e-06,-2.375000e-02
-4.717721e-06,3.500000e-02
-4.709721e-06,-7.500000e-03
-4.701721e-06,2.125000e-02
-4.693721e-06,-8.750000e-03
-4.685721e-06,2.750000e-02
-4.677721e-06,1.000000e-02
-4.669721e-06,1.500000e-02
-4.661721e-06,-2.125000e-02
-4.653721e-06,1.125000e-02
-4.645721e-06,-7.500000e-03
-4.637721e-06,8.750000e-03
-4.629721e-06,-7.500000e-03
-4.621721e-06,6.250000e-03
-4.613721e-06,-1.875000e-02
-4.605721e-06,1.250000e-03
-4.597721e-06,-3.750000e-03
-4.589721e-06,1.500000e-02
-4.581721e-06,8.750000e-03
-4.573721e-06,3.375000e-02
-4.565721e-06,3.750000e-03
-4.557721e-06,2.125000e-02
-4.549721e-06,-1.000000e-02
-4.541721e-06,1.875000e-02
-4.533721e-06,1.625000e-02
-4.525721e-06,2.750000e-02
-4.517721e-06,-1.375000e-02
-4.509721e-06,3.500000e-02
-4.501721e-06,-2.875000e-02
-4.493721e-06,2.875000e-02
-4.485721e-06,-3.750000e-03
-4.477721e-06,2.125000e-02
-4.469721e-06,-1.750000e-02
-4.461721e-06,3.250000e-02
-4.453721e-06,-1.625000e-02
-4.445721e-06,5.000000e-03
-4.437721e-06,-5.000000e-03
-4.429721e-06,2.000000e-02
-4.421721e-06,1.375000e-02
-4.413721e-06,-1.250000e-03
-4.405721e-06,-1.125000e-02
-4.397721e-06,2.500000e-02
-4.389721e-06,-1.875000e-02
-4.381721e-06,2.750000e-02
-4.373721e-06,-3.250000e-02
-4.365721e-06,6.250000e-03
-4.357721e-06,6.250000e-03
-4.349721e-06,3.875000e-02
-4.341721e-06,6.250000e-03
-4.333721e-06,3.625000e-02
-4.325721e-06,-2.625000e-02
-4.317721e-06,3.500000e-02
-4.309721e-06,-8.750000e-03
-4.301721e-06,2.000000e-02
-4.293721e-06,-2.375000e-02
-4.285721e-06,2.125000e-02
-4.277721e-06,5.000000e-03
-4.269721e-06,2.250000e-02
-4.261721e-06,-1.750000e-02
-4.253721e-06,2.875000e-02
-4.245721e-06,-2.875000e-02
-4.237721e-06,3.125000e-02
-4.229721e-06,-1.875000e-02
-4.221721e-06,3.250000e-02
-4.213721e-06,-2.500000e-03
-4.205721e-06,7.500000e-03
-4.197721e-06,1.250000e-03
-4.189721e-06,3.750000e-03
-4.181721e-06,5.000000e-03
-4.173721e-06,4.375000e-02
-4.165721e-06,-1.250000e-03
-4.157721e-06,2.750000e-02
-4.149721e-06,-7.500000e-03
-4.141721e-06,3.125000e-02
-4.133721e-06,-1.250000e-02
-4.125721e-06,8.750000e-03
-4.117721e-06,-2.750000e-02
-4.109721e-06,3.125000e-02
-4.101721e-06,-2.125000e-02
-4.093721e-06,1.500000e-02
-4.085721e-06,-2.875000e-02
-4.077721e-06,-2.500000e-03
-4.069721e-06,-2.250000e-02
-4.061721e-06,1.125000e-02
-4.053721e-06,-1.000000e-02
-4.045721e-06,2.375000e-02
-4.037721e-06,2.500000e-03
-4.029721e-06,7.500000e-03
-4.021721e-06,-2.625000e-02
-4.013721e-06,1.125000e-02
-4.005721e-06,1.250000e-03
-3.997721e-06,1.000000e-02
-3.989721e-06,-1.500000e-02
-3.981721e-06,1.625000e-02
-3.973721e-06,-8.750000e-03
-3.965721e-06,3.000000e-02
-3.957721e-06,-3.500000e-02
-3.949721e-06,6.250000e-03
-3.941721e-06,-2.000000e-02
-3.933721e-06,1.125000e-02
-3.925721e-06,1.125000e-02
-3.917721e-06,2.875000e-02
-3.909721e-06,-1.625000e-02
-3.901721e-06,3.875000e-02
-3.893721e-06,-2.500000e-03
-3.885721e-06,2.625000e-02
-3.877721e-06,-3.000000e-02
-3.869721e-06,2.625000e-02
-3.861721e-06,-1.125000e-02
-3.853721e-06,3.750000e-02
-3.845721e-06,-1.000000e-02
-3.837721e-06,1.375000e-02
-3.829721e-06,2.500000e-03
-3.821721e-06,2.250000e-02
-3.813721e-06,-3.750000e-02
-3.805721e-06,2.500000e-02
-3.797721e-06,2.500000e-03
-3.789721e-06,1.750000e-02
-3.781721e-06,1.375000e-02
-3.773721e-06,1.750000e-02
-3.765721e-06,-8.750000e-03
-3.757721e-06,1.250000e-02
-3.749721e-06,-3.125000e-02
-3.741721e-06,3.000000e-02
-3.733721e-06,-1.125000e-02
-3.725721e-06,1.750000e-02
-3.717721e-06,1.000000e-02
-3.709721e-06,1.875000e-02
-3.701721e-06,-2.250000e-02
-3.693721e-06,3.000000e-02
-3.685721e-06,-2.750000e-02
-3.677721e-06,2.625000e-02
-3.669721e-06,-2.500000e-03
-3.661721e-06,2.125000e-02
-3.653721e-06,-1.625000e-02
-3.645721e-06,1.500000e-02
-3.637721e-06,-2.625000e-02
-3.629721e-06,2.125000e-02
-3.621721e-06,-1.000000e-02
-3.613721e-06,6.250000e-03
-3.605721e-06,-5.000000e-03
-3.597721e-06,1.875000e-02
-3.589721e-06,0.000000e+00
-3.581721e-06,1.625000e-02
-3.573721e-06,2.500000e-03
-3.565721e-06,2.875000e-02
-3.557721e-06,6.250000e-03
-3.549721e-06,7.500000e-03
-3.541721e-06,-5.000000e-03
-3.533721e-06,1.125000e-02
-3.525721e-06,1.250000e-03
-3.517721e-06,1.625000e-02
-3.509721e-06,-8.750000e-03
-3.501721e-06,1.750000e-02
-3.493721e-06,-3.125000e-02
-3.485721e-06,1.375000e-02
-3.477721e-06,-6.250000e-03
-3.469721e-06,2.875000e-02
-3.461721e-06,-3.250000e-02
-3.453721e-06,7.500000e-03
-3.445721e-06,3.750000e-03
-3.437721e-06,2.875000e-02
-3.429721e-06,-2.500000e-03
-3.421721e-06,-2.500000e-03
-3.413721e-06,-7.500000e-03
-3.405721e-06,1.625000e-02
-3.397721e-06,-1.375000e-02
-3.389721e-06,1.250000e-02
-3.381721e-06,-3.750000e-03
-3.373721e-06,2.375000e-02
-3.365721e-06,-1.750000e-02
-3.357721e-06,6.250000e-03
-3.349721e-06,-2.625000e-02
-3.341721e-06,3.375000e-02
-3.333721e-06,5.000000e-03
-3.325721e-06,1.250000e-02
-3.317721e-06,1.375000e-02
-3.309721e-06,2.250000e-02
-3.301721e-06,-1.750000e-02
-3.293721e-06,2.750000e-02
-3.285721e-06,-1.250000e-02
-3.277721e-06,3.750000e-03
-3.269721e-06,-3.625000e-02
-3.261721e-06,1.250000e-03
-3.253721e-06,-1.000000e-02
-3.245721e-06,2.375000e-02
-3.237721e-06,-3.750000e-03
-3.229721e-06,1.250000e-02
-3.221721e-06,-2.375000e-02
-3.213721e-06,1.500000e-02
-3.205721e-06,8.750000e-03
-3.197721e-06,1.125000e-02
-3.189721e-06,-2.250000e-02
-3.181721e-06,1.875000e-02
-3.173721e-06,-2.500000e-03
-3.165721e-06,3.750000e-02
-3.157721e-06,-5.000000e-03
-3.149721e-06,2.000000e-02
-3.141721e-06,-1.375000e-02
-3.133721e-06,1.250000e-02
-3.125721e-06,-1.500000e-02
-3.117721e-06,2.250000e-02
-3.109721e-06,-1.750000e-02
-3.101721e-06,3.875000e-02
-3.093721e-06,-7.500000e-03
-3.085721e-06,2.500000e-02
-3.077721e-06,-1.375000e-02
-3.069721e-06,1.250000e-02
-3.061721e-06,-1.250000e-03
-3.053721e-06,3.250000e-02
-3.045721e-06,1.000000e-02
-3.037721e-06,2.500000e-03
-3.029721e-06,1.000000e-02
-3.021721e-06,2.125000e-02
-3.013721e-06,3.750000e-03
-3.005721e-06,2.375000e-02
-2.997721e-06,-5.000000e-03
-2.989721e-06,1.625000e-02
-2.981721e-06,-2.750000e-02
-2.973721e-06,2.750000e-02
-2.965721e-06,-8.750000e-03
-2.957721e-06,2.000000e-02
-2.949721e-06,-1.875000e-02
-2.941721e-06,6.250000e-03
-2.933721e-06,-8.750000e-03
-2.925721e-06,2.625000e-02
-2.917721e-06,-6.250000e-03
-2.909721e-06,4.375000e-02
-2.901721e-06,-1.375000e-02
-2.893721e-06,3.500000e-02
-2.885721e-06,-1.000000e-02
-2.877721e-06,3.625000e-02
-2.869721e-06,-6.250000e-03
-2.861721e-06,1.750000e-02
-2.853721e-06,-2.000000e-02
-2.845721e-06,1.625000e-02
-2.837721e-06,-3.750000e-03
-2.829721e-06,2.875000e-02
-2.821721e-06,2.500000e-03
-2.813721e-06,1.000000e-02
-2.805721e-06,-2.000000e-02
-2.797721e-06,3.125000e-02
-2.789721e-06,-2.500000e-03
-2.781721e-06,2.625000e-02
-2.773721e-06,3.750000e-03
-2.765721e-06,3.750000e-02
-2.757721e-06,-1.000000e-02
-2.749721e-06,8.750000e-03
-2.741721e-06,-2.125000e-02
-2.733721e-06,2.625000e-02
-2.725721e-06,-2.625000e-02
-2.717721e-06,1.875000e-02
-2.709721e-06,-1.625000e-02
-2.701721e-06,1.875000e-02
-2.693721e-06,-3.125000e-02
-2.685721e-06,2.875000e-02
-2.677721e-06,-1.250000e-03
-2.669721e-06,3.625000e-02
-2.661721e-06,-2.500000e-03
-2.653721e-06,3.750000e-02
-2.645721e-06,-2.500000e-03
-2.637721e-06,1.500000e-02
-2.629721e-06,2.125000e-02
-2.621721e-06,-6.250000e-03
-2.613721e-06,-3.250000e-02
-2.605721e-06,1.500000e-02
-2.597721e-06,-2.375000e-02
-2.589721e-06,2.625000e-02
-2.581721e-06,-2.000000e-02
-2.573721e-06,2.750000e-02
-2.565721e-06,0.000000e+00
-2.557721e-06,7.500000e-03
-2.549721e-06,0.000000e+00
-2.541721e-06,2.750000e-02
-2.533721e-06,-1.000000e-02
-2.525721e-06,1.875000e-02
-2.517721e-06,-6.250000e-03
-2.509721e-06,3.250000e-02
-2.501721e-06,6.250000e-03
-2.493721e-06,7.500000e-03
-2.485721e-06,-2.500000e-03
-2.477721e-06,3.125000e-02
-2.469721e-06,-6.250000e-03
-2.461721e-06,0.000000e+00
-2.453721e-06,-1.875000e-02
-2.445721e-06,8.750000e-03
-2.437721e-06,-1.500000e-02
-2.429721e-06,1.625000e-02
-2.421721e-06,-2.125000e-02
-2.413721e-06,3.250000e-02
-2.405721e-06,-3.375000e-02
-2.397721e-06,2.375000e-02
-2.389721e-06,1.000000e-02
-2.381721e-06,4.000000e-02
-2.373721e-06,-1.125000e-02
-2.365721e-06,1.000000e-02
-2.357721e-06,-3.000000e-02
-2.349721e-06,1.750000e-02
-2.341721e-06,-2.750000e-02
-2.333721e-06,1.000000e-02
-2.325721e-06,-2.500000e-02
-2.317721e-06,1.000000e-02
-2.309721e-06,6.250000e-03
-2.301721e-06,6.250000e-03
-2.293721e-06,-1.000000e-02
-2.285721e-06,-2.500000e-03
-2.277721e-06,1.625000e-02
-2.269721e-06,1.000000e-02
-2.261721e-06,2.500000e-03
-2.253721e-06,2.375000e-02
-2.245721e-06,-1.875000e-02
-2.237721e-06,2.250000e-02
-2.229721e-06,-1.000000e-02
-2.221721e-06,2.000000e-02
-2.213721e-06,-1.000000e-02
-2.205721e-06,1.125000e-02
-2.197721e-06,-2.125000e-02
-2.189721e-06,8.750000e-03
-2.181721e-06,-3.750000e-03
-2.173721e-06,6.250000e-03
-2.165721e-06,-8.750000e-03
-2.157721e-06,3.750000e-03
-2.149721e-06,-1.625000e-02
-2.141721e-06,0.000000e+00
-2.133721e-06,-1.875000e-02
-2.125721e-06,1.750000e-02
-2.117721e-06,-1.000000e-02
-2.109721e-06,1.875000e-02
-2.101721e-06,2.500000e-03
-2.093721e-06,3.875000e-02
-2.085721e-06,-3.125000e-02
-2.077721e-06,2.250000e-02
-2.069721e-06,-3.625000e-02
-2.061721e-06,2.625000e-02
-2.053721e-06,-8.750000e-03
-2.045721e-06,3.250000e-02
-2.037721e-06,-7.500000e-03
-2.029721e-06,6.250000e-03
-2.021721e-06,1.375000e-02
-2.013721e-06,5.000000e-03
-2.005721e-06,-1.375000e-02
-1.997721e-06,1.750000e-02
-1.989721e-06,-1.500000e-02
-1.981721e-06,1.375000e-02
-1.973721e-06,-7.500000e-03
-1.965721e-06,2.500000e-02
-1.957721e-06,-2.125000e-02
-1.949721e-06,2.500000e-03
-1.941721e-06,-1.750000e-02
-1.933721e-06,2.875000e-02
-1.925721e-06,-1.250000e-02
-1.917721e-06,2.000000e-02
-1.909721e-06,-1.250000e-03
-1.901721e-06,3.000000e-02
-1.893721e-06,-1.875000e-02
-1.885721e-06,2.750000e-02
-1.877721e-06,-3.750000e-03
-1.869721e-06,1.125000e-02
-1.861721e-06,-1.125000e-02
-1.853721e-06,-6.250000e-03
-1.845721e-06,-1.875000e-02
-1.837721e-06,3.625000e-02
-1.829721e-06,-1.250000e-02
-1.821721e-06,2.250000e-02
-1.813721e-06,-1.000000e-02
-1.805721e-06,3.750000e-02
-1.797721e-06,-1.250000e-02
-1.789721e-06,2.500000e-03
-1.781721e-06,5.000000e-03
-1.773721e-06,2.500000e-03
-1.765721e-06,2.500000e-03
-1.757721e-06,1.625000e-02
-1.749721e-06,8.750000e-03
-1.741721e-06,1.750000e-02
-1.733721e-06,0.000000e+00
-1.725721e-06,8.750000e-03
-1.717721e-06,-2.750000e-02
-1.709721e-06,2.250000e-02
-1.701721e-06,-2.625000e-02
-1.693721e-06,1.250000e-02
-1.685721e-06,-1.750000e-02
-1.677721e-06,2.625000e-02
-1.669721e-06,-1.125000e-02
-1.661721e-06,2.000000e-02
-1.653721e-06,-2.500000e-03
-1.645721e-06,2.000000e-02
-1.637721e-06,-1.750000e-02
-1.629721e-06,1.625000e-02
-1.621721e-06,-3.750000e-03
-1.613721e-06,-1.375000e-02
-1.605721e-06,-6.250000e-03
-1.597721e-06,1.375000e-02
-1.589721e-06,-1.000000e-02
-1.581721e-06,1.750000e-02
-1.573721e-06,-3.000000e-02
-1.565721e-06,1.750000e-02
-1.557721e-06,-5.000000e-03
-1.549721e-06,1.500000e-02
-1.541721e-06,6.250000e-03
-1.533721e-06,1.750000e-02
-1.525721e-06,-1.375000e-02
-1.517721e-06,2.250000e-02
-1.509721e-06,-2.000000e-02
-1.501721e-06,2.125000e-02
-1.493721e-06,-1.500000e-02
-1.485721e-06,3.750000e-03
-1.477721e-06,-3.750000e-03
-1.469721e-06,1.875000e-02
-1.461721e-06,-3.000000e-02
-1.453721e-06,-6.250000e-03
-1.445721e-06,-2.125000e-02
-1.437721e-06,2.250000e-02
-1.429721e-06,-1.375000e-02
-1.421721e-06,3.500000e-02
-1.413721e-06,0.000000e+00
-1.405721e-06,1.250000e-02
-1.397721e-06,-3.375000e-02
-1.389721e-06,1.250000e-03
-1.381721e-06,-8.750000e-03
-1.373721e-06,3.250000e-02
-1.365721e-06,-2.500000e-03
-1.357721e-06,1.625000e-02
-1.349721e-06,-1.375000e-02
-1.341721e-06,1.500000e-02
-1.333721e-06,-3.125000e-02
-1.325721e-06,2.125000e-02
-1.317721e-06,-7.500000e-03
-1.309721e-06,2.125000e-02
-1.301721e-06,-2.125000e-02
-1.293721e-06,2.375000e-02
-1.285721e-06,-1.625000e-02
-1.277721e-06,1.250000e-02
-1.269721e-06,1.250000e-03
-1.261721e-06,2.000000e-02
-1.253721e-06,-6.250000e-03
-1.245721e-06,1.000000e-02
-1.237721e-06,-2.500000e-02
-1.229721e-06,3.000000e-02
-1.221721e-06,-5.000000e-03
-1.213721e-06,2.125000e-02
-1.205721e-06,-1.125000e-02
-1.197721e-06,3.250000e-02
-1.189721e-06,3.750000e-03
-1.181721e-06,-3.750000e-03
-1.173721e-06,-2.875000e-02
-1.165721e-06,5.000000e-03
-1.157721e-06,-1.625000e-02
-1.149721e-06,3.125000e-02
-1.141721e-06,-1.250000e-02
-1.133721e-06,3.250000e-02
-1.125721e-06,6.250000e-03
-1.117721e-06,1.125000e-02
-1.109721e-06,0.000000e+00
-1.101721e-06,1.375000e-02
-1.093721e-06,-2.125000e-02
-1.085721e-06,1.875000e-02
-1.077721e-06,-2.250000e-02
-1.069721e-06,4.875000e-02
-1.061721e-06,5.000000e-03
-1.053721e-06,8.750000e-03
-1.045721e-06,-5.000000e-03
-1.037721e-06,2.625000e-02
-1.029721e-06,-1.250000e-02
-1.021721e-06,-5.000000e-03
-1.013721e-06,-1.875000e-02
-1.005721e-06,-2.500000e-03
-9.977212e-07,-6.250000e-03
-9.897212e-07,1.250000e-03
-9.817212e-07,-1.500000e-02
-9.737212e-07,2.750000e-02
-9.657212e-07,2.500000e-03
-9.577212e-07,1.875000e-02
-9.497212e-07,1.500000e-02
-9.417212e-07,2.375000e-02
-9.337212e-07,-1.125000e-02
-9.257212e-07,2.250000e-02
-9.177212e-07,-1.250000e-02
-9.097212e-07,8.750000e-03
-9.017212e-07,-2.000000e-02
-8.937212e-07,2.250000e-02
-8.857212e-07,-4.750000e-02
-8.777212e-07,1.500000e-02
-8.697212e-07,-1.000000e-02
-8.617212e-07,3.500000e-02
-8.537212e-07,0.000000e+00
-8.457212e-07,5.000000e-03
-8.377212e-07,2.125000e-02
-8.297212e-07,2.625000e-02
-8.217212e-07,-1.000000e-02
-8.137212e-07,2.125000e-02
-8.057212e-07,-2.250000e-02
-7.977212e-07,2.250000e-02
-7.897212e-07,-4.250000e-02
-7.817212e-07,3.500000e-02
-7.737212e-07,1.000000e-02
-7.657212e-07,2.500000e-02
-7.577212e-07,-1.625000e-02
-7.497212e-07,1.250000e-02
-7.417212e-07,-2.125000e-02
-7.337212e-07,1.500000e-02
-7.257212e-07,-3.750000e-03
-7.177212e-07,3.000000e-02
-7.097212e-07,2.625000e-02
-7.017212e-07,4.625000e-02
-6.937212e-07,-2.625000e-02
-6.857212e-07,7.500000e-03
-6.777212e-07,-1.000000e-02
-6.697212e-07,2.500000e-02
-6.617212e-07,0.000000e+00
-6.537212e-07,3.750000e-02
-6.457212e-07,-3.750000e-03
-6.377212e-07,1.750000e-02
-6.297212e-07,1.625000e-02
-6.217212e-07,0.000000e+00
-6.137212e-07,-1.125000e-02
-6.057212e-07,0.000000e+00
-5.977212e-07,8.750000e-03
-5.897212e-07,5.625000e-02
-5.817212e-07,-2.750000e-02
-5.737212e-07,1.000000e-02
-5.657212e-07,-5.000000e-03
-5.577212e-07,3.000000e-02
-5.497212e-07,-2.000000e-02
-5.417212e-07,5.000000e-03
-5.337212e-07,-2.000000e-02
-5.257212e-07,1.625000e-02
-5.177212e-07,2.500000e-03
-5.097212e-07,1.750000e-02
-5.017212e-07,-1.250000e-02
-4.937212e-07,1.625000e-02
-4.857212e-07,-2.125000e-02
-4.777212e-07,2.000000e-02
-4.697212e-07,6.250000e-03
-4.617212e-07,-5.000000e-03
-4.537212e-07,-1.750000e-02
-4.457212e-07,-1.125000e-02
-4.377212e-07,-2.750000e-02
-4.297212e-07,2.625000e-02
-4.217212e-07,-4.500000e-02
-4.137212e-07,3.625000e-02
-4.057212e-07,-1.625000e-02
-3.977212e-07,2.625000e-02
-3.897212e-07,8.750000e-03
-3.817212e-07,-1.250000e-03
-3.737212e-07,1.250000e-03
-3.657212e-07,1.000000e-02
-3.577212e-07,-2.250000e-02
-3.497212e-07,2.000000e-02
-3.417212e-07,2.500000e-03
-3.337212e-07,3.750000e-02
-3.257212e-07,-3.750000e-03
-3.177212e-07,8.750000e-03
-3.097212e-07,-6.250000e-03
-3.017212e-07,2.000000e-02
-2.937212e-07,-4.125000e-02
-2.857212e-07,1.625000e-02
-2.777212e-07,-3.375000e-02
-2.697212e-07,5.000000e-03
-2.617212e-07,-2.375000e-02
-2.537212e-07,2.750000e-02
-2.457212e-07,-1.875000e-02
-2.377212e-07,2.250000e-02
-2.297212e-07,-6.250000e-03
-2.217212e-07,2.125000e-02
-2.137212e-07,-8.750000e-03
-2.057212e-07,1.875000e-02
-1.977212e-07,-3.750000e-03
-1.897212e-07,2.500000e-03
-1.817212e-07,-2.000000e-02
-1.737212e-07,2.750000e-02
-1.657212e-07,-1.125000e-02
-1.577212e-07,3.750000e-03
-1.497212e-07,-1.625000e-02
-1.417212e-07,3.875000e-02
-1.337212e-07,2.500000e-03
-1.257212e-07,2.375000e-02
-1.177212e-07,-1.500000e-02
-1.097212e-07,6.250000e-03
-1.017212e-07,-2.000000e-02
-9.372125e-08,3.125000e-02
-8.572125e-08,-6.250000e-03
-7.772125e-08,8.750000e-03
-6.972125e-08,-2.375000e-02
-6.172125e-08,2.500000e-02
-5.372125e-08,-2.625000e-02
-4.572125e-08,-2.500000e-03
-3.772125e-08,-4.000000e-02
-2.972125e-08,1.750000e-02
-2.172125e-08,-1.750000e-02
-1.372125e-08,1.250000e-02
-5.721250e-09,-2.500000e-03
2.278750e-09,-1.242500e+00
1.027875e-08,-1.430000e+00
1.827875e-08,-1.420000e+00
2.627875e-08,-1.428750e+00
3.427875e-08,3.750000e-03
4.227875e-08,3.750000e-03
5.027875e-08,3.500000e-02
5.827875e-08,-2.500000e-03
6.627875e-08,-5.000000e-03
7.427875e-08,-6.250000e-03
8.227875e-08,3.875000e-02
9.027875e-08,-2.500000e-02
9.827875e-08,2.875000e-02
1.062788e-07,-2.000000e-02
1.142788e-07,3.125000e-02
1.222788e-07,-1.125000e-02
1.302788e-07,1.125000e-02
1.382788e-07,-2.750000e-02
1.462788e-07,2.375000e-02
1.542788e-07,-1.375000e-02
1.622788e-07,8.750000e-03
1.702788e-07,-3.750000e-03
1.782788e-07,3.000000e-02
1.862788e-07,-2.375000e-02
1.942788e-07,1.875000e-02
2.022788e-07,-7.500000e-03
2.102788e-07,3.375000e-02
2.182788e-07,-1.125000e-02
2.262788e-07,2.500000e-02
2.342788e-07,1.250000e-03
2.422788e-07,2.250000e-02
2.502788e-07,-8.750000e-03
2.582788e-07,2.500000e-02
2.662788e-07,-1.500000e-02
2.742788e-07,2.250000e-02
2.822788e-07,1.250000e-03
2.902788e-07,3.125000e-02
2.982788e-07,0.000000e+00
3.062788e-07,2.125000e-02
3.142788e-07,5.000000e-03
3.222788e-07,2.625000e-02
3.302788e-07,-2.000000e-02
3.382788e-07,1.250000e-02
3.462788e-07,-1.750000e-02
3.542788e-07,1.500000e-02
3.622788e-07,-1.750000e-02
3.702788e-07,1.875000e-02
3.782788e-07,-3.125000e-02
3.862788e-07,2.500000e-03
3.942788e-07,-7.500000e-03
4.022788e-07,6.250000e-03
4.102788e-07,-6.250000e-03
4.182788e-07,2.750000e-02
4.262788e-07,-5.000000e-03
4.342788e-07,3.000000e-02
4.422788e-07,-2.500000e-02
4.502788e-07,2.125000e-02
4.582788e-07,-1.375000e-02
4.662788e-07,1.750000e-02
4.742788e-07,3.750000e-03
4.822788e-07,1.375000e-02
4.902788e-07,-1.875000e-02
4.982788e-07,8.750000e-03
5.062788e-07,-1.750000e-02
5.142788e-07,1.875000e-02
5.222788e-07,-7.500000e-03
5.302788e-07,2.875000e-02
5.382788e-07,6.250000e-03
5.462788e-07,2.500000e-02
5.542788e-07,-7.500000e-03
5.622788e-07,2.500000e-02
5.702788e-07,-5.000000e-03
5.782788e-07,1.375000e-02
5.862788e-07,-1.125000e-02
5.942788e-07,-7.500000e-03
6.022788e-07,-2.625000e-02
6.102788e-07,1.375000e-02
6.182788e-07,-1.875000e-02
6.262788e-07,1.875000e-02
6.342788e-07,-1.375000e-02
6.422788e-07,2.625000e-02
6.502788e-07,-2.000000e-02
6.582788e-07,3.500000e-02
6.662788e-07,1.000000e-02
6.742788e-07,2.500000e-02
6.822788e-07,-1.500000e-02
6.902788e-07,3.125000e-02
6.982788e-07,-1.625000e-02
7.062788e-07,2.875000e-02
7.142788e-07,-3.125000e-02
7.222788e-07,2.875000e-02
7.302788e-07,-2.750000e-02
7.382788e-07,1.000000e-02
7.462788e-07,-2.250000e-02
7.542788e-07,1.875000e-02
7.622788e-07,-2.625000e-02
7.702788e-07,2.625000e-02
7.782788e-07,-1.875000e-02
7.862788e-07,2.125000e-02
7.942788e-07,-1.250000e-03
8.022788e-07,3.375000e-02
8.102788e-07,-2.500000e-03
