run1/run1_ch3_20210318180344800.csv

Model,MSO64
Waveform Type,ANALOG
Horizontal Units,s
Sample Interval,8.000000e-09
Record Length,1250
Zero Index,624.375000
Vertical Units,V

TIME,CH3
-4.995000e-06,-7.143750e-01
-4.987000e-06,-7.371875e-01
-4.979000e-06,-7.234375e-01
-4.971000e-06,-7.396875e-01
-4.963000e-06,-7.253125e-01
-4.955000e-06,-7.500000e-01
-4.947000e-06,-7.215625e-01
-4.939000e-06,-7.568750e-01
-4.931000e-06,-7.362500e-01
-4.923000e-06,-7.465625e-01
-4.915000e-06,-7.178125e-01
-4.907000e-06,-7.490625e-01
-4.899000e-06,-7.521875e-01
-4.891000e-06,-7.493750e-01
-4.883000e-06,-7.443750e-01
-4.875000e-06,-7.550000e-01
-4.867000e-06,-7.337500e-01
-4.859000e-06,-7.453125e-01
-4.851000e-06,-7.218750e-01
-4.843000e-06,-7.381250e-01
-4.835000e-06,-7.387500e-01
-4.827000e-06,-7.518750e-01
-4.819000e-06,-7.418750e-01
-4.811000e-06,-7.581250e-01
-4.803000e-06,-7.256250e-01
-4.795000e-06,-7.475000e-01
-4.787000e-06,-7.156250e-01
-4.779000e-06,-7.525000e-01
-4.771000e-06,-7.287500e-01
-4.763000e-06,-7.515625e-01
-4.755000e-06,-7.459375e-01
-4.747000e-06,-7.525000e-01
-4.739000e-06,-7.243750e-01
-4.731000e-06,-7.518750e-01
-4.723000e-06,-7.253125e-01
-4.715000e-06,-7.353125e-01
-4.707000e-06,-7.250000e-01
-4.699000e-06,-7.506250e-01
-4.691000e-06,-7.331250e-01
-4.683000e-06,-7.640625e-01
-4.675000e-06,-7.259375e-01
-4.667000e-06,-7.450000e-01
-4.659000e-06,-7.140625e-01
-4.651000e-06,-7.450000e-01
-4.643000e-06,-7.518750e-01
-4.635000e-06,-7.465625e-01
-4.627000e-06,-7.484375e-01
-4.619000e-06,-7.446875e-01
-4.611000e-06,-7.356250e-01
-4.603000e-06,-7.425000e-01
-4.595000e-06,-7.221875e-01
-4.587000e-06,-7.537500e-01
-4.579000e-06,-7.268750e-01
-4.571000e-06,-7.550000e-01
-4.563000e-06,-7.328125e-01
-4.555000e-06,-7.515625e-01
-4.547000e-06,-7.325000e-01
-4.539000e-06,-7.368750e-01
-4.531000e-06,-7.293750e-01
-4.523000e-06,-7.521875e-01
-4.515000e-06,-7.450000e-01
-4.507000e-06,-7.478125e-01
-4.499000e-06,-7.371875e-01
-4.491000e-06,-7.590625e-01
-4.483000e-06,-7.284375e-01
-4.475000e-06,-7.431250e-01
-4.467000e-06,-7.315625e-01
-4.459000e-06,-7.409375e-01
-4.451000e-06,-7.259375e-01
-4.443000e-06,-7.571875e-01
-4.435000e-06,-7.309375e-01
-4.427000e-06,-7.537500e-01
-4.419000e-06,-7.353125e-01
-4.411000e-06,-7.440625e-01
-4.403000e-06,-7.175000e-01
-4.395000e-06,-7.462500e-01
-4.387000e-06,-7.318750e-01
-4.379000e-06,-7.537500e-01
-4.371000e-06,-7.503125e-01
-4.363000e-06,-7.550000e-01
-4.355000e-06,-7.268750e-01
-4.347000e-06,-7.462500e-01
-4.339000e-06,-7.328125e-01
-4.331000e-06,-7.296875e-01
-4.323000e-06,-7.268750e-01
-4.315000e-06,-7.478125e-01
-4.307000e-06,-7.175000e-01
-4.299000e-06,-7.496875e-01
-4.291000e-06,-7.234375e-01
-4.283000e-06,-7.368750e-01
-4.275000e-06,-7.256250e-01
-4.267000e-06,-7.409375e-01
-4.259000e-06,-7.356250e-01
-4.251000e-06,-7.350000e-01
-4.243000e-06,-7.365625e-01
-4.235000e-06,-7.506250e-01
-4.227000e-06,-7.275000e-01
-4.219000e-06,-7.490625e-01
-4.211000e-06,-7.268750e-01
-4.203000e-06,-7.353125e-01
-4.195000e-06,-7.262500e-01
-4.187000e-06,-7.618750e-01
-4.179000e-06,-7.425000e-01
-4.171000e-06,-7.531250e-01
-4.163000e-06,-7.340625e-01
-4.155000e-06,-7.487500e-01
-4.147000e-06,-7.293750e-01
-4.139000e-06,-7.606250e-01
-4.131000e-06,-7.425000e-01
-4.123000e-06,-7.356250e-01
-4.115000e-06,-7.350000e-01
-4.107000e-06,-7.493750e-01
-4.099000e-06,-7.353125e-01
-4.091000e-06,-7.500000e-01
-4.083000e-06,-7.362500e-01
-4.075000e-06,-7.365625e-01
-4.067000e-06,-7.275000e-01
-4.059000e-06,-7.503125e-01
-4.051000e-06,-7.262500e-01
-4.043000e-06,-7.531250e-01
-4.035000e-06,-7.209375e-01
-4.027000e-06,-7.318750e-01
-4.019000e-06,-7.256250e-01
-4.011000e-06,-7.453125e-01
-4.003000e-06,-7.334375e-01
-3.995000e-06,-7.509375e-01
-3.987000e-06,-7.371875e-01
-3.979000e-06,-7.587500e-01
-3.971000e-06,-7.206250e-01
-3.963000e-06,-7.437500e-01
-3.955000e-06,-7.243750e-01
-3.947000e-06,-7.368750e-01
-3.939000e-06,-7.296875e-01
-3.931000e-06,-7.490625e-01
-3.923000e-06,-7.281250e-01
-3.915000e-06,-7.534375e-01
-3.907000e-06,-7.246875e-01
-3.899000e-06,-7.512500e-01
-3.891000e-06,-7.021875e-01
-3.883000e-06,-7.393750e-01
-3.875000e-06,-7.368750e-01
-3.867000e-06,-7.500000e-01
-3.859000e-06,-7.387500e-01
-3.851000e-06,-7.581250e-01
-3.843000e-06,-7.356250e-01
-3.835000e-06,-7.478125e-01
-3.827000e-06,-7.300000e-01
-3.819000e-06,-7.346875e-01
-3.811000e-06,-7.275000e-01
-3.803000e-06,-7.600000e-01
-3.795000e-06,-7.306250e-01
-3.787000e-06,-7.465625e-01
-3.779000e-06,-7.287500e-01
-3.771000e-06,-7.606250e-01
-3.763000e-06,-7.281250e-01
-3.755000e-06,-7.487500e-01
-3.747000e-06,-7.337500e-01
-3.739000e-06,-7.353125e-01
-3.731000e-06,-7.459375e-01
-3.723000e-06,-7.528125e-01
-3.715000e-06,-7.209375e-01
-3.707000e-06,-7.525000e-01
-3.699000e-06,-7.368750e-01
-3.691000e-06,-7.393750e-01
-3.683000e-06,-7.243750e-01
-3.675000e-06,-7.562500e-01
-3.667000e-06,-7.312500e-01
-3.659000e-06,-7.506250e-01
-3.651000e-06,-7.162500e-01
-3.643000e-06,-7.515625e-01
-3.635000e-06,-7.256250e-01
-3.627000e-06,-7.387500e-01
-3.619000e-06,-7.378125e-01
-3.611000e-06,-7.384375e-01
-3.603000e-06,-7.459375e-01
-3.595000e-06,-7.618750e-01
-3.587000e-06,-7.337500e-01
-3.579000e-06,-7.471875e-01
-3.571000e-06,-7.256250e-01
-3.563000e-06,-7.431250e-01
-3.555000e-06,-7.250000e-01
-3.547000e-06,-7.496875e-01
-3.539000e-06,-7.209375e-01
-3.531000e-06,-7.512500e-01
-3.523000e-06,-7.450000e-01
-3.515000e-06,-7.543750e-01
-3.507000e-06,-7.250000e-01
-3.499000e-06,-7.571875e-01
-3.491000e-06,-7.418750e-01
-3.483000e-06,-7.531250e-01
-3.475000e-06,-7.425000e-01
-3.467000e-06,-7.537500e-01
-3.459000e-06,-7.365625e-01
-3.451000e-06,-7.500000e-01
-3.443000e-06,-7.212500e-01
-3.435000e-06,-7.456250e-01
-3.427000e-06,-7.328125e-01
-3.419000e-06,-7.528125e-01
-3.411000e-06,-7.440625e-01
-3.403000e-06,-7.575000e-01
-3.395000e-06,-7.325000e-01
-3.387000e-06,-7.587500e-01
-3.379000e-06,-7.275000e-01
-3.371000e-06,-7.425000e-01
-3.363000e-06,-7.428125e-01
-3.355000e-06,-7.562500e-01
-3.347000e-06,-7.275000e-01
-3.339000e-06,-7.521875e-01
-3.331000e-06,-7.278125e-01
-3.323000e-06,-7.393750e-01
-3.315000e-06,-7.384375e-01
-3.307000e-06,-7.381250e-01
-3.299000e-06,-7.365625e-01
-3.291000e-06,-7.484375e-01
-3.283000e-06,-7.278125e-01
-3.275000e-06,-7.584375e-01
-3.267000e-06,-7.356250e-01
-3.259000e-06,-7.278125e-01
-3.251000e-06,-7.150000e-01
-3.243000e-06,-7.434375e-01
-3.235000e-06,-7.421875e-01
-3.227000e-06,-7.493750e-01
-3.219000e-06,-7.353125e-01
-3.211000e-06,-7.553125e-01
-3.203000e-06,-7.296875e-01
-3.195000e-06,-7.453125e-01
-3.187000e-06,-7.228125e-01
-3.179000e-06,-7.368750e-01
-3.171000e-06,-7.181250e-01
-3.163000e-06,-7.393750e-01
-3.155000e-06,-7.331250e-01
-3.147000e-06,-7.553125e-01
-3.139000e-06,-7.262500e-01
-3.131000e-06,-7.375000e-01
-3.123000e-06,-7.281250e-01
-3.115000e-06,-7.575000e-01
-3.107000e-06,-7.406250e-01
-3.099000e-06,-7.500000e-01
-3.091000e-06,-7.425000e-01
-3.083000e-06,-7.428125e-01
-3.075000e-06,-7.381250e-01
-3.067000e-06,-7.409375e-01
-3.059000e-06,-7.281250e-01
-3.051000e-06,-7.556250e-01
-3.043000e-06,-7.375000e-01
-3.035000e-06,-7.543750e-01
-3.027000e-06,-7.325000e-01
-3.019000e-06,-7.606250e-01
-3.011000e-06,-7.275000e-01
-3.003000e-06,-7.362500e-01
-2.995000e-06,-7.243750e-01
-2.987000e-06,-7.387500e-01
-2.979000e-06,-7.425000e-01
-2.971000e-06,-7.468750e-01
-2.963000e-06,-7.384375e-01
-2.955000e-06,-7.484375e-01
-2.947000e-06,-7.309375e-01
-2.939000e-06,-7.468750e-01
-2.931000e-06,-7.256250e-01
-2.923000e-06,-7.440625e-01
-2.915000e-06,-7.300000e-01
-2.907000e-06,-7.531250e-01
-2.899000e-06,-7.306250e-01
-2.891000e-06,-7.725000e-01
-2.883000e-06,-7.321875e-01
-2.875000e-06,-7.415625e-01
-2.867000e-06,-7.256250e-01
-2.859000e-06,-7.371875e-01
-2.851000e-06,-7.350000e-01
-2.843000e-06,-7.515625e-01
-2.835000e-06,-7.381250e-01
-2.827000e-06,-7.537500e-01
-2.819000e-06,-7.178125e-01
-2.811000e-06,-7.487500e-01
-2.803000e-06,-7.281250e-01
-2.795000e-06,-7.493750e-01
-2.787000e-06,-7.343750e-01
-2.779000e-06,-7.518750e-01
-2.771000e-06,-7.418750e-01
-2.763000e-06,-7.615625e-01
-2.755000e-06,-7.256250e-01
-2.747000e-06,-7.434375e-01
-2.739000e-06,-7.156250e-01
-2.731000e-06,-7.415625e-01
-2.723000e-06,-7.456250e-01
-2.715000e-06,-7.446875e-01
-2.707000e-06,-7.450000e-01
-2.699000e-06,-7.478125e-01
-2.691000e-06,-7.215625e-01
-2.683000e-06,-7.350000e-01
-2.675000e-06,-7.250000e-01
-2.667000e-06,-7.281250e-01
-2.659000e-06,-7.262500e-01
-2.651000e-06,-7.425000e-01
-2.643000e-06,-7.159375e-01
-2.635000e-06,-7.428125e-01
-2.627000e-06,-7.293750e-01
-2.619000e-06,-7.468750e-01
-2.611000e-06,-7.228125e-01
-2.603000e-06,-7.506250e-01
-2.595000e-06,-7.415625e-01
-2.587000e-06,-7.437500e-01
-2.579000e-06,-7.337500e-01
-2.571000e-06,-7.550000e-01
-2.563000e-06,-7.234375e-01
-2.555000e-06,-7.525000e-01
-2.547000e-06,-7.296875e-01
-2.539000e-06,-7.390625e-01
-2.531000e-06,-7.306250e-01
-2.523000e-06,-7.618750e-01
-2.515000e-06,-7.281250e-01
-2.507000e-06,-7.659375e-01
-2.499000e-06,-7.218750e-01
-2.491000e-06,-7.528125e-01
-2.483000e-06,-7.187500e-01
-2.475000e-06,-7.446875e-01
-2.467000e-06,-7.487500e-01
-2.459000e-06,-7.550000e-01
-2.451000e-06,-7.325000e-01
-2.443000e-06,-7.462500e-01
-2.435000e-06,-7.303125e-01
-2.427000e-06,-7.450000e-01
-2.419000e-06,-7.209375e-01
-2.411000e-06,-7.334375e-01
-2.403000e-06,-7.350000e-01
-2.395000e-06,-7.575000e-01
-2.387000e-06,-7.284375e-01
-2.379000e-06,-7.550000e-01
-2.371000e-06,-7.325000e-01
-2.363000e-06,-7.456250e-01
-2.355000e-06,-7.134375e-01
-2.347000e-06,-7.446875e-01
-2.339000e-06,-7.418750e-01
-2.331000e-06,-7.487500e-01
-2.323000e-06,-7.303125e-01
-2.315000e-06,-7.503125e-01
-2.307000e-06,-7.240625e-01
-2.299000e-06,-7.387500e-01
-2.291000e-06,-7.271875e-01
-2.283000e-06,-7.496875e-01
-2.275000e-06,-7.234375e-01
-2.267000e-06,-7.496875e-01
-2.259000e-06,-7.312500e-01
-2.251000e-06,-7.481250e-01
-2.243000e-06,-7.368750e-01
-2.235000e-06,-7.425000e-01
-2.227000e-06,-7.203125e-01
-2.219000e-06,-7.425000e-01
-2.211000e-06,-7.371875e-01
-2.203000e-06,-7.387500e-01
-2.195000e-06,-7.325000e-01
-2.187000e-06,-7.484375e-01
-2.179000e-06,-7.253125e-01
-2.171000e-06,-7.500000e-01
-2.163000e-06,-7.290625e-01
-2.155000e-06,-7.581250e-01
-2.147000e-06,-7.256250e-01
-2.139000e-06,-7.600000e-01
-2.131000e-06,-7.300000e-01
-2.123000e-06,-7.521875e-01
-2.115000e-06,-7.496875e-01
-2.107000e-06,-7.359375e-01
-2.099000e-06,-7.146875e-01
-2.091000e-06,-7.487500e-01
-2.083000e-06,-7.465625e-01
-2.075000e-06,-7.525000e-01
-2.067000e-06,-7.425000e-01
-2.059000e-06,-7.562500e-01
-2.051000e-06,-7.240625e-01
-2.043000e-06,-7.487500e-01
-2.035000e-06,-7.331250e-01
-2.027000e-06,-7.456250e-01
-2.019000e-06,-7.218750e-01
-2.011000e-06,-7.478125e-01
-2.003000e-06,-7.387500e-01
-1.995000e-06,-7.531250e-01
-1.987000e-06,-7.243750e-01
-1.979000e-06,-7.421875e-01
-1.971000e-06,-7.228125e-01
-1.963000e-06,-7.534375e-01
-1.955000e-06,-7.393750e-01
-1.947000e-06,-7.512500e-01
-1.939000e-06,-7.181250e-01
-1.931000e-06,-7.509375e-01
-1.923000e-06,-7.271875e-01
-1.915000e-06,-7.487500e-01
-1.907000e-06,-7.268750e-01
-1.899000e-06,-7.471875e-01
-1.891000e-06,-7.318750e-01
-1.883000e-06,-7.428125e-01
-1.875000e-06,-7.356250e-01
-1.867000e-06,-7.528125e-01
-1.859000e-06,-7.268750e-01
-1.851000e-06,-7.462500e-01
-1.843000e-06,-7.250000e-01
-1.835000e-06,-7.506250e-01
-1.827000e-06,-7.350000e-01
-1.819000e-06,-7.403125e-01
-1.811000e-06,-7.406250e-01
-1.803000e-06,-7.471875e-01
-1.795000e-06,-7.321875e-01
-1.787000e-06,-7.368750e-01
-1.779000e-06,-7.271875e-01
-1.771000e-06,-7.465625e-01
-1.763000e-06,-7.456250e-01
-1.755000e-06,-7.531250e-01
-1.747000e-06,-7.312500e-01
-1.739000e-06,-7.478125e-01
-1.731000e-06,-7.278125e-01
-1.723000e-06,-7.531250e-01
-1.715000e-06,-7.225000e-01
-1.707000e-06,-7.506250e-01
-1.699000e-06,-7.425000e-01
-1.691000e-06,-7.528125e-01
-1.683000e-06,-7.375000e-01
-1.675000e-06,-7.490625e-01
-1.667000e-06,-7.296875e-01
-1.659000e-06,-7.350000e-01
-1.651000e-06,-7.231250e-01
-1.643000e-06,-7.365625e-01
-1.635000e-06,-7.368750e-01
-1.627000e-06,-7.509375e-01
-1.619000e-06,-7.350000e-01
-1.611000e-06,-7.553125e-01
-1.603000e-06,-7.284375e-01
-1.595000e-06,-7.381250e-01
-1.587000e-06,-7.231250e-01
-1.579000e-06,-7.475000e-01
-1.571000e-06,-7.468750e-01
-1.563000e-06,-7.440625e-01
-1.555000e-06,-7.315625e-01
-1.547000e-06,-7.556250e-01
-1.539000e-06,-7.234375e-01
-1.531000e-06,-7.531250e-01
-1.523000e-06,-7.271875e-01
-1.515000e-06,-7.434375e-01
-1.507000e-06,-7.287500e-01
-1.499000e-06,-7.475000e-01
-1.491000e-06,-7.290625e-01
-1.483000e-06,-7.575000e-01
-1.475000e-06,-7.412500e-01
-1.467000e-06,-7.531250e-01
-1.459000e-06,-7.221875e-01
-1.451000e-06,-7.562500e-01
-1.443000e-06,-7.368750e-01
-1.435000e-06,-7.478125e-01
-1.427000e-06,-7.459375e-01
-1.419000e-06,-7.625000e-01
-1.411000e-06,-7.234375e-01
-1.403000e-06,-7.512500e-01
-1.395000e-06,-7.250000e-01
-1.387000e-06,-7.375000e-01
-1.379000e-06,-7.187500e-01
-1.371000e-06,-7.512500e-01
-1.363000e-06,-7.231250e-01
-1.355000e-06,-7.300000e-01
-1.347000e-06,-7.293750e-01
-1.339000e-06,-7.425000e-01
-1.331000e-06,-7.181250e-01
-1.323000e-06,-7.450000e-01
-1.315000e-06,-7.381250e-01
-1.307000e-06,-7.525000e-01
-1.299000e-06,-7.318750e-01
-1.291000e-06,-7.471875e-01
-1.283000e-06,-7.421875e-01
-1.275000e-06,-7.343750e-01
-1.267000e-06,-7.187500e-01
-1.259000e-06,-7.312500e-01
-1.251000e-06,-7.293750e-01
-1.243000e-06,-7.471875e-01
-1.235000e-06,-7.275000e-01
-1.227000e-06,-7.487500e-01
-1.219000e-06,-7.356250e-01
-1.211000e-06,-7.365625e-01
-1.203000e-06,-7.096875e-01
-1.195000e-06,-7.531250e-01
-1.187000e-06,-7.356250e-01
-1.179000e-06,-7.375000e-01
-1.171000e-06,-7.290625e-01
-1.163000e-06,-7.550000e-01
-1.155000e-06,-7.325000e-01
-1.147000e-06,-7.446875e-01
-1.139000e-06,-7.346875e-01
-1.131000e-06,-7.343750e-01
-1.123000e-06,-7.337500e-01
-1.115000e-06,-7.518750e-01
-1.107000e-06,-7.325000e-01
-1.099000e-06,-7.537500e-01
-1.091000e-06,-7.231250e-01
-1.083000e-06,-7.393750e-01
-1.075000e-06,-7.171875e-01
-1.067000e-06,-7.381250e-01
-1.059000e-06,-7.459375e-01
-1.051000e-06,-7.525000e-01
-1.043000e-06,-7.365625e-01
-1.035000e-06,-7.568750e-01
-1.027000e-06,-7.184375e-01
-1.019000e-06,-7.387500e-01
-1.011000e-06,-7.275000e-01
-1.003000e-06,-7.465625e-01
-9.950000e-07,-7.356250e-01
-9.870000e-07,-7.434375e-01
-9.790000e-07,-7.346875e-01
-9.710000e-07,-7.531250e-01
-9.630000e-07,-7.290625e-01
-9.550000e-07,-7.459375e-01
-9.470000e-07,-7.315625e-01
-9.390000e-07,-7.525000e-01
-9.310000e-07,-7.540625e-01
-9.230000e-07,-7.509375e-01
-9.150000e-07,-7.503125e-01
-9.070000e-07,-7.590625e-01
-8.990000e-07,-7.343750e-01
-8.910000e-07,-7.512500e-01
-8.830000e-07,-7.337500e-01
-8.750000e-07,-7.462500e-01
-8.670000e-07,-7.281250e-01
-8.590000e-07,-7.559375e-01
-8.510000e-07,-7.325000e-01
-8.430000e-07,-7.562500e-01
-8.350000e-07,-7.412500e-01
-8.270000e-07,-7.418750e-01
-8.190000e-07,-7.281250e-01
-8.110000e-07,-7.543750e-01
-8.030000e-07,-7.337500e-01
-7.950000e-07,-7.503125e-01
-7.870000e-07,-7.356250e-01
-7.790000e-07,-7.521875e-01
-7.710000e-07,-7.234375e-01
-7.630000e-07,-7.575000e-01
-7.550000e-07,-7.265625e-01
-7.470000e-07,-7.506250e-01
-7.390000e-07,-7.240625e-01
-7.310000e-07,-7.556250e-01
-7.230000e-07,-7.384375e-01
-7.150000e-07,-7.609375e-01
-7.070000e-07,-7.318750e-01
-6.990000e-07,-7.337500e-01
-6.910000e-07,-7.150000e-01
-6.830000e-07,-7.490625e-01
-6.750000e-07,-7.446875e-01
-6.670000e-07,-7.481250e-01
-6.590000e-07,-7.431250e-01
-6.510000e-07,-7.568750e-01
-6.430000e-07,-7.396875e-01
-6.350000e-07,-7.362500e-01
-6.270000e-07,-7.318750e-01
-6.190000e-07,-7.546875e-01
-6.110000e-07,-7.362500e-01
-6.030000e-07,-7.459375e-01
-5.950000e-07,-7.250000e-01
-5.870000e-07,-7.584375e-01
-5.790000e-07,-7.318750e-01
-5.710000e-07,-7.534375e-01
-5.630000e-07,-7.178125e-01
-5.550000e-07,-7.465625e-01
-5.470000e-07,-7.428125e-01
-5.390000e-07,-7.362500e-01
-5.310000e-07,-7.512500e-01
-5.230000e-07,-7.515625e-01
-5.150000e-07,-7.306250e-01
-5.070000e-07,-7.446875e-01
-4.990000e-07,-7.300000e-01
-4.910000e-07,-7.359375e-01
-4.830000e-07,-7.268750e-01
-4.750000e-07,-7.456250e-01
-4.670000e-07,-7.293750e-01
-4.590000e-07,-7.521875e-01
-4.510000e-07,-7.384375e-01
-4.430000e-07,-7.390625e-01
-4.350000e-07,-7.362500e-01
-4.270000e-07,-7.487500e-01
-4.190000e-07,-7.515625e-01
-4.110000e-07,-7.578125e-01
-4.030000e-07,-7.509375e-01
-3.950000e-07,-7.550000e-01
-3.870000e-07,-7.328125e-01
-3.790000e-07,-7.350000e-01
-3.710000e-07,-7.290625e-01
-3.630000e-07,-7.396875e-01
-3.550000e-07,-7.228125e-01
-3.470000e-07,-7.515625e-01
-3.390000e-07,-7.275000e-01
-3.310000e-07,-7.584375e-01
-3.230000e-07,-7.284375e-01
-3.150000e-07,-7.450000e-01
-3.070000e-07,-7.278125e-01
-2.990000e-07,-7.531250e-01
-2.910000e-07,-7.493750e-01
-2.830000e-07,-7.556250e-01
-2.750000e-07,-7.284375e-01
-2.670000e-07,-7.612500e-01
-2.590000e-07,-7.293750e-01
-2.510000e-07,-7.531250e-01
-2.430000e-07,-7.437500e-01
-2.350000e-07,-7.381250e-01
-2.270000e-07,-7.343750e-01
-2.190000e-07,-7.506250e-01
-2.110000e-07,-7.331250e-01
-2.030000e-07,-7.534375e-01
-1.950000e-07,-7.234375e-01
-1.870000e-07,-7.450000e-01
-1.790000e-07,-7.325000e-01
-1.710000e-07,-7.368750e-01
-1.630000e-07,-7.325000e-01
-1.550000e-07,-7.506250e-01
-1.470000e-07,-7.243750e-01
-1.390000e-07,-7.600000e-01
-1.310000e-07,-7.343750e-01
-1.230000e-07,-7.462500e-01
-1.150000e-07,-7.421875e-01
-1.070000e-07,-7.512500e-01
-9.900000e-08,-7.446875e-01
-9.100000e-08,-7.531250e-01
-8.300000e-08,-7.340625e-01
-7.500000e-08,-7.596875e-01
-6.700000e-08,-7.309375e-01
-5.900000e-08,-7.506250e-01
-5.100000e-08,-7.262500e-01
-4.300000e-08,-7.384375e-01
-3.500000e-08,-7.468750e-01
-2.700000e-08,-7.428125e-01
-1.900000e-08,-7.462500e-01
-1.100000e-08,-7.540625e-01
-3.000000e-09,-7.350000e-01
5.000000e-09,-7.587500e-01
1.300000e-08,-7.312500e-01
2.100000e-08,-7.343750e-01
2.900000e-08,-7.384375e-01
3.700000e-08,-7.503125e-01
4.500000e-08,-7.359375e-01
5.300000e-08,-7.478125e-01
6.100000e-08,-7.300000e-01
6.900000e-08,-7.453125e-01
7.700000e-08,-7.150000e-01
8.500000e-08,-7.481250e-01
9.300000e-08,-7.350000e-01
1.010000e-07,-7.534375e-01
1.090000e-07,-7.487500e-01
1.170000e-07,-7.568750e-01
1.250000e-07,-7.353125e-01
1.330000e-07,-7.453125e-01
1.410000e-07,-7.253125e-01
1.490000e-07,-7.318750e-01
1.570000e-07,-7.387500e-01
1.650000e-07,-7.515625e-01
1.730000e-07,-7.478125e-01
1.810000e-07,-7.581250e-01
1.890000e-07,-7.425000e-01
1.970000e-07,-7.456250e-01
2.050000e-07,-7.131250e-01
2.130000e-07,-7.487500e-01
2.210000e-07,-7.359375e-01
2.290000e-07,-7.434375e-01
2.370000e-07,-7.596875e-01
2.450000e-07,-7.646875e-01
2.530000e-07,-7.321875e-01
2.610000e-07,-7.446875e-01
2.690000e-07,-7.375000e-01
2.770000e-07,-7.459375e-01
2.850000e-07,-7.156250e-01
2.930000e-07,-7.640625e-01
3.010000e-07,-7.350000e-01
3.090000e-07,-7.640625e-01
3.170000e-07,-7.350000e-01
3.250000e-07,-7.443750e-01
3.330000e-07,-7.256250e-01
3.410000e-07,-7.515625e-01
3.490000e-07,-7.331250e-01
3.570000e-07,-7.493750e-01
3.650000e-07,-7.440625e-01
3.730000e-07,-7.546875e-01
3.810000e-07,-7.353125e-01
3.890000e-07,-7.418750e-01
3.970000e-07,-7.284375e-01
4.050000e-07,-7.468750e-01
4.130000e-07,-7.306250e-01
4.210000e-07,-7.490625e-01
4.290000e-07,-7.381250e-01
4.370000e-07,-7.584375e-01
4.450000e-07,-7.287500e-01
4.530000e-07,-7.434375e-01
4.610000e-07,-7.284375e-01
4.690000e-07,-7.531250e-01
4.770000e-07,-7.331250e-01
4.850000e-07,-7.503125e-01
4.930000e-07,-7.331250e-01
5.010000e-07,-7.668750e-01
5.090000e-07,-7.306250e-01
5.170000e-07,-7.384375e-01
5.250000e-07,-7.234375e-01
5.330000e-07,-7.359375e-01
5.410000e-07,-7.343750e-01
5.490000e-07,-7.493750e-01
5.570000e-07,-7.318750e-01
5.650000e-07,-7.456250e-01
5.730000e-07,-7.275000e-01
5.810000e-07,-7.437500e-01
5.890000e-07,-7.184375e-01
5.970000e-07,-7.493750e-01
6.050000e-07,-7.453125e-01
6.130000e-07,-7.675000e-01
6.210000e-07,-7.362500e-01
6.290000e-07,-7.593750e-01
6.370000e-07,-7.387500e-01
6.450000e-07,-7.409375e-01
6.530000e-07,-7.281250e-01
6.610000e-07,-7.390625e-01
6.690000e-07,-7.281250e-01
6.770000e-07,-7.518750e-01
6.850000e-07,-7.309375e-01
6.930000e-07,-7.553125e-01
