run1/run1_ch3_20210318180130009.csv

Model,MSO64
Waveform Type,ANALOG
Horizontal Units,s
Sample Interval,8.000000e-09
Record Length,1250
Zero Index,624.155000
Vertical Units,V

TIME,CH3
-4.993240e-06,-7.487500e-01
-4.985240e-06,-7.368750e-01
-4.977240e-06,-7.428125e-01
-4.969240e-06,-7.371875e-01
-4.961240e-06,-7.387500e-01
-4.953240e-06,-7.259375e-01
-4.945240e-06,-7.453125e-01
-4.937240e-06,-7.384375e-01
-4.929240e-06,-7.600000e-01
-4.921240e-06,-7.250000e-01
-4.913240e-06,-7.562500e-01
-4.905240e-06,-7.315625e-01
-4.897240e-06,-7.387500e-01
-4.889240e-06,-7.281250e-01
-4.881240e-06,-7.562500e-01
-4.873240e-06,-7.406250e-01
-4.865240e-06,-7.528125e-01
-4.857240e-06,-7.393750e-01
-4.849240e-06,-7.606250e-01
-4.841240e-06,-7.300000e-01
-4.833240e-06,-7.518750e-01
-4.825240e-06,-7.315625e-01
-4.817240e-06,-7.412500e-01
-4.809240e-06,-7.375000e-01
-4.801240e-06,-7.475000e-01
-4.793240e-06,-7.418750e-01
-4.785240e-06,-7.643750e-01
-4.777240e-06,-7.300000e-01
-4.769240e-06,-7.540625e-01
-4.761240e-06,-7.318750e-01
-4.753240e-06,-7.509375e-01
-4.745240e-06,-7.431250e-01
-4.737240e-06,-7.496875e-01
-4.729240e-06,-7.450000e-01
-4.721240e-06,-7.462500e-01
-4.713240e-06,-7.218750e-01
-4.705240e-06,-7.331250e-01
-4.697240e-06,-7.321875e-01
-4.689240e-06,-7.378125e-01
-4.681240e-06,-7.337500e-01
-4.673240e-06,-7.656250e-01
-4.665240e-06,-7.387500e-01
-4.657240e-06,-7.553125e-01
-4.649240e-06,-7.287500e-01
-4.641240e-06,-7.387500e-01
-4.633240e-06,-7.325000e-01
-4.625240e-06,-7.481250e-01
-4.617240e-06,-7.362500e-01
-4.609240e-06,-7.512500e-01
-4.601240e-06,-7.412500e-01
-4.593240e-06,-7.475000e-01
-4.585240e-06,-7.175000e-01
-4.577240e-06,-7.475000e-01
-4.569240e-06,-7.290625e-01
-4.561240e-06,-7.384375e-01
-4.553240e-06,-7.181250e-01
-4.545240e-06,-7.490625e-01
-4.537240e-06,-7.350000e-01
-4.529240e-06,-7.556250e-01
-4.521240e-06,-7.306250e-01
-4.513240e-06,-7.343750e-01
-4.505240e-06,-7.246875e-01
-4.497240e-06,-7.350000e-01
-4.489240e-06,-7.368750e-01
-4.481240e-06,-7.543750e-01
-4.473240e-06,-7.315625e-01
-4.465240e-06,-7.518750e-01
-4.457240e-06,-7.312500e-01
-4.449240e-06,-7.381250e-01
-4.441240e-06,-7.375000e-01
-4.433240e-06,-7.415625e-01
-4.425240e-06,-7.331250e-01
-4.417240e-06,-7.553125e-01
-4.409240e-06,-7.418750e-01
-4.401240e-06,-7.512500e-01
-4.393240e-06,-7.428125e-01
-4.385240e-06,-7.512500e-01
-4.377240e-06,-7.281250e-01
-4.369240e-06,-7.462500e-01
-4.361240e-06,-7.450000e-01
-4.353240e-06,-7.490625e-01
-4.345240e-06,-7.406250e-01
-4.337240e-06,-7.443750e-01
-4.329240e-06,-7.259375e-01
-4.321240e-06,-7.500000e-01
-4.313240e-06,-7.340625e-01
-4.305240e-06,-7.434375e-01
-4.297240e-06,-7.506250e-01
-4.289240e-06,-7.606250e-01
-4.281240e-06,-7.312500e-01
-4.273240e-06,-7.515625e-01
-4.265240e-06,-7.384375e-01
-4.257240e-06,-7.415625e-01
-4.249240e-06,-7.350000e-01
-4.241240e-06,-7.540625e-01
-4.233240e-06,-7.362500e-01
-4.225240e-06,-7.359375e-01
-4.217240e-06,-7.390625e-01
-4.209240e-06,-7.556250e-01
-4.201240e-06,-7.328125e-01
-4.193240e-06,-7.393750e-01
-4.185240e-06,-7.375000e-01
-4.177240e-06,-7.456250e-01
-4.169240e-06,-7.256250e-01
-4.161240e-06,-7.562500e-01
-4.153240e-06,-7.243750e-01
-4.145240e-06,-7.581250e-01
-4.137240e-06,-7.359375e-01
-4.129240e-06,-7.612500e-01
-4.121240e-06,-7.240625e-01
-4.113240e-06,-7.409375e-01
-4.105240e-06,-7.312500e-01
-4.097240e-06,-7.528125e-01
-4.089240e-06,-7.496875e-01
-4.081240e-06,-7.643750e-01
-4.073240e-06,-7.412500e-01
-4.065240e-06,-7.481250e-01
-4.057240e-06,-7.287500e-01
-4.049240e-06,-7.446875e-01
-4.041240e-06,-7.237500e-01
-4.033240e-06,-7.543750e-01
-4.025240e-06,-7.134375e-01
-4.017240e-06,-7.496875e-01
-4.009240e-06,-7.240625e-01
-4.001240e-06,-7.456250e-01
-3.993240e-06,-7.146875e-01
-3.985240e-06,-7.468750e-01
-3.977240e-06,-7.306250e-01
-3.969240e-06,-7.400000e-01
-3.961240e-06,-7.368750e-01
-3.953240e-06,-7.581250e-01
-3.945240e-06,-7.381250e-01
-3.937240e-06,-7.446875e-01
-3.929240e-06,-7.271875e-01
-3.921240e-06,-7.362500e-01
-3.913240e-06,-7.256250e-01
-3.905240e-06,-7.518750e-01
-3.897240e-06,-7.240625e-01
-3.889240e-06,-7.562500e-01
-3.881240e-06,-7.350000e-01
-3.873240e-06,-7.484375e-01
-3.865240e-06,-7.284375e-01
-3.857240e-06,-7.503125e-01
-3.849240e-06,-7.259375e-01
-3.841240e-06,-7.484375e-01
-3.833240e-06,-7.412500e-01
-3.825240e-06,-7.518750e-01
-3.817240e-06,-7.309375e-01
-3.809240e-06,-7.493750e-01
-3.801240e-06,-7.234375e-01
-3.793240e-06,-7.309375e-01
-3.785240e-06,-7.256250e-01
-3.777240e-06,-7.437500e-01
-3.769240e-06,-7.171875e-01
-3.761240e-06,-7.531250e-01
-3.753240e-06,-7.268750e-01
-3.745240e-06,-7.484375e-01
-3.737240e-06,-7.287500e-01
-3.729240e-06,-7.531250e-01
-3.721240e-06,-7.468750e-01
-3.713240e-06,-7.525000e-01
-3.705240e-06,-7.231250e-01
-3.697240e-06,-7.421875e-01
-3.689240e-06,-7.175000e-01
-3.681240e-06,-7.459375e-01
-3.673240e-06,-7.346875e-01
-3.665240e-06,-7.521875e-01
-3.657240e-06,-7.156250e-01
-3.649240e-06,-7.490625e-01
-3.641240e-06,-7.256250e-01
-3.633240e-06,-7.434375e-01
-3.625240e-06,-7.303125e-01
-3.617240e-06,-7.337500e-01
-3.609240e-06,-7.218750e-01
-3.601240e-06,-7.437500e-01
-3.593240e-06,-7.478125e-01
-3.585240e-06,-7.503125e-01
-3.577240e-06,-7.265625e-01
-3.569240e-06,-7.331250e-01
-3.561240e-06,-7.265625e-01
-3.553240e-06,-7.331250e-01
-3.545240e-06,-7.268750e-01
-3.537240e-06,-7.353125e-01
-3.529240e-06,-7.165625e-01
-3.521240e-06,-7.553125e-01
-3.513240e-06,-7.203125e-01
-3.505240e-06,-7.418750e-01
-3.497240e-06,-7.325000e-01
-3.489240e-06,-7.437500e-01
-3.481240e-06,-7.225000e-01
-3.473240e-06,-7.481250e-01
-3.465240e-06,-7.515625e-01
-3.457240e-06,-7.400000e-01
-3.449240e-06,-7.331250e-01
-3.441240e-06,-7.731250e-01
-3.433240e-06,-7.234375e-01
-3.425240e-06,-7.487500e-01
-3.417240e-06,-7.231250e-01
-3.409240e-06,-7.334375e-01
-3.401240e-06,-7.262500e-01
-3.393240e-06,-7.559375e-01
-3.385240e-06,-7.381250e-01
-3.377240e-06,-7.521875e-01
-3.369240e-06,-7.353125e-01
-3.361240e-06,-7.434375e-01
-3.353240e-06,-7.168750e-01
-3.345240e-06,-7.478125e-01
-3.337240e-06,-7.443750e-01
-3.329240e-06,-7.421875e-01
-3.321240e-06,-7.387500e-01
-3.313240e-06,-7.568750e-01
-3.305240e-06,-7.203125e-01
-3.297240e-06,-7.409375e-01
-3.289240e-06,-7.268750e-01
-3.281240e-06,-7.300000e-01
-3.273240e-06,-7.262500e-01
-3.265240e-06,-7.496875e-01
-3.257240e-06,-7.331250e-01
-3.249240e-06,-7.440625e-01
-3.241240e-06,-7.190625e-01
-3.233240e-06,-7.356250e-01
-3.225240e-06,-7.168750e-01
-3.217240e-06,-7.481250e-01
-3.209240e-06,-7.418750e-01
-3.201240e-06,-7.506250e-01
-3.193240e-06,-7.443750e-01
-3.185240e-06,-7.546875e-01
-3.177240e-06,-7.190625e-01
-3.169240e-06,-7.371875e-01
-3.161240e-06,-7.287500e-01
-3.153240e-06,-7.415625e-01
-3.145240e-06,-7.325000e-01
-3.137240e-06,-7.509375e-01
-3.129240e-06,-7.415625e-01
-3.121240e-06,-7.587500e-01
-3.113240e-06,-7.343750e-01
-3.105240e-06,-7.362500e-01
-3.097240e-06,-7.268750e-01
-3.089240e-06,-7.378125e-01
-3.081240e-06,-7.343750e-01
-3.073240e-06,-7.612500e-01
-3.065240e-06,-7.443750e-01
-3.057240e-06,-7.471875e-01
-3.049240e-06,-7.293750e-01
-3.041240e-06,-7.390625e-01
-3.033240e-06,-7.337500e-01
-3.025240e-06,-7.434375e-01
-3.017240e-06,-7.393750e-01
-3.009240e-06,-7.515625e-01
-3.001240e-06,-7.306250e-01
-2.993240e-06,-7.453125e-01
-2.985240e-06,-7.262500e-01
-2.977240e-06,-7.418750e-01
-2.969240e-06,-7.103125e-01
-2.961240e-06,-7.500000e-01
-2.953240e-06,-7.371875e-01
-2.945240e-06,-7.493750e-01
-2.937240e-06,-7.418750e-01
-2.929240e-06,-7.550000e-01
-2.921240e-06,-7.290625e-01
-2.913240e-06,-7.331250e-01
-2.905240e-06,-7.306250e-01
-2.897240e-06,-7.350000e-01
-2.889240e-06,-7.293750e-01
-2.881240e-06,-7.581250e-01
-2.873240e-06,-7.362500e-01
-2.865240e-06,-7.600000e-01
-2.857240e-06,-7.287500e-01
-2.849240e-06,-7.468750e-01
-2.841240e-06,-7.300000e-01
-2.833240e-06,-7.443750e-01
-2.825240e-06,-7.337500e-01
-2.817240e-06,-7.421875e-01
-2.809240e-06,-7.359375e-01
-2.801240e-06,-7.453125e-01
-2.793240e-06,-7.406250e-01
-2.785240e-06,-7.550000e-01
-2.777240e-06,-7.434375e-01
-2.769240e-06,-7.421875e-01
-2.761240e-06,-7.206250e-01
-2.753240e-06,-7.500000e-01
-2.745240e-06,-7.356250e-01
-2.737240e-06,-7.506250e-01
-2.729240e-06,-7.296875e-01
-2.721240e-06,-7.459375e-01
-2.713240e-06,-7.262500e-01
-2.705240e-06,-7.528125e-01
-2.697240e-06,-7.478125e-01
-2.689240e-06,-7.321875e-01
-2.681240e-06,-7.350000e-01
-2.673240e-06,-7.568750e-01
-2.665240e-06,-7.346875e-01
-2.657240e-06,-7.318750e-01
-2.649240e-06,-7.331250e-01
-2.641240e-06,-7.365625e-01
-2.633240e-06,-7.287500e-01
-2.625240e-06,-7.631250e-01
-2.617240e-06,-7.443750e-01
-2.609240e-06,-7.571875e-01
-2.601240e-06,-7.265625e-01
-2.593240e-06,-7.434375e-01
-2.585240e-06,-7.215625e-01
-2.577240e-06,-7.493750e-01
-2.569240e-06,-7.371875e-01
-2.561240e-06,-7.453125e-01
-2.553240e-06,-7.393750e-01
-2.545240e-06,-7.487500e-01
-2.537240e-06,-7.259375e-01
-2.529240e-06,-7.431250e-01
-2.521240e-06,-7.343750e-01
-2.513240e-06,-7.306250e-01
-2.505240e-06,-7.231250e-01
-2.497240e-06,-7.506250e-01
-2.489240e-06,-7.278125e-01
-2.481240e-06,-7.384375e-01
-2.473240e-06,-7.165625e-01
-2.465240e-06,-7.375000e-01
-2.457240e-06,-7.228125e-01
-2.449240e-06,-7.456250e-01
-2.441240e-06,-7.431250e-01
-2.433240e-06,-7.496875e-01
-2.425240e-06,-7.418750e-01
-2.417240e-06,-7.465625e-01
-2.409240e-06,-7.168750e-01
-2.401240e-06,-7.381250e-01
-2.393240e-06,-7.315625e-01
-2.385240e-06,-7.443750e-01
-2.377240e-06,-7.328125e-01
-2.369240e-06,-7.453125e-01
-2.361240e-06,-7.375000e-01
-2.353240e-06,-7.428125e-01
-2.345240e-06,-7.300000e-01
-2.337240e-06,-7.537500e-01
-2.329240e-06,-7.203125e-01
-2.321240e-06,-7.362500e-01
-2.313240e-06,-7.343750e-01
-2.305240e-06,-7.565625e-01
-2.297240e-06,-7.284375e-01
-2.289240e-06,-7.546875e-01
-2.281240e-06,-7.309375e-01
-2.273240e-06,-7.381250e-01
-2.265240e-06,-7.293750e-01
-2.257240e-06,-7.462500e-01
-2.249240e-06,-7.109375e-01
-2.241240e-06,-7.446875e-01
-2.233240e-06,-7.293750e-01
-2.225240e-06,-7.568750e-01
-2.217240e-06,-7.425000e-01
-2.209240e-06,-7.337500e-01
-2.201240e-06,-7.331250e-01
-2.193240e-06,-7.328125e-01
-2.185240e-06,-7.337500e-01
-2.177240e-06,-7.487500e-01
-2.169240e-06,-7.418750e-01
-2.161240e-06,-7.518750e-01
-2.153240e-06,-7.318750e-01
-2.145240e-06,-7.325000e-01
-2.137240e-06,-7.368750e-01
-2.129240e-06,-7.350000e-01
-2.121240e-06,-7.256250e-01
-2.113240e-06,-7.518750e-01
-2.105240e-06,-7.318750e-01
-2.097240e-06,-7.475000e-01
-2.089240e-06,-7.284375e-01
-2.081240e-06,-7.387500e-01
-2.073240e-06,-7.209375e-01
-2.065240e-06,-7.231250e-01
-2.057240e-06,-7.459375e-01
-2.049240e-06,-7.537500e-01
-2.041240e-06,-7.393750e-01
-2.033240e-06,-7.575000e-01
-2.025240e-06,-7.203125e-01
-2.017240e-06,-7.503125e-01
-2.009240e-06,-7.178125e-01
-2.001240e-06,-7.525000e-01
-1.993240e-06,-7.462500e-01
-1.985240e-06,-7.531250e-01
-1.977240e-06,-7.256250e-01
-1.969240e-06,-7.521875e-01
-1.961240e-06,-7.431250e-01
-1.953240e-06,-7.459375e-01
-1.945240e-06,-7.215625e-01
-1.937240e-06,-7.431250e-01
-1.929240e-06,-7.368750e-01
-1.921240e-06,-7.518750e-01
-1.913240e-06,-7.328125e-01
-1.905240e-06,-7.546875e-01
-1.897240e-06,-7.334375e-01
-1.889240e-06,-7.459375e-01
-1.881240e-06,-7.131250e-01
-1.873240e-06,-7.362500e-01
-1.865240e-06,-7.287500e-01
-1.857240e-06,-7.509375e-01
-1.849240e-06,-7.250000e-01
-1.841240e-06,-7.478125e-01
-1.833240e-06,-7.221875e-01
-1.825240e-06,-7.450000e-01
-1.817240e-06,-7.290625e-01
-1.809240e-06,-7.481250e-01
-1.801240e-06,-7.431250e-01
-1.793240e-06,-7.500000e-01
-1.785240e-06,-7.528125e-01
-1.777240e-06,-7.590625e-01
-1.769240e-06,-7.337500e-01
-1.761240e-06,-7.450000e-01
-1.753240e-06,-7.315625e-01
-1.745240e-06,-7.359375e-01
-1.737240e-06,-7.425000e-01
-1.729240e-06,-7.593750e-01
-1.721240e-06,-7.325000e-01
-1.713240e-06,-7.462500e-01
-1.705240e-06,-7.393750e-01
-1.697240e-06,-7.487500e-01
-1.689240e-06,-7.256250e-01
-1.681240e-06,-7.459375e-01
-1.673240e-06,-7.571875e-01
-1.665240e-06,-7.478125e-01
-1.657240e-06,-7.437500e-01
-1.649240e-06,-7.462500e-01
-1.641240e-06,-7.443750e-01
-1.633240e-06,-7.487500e-01
-1.625240e-06,-7.259375e-01
-1.617240e-06,-7.478125e-01
-1.609240e-06,-7.400000e-01
-1.601240e-06,-7.490625e-01
-1.593240e-06,-7.293750e-01
-1.585240e-06,-7.562500e-01
-1.577240e-06,-7.293750e-01
-1.569240e-06,-7.287500e-01
-1.561240e-06,-7.184375e-01
-1.553240e-06,-7.515625e-01
-1.545240e-06,-7.365625e-01
-1.537240e-06,-7.496875e-01
-1.529240e-06,-7.406250e-01
-1.521240e-06,-7.437500e-01
-1.513240e-06,-7.540625e-01
-1.505240e-06,-7.487500e-01
-1.497240e-06,-7.293750e-01
-1.489240e-06,-7.409375e-01
-1.481240e-06,-7.337500e-01
-1.473240e-06,-7.606250e-01
-1.465240e-06,-7.375000e-01
-1.457240e-06,-7.509375e-01
-1.449240e-06,-7.178125e-01
-1.441240e-06,-7.450000e-01
-1.433240e-06,-7.243750e-01
-1.425240e-06,-7.525000e-01
-1.417240e-06,-7.534375e-01
-1.409240e-06,-7.471875e-01
-1.401240e-06,-7.343750e-01
-1.393240e-06,-7.509375e-01
-1.385240e-06,-7.212500e-01
-1.377240e-06,-7.481250e-01
-1.369240e-06,-7.271875e-01
-1.361240e-06,-7.409375e-01
-1.353240e-06,-7.315625e-01
-1.345240e-06,-7.565625e-01
-1.337240e-06,-7.259375e-01
-1.329240e-06,-7.490625e-01
-1.321240e-06,-7.456250e-01
-1.313240e-06,-7.425000e-01
-1.305240e-06,-7.225000e-01
-1.297240e-06,-7.425000e-01
-1.289240e-06,-7.393750e-01
-1.281240e-06,-7.531250e-01
-1.273240e-06,-7.484375e-01
-1.265240e-06,-7.662500e-01
-1.257240e-06,-7.331250e-01
-1.249240e-06,-7.468750e-01
-1.241240e-06,-7.187500e-01
-1.233240e-06,-7.381250e-01
-1.225240e-06,-7.278125e-01
-1.217240e-06,-7.484375e-01
-1.209240e-06,-7.315625e-01
-1.201240e-06,-7.500000e-01
-1.193240e-06,-7.428125e-01
-1.185240e-06,-7.300000e-01
-1.177240e-06,-7.200000e-01
-1.169240e-06,-7.428125e-01
-1.161240e-06,-7.375000e-01
-1.153240e-06,-7.550000e-01
-1.145240e-06,-7.490625e-01
-1.137240e-06,-7.428125e-01
-1.129240e-06,-7.256250e-01
-1.121240e-06,-7.543750e-01
-1.113240e-06,-7.293750e-01
-1.105240e-06,-7.371875e-01
-1.097240e-06,-7.187500e-01
-1.089240e-06,-7.509375e-01
-1.081240e-06,-7.268750e-01
-1.073240e-06,-7.565625e-01
-1.065240e-06,-7.434375e-01
-1.057240e-06,-7.434375e-01
-1.049240e-06,-7.293750e-01
-1.041240e-06,-7.381250e-01
-1.033240e-06,-7.450000e-01
-1.025240e-06,-7.456250e-01
-1.017240e-06,-7.325000e-01
-1.009240e-06,-7.606250e-01
-1.001240e-06,-7.346875e-01
-9.932400e-07,-7.456250e-01
-9.852400e-07,-7.375000e-01
-9.772400e-07,-7.434375e-01
-9.692400e-07,-7.334375e-01
-9.612400e-07,-7.490625e-01
-9.532400e-07,-7.350000e-01
-9.452400e-07,-7.490625e-01
-9.372400e-07,-7.334375e-01
-9.292400e-07,-7.578125e-01
-9.212400e-07,-7.262500e-01
-9.132400e-07,-7.456250e-01
-9.052400e-07,-7.418750e-01
-8.972400e-07,-7.487500e-01
-8.892400e-07,-7.368750e-01
-8.812400e-07,-7.625000e-01
-8.732400e-07,-7.265625e-01
-8.652400e-07,-7.318750e-01
-8.572400e-07,-7.303125e-01
-8.492400e-07,-7.428125e-01
-8.412400e-07,-7.309375e-01
-8.332400e-07,-7.484375e-01
-8.252400e-07,-7.340625e-01
-8.172400e-07,-7.550000e-01
-8.092400e-07,-7.356250e-01
-8.012400e-07,-7.506250e-01
-7.932400e-07,-7.300000e-01
-7.852400e-07,-7.481250e-01
-7.772400e-07,-7.371875e-01
-7.692400e-07,-7.418750e-01
-7.612400e-07,-7.421875e-01
-7.532400e-07,-7.543750e-01
-7.452400e-07,-7.368750e-01
-7.372400e-07,-7.500000e-01
-7.292400e-07,-7.325000e-01
-7.212400e-07,-7.446875e-01
-7.132400e-07,-7.421875e-01
-7.052400e-07,-7.562500e-01
-6.972400e-07,-7.300000e-01
-6.892400e-07,-7.643750e-01
-6.812400e-07,-7.296875e-01
-6.732400e-07,-7.356250e-01
-6.652400e-07,-7.153125e-01
-6.572400e-07,-7.525000e-01
-6.492400e-07,-7.353125e-01
-6.412400e-07,-7.571875e-01
-6.332400e-07,-7.378125e-01
-6.252400e-07,-7.565625e-01
-6.172400e-07,-7.234375e-01
-6.092400e-07,-7.400000e-01
-6.012400e-07,-7.187500e-01
-5.932400e-07,-7.359375e-01
-5.852400e-07,-7.371875e-01
-5.772400e-07,-7.537500e-01
-5.692400e-07,-7.212500e-01
-5.612400e-07,-7.506250e-01
-5.532400e-07,-7.343750e-01
-5.452400e-07,-7.500000e-01
-5.372400e-07,-7.300000e-01
-5.292400e-07,-7.593750e-01
-5.212400e-07,-7.368750e-01
-5.132400e-07,-7.606250e-01
-5.052400e-07,-7.365625e-01
-4.972400e-07,-7.678125e-01
-4.892400e-07,-7.256250e-01
-4.812400e-07,-7.434375e-01
-4.732400e-07,-7.234375e-01
-4.652400e-07,-7.471875e-01
-4.572400e-07,-7.306250e-01
-4.492400e-07,-7.562500e-01
-4.412400e-07,-7.371875e-01
-4.332400e-07,-7.509375e-01
-4.252400e-07,-7.375000e-01
-4.172400e-07,-7.559375e-01
-4.092400e-07,-7.271875e-01
-4.012400e-07,-7.462500e-01
-3.932400e-07,-7.556250e-01
-3.852400e-07,-7.506250e-01
-3.772400e-07,-7.340625e-01
-3.692400e-07,-7.490625e-01
-3.612400e-07,-7.337500e-01
-3.532400e-07,-7.543750e-01
-3.452400e-07,-7.396875e-01
-3.372400e-07,-7.368750e-01
-3.292400e-07,-7.368750e-01
-3.212400e-07,-7.553125e-01
-3.132400e-07,-7.275000e-01
-3.052400e-07,-7.478125e-01
-2.972400e-07,-7.321875e-01
-2.892400e-07,-7.437500e-01
-2.812400e-07,-7.275000e-01
-2.732400e-07,-7.493750e-01
-2.652400e-07,-7.434375e-01
-2.572400e-07,-7.440625e-01
-2.492400e-07,-7.381250e-01
-2.412400e-07,-7.518750e-01
-2.332400e-07,-7.296875e-01
-2.252400e-07,-7.459375e-01
-2.172400e-07,-7.387500e-01
-2.092400e-07,-7.434375e-01
-2.012400e-07,-7.343750e-01
-1.932400e-07,-7.609375e-01
-1.852400e-07,-7.303125e-01
-1.772400e-07,-7.643750e-01
-1.692400e-07,-7.265625e-01
-1.612400e-07,-7.434375e-01
-1.532400e-07,-7.253125e-01
-1.452400e-07,-7.462500e-01
-1.372400e-07,-7.481250e-01
-1.292400e-07,-7.353125e-01
-1.212400e-07,-7.431250e-01
-1.132400e-07,-7.534375e-01
-1.052400e-07,-7.284375e-01
-9.724000e-08,-7.462500e-01
-8.924000e-08,-7.218750e-01
-8.124000e-08,-7.443750e-01
-7.324000e-08,-7.381250e-01
-6.524000e-08,-7.512500e-01
-5.724000e-08,-7.337500e-01
-4.924000e-08,-7.503125e-01
-4.124000e-08,-7.315625e-01
-3.324000e-08,-6.312500e-02
-2.524000e-08,-2.843750e-02
-1.724000e-08,-3.593750e-02
-9.240000e-09,-6.000000e-02
-1.240000e-09,-4.968750e-02
6.760000e-09,-4.000000e-02
1.476000e-08,-5.312500e-02
2.276000e-08,-3.125000e-02
3.076000e-08,-4.250000e-02
3.876000e-08,-2.562500e-02
4.676000e-08,-4.312500e-02
5.476000e-08,-4.250000e-02
6.276000e-08,-4.687500e-02
7.076000e-08,-3.593750e-02
7.876000e-08,-4.531250e-02
8.676000e-08,-3.937500e-02
9.476000e-08,-4.750000e-02
1.027600e-07,-2.062500e-02
1.107600e-07,-3.875000e-02
1.187600e-07,-4.312500e-02
1.267600e-07,-4.281250e-02
1.347600e-07,-3.125000e-02
1.427600e-07,-4.250000e-02
1.507600e-07,-2.687500e-02
1.587600e-07,-4.562500e-02
1.667600e-07,-4.062500e-02
1.747600e-07,-3.750000e-02
1.827600e-07,-3.875000e-02
1.907600e-07,-4.562500e-02
1.987600e-07,-3.812500e-02
2.067600e-07,-5.812500e-02
2.147600e-07,-3.750000e-02
2.227600e-07,-3.812500e-02
2.307600e-07,-3.031250e-02
2.387600e-07,-5.500000e-02
2.467600e-07,-7.240625e-01
2.547600e-07,-7.365625e-01
2.627600e-07,-7.321875e-01
2.707600e-07,-7.525000e-01
2.787600e-07,-7.231250e-01
2.867600e-07,-7.443750e-01
2.947600e-07,-7.287500e-01
3.027600e-07,-7.378125e-01
3.107600e-07,-7.243750e-01
3.187600e-07,-7.581250e-01
3.267600e-07,-7.356250e-01
3.347600e-07,-7.493750e-01
3.427600e-07,-7.250000e-01
3.507600e-07,-7.400000e-01
3.587600e-07,-7.228125e-01
3.667600e-07,-7.553125e-01
3.747600e-07,-7.390625e-01
3.827600e-07,-7.393750e-01
3.907600e-07,-7.431250e-01
3.987600e-07,-7.593750e-01
4.067600e-07,-7.243750e-01
4.147600e-07,-7.421875e-01
4.227600e-07,-7.325000e-01
4.307600e-07,-7.356250e-01
4.387600e-07,-7.350000e-01
4.467600e-07,-7.662500e-01
4.547600e-07,-7.362500e-01
4.627600e-07,-7.478125e-01
4.707600e-07,-7.312500e-01
4.787600e-07,-7.450000e-01
4.867600e-07,-7.190625e-01
4.947600e-07,-7.518750e-01
5.027600e-07,-7.318750e-01
5.107600e-07,-7.387500e-01
5.187600e-07,-7.215625e-01
5.267600e-07,-7.478125e-01
5.347600e-07,-7.278125e-01
5.427600e-07,-7.375000e-01
5.507600e-07,-7.343750e-01
5.587600e-07,-7.434375e-01
5.667600e-07,-7.312500e-01
5.747600e-07,-7.534375e-01
5.827600e-07,-7.331250e-01
5.907600e-07,-7.375000e-01
5.987600e-07,-7.303125e-01
6.067600e-07,-7.387500e-01
6.147600e-07,-7.212500e-01
6.227600e-07,-7.468750e-01
6.307600e-07,-7.378125e-01
6.387600e-07,-7.506250e-01
6.467600e-07,-7.484375e-01
6.547600e-07,-7.525000e-01
6.627600e-07,-7.303125e-01
6.707600e-07,-7.409375e-01
6.787600e-07,-7.303125e-01
6.867600e-07,-7.350000e-01
6.947600e-07,-7.284375e-01
